ORIENTATION,91,327,5
ACCELEROMETER,-0.7621155,5.191681,7.9496765
MAGNETIC_FIELD,-11.898804,-19.667053,-31.730652
GYROSCOPE,-0.6338806,-0.038864136,0.32176208
ORIENTATION,92,338,3
ACCELEROMETER,-0.43429565,3.80365,9.570114
MAGNETIC_FIELD,-12.159729,-14.709473,-34.48181
GYROSCOPE,0.1878357,0.06109619,-0.0053710938
ORIENTATION,94,338,3
ACCELEROMETER,-0.45326233,3.390152,8.43602
MAGNETIC_FIELD,-11.474609,-14.897156,-35.20813
GYROSCOPE,-0.024383545,0.3777771,-0.40344238
ORIENTATION,94,338,8
ACCELEROMETER,-1.312027,3.708313,8.977676
MAGNETIC_FIELD,-9.602356,-14.213562,-34.54895
GYROSCOPE,-0.04446411,-0.0033111572,-0.12461853
ORIENTATION,94,338,11
ACCELEROMETER,-1.7841187,3.7024689,8.878586
MAGNETIC_FIELD,-11.050415,-14.691162,-33.970642
GYROSCOPE,0.23202515,-0.18309021,0.15614319
ORIENTATION,93,337,7
ACCELEROMETER,-1.151062,3.8536377,8.978867
MAGNETIC_FIELD,-11.390686,-17.94281,-32.144165
GYROSCOPE,0.368515,-0.030181885,-0.0041503906
ORIENTATION,96,332,9
ACCELEROMETER,-1.2068634,4.2899475,7.9639435
MAGNETIC_FIELD,-9.866333,-18.63861,-33.311462
GYROSCOPE,-0.06225586,0.09692383,0.07218933
ORIENTATION,100,334,6
ACCELEROMETER,-0.8538666,4.315506,8.625092
MAGNETIC_FIELD,-9.236145,-17.172241,-34.57184
GYROSCOPE,-0.16337585,0.1509552,-0.18753052
ORIENTATION,97,335,11
ACCELEROMETER,-1.6281586,4.0926666,8.597305
MAGNETIC_FIELD,-9.152222,-17.43164,-33.633423
GYROSCOPE,0.017211914,-0.11909485,0.062683105
ORIENTATION,98,334,9
ACCELEROMETER,-1.312027,4.202286,8.641602
MAGNETIC_FIELD,-9.867859,-17.805481,-33.63037
GYROSCOPE,0.006149292,0.009933472,0.09628296
ORIENTATION,97,334,7
ACCELEROMETER,-1.1076355,4.2444,8.532089
MAGNETIC_FIELD,-10.343933,-17.449951,-33.535767
GYROSCOPE,0.06112671,-0.01449585,0.06607056
ORIENTATION,95,333,8
ACCELEROMETER,-1.1321869,4.364517,8.592712
MAGNETIC_FIELD,-9.690857,-18.296814,-33.43048
GYROSCOPE,0.07937622,0.031585693,0.044021606
ORIENTATION,96,332,9
ACCELEROMETER,-1.3271332,4.4497375,8.424988
MAGNETIC_FIELD,-9.414673,-17.34314,-33.38318
GYROSCOPE,-0.009262085,0.013259888,0.06790161
ORIENTATION,93,333,8
ACCELEROMETER,-1.1459656,4.4835815,8.569626
MAGNETIC_FIELD,-10.107422,-16.488647,-35.066223
GYROSCOPE,0.04510498,-0.009887695,0.055282593
ORIENTATION,84,332,6
ACCELEROMETER,-0.8721466,4.5575867,8.468597
MAGNETIC_FIELD,-9.764099,-17.16156,-33.399963
GYROSCOPE,0.079711914,-0.08848572,-0.010864258
ORIENTATION,88,331,6
ACCELEROMETER,-0.86657715,4.6239166,8.387283
MAGNETIC_FIELD,-10.343933,-17.449951,-32.936096
GYROSCOPE,0.054611206,-0.118621826,-0.06367493
ORIENTATION,86,330,6
ACCELEROMETER,-0.8904114,4.7981415,8.1349945
MAGNETIC_FIELD,-10.018921,-17.424011,-33.80432
GYROSCOPE,-0.03517151,-0.006362915,-0.0131073
ORIENTATION,88,331,6
ACCELEROMETER,-0.84103394,4.675995,8.48851
MAGNETIC_FIELD,-10.954285,-17.951965,-33.137512
GYROSCOPE,4.4250488E-4,0.019836426,0.013687134
ORIENTATION,90,331,6
ACCELEROMETER,-0.7984314,4.643524,8.231598
MAGNETIC_FIELD,-10.115051,-17.352295,-33.059692
GYROSCOPE,-0.091033936,0.021331787,-0.02178955
ORIENTATION,94,333,6
ACCELEROMETER,-0.8750458,4.5323486,8.765015
MAGNETIC_FIELD,-10.554504,-18.296814,-34.014893
GYROSCOPE,0.08433533,-0.009613037,-0.0038757324
ORIENTATION,93,332,6
ACCELEROMETER,-0.855072,4.5998383,8.633957
MAGNETIC_FIELD,-12.068176,-17.585754,-32.325745
GYROSCOPE,0.10606384,-0.2625122,0.05039978
ORIENTATION,87,330,4
ACCELEROMETER,-0.5357361,4.7361603,8.105423
MAGNETIC_FIELD,-11.903381,-19.482422,-31.64215
GYROSCOPE,0.18661499,0.034561157,0.055908203
ORIENTATION,91,328,2
ACCELEROMETER,-0.3223877,5.021179,8.126617
MAGNETIC_FIELD,-12.770081,-19.11316,-31.991577
GYROSCOPE,0.06404114,0.031707764,0.021759033
ORIENTATION,87,327,3
ACCELEROMETER,-0.4465027,5.1688843,8.05719
MAGNETIC_FIELD,-12.527466,-19.12384,-30.915833
GYROSCOPE,-0.07229614,0.08708191,0.01083374
ORIENTATION,91,328,4
ACCELEROMETER,-0.55270386,5.070053,8.025436
MAGNETIC_FIELD,-12.663269,-19.023132,-32.487488
GYROSCOPE,-0.06048584,0.067733765,0.05583191
ORIENTATION,93,330,4
ACCELEROMETER,-0.5405121,4.9659424,8.576614
MAGNETIC_FIELD,-11.608887,-18.78357,-31.626892
GYROSCOPE,0.017822266,0.01991272,0.040893555
ORIENTATION,90,328,4
ACCELEROMETER,-0.55122375,5.011841,8.154144
MAGNETIC_FIELD,-11.889648,-19.317627,-31.822205
GYROSCOPE,0.08522034,-0.004180908,0.010360718
ORIENTATION,91,328,4
ACCELEROMETER,-0.6000366,5.0499725,8.130783
MAGNETIC_FIELD,-12.17804,-19.577026,-32.06787
GYROSCOPE,-0.010681152,0.04798889,0.037979126
ORIENTATION,93,329,5
ACCELEROMETER,-0.6490326,4.9518127,8.185013
MAGNETIC_FIELD,-11.303711,-18.540955,-32.365417
GYROSCOPE,-0.029876709,0.057022095,0.0077056885
ORIENTATION,90,330,3
ACCELEROMETER,-0.4525299,4.885956,8.36142
MAGNETIC_FIELD,-11.647034,-18.370056,-32.728577
GYROSCOPE,-0.038635254,0.011154175,-0.06706238
ORIENTATION,88,329,6
ACCELEROMETER,-0.8860626,5.003662,8.150467
MAGNETIC_FIELD,-12.046814,-18.458557,-32.80945
GYROSCOPE,-0.03855896,-4.5776367E-5,-0.029663086
ORIENTATION,90,329,6
ACCELEROMETER,-0.89979553,4.9393463,8.309647
MAGNETIC_FIELD,-11.282349,-19.429016,-32.40204
GYROSCOPE,0.036071777,-0.017074585,0.043136597
ORIENTATION,93,329,5
ACCELEROMETER,-0.73321533,4.945282,8.233948
MAGNETIC_FIELD,-10.801697,-18.617249,-32.34253
GYROSCOPE,-0.0234375,0.06794739,0.03756714
ORIENTATION,90,329,4
ACCELEROMETER,-0.57829285,4.9003143,8.2348175
MAGNETIC_FIELD,-11.244202,-18.756104,-33.003235
GYROSCOPE,-0.026351929,-0.0019378662,-0.027770996
ORIENTATION,91,330,6
ACCELEROMETER,-0.94618225,4.909561,8.305405
MAGNETIC_FIELD,-10.958862,-18.86444,-33.384705
GYROSCOPE,-0.0015869141,0.028259277,0.028884888
ORIENTATION,91,330,5
ACCELEROMETER,-0.75831604,4.852997,8.34314
MAGNETIC_FIELD,-10.719299,-17.956543,-33.633423
GYROSCOPE,0.011642456,0.016860962,0.008392334
ORIENTATION,85,329,6
ACCELEROMETER,-0.85939026,4.9231415,8.149582
MAGNETIC_FIELD,-10.862732,-18.977356,-33.477783
GYROSCOPE,0.027862549,0.029891968,0.027191162
ORIENTATION,91,330,5
ACCELEROMETER,-0.6659241,4.84935,8.352371
MAGNETIC_FIELD,-11.390686,-19.483948,-33.146667
GYROSCOPE,-0.049621582,-0.028625488,-0.0103302
ORIENTATION,93,330,5
ACCELEROMETER,-0.7599945,4.8631744,8.306839
MAGNETIC_FIELD,-10.165405,-17.721558,-33.195496
GYROSCOPE,0.005203247,-0.034118652,-0.083221436
ORIENTATION,87,330,5
ACCELEROMETER,-0.7943573,4.7996063,8.306183
MAGNETIC_FIELD,-11.460876,-17.866516,-33.23059
GYROSCOPE,0.043884277,-0.0736084,-0.033462524
ORIENTATION,88,330,6
ACCELEROMETER,-0.9241638,4.92041,8.451889
MAGNETIC_FIELD,-10.887146,-18.481445,-32.972717
GYROSCOPE,-0.0041656494,0.0036773682,-0.057556152
ORIENTATION,88,329,5
ACCELEROMETER,-0.76356506,4.816803,8.021591
MAGNETIC_FIELD,-10.620117,-18.713379,-31.89392
GYROSCOPE,-0.035842896,0.063186646,-0.02532959
ORIENTATION,94,330,7
ACCELEROMETER,-1.0001221,4.9318695,8.455658
MAGNETIC_FIELD,-10.55603,-19.213867,-31.660461
GYROSCOPE,0.049987793,-0.013076782,0.043685913
ORIENTATION,93,329,5
ACCELEROMETER,-0.7290344,4.93808,8.199982
MAGNETIC_FIELD,-11.091614,-17.948914,-31.991577
GYROSCOPE,0.017684937,0.0012512207,0.035202026
ORIENTATION,89,329,6
ACCELEROMETER,-0.89901733,4.8644104,8.164413
MAGNETIC_FIELD,-11.56311,-19.670105,-31.840515
GYROSCOPE,0.041229248,0.0035552979,0.01876831
ORIENTATION,96,330,5
ACCELEROMETER,-0.7233429,4.902252,8.3715515
MAGNETIC_FIELD,-11.219788,-18.284607,-33.647156
GYROSCOPE,-0.054244995,0.04019165,0.01524353
ORIENTATION,86,329,7
ACCELEROMETER,-0.93989563,4.9794006,8.202377
MAGNETIC_FIELD,-10.290527,-18.547058,-32.06482
GYROSCOPE,0.015579224,0.0569458,0.040618896
ORIENTATION,92,330,5
ACCELEROMETER,-0.7662201,4.8860016,8.329849
MAGNETIC_FIELD,-9.75647,-17.874146,-32.933044
GYROSCOPE,0.037902832,-0.027862549,-0.009918213
ORIENTATION,85,329,6
ACCELEROMETER,-0.9168854,4.9276276,8.070282
MAGNETIC_FIELD,-10.629272,-17.85736,-32.0755
GYROSCOPE,-0.04786682,0.024383545,0.024673462
ORIENTATION,89,329,6
ACCELEROMETER,-0.8242645,4.9427032,8.344177
MAGNETIC_FIELD,-10.27832,-17.85736,-33.8974
GYROSCOPE,0.0099487305,-0.03492737,-0.006652832
ORIENTATION,86,330,6
ACCELEROMETER,-0.85346985,4.8530884,8.349136
MAGNETIC_FIELD,-10.240173,-18.554688,-32.896423
GYROSCOPE,0.043548584,0.03694153,-0.025802612
ORIENTATION,89,329,7
ACCELEROMETER,-0.9437561,4.9116364,8.149796
MAGNETIC_FIELD,-10.3012085,-17.686462,-33.418274
GYROSCOPE,-0.016586304,-0.01008606,-0.0033416748
ORIENTATION,85,329,6
ACCELEROMETER,-0.88952637,4.9387054,8.266144
MAGNETIC_FIELD,-10.874939,-18.797302,-33.311462
GYROSCOPE,0.014694214,-0.0012664795,0.014633179
ORIENTATION,88,329,5
ACCELEROMETER,-0.71372986,4.9800262,8.287781
MAGNETIC_FIELD,-10.449219,-18.02826,-33.062744
GYROSCOPE,0.0019378662,-0.03112793,-0.036254883
ORIENTATION,86,329,7
ACCELEROMETER,-0.93922424,4.9594727,8.18602
MAGNETIC_FIELD,-10.392761,-18.79425,-33.128357
GYROSCOPE,0.055419922,-0.022445679,-0.09156799
ORIENTATION,90,329,6
ACCELEROMETER,-0.8114929,4.917984,8.293304
MAGNETIC_FIELD,-11.192322,-19.63501,-32.299805
GYROSCOPE,0.0013885498,-0.042053223,-0.14050293
ORIENTATION,93,328,9
ACCELEROMETER,-1.2865448,4.97995,7.951935
MAGNETIC_FIELD,-11.042786,-19.1391,-32.984924
GYROSCOPE,-0.032043457,0.022827148,-0.020233154
ORIENTATION,93,330,5
ACCELEROMETER,-0.81373596,4.891205,8.510056
MAGNETIC_FIELD,-10.36377,-18.62793,-33.647156
GYROSCOPE,-0.013336182,-0.017547607,0.03276062
ORIENTATION,89,329,7
ACCELEROMETER,-1.035965,4.85318,8.151535
MAGNETIC_FIELD,-10.533142,-19.16809,-32.652283
GYROSCOPE,0.03024292,-0.050476074,0.058410645
ORIENTATION,91,329,6
ACCELEROMETER,-0.81092834,4.9467773,8.227783
MAGNETIC_FIELD,-10.774231,-18.746948,-33.546448
GYROSCOPE,0.019104004,-0.013000488,0.032409668
ORIENTATION,88,330,5
ACCELEROMETER,-0.65515137,4.854553,8.21553
MAGNETIC_FIELD,-11.7126465,-19.66095,-32.15027
GYROSCOPE,-0.028244019,-0.039611816,0.03289795
ORIENTATION,94,329,6
ACCELEROMETER,-0.8284302,4.9644012,8.317657
MAGNETIC_FIELD,-11.048889,-17.601013,-33.31299
GYROSCOPE,-0.04446411,0.020996094,0.028808594
ORIENTATION,86,330,4
ACCELEROMETER,-0.65075684,4.880829,8.383759
MAGNETIC_FIELD,-10.961914,-18.382263,-33.239746
GYROSCOPE,0.011642456,0.04623413,-0.007003784
ORIENTATION,88,329,6
ACCELEROMETER,-0.8535156,4.918579,8.219696
MAGNETIC_FIELD,-10.946655,-18.55774,-31.7276
GYROSCOPE,0.032409668,0.0259552,0.0010070801
ORIENTATION,91,329,6
ACCELEROMETER,-0.8215332,4.946869,8.223541
MAGNETIC_FIELD,-11.038208,-18.10913,-31.793213
GYROSCOPE,0.022766113,0.03300476,0.016937256
ORIENTATION,91,330,5
ACCELEROMETER,-0.7069397,4.818756,8.216156
MAGNETIC_FIELD,-10.961914,-18.54248,-33.39691
GYROSCOPE,-0.041748047,-0.025360107,-0.01499939
ORIENTATION,89,330,6
ACCELEROMETER,-0.9385376,4.8621063,8.244629
MAGNETIC_FIELD,-10.865784,-18.121338,-32.97577
GYROSCOPE,-0.08660889,-0.040420532,-0.054840088
ORIENTATION,91,331,5
ACCELEROMETER,-0.77319336,4.7573853,8.473984
MAGNETIC_FIELD,-10.980225,-17.515564,-32.42798
GYROSCOPE,-0.007156372,-0.041641235,-0.0074768066
ORIENTATION,91,331,5
ACCELEROMETER,-0.7923889,4.610672,8.349625
MAGNETIC_FIELD,-10.27832,-17.85736,-32.728577
GYROSCOPE,0.0044403076,0.018951416,-0.035369873
ORIENTATION,90,330,5
ACCELEROMETER,-0.7759552,4.808777,8.43988
MAGNETIC_FIELD,-10.961914,-17.686462,-32.728577
GYROSCOPE,-0.00932312,-0.023117065,0.020263672
ORIENTATION,89,330,5
ACCELEROMETER,-0.7770691,4.780258,8.36705
MAGNETIC_FIELD,-11.480713,-18.540955,-33.062744
GYROSCOPE,0.044555664,-0.04585266,0.027862549
ORIENTATION,94,332,4
ACCELEROMETER,-0.5727234,4.600479,8.48407
MAGNETIC_FIELD,-11.328125,-19.024658,-32.765198
GYROSCOPE,-0.016113281,-0.06561279,-0.034072876
ORIENTATION,90,329,5
ACCELEROMETER,-0.65579224,4.8337097,7.9797974
MAGNETIC_FIELD,-11.906433,-17.584229,-32.987976
GYROSCOPE,-0.067276,-0.08691406,-0.028457642
ORIENTATION,97,334,3
ACCELEROMETER,-0.52893066,4.3795624,9.010773
MAGNETIC_FIELD,-11.817932,-18.371582,-32.896423
GYROSCOPE,-0.025878906,0.023025513,-0.06665039
ORIENTATION,94,332,5
ACCELEROMETER,-0.6632538,4.448822,8.226608
MAGNETIC_FIELD,-11.604309,-18.21289,-32.740784
GYROSCOPE,-0.013061523,0.050567627,-9.613037E-4
ORIENTATION,95,332,4
ACCELEROMETER,-0.63116455,4.583786,8.63295
MAGNETIC_FIELD,-12.071228,-18.136597,-32.139587
GYROSCOPE,0.063705444,-0.03894043,0.001953125
ORIENTATION,95,332,4
ACCELEROMETER,-0.5535126,4.434372,8.200699
MAGNETIC_FIELD,-11.05957,-17.779541,-33.815002
GYROSCOPE,-0.053359985,0.06135559,0.009613037
ORIENTATION,96,334,4
ACCELEROMETER,-0.6997223,4.4605865,8.993988
MAGNETIC_FIELD,-10.534668,-17.94281,-33.647156
GYROSCOPE,-0.057357788,0.038757324,0.05630493
ORIENTATION,92,332,7
ACCELEROMETER,-1.029541,4.4907074,8.279221
MAGNETIC_FIELD,-11.018372,-16.705322,-32.962036
GYROSCOPE,0.035461426,0.06842041,0.034988403
ORIENTATION,89,332,5
ACCELEROMETER,-0.8121338,4.5471344,8.514084
MAGNETIC_FIELD,-10.8078,-16.4505,-33.055115
GYROSCOPE,-0.015838623,0.058639526,0.065597534
ORIENTATION,88,332,4
ACCELEROMETER,-0.64912415,4.4435425,8.424255
MAGNETIC_FIELD,-11.741638,-15.892029,-34.29718
GYROSCOPE,4.5776367E-5,0.014404297,0.060440063
ORIENTATION,83,331,6
ACCELEROMETER,-0.88053894,4.6128693,8.429657
MAGNETIC_FIELD,-12.07428,-16.574097,-34.31549
GYROSCOPE,-0.04840088,-0.018493652,0.017547607
ORIENTATION,91,334,4
ACCELEROMETER,-0.61087036,4.1984863,8.626907
MAGNETIC_FIELD,-11.369324,-16.210938,-34.38568
GYROSCOPE,-0.01524353,-0.091812134,0.0121154785
ORIENTATION,90,335,4
ACCELEROMETER,-0.6011658,4.2487793,8.928101
MAGNETIC_FIELD,-11.642456,-16.326904,-34.573364
GYROSCOPE,-0.042434692,-0.028686523,-0.016906738
ORIENTATION,93,335,5
ACCELEROMETER,-0.7423706,4.1352997,8.782928
MAGNETIC_FIELD,-11.488342,-14.619446,-34.754944
GYROSCOPE,0.11079407,-0.047958374,-0.035369873
ORIENTATION,93,336,2
ACCELEROMETER,-0.27720642,4.024109,8.97084
MAGNETIC_FIELD,-12.554932,-16.184998,-33.587646
GYROSCOPE,0.008728027,7.6293945E-4,0.0016784668
ORIENTATION,85,334,3
ACCELEROMETER,-0.50177,4.2744904,8.62471
MAGNETIC_FIELD,-12.159729,-16.369629,-35.23407
GYROSCOPE,6.4086914E-4,0.021133423,-0.023284912
ORIENTATION,91,335,4
ACCELEROMETER,-0.64953613,4.066574,8.781158
MAGNETIC_FIELD,-12.130737,-15.95459,-34.080505
GYROSCOPE,0.020187378,0.021606445,0.07476807
ORIENTATION,91,335,4
ACCELEROMETER,-0.57221985,4.0360565,8.644318
MAGNETIC_FIELD,-11.550903,-15.374756,-34.66339
GYROSCOPE,-9.765625E-4,0.026489258,0.015045166
ORIENTATION,88,335,3
ACCELEROMETER,-0.52352905,3.9866333,8.599808
MAGNETIC_FIELD,-12.409973,-15.541077,-34.988403
GYROSCOPE,0.046463013,-0.018844604,0.020874023
ORIENTATION,90,334,4
ACCELEROMETER,-0.5709076,4.240555,8.608414
MAGNETIC_FIELD,-12.779236,-16.88385,-34.165955
GYROSCOPE,0.07069397,-0.07069397,0.01776123
ORIENTATION,88,332,3
ACCELEROMETER,-0.38220215,4.5007324,8.505447
MAGNETIC_FIELD,-11.897278,-16.581726,-33.15277
GYROSCOPE,-0.004638672,-0.039474487,-0.030349731
ORIENTATION,93,333,3
ACCELEROMETER,-0.43702698,4.4138336,8.51506
MAGNETIC_FIELD,-11.303711,-17.85736,-33.75244
GYROSCOPE,-0.027496338,0.048599243,0.024475098
ORIENTATION,91,333,4
ACCELEROMETER,-0.56259155,4.3870087,8.621613
MAGNETIC_FIELD,-12.149048,-15.995789,-33.88672
GYROSCOPE,0.031661987,0.020721436,0.0045318604
ORIENTATION,93,333,3
ACCELEROMETER,-0.4894867,4.3383484,8.482742
MAGNETIC_FIELD,-11.764526,-15.948486,-32.972717
GYROSCOPE,-0.020462036,-0.027252197,-0.0105896
ORIENTATION,88,333,4
ACCELEROMETER,-0.5379791,4.4056244,8.4561
MAGNETIC_FIELD,-12.077332,-16.918945,-33.480835
GYROSCOPE,-0.03741455,0.06047058,0.042312622
ORIENTATION,87,334,3
ACCELEROMETER,-0.4367218,4.2493134,8.715881
MAGNETIC_FIELD,-11.807251,-17.01355,-33.573914
GYROSCOPE,-0.00579834,0.0064697266,-0.018341064
ORIENTATION,91,334,3
ACCELEROMETER,-0.43721008,4.168869,8.6102295
MAGNETIC_FIELD,-11.102295,-15.77301,-34.387207
GYROSCOPE,-0.05960083,-0.025421143,-0.06611633
ORIENTATION,90,335,4
ACCELEROMETER,-0.665802,4.1268005,8.748322
MAGNETIC_FIELD,-10.868835,-15.249634,-33.789063
GYROSCOPE,-0.021209717,-0.024887085,0.03126526
ORIENTATION,89,335,3
ACCELEROMETER,-0.45069885,4.0658875,8.734528
MAGNETIC_FIELD,-11.410522,-14.964294,-34.550476
GYROSCOPE,0.037231445,-0.02319336,-0.032913208
ORIENTATION,88,335,4
ACCELEROMETER,-0.5624695,4.062683,8.774902
MAGNETIC_FIELD,-11.827087,-14.633179,-32.585144
GYROSCOPE,0.011505127,0.0066833496,0.013748169
ORIENTATION,87,334,3
ACCELEROMETER,-0.440094,4.0733185,8.492584
MAGNETIC_FIELD,-11.967468,-15.2908325,-34.90753
GYROSCOPE,-0.070129395,0.097335815,-0.07846069
ORIENTATION,88,335,5
ACCELEROMETER,-0.73072815,4.2421722,9.00914
MAGNETIC_FIELD,-11.305237,-15.2908325,-34.732056
GYROSCOPE,0.065597534,-0.015655518,0.02420044
ORIENTATION,89,335,4
ACCELEROMETER,-0.66963196,3.9606476,8.552292
MAGNETIC_FIELD,-12.748718,-15.905762,-34.64966
GYROSCOPE,0.019714355,0.015975952,0.012939453
ORIENTATION,90,334,4
ACCELEROMETER,-0.64849854,4.1918335,8.755234
MAGNETIC_FIELD,-11.369324,-16.279602,-32.966614
GYROSCOPE,0.035873413,-0.020950317,0.005355835
ORIENTATION,93,334,5
ACCELEROMETER,-0.7029724,4.124176,8.559753
MAGNETIC_FIELD,-12.342834,-16.500854,-33.555603
GYROSCOPE,-0.007156372,-0.0154418945,0.060775757
ORIENTATION,93,334,4
ACCELEROMETER,-0.58413696,4.216385,8.7131195
MAGNETIC_FIELD,-12.72583,-16.28418,-33.981323
GYROSCOPE,0.022094727,-0.015716553,0.03526306
ORIENTATION,92,335,3
ACCELEROMETER,-0.45961,4.133316,8.663132
MAGNETIC_FIELD,-11.816406,-16.444397,-33.493042
GYROSCOPE,0.010284424,-0.004043579,-0.012496948
ORIENTATION,91,334,4
ACCELEROMETER,-0.57406616,4.32666,8.751633
MAGNETIC_FIELD,-12.083435,-15.821838,-33.73108
GYROSCOPE,0.09553528,0.0031433105,0.03451538
ORIENTATION,86,332,5
ACCELEROMETER,-0.7335663,4.478668,8.498215
MAGNETIC_FIELD,-12.432861,-16.255188,-33.477783
GYROSCOPE,0.036758423,0.0728302,0.094451904
ORIENTATION,90,334,1
ACCELEROMETER,-0.18569946,4.129364,8.4756775
MAGNETIC_FIELD,-11.941528,-15.757751,-34.170532
GYROSCOPE,-0.048461914,0.0076293945,-0.092926025
ORIENTATION,86,333,4
ACCELEROMETER,-0.55599976,4.405731,8.651108
MAGNETIC_FIELD,-12.081909,-16.41388,-34.14612
GYROSCOPE,0.005874634,-0.035064697,-0.06489563
ORIENTATION,89,333,5
ACCELEROMETER,-0.69470215,4.336273,8.479065
MAGNETIC_FIELD,-11.460876,-15.795898,-34.05609
GYROSCOPE,-0.03312683,-0.03831482,-0.03340149
ORIENTATION,87,333,4
ACCELEROMETER,-0.64108276,4.3809204,8.740326
MAGNETIC_FIELD,-11.300659,-16.819763,-33.236694
GYROSCOPE,0.051620483,-0.043273926,0.005355835
ORIENTATION,93,334,3
ACCELEROMETER,-0.4708557,4.190979,8.463959
MAGNETIC_FIELD,-13.487244,-16.429138,-33.972168
GYROSCOPE,-0.07562256,-0.04171753,-0.03842163
ORIENTATION,91,334,3
ACCELEROMETER,-0.45289612,4.3802795,8.934372
MAGNETIC_FIELD,-10.910034,-16.410828,-33.31909
GYROSCOPE,0.12710571,0.25750732,-0.012908936
ORIENTATION,90,333,7
ACCELEROMETER,-0.97421265,4.3175354,8.310272
MAGNETIC_FIELD,-11.070251,-17.08374,-33.80127
GYROSCOPE,0.085357666,-0.11061096,0.019104004
ORIENTATION,88,332,4
ACCELEROMETER,-0.54122925,4.567276,8.543274
MAGNETIC_FIELD,-13.078308,-17.945862,-32.30896
GYROSCOPE,-0.1876831,-0.12921143,-0.047729492
ORIENTATION,98,334,4
ACCELEROMETER,-0.5839691,4.16687,8.393387
MAGNETIC_FIELD,-7.197571,-17.515564,-33.8974
GYROSCOPE,0.3975067,0.8049774,-0.20491028
ORIENTATION,91,332,11
ACCELEROMETER,-1.5775299,4.622772,8.482269
MAGNETIC_FIELD,-10.475159,-16.317749,-33.888245
GYROSCOPE,-0.26560974,-0.70884705,-0.036315918
ORIENTATION,92,334,7
ACCELEROMETER,-1.1164551,4.324829,8.754105
MAGNETIC_FIELD,-11.051941,-18.421936,-32.96051
GYROSCOPE,0.18363953,-0.10340881,-0.016494751
ORIENTATION,93,331,5
ACCELEROMETER,-0.7526703,4.670883,8.434036
MAGNETIC_FIELD,-11.912537,-18.10913,-31.651306
GYROSCOPE,0.050872803,-0.13626099,0.07183838
ORIENTATION,88,329,5
ACCELEROMETER,-0.70292664,4.6721954,7.604889
MAGNETIC_FIELD,-10.124207,-17.481995,-33.613586
GYROSCOPE,-0.32702637,0.64201355,0.21763611
ORIENTATION,103,336,5
ACCELEROMETER,-0.80155945,4.239624,9.673996
MAGNETIC_FIELD,-11.897278,-15.504456,-33.251953
GYROSCOPE,0.36546326,-0.46273804,-0.003616333
ORIENTATION,80,331,3
ACCELEROMETER,-0.4103241,4.526245,8.105026
MAGNETIC_FIELD,-13.412476,-18.452454,-31.463623
GYROSCOPE,0.19075012,-0.27424622,-0.13684082
ORIENTATION,88,328,3
ACCELEROMETER,-0.44049072,5.0750427,8.184769
MAGNETIC_FIELD,-14.440918,-20.539856,-30.848694
GYROSCOPE,0.17025757,-0.07232666,-0.02545166
ORIENTATION,91,326,1
ACCELEROMETER,-0.15266418,5.3218536,8.00264
MAGNETIC_FIELD,-13.357544,-21.109009,-29.722595
GYROSCOPE,0.110183716,0.053146362,-7.6293945E-4
ORIENTATION,94,326,1
ACCELEROMETER,-0.20491028,5.382904,7.9114227
MAGNETIC_FIELD,-13.441467,-22.407532,-28.468323
GYROSCOPE,0.09490967,-0.030456543,-0.042633057
ORIENTATION,99,325,0
ACCELEROMETER,-0.05278015,5.506363,7.879898
MAGNETIC_FIELD,-14.170837,-21.360779,-30.151367
GYROSCOPE,-0.034622192,-0.05644226,0.03024292
ORIENTATION,89,325,359
ACCELEROMETER,0.10575867,5.4319,7.6597595
MAGNETIC_FIELD,-14.472961,-21.032715,-28.968811
GYROSCOPE,-0.09489441,-0.21472168,-0.08959961
