ORIENTATION,93,332,7
ACCELEROMETER,-1.0660706,4.4843445,8.249161
MAGNETIC_FIELD,-21.983337,-13.30719,-35.321045
GYROSCOPE,-0.06338501,0.19502258,0.3092804
ORIENTATION,91,340,8
ACCELEROMETER,-1.226181,3.4579773,9.27504
MAGNETIC_FIELD,-22.175598,-13.157654,-37.487793
GYROSCOPE,0.09013367,-0.0900116,0.107299805
ORIENTATION,88,339,2
ACCELEROMETER,-0.36779785,3.4172516,8.987762
MAGNETIC_FIELD,-24.285889,-14.56604,-35.061646
GYROSCOPE,0.16281128,-0.29058838,-0.33744812
ORIENTATION,90,337,2
ACCELEROMETER,-0.23666382,3.7056885,8.659546
MAGNETIC_FIELD,-24.238586,-15.835571,-34.965515
GYROSCOPE,0.018463135,-0.19026184,-0.26055908
ORIENTATION,93,336,5
ACCELEROMETER,-0.79599,3.7962036,8.652496
MAGNETIC_FIELD,-25.846863,-17.32788,-31.5979
GYROSCOPE,0.22817993,-0.29974365,0.008483887
ORIENTATION,91,332,360
ACCELEROMETER,0.022766113,4.4074554,8.266205
MAGNETIC_FIELD,-25.979614,-17.355347,-31.822205
GYROSCOPE,-0.058151245,-0.0015106201,-0.12582397
ORIENTATION,93,333,2
ACCELEROMETER,-0.339859,4.5117645,8.704193
MAGNETIC_FIELD,-26.513672,-18.013,-30.899048
GYROSCOPE,0.07635498,0.029373169,-0.05834961
ORIENTATION,94,332,2
ACCELEROMETER,-0.24832153,4.4461823,8.400955
MAGNETIC_FIELD,-26.2146,-18.762207,-30.506897
GYROSCOPE,-0.010055542,-0.0010375977,0.014450073
ORIENTATION,97,333,3
ACCELEROMETER,-0.38059998,4.3697815,8.512024
MAGNETIC_FIELD,-25.842285,-19.236755,-30.545044
GYROSCOPE,-0.062561035,-0.011962891,0.052856445
ORIENTATION,97,333,1
ACCELEROMETER,-0.16366577,4.403702,8.591568
MAGNETIC_FIELD,-26.550293,-18.29834,-31.117249
GYROSCOPE,0.0035858154,0.0033721924,0.0012817383
ORIENTATION,95,333,2
ACCELEROMETER,-0.29542542,4.406494,8.639008
MAGNETIC_FIELD,-26.293945,-18.011475,-31.16455
GYROSCOPE,0.028900146,0.018981934,0.021911621
ORIENTATION,94,332,1
ACCELEROMETER,-0.17399597,4.4068604,8.4609375
MAGNETIC_FIELD,-24.879456,-17.932129,-31.44226
GYROSCOPE,-0.009109497,-0.0010375977,-0.036636353
ORIENTATION,95,333,2
ACCELEROMETER,-0.26223755,4.341568,8.589279
MAGNETIC_FIELD,-25.228882,-18.67981,-32.356262
GYROSCOPE,0.011871338,-7.019043E-4,-0.030670166
ORIENTATION,94,333,1
ACCELEROMETER,-0.20207214,4.438431,8.5585785
MAGNETIC_FIELD,-25.662231,-18.193054,-31.698608
GYROSCOPE,-0.008483887,-0.052215576,-0.02394104
ORIENTATION,94,333,2
ACCELEROMETER,-0.22981262,4.407547,8.555038
MAGNETIC_FIELD,-26.696777,-18.681335,-32.06482
GYROSCOPE,-0.006866455,-0.046447754,0.0061035156
ORIENTATION,94,333,1
ACCELEROMETER,-0.09283447,4.386368,8.496948
MAGNETIC_FIELD,-27.54364,-18.013,-31.230164
GYROSCOPE,0.003326416,-0.01651001,-0.0014190674
ORIENTATION,95,333,1
ACCELEROMETER,-0.15588379,4.329422,8.569962
MAGNETIC_FIELD,-26.429749,-17.762756,-31.982422
GYROSCOPE,-0.023086548,-9.0026855E-4,0.009017944
ORIENTATION,93,333,0
ACCELEROMETER,-0.06355286,4.3433533,8.577988
MAGNETIC_FIELD,-26.567078,-18.363953,-31.913757
GYROSCOPE,-0.011672974,0.018112183,-0.009231567
ORIENTATION,95,334,1
ACCELEROMETER,-0.11273193,4.313614,8.677963
MAGNETIC_FIELD,-25.98877,-19.038391,-32.218933
GYROSCOPE,0.019195557,-0.013381958,-0.021972656
ORIENTATION,96,333,1
ACCELEROMETER,-0.16163635,4.335907,8.592972
MAGNETIC_FIELD,-26.445007,-18.307495,-32.98645
GYROSCOPE,0.03488159,0.010101318,-0.0014801025
ORIENTATION,93,333,1
ACCELEROMETER,-0.11328125,4.363632,8.416916
MAGNETIC_FIELD,-26.438904,-18.597412,-32.128906
GYROSCOPE,-0.043701172,-0.008773804,-6.1035156E-5
ORIENTATION,95,333,0
ACCELEROMETER,-0.07081604,4.3444824,8.6406555
MAGNETIC_FIELD,-25.662231,-17.49878,-32.899475
GYROSCOPE,-0.031677246,-0.022338867,-0.017227173
ORIENTATION,93,334,1
ACCELEROMETER,-0.14317322,4.2647095,8.633148
MAGNETIC_FIELD,-26.190186,-17.32788,-33.084106
GYROSCOPE,-0.017929077,-0.0041503906,-0.01159668
ORIENTATION,92,334,1
ACCELEROMETER,-0.19787598,4.2766113,8.639999
MAGNETIC_FIELD,-26.49231,-18.64624,-32.22351
GYROSCOPE,0.006500244,0.012069702,0.02368164
ORIENTATION,96,334,1
ACCELEROMETER,-0.10411072,4.2277374,8.593277
MAGNETIC_FIELD,-25.846863,-18.171692,-32.86438
GYROSCOPE,-0.022140503,0.0035858154,0.017227173
ORIENTATION,95,334,1
ACCELEROMETER,-0.08416748,4.2130737,8.658356
MAGNETIC_FIELD,-25.509644,-17.260742,-32.61566
GYROSCOPE,-0.030471802,-0.014816284,0.00440979
ORIENTATION,93,334,0
ACCELEROMETER,-0.041900635,4.2188416,8.651993
MAGNETIC_FIELD,-26.438904,-17.921448,-32.643127
GYROSCOPE,0.008407593,-0.025878906,-8.8500977E-4
ORIENTATION,94,334,0
ACCELEROMETER,-0.02508545,4.2012177,8.5967865
MAGNETIC_FIELD,-26.38092,-18.04657,-32.891846
GYROSCOPE,0.011932373,-0.024795532,-0.029174805
ORIENTATION,95,334,1
ACCELEROMETER,-0.11341858,4.20195,8.738129
MAGNETIC_FIELD,-25.767517,-17.06543,-32.987976
GYROSCOPE,0.010513306,0.024810791,-0.009429932
ORIENTATION,91,333,0
ACCELEROMETER,-0.0051116943,4.2692413,8.435516
MAGNETIC_FIELD,-25.975037,-17.224121,-31.672668
GYROSCOPE,-0.011062622,-0.015075684,-0.010925293
ORIENTATION,94,334,1
ACCELEROMETER,-0.07878113,4.1615906,8.717575
MAGNETIC_FIELD,-25.508118,-17.674255,-32.23877
GYROSCOPE,-0.016098022,0.0016174316,-0.008880615
ORIENTATION,95,334,0
ACCELEROMETER,-0.041656494,4.1828003,8.710007
MAGNETIC_FIELD,-26.698303,-17.35382,-33.058167
GYROSCOPE,0.011184692,-0.031173706,-0.006164551
ORIENTATION,92,334,360
ACCELEROMETER,0.031845093,4.194977,8.562042
MAGNETIC_FIELD,-27.043152,-17.832947,-32.06024
GYROSCOPE,-0.027359009,-0.034698486,-0.0069885254
ORIENTATION,94,334,360
ACCELEROMETER,0.05303955,4.1842957,8.660706
MAGNETIC_FIELD,-27.218628,-17.678833,-31.564331
GYROSCOPE,-0.02003479,-0.036117554,-0.0038604736
ORIENTATION,95,334,360
ACCELEROMETER,0.022125244,4.1702423,8.703583
MAGNETIC_FIELD,-27.54364,-18.235779,-33.078003
GYROSCOPE,0.020080566,0.007385254,0.009353638
ORIENTATION,94,334,360
ACCELEROMETER,0.03857422,4.157303,8.642807
MAGNETIC_FIELD,-25.57373,-16.897583,-32.32727
GYROSCOPE,0.02897644,0.016616821,0.043762207
ORIENTATION,92,334,360
ACCELEROMETER,0.033355713,4.1956177,8.673279
MAGNETIC_FIELD,-27.54364,-17.49878,-32.751465
GYROSCOPE,0.045806885,0.028686523,0.024765015
ORIENTATION,92,334,359
ACCELEROMETER,0.15428162,4.2380524,8.523956
MAGNETIC_FIELD,-26.774597,-17.755127,-33.14972
GYROSCOPE,-0.009231567,-0.002456665,-0.019332886
ORIENTATION,93,334,360
ACCELEROMETER,0.055541992,4.195648,8.545761
MAGNETIC_FIELD,-26.268005,-17.749023,-32.629395
GYROSCOPE,-0.042816162,-0.0021820068,-0.023880005
ORIENTATION,94,334,0
ACCELEROMETER,-0.008590698,4.1961975,8.695435
MAGNETIC_FIELD,-27.023315,-16.83197,-32.707214
GYROSCOPE,-0.023223877,0.016952515,0.005493164
ORIENTATION,92,334,360
ACCELEROMETER,0.030548096,4.196579,8.674728
MAGNETIC_FIELD,-26.597595,-17.921448,-32.839966
GYROSCOPE,-2.89917E-4,0.006225586,-0.021362305
ORIENTATION,95,335,0
ACCELEROMETER,-0.05570984,4.1342926,8.681366
MAGNETIC_FIELD,-26.403809,-18.118286,-32.644653
GYROSCOPE,0.0024261475,0.0026397705,0.0016174316
ORIENTATION,95,334,0
ACCELEROMETER,-0.02708435,4.1553802,8.656387
MAGNETIC_FIELD,-26.229858,-17.236328,-32.47986
GYROSCOPE,-0.013656616,-0.009521484,-0.00440979
ORIENTATION,94,335,360
ACCELEROMETER,0.024795532,4.102005,8.634537
MAGNETIC_FIELD,-25.83313,-16.963196,-33.74176
GYROSCOPE,-0.017852783,-0.0071411133,0.0037231445
ORIENTATION,92,335,360
ACCELEROMETER,0.016098022,4.055008,8.654724
MAGNETIC_FIELD,-25.958252,-18.148804,-32.42035
GYROSCOPE,-0.056655884,-0.010803223,-0.0045318604
ORIENTATION,97,335,0
ACCELEROMETER,-0.01676941,4.0328827,8.783798
MAGNETIC_FIELD,-25.662231,-17.32788,-31.730652
GYROSCOPE,-0.015686035,0.017974854,-0.007385254
ORIENTATION,96,335,1
ACCELEROMETER,-0.08143616,4.0121307,8.748993
MAGNETIC_FIELD,-25.491333,-17.816162,-32.798767
GYROSCOPE,0.0048675537,0.012741089,0.004058838
ORIENTATION,96,335,0
ACCELEROMETER,-0.021728516,3.9987793,8.691086
MAGNETIC_FIELD,-27.220154,-15.995789,-32.504272
GYROSCOPE,7.324219E-4,-0.0017852783,0.013763428
ORIENTATION,92,335,0
ACCELEROMETER,-0.053604126,4.0005035,8.765274
MAGNETIC_FIELD,-26.768494,-17.016602,-33.633423
GYROSCOPE,0.009216309,-0.004562378,0.026855469
ORIENTATION,93,335,360
ACCELEROMETER,0.037109375,4.006073,8.700119
MAGNETIC_FIELD,-26.028442,-16.929626,-32.325745
GYROSCOPE,0.007858276,0.0056152344,0.008132935
ORIENTATION,94,335,360
ACCELEROMETER,0.02281189,4.0364685,8.707764
MAGNETIC_FIELD,-25.820923,-16.453552,-32.724
GYROSCOPE,0.015060425,0.0049438477,-0.0057678223
ORIENTATION,93,335,0
ACCELEROMETER,-0.034729004,4.029297,8.705978
MAGNETIC_FIELD,-26.4328,-17.242432,-32.48291
GYROSCOPE,-0.016494751,-1.5258789E-5,-0.0039367676
ORIENTATION,94,335,360
ACCELEROMETER,0.015655518,4.027252,8.699417
MAGNETIC_FIELD,-25.720215,-16.72821,-33.824158
GYROSCOPE,-0.018066406,-0.008163452,0.009552002
ORIENTATION,93,336,360
ACCELEROMETER,0.030151367,3.9693298,8.720032
MAGNETIC_FIELD,-24.969482,-16.815186,-33.07495
GYROSCOPE,-0.018951416,0.0068359375,-0.004333496
ORIENTATION,94,336,360
ACCELEROMETER,0.013504028,3.965561,8.786484
MAGNETIC_FIELD,-25.92926,-17.762756,-33.48999
GYROSCOPE,0.012130737,-4.8828125E-4,-0.021362305
ORIENTATION,93,335,1
ACCELEROMETER,-0.08053589,4.008835,8.70488
MAGNETIC_FIELD,-25.83313,-16.305542,-33.421326
GYROSCOPE,0.0049438477,0.029510498,0.003921509
ORIENTATION,95,335,1
ACCELEROMETER,-0.14974976,4.0115814,8.688004
MAGNETIC_FIELD,-26.400757,-17.172241,-33.29773
GYROSCOPE,-0.0071411133,0.018173218,-0.008270264
ORIENTATION,92,335,1
ACCELEROMETER,-0.14665222,4.058731,8.681763
MAGNETIC_FIELD,-25.912476,-16.394043,-33.139038
GYROSCOPE,0.010787964,-0.022476196,0.015731812
ORIENTATION,93,335,1
ACCELEROMETER,-0.07923889,4.014084,8.724396
MAGNETIC_FIELD,-26.174927,-17.124939,-33.58307
GYROSCOPE,0.0101623535,-0.012161255,0.01953125
ORIENTATION,92,335,0
ACCELEROMETER,-5.493164E-4,3.9993439,8.749908
MAGNETIC_FIELD,-27.714539,-16.134644,-33.221436
GYROSCOPE,-0.020645142,-0.034973145,-0.0013580322
ORIENTATION,93,335,360
ACCELEROMETER,0.023086548,4.0411377,8.782883
MAGNETIC_FIELD,-25.970459,-17.681885,-32.94525
GYROSCOPE,0.014312744,0.010101318,-0.009628296
ORIENTATION,93,335,360
ACCELEROMETER,0.060195923,4.049057,8.67746
MAGNETIC_FIELD,-25.75531,-17.384338,-32.650757
GYROSCOPE,-0.009979248,4.5776367E-4,-0.004547119
ORIENTATION,94,335,360
ACCELEROMETER,0.05558777,4.002075,8.687408
MAGNETIC_FIELD,-27.210999,-16.998291,-32.89032
GYROSCOPE,-0.0029296875,0.0046081543,0.0016784668
ORIENTATION,92,335,360
ACCELEROMETER,0.06173706,3.9822235,8.733963
MAGNETIC_FIELD,-26.219177,-17.09137,-33.1192
GYROSCOPE,0.0115356445,-0.0012359619,0.0017547607
ORIENTATION,93,335,360
ACCELEROMETER,0.047821045,4.0010223,8.7703705
MAGNETIC_FIELD,-24.876404,-18.60199,-33.99048
GYROSCOPE,0.01966858,0.003982544,-0.013092041
ORIENTATION,94,335,360
ACCELEROMETER,0.019119263,4.0377655,8.695511
MAGNETIC_FIELD,-25.917053,-17.111206,-33.657837
GYROSCOPE,-0.0010986328,-0.0073394775,-0.0057525635
ORIENTATION,91,335,360
ACCELEROMETER,0.044677734,4.054901,8.718506
MAGNETIC_FIELD,-26.602173,-16.923523,-33.306885
GYROSCOPE,-6.866455E-4,-0.012023926,0.00982666
ORIENTATION,92,335,359
ACCELEROMETER,0.12934875,4.0703583,8.68895
MAGNETIC_FIELD,-27.11029,-16.430664,-32.833862
GYROSCOPE,-0.027633667,-0.015899658,-0.002166748
ORIENTATION,93,335,359
ACCELEROMETER,0.11061096,4.062378,8.698227
MAGNETIC_FIELD,-26.681519,-18.013,-32.23419
GYROSCOPE,0.014862061,0.021087646,0.018035889
ORIENTATION,93,335,359
ACCELEROMETER,0.17089844,4.04274,8.657944
MAGNETIC_FIELD,-26.09253,-16.880798,-33.81958
GYROSCOPE,-0.021255493,-0.012573242,-0.03378296
ORIENTATION,93,335,360
ACCELEROMETER,0.010803223,4.0162506,8.754654
MAGNETIC_FIELD,-26.792908,-17.250061,-32.31964
GYROSCOPE,0.009689331,0.0077209473,-0.020080566
ORIENTATION,92,336,360
ACCELEROMETER,0.03437805,3.9807587,8.79454
MAGNETIC_FIELD,-25.592041,-16.056824,-34.01642
GYROSCOPE,0.004135132,0.013214111,-0.008132935
ORIENTATION,92,336,0
ACCELEROMETER,-0.049209595,3.9316711,8.791443
MAGNETIC_FIELD,-25.662231,-16.485596,-34.0683
GYROSCOPE,3.9672852E-4,0.027740479,0.006164551
ORIENTATION,95,336,1
ACCELEROMETER,-0.09939575,3.9273834,8.866028
MAGNETIC_FIELD,-25.930786,-17.070007,-34.14917
GYROSCOPE,0.032836914,-0.00869751,0.00440979
ORIENTATION,93,335,0
ACCELEROMETER,-0.068878174,4.0541534,8.5798645
MAGNETIC_FIELD,-25.39215,-17.599487,-33.477783
GYROSCOPE,-0.07002258,0.041229248,0.024902344
ORIENTATION,93,336,2
ACCELEROMETER,-0.26931763,3.95076,8.961975
MAGNETIC_FIELD,-24.551392,-16.87622,-34.509277
GYROSCOPE,0.16546631,0.56832886,0.17658997
