ORIENTATION,104,337,2
ACCELEROMETER,-0.23609924,3.6586761,8.744659
MAGNETIC_FIELD,-19.641113,-18.35785,-30.371094
GYROSCOPE,-0.12263489,0.031402588,0.037857056
ORIENTATION,106,340,1
ACCELEROMETER,-0.14120483,3.364212,9.053818
MAGNETIC_FIELD,-20.46051,-18.086243,-30.80597
GYROSCOPE,0.05836487,-0.031707764,0.041656494
ORIENTATION,108,339,1
ACCELEROMETER,-0.107299805,3.4413605,8.941467
MAGNETIC_FIELD,-19.029236,-16.888428,-30.230713
GYROSCOPE,-0.02708435,0.016342163,0.039215088
ORIENTATION,105,339,360
ACCELEROMETER,0.05732727,3.442627,8.8845215
MAGNETIC_FIELD,-20.335388,-16.317749,-30.186462
GYROSCOPE,-0.013580322,0.071899414,-0.05014038
ORIENTATION,107,339,0
ACCELEROMETER,-0.009857178,3.3829803,9.011581
MAGNETIC_FIELD,-19.702148,-17.504883,-30.552673
GYROSCOPE,0.0016174316,-0.025878906,-0.028900146
ORIENTATION,108,339,1
ACCELEROMETER,-0.11595154,3.4210205,9.08461
MAGNETIC_FIELD,-20.791626,-20.169067,-29.432678
GYROSCOPE,0.15487671,-0.3348999,-0.12738037
ORIENTATION,109,336,358
ACCELEROMETER,0.33683777,3.9181824,8.713242
MAGNETIC_FIELD,-21.304321,-20.674133,-27.597046
GYROSCOPE,0.004333496,0.027069092,0.019332886
ORIENTATION,106,335,357
ACCELEROMETER,0.4262085,4.1158752,8.704758
MAGNETIC_FIELD,-21.446228,-20.30487,-29.438782
GYROSCOPE,0.0046081543,0.0025634766,0.036834717
ORIENTATION,105,334,357
ACCELEROMETER,0.41220093,4.110611,8.589645
MAGNETIC_FIELD,-20.584106,-20.039368,-28.587341
GYROSCOPE,-0.02017212,0.011459351,0.004196167
ORIENTATION,106,335,357
ACCELEROMETER,0.3942871,4.0730743,8.698822
MAGNETIC_FIELD,-19.381714,-20.161438,-28.448486
GYROSCOPE,-0.015274048,-0.0075531006,0.0066375732
ORIENTATION,108,335,357
ACCELEROMETER,0.3907318,4.0722504,8.62619
MAGNETIC_FIELD,-21.931458,-19.999695,-28.300476
GYROSCOPE,-0.0466156,-0.010879517,-0.03338623
ORIENTATION,107,336,358
ACCELEROMETER,0.3380432,3.9441833,8.737076
MAGNETIC_FIELD,-20.08667,-19.33136,-27.938843
GYROSCOPE,-0.022537231,0.006164551,-6.1035156E-4
ORIENTATION,107,336,358
ACCELEROMETER,0.36264038,3.961319,8.718384
MAGNETIC_FIELD,-20.303345,-20.455933,-29.014587
GYROSCOPE,-0.009719849,-5.645752E-4,0.0029754639
ORIENTATION,108,336,357
ACCELEROMETER,0.42492676,3.9368134,8.677612
MAGNETIC_FIELD,-20.67871,-19.89746,-29.859924
GYROSCOPE,-0.0061187744,-0.03375244,-0.009414673
ORIENTATION,106,336,358
ACCELEROMETER,0.32240295,3.9601898,8.804443
MAGNETIC_FIELD,-21.028137,-20.414734,-29.524231
GYROSCOPE,0.007736206,0.010635376,0.020080566
ORIENTATION,107,335,357
ACCELEROMETER,0.48269653,3.9907532,8.731979
MAGNETIC_FIELD,-20.861816,-20.072937,-28.012085
GYROSCOPE,0.033721924,0.0049438477,0.028015137
ORIENTATION,107,335,357
ACCELEROMETER,0.47801208,4.0016937,8.645264
MAGNETIC_FIELD,-21.476746,-21.711731,-28.58429
GYROSCOPE,0.03677368,0.004257202,0.017166138
ORIENTATION,111,336,358
ACCELEROMETER,0.33737183,3.8533325,8.588181
MAGNETIC_FIELD,-20.433044,-19.969177,-29.25415
GYROSCOPE,-0.16464233,0.1609497,-0.052459717
ORIENTATION,110,338,1
ACCELEROMETER,-0.10031128,3.6832886,9.065186
MAGNETIC_FIELD,-19.19403,-18.563843,-30.445862
GYROSCOPE,-0.07865906,0.20935059,0.068603516
ORIENTATION,106,337,360
ACCELEROMETER,0.0030059814,3.6484985,8.688797
MAGNETIC_FIELD,-17.681885,-17.419434,-30.961609
GYROSCOPE,0.0046844482,-0.0765686,-0.01586914
ORIENTATION,104,338,0
ACCELEROMETER,-0.015991211,3.6500244,8.816498
MAGNETIC_FIELD,-18.812561,-18.704224,-30.358887
GYROSCOPE,-0.08061218,-0.0152282715,-0.026733398
ORIENTATION,108,338,0
ACCELEROMETER,-0.00843811,3.5921173,9.024918
MAGNETIC_FIELD,-19.340515,-17.539978,-30.293274
GYROSCOPE,-0.008087158,-0.050445557,0.0012817383
ORIENTATION,106,339,1
ACCELEROMETER,-0.08067322,3.4031067,8.941925
MAGNETIC_FIELD,-19.146729,-19.04602,-30.526733
GYROSCOPE,0.017166138,0.020950317,-0.014724731
ORIENTATION,108,338,359
ACCELEROMETER,0.12147522,3.5245667,8.778381
MAGNETIC_FIELD,-19.606018,-18.78357,-30.770874
GYROSCOPE,-0.09391785,0.021835327,-0.10308838
ORIENTATION,110,341,3
ACCELEROMETER,-0.4059906,3.261734,9.240158
MAGNETIC_FIELD,-18.728638,-17.89093,-31.26831
GYROSCOPE,-0.016296387,0.032226563,0.071517944
ORIENTATION,103,339,359
ACCELEROMETER,0.12345886,3.274002,8.741516
MAGNETIC_FIELD,-19.317627,-17.848206,-31.36139
GYROSCOPE,0.06562805,0.018035889,-0.019134521
ORIENTATION,110,340,1
ACCELEROMETER,-0.1776123,3.1273346,8.754898
MAGNETIC_FIELD,-19.317627,-17.33551,-31.861877
GYROSCOPE,-0.032836914,0.009887695,0.0035247803
ORIENTATION,110,341,1
ACCELEROMETER,-0.18400574,3.0851135,9.057922
MAGNETIC_FIELD,-18.89038,-17.42096,-32.278442
GYROSCOPE,-0.0032043457,-0.0075531006,0.035751343
ORIENTATION,108,341,360
ACCELEROMETER,0.007751465,3.0749817,9.0216675
MAGNETIC_FIELD,-18.048096,-16.68396,-31.312561
GYROSCOPE,0.0413208,0.015045166,-0.009017944
ORIENTATION,106,341,1
ACCELEROMETER,-0.12852478,3.1570892,8.950531
MAGNETIC_FIELD,-18.551636,-18.786621,-31.948853
GYROSCOPE,0.035629272,0.0027008057,0.02407837
ORIENTATION,107,340,0
ACCELEROMETER,-0.047088623,3.2332916,8.912582
MAGNETIC_FIELD,-20.00122,-17.848206,-31.025696
GYROSCOPE,-0.0118255615,-0.0050354004,-0.013427734
ORIENTATION,108,340,0
ACCELEROMETER,-0.03956604,3.2440796,9.0568695
MAGNETIC_FIELD,-18.377686,-17.42096,-32.11212
GYROSCOPE,-0.009033203,-0.012771606,-0.04322815
ORIENTATION,107,341,1
ACCELEROMETER,-0.13031006,3.201233,9.060715
MAGNETIC_FIELD,-18.878174,-17.547607,-31.63147
GYROSCOPE,-0.025527954,-0.0054473877,-0.0012207031
ORIENTATION,109,341,1
ACCELEROMETER,-0.114746094,3.20401,9.057877
MAGNETIC_FIELD,-18.804932,-17.848206,-31.69403
GYROSCOPE,0.004333496,0.012542725,-0.011459351
ORIENTATION,108,340,1
ACCELEROMETER,-0.09609985,3.2280273,9.0447235
MAGNETIC_FIELD,-18.600464,-18.431091,-31.176758
GYROSCOPE,0.024154663,-0.00340271,-0.008407593
ORIENTATION,110,340,0
ACCELEROMETER,-0.015045166,3.2951202,9.121658
MAGNETIC_FIELD,-18.896484,-19.117737,-31.111145
GYROSCOPE,0.01953125,-0.02078247,-0.050827026
ORIENTATION,112,341,2
ACCELEROMETER,-0.3279419,3.1416779,8.9831085
MAGNETIC_FIELD,-18.89038,-18.276978,-31.277466
GYROSCOPE,0.008407593,-0.036117554,0.019943237
ORIENTATION,109,340,0
ACCELEROMETER,-0.030151367,3.2974854,9.027878
MAGNETIC_FIELD,-19.000244,-18.997192,-31.58722
GYROSCOPE,0.023269653,0.0036468506,0.05393982
ORIENTATION,110,340,360
ACCELEROMETER,0.019119263,3.278061,8.991394
MAGNETIC_FIELD,-18.88733,-18.435669,-30.95398
GYROSCOPE,0.036636353,-0.014816284,0.026123047
ORIENTATION,109,340,0
ACCELEROMETER,-0.019897461,3.2868042,8.902664
MAGNETIC_FIELD,-18.792725,-17.478943,-30.879211
GYROSCOPE,-0.005706787,0.0024261475,0.034942627
ORIENTATION,107,340,360
ACCELEROMETER,0.046218872,3.34523,9.012665
MAGNETIC_FIELD,-19.146729,-17.866516,-29.98352
GYROSCOPE,0.002090454,0.010513306,0.02041626
ORIENTATION,109,340,360
ACCELEROMETER,0.04258728,3.3046112,8.96875
MAGNETIC_FIELD,-18.733215,-17.929077,-31.76117
GYROSCOPE,-0.0014343262,0.0011444092,0.01071167
ORIENTATION,108,340,360
ACCELEROMETER,0.054214478,3.2776031,8.977112
MAGNETIC_FIELD,-20.259094,-17.591858,-30.776978
GYROSCOPE,-1.5258789E-5,-0.0040893555,-0.020965576
ORIENTATION,106,340,0
ACCELEROMETER,-0.021820068,3.3133087,9.058777
MAGNETIC_FIELD,-19.40155,-17.76123,-30.471802
GYROSCOPE,-0.0028533936,-0.0023956299,-0.023880005
ORIENTATION,107,340,0
ACCELEROMETER,-0.0014648438,3.3275452,8.996704
MAGNETIC_FIELD,-19.06128,-17.591858,-30.60913
GYROSCOPE,0.01966858,0.0036468506,-0.019470215
ORIENTATION,107,340,0
ACCELEROMETER,-0.040283203,3.3143158,8.910034
MAGNETIC_FIELD,-19.317627,-19.406128,-31.393433
GYROSCOPE,0.009963989,0.009216309,-0.0124053955
ORIENTATION,110,339,0
ACCELEROMETER,-0.051330566,3.3641815,8.995361
MAGNETIC_FIELD,-18.119812,-18.190002,-30.358887
GYROSCOPE,-0.02178955,-0.0032043457,-0.020828247
ORIENTATION,110,340,0
ACCELEROMETER,-0.031433105,3.2940521,8.959747
MAGNETIC_FIELD,-18.800354,-17.861938,-30.186462
GYROSCOPE,-0.0078125,-0.0012969971,-0.012130737
ORIENTATION,109,340,1
ACCELEROMETER,-0.093933105,3.3181305,9.042236
MAGNETIC_FIELD,-18.984985,-18.90564,-31.686401
GYROSCOPE,-0.008087158,-0.0041503906,-0.015930176
ORIENTATION,109,340,1
ACCELEROMETER,-0.10044861,3.3161469,8.990051
MAGNETIC_FIELD,-18.656921,-18.409729,-31.338501
GYROSCOPE,0.0024261475,0.0032348633,-0.0045318604
ORIENTATION,111,340,1
ACCELEROMETER,-0.11746216,3.2595978,8.972305
MAGNETIC_FIELD,-18.966675,-18.519592,-32.199097
GYROSCOPE,-0.027496338,-0.009384155,0.02835083
ORIENTATION,109,340,0
ACCELEROMETER,-0.054382324,3.2514496,9.064529
MAGNETIC_FIELD,-19.758606,-17.823792,-31.884766
GYROSCOPE,-0.002319336,-0.027572632,0.005630493
ORIENTATION,111,340,360
ACCELEROMETER,0.004852295,3.2934265,9.064774
MAGNETIC_FIELD,-19.317627,-17.835999,-30.667114
GYROSCOPE,0.0023040771,0.010238647,0.016418457
ORIENTATION,110,340,0
ACCELEROMETER,-0.014755249,3.2572327,9.033539
MAGNETIC_FIELD,-19.064331,-17.106628,-31.28357
GYROSCOPE,-0.008361816,0.02319336,-0.0031738281
ORIENTATION,106,340,360
ACCELEROMETER,0.034454346,3.2168884,9.0061035
MAGNETIC_FIELD,-19.10553,-17.625427,-31.38733
GYROSCOPE,-0.012359619,0.0124053955,-0.019744873
ORIENTATION,108,340,0
ACCELEROMETER,-0.05973816,3.2164917,9.06694
MAGNETIC_FIELD,-19.593811,-17.7948,-31.163025
GYROSCOPE,0.030532837,-0.011489868,-0.0013580322
ORIENTATION,109,340,1
ACCELEROMETER,-0.0917511,3.2240448,9.063324
MAGNETIC_FIELD,-18.559265,-18.095398,-31.115723
GYROSCOPE,0.026931763,-0.003616333,-0.0050811768
ORIENTATION,109,340,1
ACCELEROMETER,-0.10255432,3.2696228,9.079208
MAGNETIC_FIELD,-19.146729,-17.515564,-30.363464
GYROSCOPE,0.0071105957,-0.0096588135,-0.005279541
ORIENTATION,108,340,1
ACCELEROMETER,-0.09333801,3.3090515,9.03006
MAGNETIC_FIELD,-19.213867,-17.9245,-30.941772
GYROSCOPE,0.032165527,-0.0061187744,0.033981323
ORIENTATION,109,339,0
ACCELEROMETER,-0.007461548,3.330902,8.897522
MAGNETIC_FIELD,-19.825745,-18.61267,-32.63092
GYROSCOPE,0.01927185,0.0059509277,0.01071167
ORIENTATION,106,339,0
ACCELEROMETER,-0.068847656,3.4263153,8.98381
MAGNETIC_FIELD,-18.231201,-17.926025,-31.484985
GYROSCOPE,0.034194946,0.033569336,0.003326416
ORIENTATION,106,339,360
ACCELEROMETER,0.028839111,3.454239,8.822098
MAGNETIC_FIELD,-18.693542,-19.631958,-31.124878
GYROSCOPE,0.016693115,0.005279541,-0.015197754
ORIENTATION,110,339,1
ACCELEROMETER,-0.14118958,3.4974823,9.008163
MAGNETIC_FIELD,-17.796326,-19.216919,-31.419373
GYROSCOPE,0.005218506,-0.0032806396,-0.020553589
ORIENTATION,110,339,1
ACCELEROMETER,-0.16156006,3.4329376,8.88385
MAGNETIC_FIELD,-17.782593,-18.177795,-30.838013
GYROSCOPE,0.024429321,0.025299072,-0.023742676
ORIENTATION,108,339,1
ACCELEROMETER,-0.1659851,3.4849243,8.906235
MAGNETIC_FIELD,-19.573975,-18.618774,-32.44629
GYROSCOPE,-0.012969971,-0.008026123,0.0046081543
ORIENTATION,106,339,1
ACCELEROMETER,-0.1876831,3.5152283,8.97348
MAGNETIC_FIELD,-18.443298,-17.503357,-31.213379
GYROSCOPE,-0.0320282,0.009750366,0.008544922
ORIENTATION,105,339,1
ACCELEROMETER,-0.14195251,3.4156494,8.869965
MAGNETIC_FIELD,-18.830872,-18.670654,-31.695557
GYROSCOPE,-0.0040740967,0.015655518,-0.006362915
ORIENTATION,108,339,2
ACCELEROMETER,-0.27420044,3.4091797,9.029617
MAGNETIC_FIELD,-18.35785,-18.112183,-30.944824
GYROSCOPE,-0.01663208,-0.003616333,-0.0135650635
ORIENTATION,108,339,1
ACCELEROMETER,-0.17637634,3.4164124,9.0004425
MAGNETIC_FIELD,-17.90924,-17.817688,-31.161499
GYROSCOPE,-0.0063171387,0.0018157959,0.02734375
ORIENTATION,107,339,1
ACCELEROMETER,-0.19754028,3.4066772,8.983307
MAGNETIC_FIELD,-18.710327,-18.270874,-31.784058
GYROSCOPE,0.02734375,0.013290405,0.029785156
ORIENTATION,106,339,1
ACCELEROMETER,-0.080718994,3.5069885,8.963516
MAGNETIC_FIELD,-17.863464,-18.618774,-31.443787
GYROSCOPE,0.06059265,-0.0095825195,0.027740479
ORIENTATION,107,338,1
ACCELEROMETER,-0.1954956,3.50708,8.825378
MAGNETIC_FIELD,-18.855286,-18.94989,-31.617737
GYROSCOPE,0.02204895,-0.031173706,-0.02293396
ORIENTATION,107,338,1
ACCELEROMETER,-0.1396637,3.5654907,8.882431
MAGNETIC_FIELD,-17.877197,-19.136047,-31.272888
GYROSCOPE,-0.02003479,0.013153076,-0.006439209
ORIENTATION,109,339,1
ACCELEROMETER,-0.18795776,3.517273,8.938507
MAGNETIC_FIELD,-19.059753,-19.815063,-31.791687
GYROSCOPE,-0.0289917,0.008331299,0.010040283
ORIENTATION,109,339,1
ACCELEROMETER,-0.15853882,3.525467,8.961868
MAGNETIC_FIELD,-18.875122,-18.502808,-31.071472
GYROSCOPE,0.0146484375,-0.012374878,0.05455017
ORIENTATION,106,338,1
ACCELEROMETER,-0.09194946,3.5112,8.899597
MAGNETIC_FIELD,-19.187927,-16.81366,-31.344604
GYROSCOPE,-0.05293274,0.026107788,0.044921875
ORIENTATION,107,339,1
ACCELEROMETER,-0.11227417,3.4591827,8.9328
MAGNETIC_FIELD,-18.119812,-17.33551,-31.359863
GYROSCOPE,-8.239746E-4,0.0069732666,0.007797241
ORIENTATION,104,338,1
ACCELEROMETER,-0.09223938,3.5083313,8.905075
MAGNETIC_FIELD,-18.624878,-18.011475,-31.532288
GYROSCOPE,-0.019012451,0.013290405,-0.004547119
ORIENTATION,104,339,1
ACCELEROMETER,-0.10029602,3.494339,8.95491
MAGNETIC_FIELD,-18.475342,-17.710876,-32.043457
GYROSCOPE,0.02998352,-0.0051116943,-0.006576538
ORIENTATION,108,338,1
ACCELEROMETER,-0.12007141,3.52771,8.90036
MAGNETIC_FIELD,-18.348694,-19.47174,-31.938171
GYROSCOPE,0.0016174316,-0.002456665,0.00819397
ORIENTATION,105,338,1
ACCELEROMETER,-0.1071167,3.5811462,8.928513
MAGNETIC_FIELD,-19.819641,-18.687439,-29.527283
GYROSCOPE,0.03929138,-0.015213013,0.0060272217
ORIENTATION,107,337,360
ACCELEROMETER,0.040756226,3.7240753,8.786865
MAGNETIC_FIELD,-18.870544,-19.309998,-31.445313
GYROSCOPE,0.022659302,0.016738892,0.021026611
ORIENTATION,108,337,0
ACCELEROMETER,-0.06254578,3.6753387,8.837341
MAGNETIC_FIELD,-19.677734,-18.847656,-30.032349
GYROSCOPE,0.22593689,0.46943665,0.28770447
ORIENTATION,100,333,3
ACCELEROMETER,-0.45526123,4.3476105,8.374207
MAGNETIC_FIELD,-15.724182,-19.670105,-32.839966
GYROSCOPE,0.0059661865,0.06925964,0.06474304
