ORIENTATION,0,0,0
ACCELEROMETER,-0.23523031,5.295376,8.59698
MAGNETIC_FIELD,-15.563,-24.597,-35.008
GYROSCOPE,-0.10293079,-0.1908954,-0.07422013
ORIENTATION,118,338,8
ACCELEROMETER,-1.2294226,3.4745853,8.732851
MAGNETIC_FIELD,-15.563,-22.276,-35.008
GYROSCOPE,0.23884831,-0.1908954,-0.47067168
ORIENTATION,93,329,0
ACCELEROMETER,-0.062249243,4.783615,7.8469963
MAGNETIC_FIELD,-15.225,-22.991,-34.606
GYROSCOPE,-0.22907446,-0.20555615,-0.025045475
ORIENTATION,109,334,2
ACCELEROMETER,-0.22864626,4.1718965,8.5299425
MAGNETIC_FIELD,-16.491,-22.991,-33.779
GYROSCOPE,-6.1086525E-4,-0.4089743,-0.058337633
ORIENTATION,98,329,358
ACCELEROMETER,0.22266077,4.847061,8.067862
MAGNETIC_FIELD,-16.491,-22.991,-32.963
GYROSCOPE,0.048258353,-0.29168814,0.06811147
ORIENTATION,102,330,359
ACCELEROMETER,0.1448492,4.7405195,8.200739
MAGNETIC_FIELD,-16.491,-22.611,-32.963
GYROSCOPE,0.03268129,0.05100725,0.0018325958
ORIENTATION,123,340,356
ACCELEROMETER,0.6931214,3.526659,9.419388
MAGNETIC_FIELD,-16.491,-21.745,-32.507
GYROSCOPE,-0.37904188,0.010995574,-0.18142697
ORIENTATION,116,338,358
ACCELEROMETER,0.30765492,4.0779243,9.862315
MAGNETIC_FIELD,-16.979,-20.889,-32.507
GYROSCOPE,-0.08277224,-0.528093,0.002443461
ORIENTATION,101,332,358
ACCELEROMETER,0.35194764,4.3526587,8.313267
MAGNETIC_FIELD,-16.979,-20.539,-33.111
GYROSCOPE,0.26511553,-0.105068825,-0.1337795
ORIENTATION,104,334,355
ACCELEROMETER,0.7015011,4.2395325,8.829816
MAGNETIC_FIELD,-16.979,-21.961,-32.444
GYROSCOPE,-0.19425514,-0.09101892,-0.0580322
ORIENTATION,111,335,357
ACCELEROMETER,0.42197806,4.051588,8.689755
MAGNETIC_FIELD,-16.979,-21.142,-31.52
GYROSCOPE,-0.03481932,0.02107485,-0.106595986
ORIENTATION,105,333,356
ACCELEROMETER,0.54049104,4.5262384,8.775348
MAGNETIC_FIELD,-16.433,-21.142,-31.52
GYROSCOPE,0.11911872,0.06291912,-0.060170226
ORIENTATION,105,333,357
ACCELEROMETER,0.45070848,4.31076,8.412027
MAGNETIC_FIELD,-16.433,-21.751,-31.04
GYROSCOPE,0.21624629,-0.2565634,-0.02076942
ORIENTATION,105,332,353
ACCELEROMETER,0.9923966,4.7441106,8.701726
MAGNETIC_FIELD,-16.433,-21.751,-30.148
GYROSCOPE,-0.0852157,-0.11575896,-3.0543262E-4
ORIENTATION,109,333,355
ACCELEROMETER,0.7009025,4.3478703,8.365341
MAGNETIC_FIELD,-16.912,-21.751,-29.521
GYROSCOPE,-0.06352998,0.01282817,-0.032070424
ORIENTATION,113,334,355
ACCELEROMETER,0.7733272,4.3514614,8.845977
MAGNETIC_FIELD,-16.912,-21.751,-29.521
GYROSCOPE,-0.14080444,0.100792766,-0.01160644
ORIENTATION,113,334,356
ACCELEROMETER,0.6811504,4.2760444,8.825027
MAGNETIC_FIELD,-16.912,-20.994,-29.855
GYROSCOPE,-0.02443461,-0.02443461,0.021685716
ORIENTATION,110,334,354
ACCELEROMETER,0.98102415,4.321534,8.728063
MAGNETIC_FIELD,-17.306,-20.634,-29.855
GYROSCOPE,0.05375614,0.010079277,-0.0061086523
ORIENTATION,108,334,355
ACCELEROMETER,0.7278373,4.2275615,8.505402
MAGNETIC_FIELD,-17.306,-20.634,-29.351
GYROSCOPE,-0.019242255,0.026267206,-0.015882496
ORIENTATION,107,333,354
ACCELEROMETER,0.96665895,4.483143,8.739435
MAGNETIC_FIELD,-17.846,-21.166,-29.351
GYROSCOPE,0.023823744,-0.030848695,-0.013744468
ORIENTATION,107,333,354
ACCELEROMETER,0.8810662,4.422689,8.543709
MAGNETIC_FIELD,-17.846,-21.166,-29.798
GYROSCOPE,0.044898596,-0.013439035,-0.003970624
ORIENTATION,106,333,354
ACCELEROMETER,0.91219085,4.4304705,8.513183
MAGNETIC_FIELD,-17.846,-21.166,-29.798
GYROSCOPE,0.019242255,-9.162979E-4,-0.015271631
ORIENTATION,107,333,355
ACCELEROMETER,0.7667431,4.4340615,8.635287
MAGNETIC_FIELD,-17.846,-21.166,-29.379
GYROSCOPE,0.046120327,0.014049901,-0.040927973
ORIENTATION,105,332,354
ACCELEROMETER,0.8194155,4.584896,8.498219
MAGNETIC_FIELD,-17.846,-21.166,-29.379
GYROSCOPE,0.022907447,0.0106901415,-0.055283304
ORIENTATION,105,332,355
ACCELEROMETER,0.7374141,4.6519337,8.608353
MAGNETIC_FIELD,-17.846,-21.166,-28.886
GYROSCOPE,0.045814894,0.012217305,-0.029626964
ORIENTATION,103,331,355
ACCELEROMETER,0.79966336,4.69084,8.309675
MAGNETIC_FIELD,-17.846,-21.166,-28.886
GYROSCOPE,0.05955936,-0.045814894,-0.04153884
ORIENTATION,110,334,355
ACCELEROMETER,0.7649474,4.553173,9.228451
MAGNETIC_FIELD,-18.218,-21.166,-28.239
GYROSCOPE,-0.06536258,0.009773844,-0.099265605
ORIENTATION,103,330,355
ACCELEROMETER,0.7308301,4.76925,8.298902
MAGNETIC_FIELD,-18.218,-21.166,-28.239
GYROSCOPE,0.08002335,-0.11148291,0.0070249503
ORIENTATION,93,326,355
ACCELEROMETER,0.7218518,5.351041,7.825448
MAGNETIC_FIELD,-18.218,-21.166,-28.239
GYROSCOPE,0.062308256,-0.027794369,0.077579886
ORIENTATION,101,329,355
ACCELEROMETER,0.7739257,4.9972973,8.370728
MAGNETIC_FIELD,-18.218,-21.166,-28.239
GYROSCOPE,-0.014049901,0.07513642,0.024740042
ORIENTATION,101,330,354
ACCELEROMETER,0.82719666,4.833295,8.16363
MAGNETIC_FIELD,-18.218,-21.166,-28.239
GYROSCOPE,0.13530666,0.087659165,0.035430185
ORIENTATION,101,330,356
ACCELEROMETER,0.6302736,4.9548006,8.389881
MAGNETIC_FIELD,-18.218,-21.534,-28.239
GYROSCOPE,-0.10751228,-0.05375614,-0.048258353
ORIENTATION,98,328,353
ACCELEROMETER,1.0426749,5.233126,8.202535
MAGNETIC_FIELD,-18.218,-21.534,-27.789
GYROSCOPE,-0.24587326,-0.021991149,-0.04062254
ORIENTATION,107,332,357
ACCELEROMETER,0.51714754,4.621408,8.511387
MAGNETIC_FIELD,-18.218,-21.534,-27.789
GYROSCOPE,-0.11362094,0.050396383,-0.04734206
ORIENTATION,103,329,353
ACCELEROMETER,0.94570965,4.8279076,8.128315
MAGNETIC_FIELD,-18.218,-21.534,-27.789
GYROSCOPE,-0.11026118,-0.1386664,-0.044898596
ORIENTATION,107,331,354
ACCELEROMETER,0.83497787,4.644751,8.48984
MAGNETIC_FIELD,-18.218,-21.534,-27.452
GYROSCOPE,-0.06872234,-0.05467244,-0.04337143
ORIENTATION,106,331,354
ACCELEROMETER,0.9032126,4.71119,8.298303
MAGNETIC_FIELD,-18.536,-21.839,-27.452
GYROSCOPE,0.03023783,6.1086525E-4,-0.15118915
ORIENTATION,107,331,354
ACCELEROMETER,0.8451532,4.811747,8.469488
MAGNETIC_FIELD,-18.536,-21.839,-27.452
GYROSCOPE,0.07452556,0.0067195175,-0.025350908
ORIENTATION,105,330,352
ACCELEROMETER,1.1593921,4.8177323,8.180388
MAGNETIC_FIELD,-18.536,-21.839,-27.122
GYROSCOPE,0.10323623,-0.025045475,-0.003970624
ORIENTATION,104,329,354
ACCELEROMETER,0.86011696,4.8159366,7.991845
MAGNETIC_FIELD,-18.536,-22.261,-27.122
GYROSCOPE,0.28069258,-0.08124508,-0.03481932
ORIENTATION,103,328,355
ACCELEROMETER,0.6757634,5.1020436,8.173804
MAGNETIC_FIELD,-18.536,-22.261,-26.799
GYROSCOPE,0.030543262,0.0067195175,0.024129177
ORIENTATION,97,325,354
ACCELEROMETER,0.8158242,5.100847,7.303512
MAGNETIC_FIELD,-18.536,-22.586,-26.799
GYROSCOPE,0.059864793,0.061086524,0.13439035
ORIENTATION,115,334,1
ACCELEROMETER,-0.14305355,4.2664676,8.86513
MAGNETIC_FIELD,-18.536,-22.586,-26.799
GYROSCOPE,-0.22815818,0.6835582,-0.07727446
ORIENTATION,107,329,360
ACCELEROMETER,0.035314474,4.808754,8.04751
MAGNETIC_FIELD,-18.17,-22.586,-26.799
GYROSCOPE,-0.04886922,0.56382865,-0.049480084
ORIENTATION,115,334,1
ACCELEROMETER,-0.12270284,4.380192,9.026739
MAGNETIC_FIELD,-18.17,-22.586,-26.799
GYROSCOPE,-0.014049901,-0.258396,-0.037873644
ORIENTATION,116,334,358
ACCELEROMETER,0.28491,4.2066126,8.786121
MAGNETIC_FIELD,-17.546,-22.586,-26.799
GYROSCOPE,0.027183503,-0.04337143,-0.05375614
ORIENTATION,114,332,356
ACCELEROMETER,0.6171055,4.453215,8.480263
MAGNETIC_FIELD,-17.546,-22.586,-26.799
GYROSCOPE,0.026267206,-0.13958271,0.03481932
ORIENTATION,119,336,360
ACCELEROMETER,0.054468088,4.011485,9.100959
MAGNETIC_FIELD,-17.546,-22.586,-27.119
GYROSCOPE,0.038179077,0.01985312,-0.2321288
ORIENTATION,120,337,360
ACCELEROMETER,0.054468088,3.8337154,8.995016
MAGNETIC_FIELD,-17.546,-22.586,-27.119
GYROSCOPE,-0.07941248,-0.12186762,-0.07391469
ORIENTATION,115,333,357
ACCELEROMETER,0.47165772,4.501099,8.793304
MAGNETIC_FIELD,-17.204,-22.586,-27.51
GYROSCOPE,0.0036651916,-0.069027774,0.03756821
ORIENTATION,114,333,359
ACCELEROMETER,0.16400282,4.3059716,8.4234
MAGNETIC_FIELD,-17.204,-22.586,-27.51
GYROSCOPE,0.06719518,-0.027794369,0.09743301
ORIENTATION,117,335,359
ACCELEROMETER,0.17597382,4.138976,8.701726
MAGNETIC_FIELD,-17.204,-22.586,-27.51
GYROSCOPE,0.06078109,0.04337143,0.10842858
ORIENTATION,115,333,359
ACCELEROMETER,0.2148796,4.2664676,8.42759
MAGNETIC_FIELD,-17.204,-22.586,-27.51
GYROSCOPE,0.07086037,0.013439035,0.04184427
ORIENTATION,114,333,356
ACCELEROMETER,0.5590461,4.4783545,8.622718
MAGNETIC_FIELD,-17.204,-22.586,-27.51
GYROSCOPE,0.06627888,0.039095376,0.023823744
ORIENTATION,111,331,356
ACCELEROMETER,0.5363012,4.643554,8.431181
MAGNETIC_FIELD,-17.204,-22.586,-27.51
GYROSCOPE,0.12736541,-0.022907447,0.08246681
ORIENTATION,113,332,357
ACCELEROMETER,0.4417302,4.5441947,8.500014
MAGNETIC_FIELD,-17.204,-22.586,-27.51
GYROSCOPE,-0.027488936,-0.038179077,0.018936822
ORIENTATION,110,331,355
ACCELEROMETER,0.6733692,4.687847,8.306683
MAGNETIC_FIELD,-17.204,-22.586,-27.51
GYROSCOPE,-0.002443461,-0.017715093,0.061391957
ORIENTATION,114,333,357
ACCELEROMETER,0.4141969,4.4621935,8.5622635
MAGNETIC_FIELD,-16.894,-22.586,-27.882
GYROSCOPE,0.008552114,9.162979E-4,-0.06719518
ORIENTATION,112,331,355
ACCELEROMETER,0.717662,4.7375264,8.686164
MAGNETIC_FIELD,-16.894,-22.586,-27.882
GYROSCOPE,0.053450707,-0.040927973,0.011911872
ORIENTATION,113,332,356
ACCELEROMETER,0.6584055,4.56275,8.53054
MAGNETIC_FIELD,-16.894,-22.586,-27.882
GYROSCOPE,0.05131268,0.0070249503,0.026572637
ORIENTATION,114,332,356
ACCELEROMETER,0.6757634,4.5765166,8.695142
MAGNETIC_FIELD,-16.894,-22.586,-27.882
GYROSCOPE,-0.0076358155,0.023823744,0.0
ORIENTATION,113,332,356
ACCELEROMETER,0.5363012,4.583699,8.603564
MAGNETIC_FIELD,-16.894,-22.586,-28.247
GYROSCOPE,-0.0021380284,-9.162979E-4,-0.087964594
ORIENTATION,112,332,357
ACCELEROMETER,0.43035775,4.6680946,8.652645
MAGNETIC_FIELD,-16.894,-22.586,-28.247
GYROSCOPE,0.043676864,-0.041233405,-0.048258353
ORIENTATION,114,333,357
ACCELEROMETER,0.51355624,4.5394063,8.768764
MAGNETIC_FIELD,-16.894,-22.586,-28.247
GYROSCOPE,0.17379116,-0.053145275,-0.057421334
ORIENTATION,108,330,358
ACCELEROMETER,0.3465607,4.7135844,8.097789
MAGNETIC_FIELD,-17.318,-22.586,-28.247
GYROSCOPE,-0.03604105,-0.07971791,-0.10903945
ORIENTATION,117,335,356
ACCELEROMETER,0.7026982,4.5196543,9.537901
MAGNETIC_FIELD,-17.318,-22.586,-28.247
GYROSCOPE,-0.15515977,-0.09468412,-0.20708331
ORIENTATION,110,331,2
ACCELEROMETER,-0.3345897,4.5046906,8.230068
MAGNETIC_FIELD,-17.637,-22.586,-27.922
GYROSCOPE,0.015577064,-0.23884831,0.047647487
ORIENTATION,125,339,354
ACCELEROMETER,1.0295067,3.968988,10.281301
MAGNETIC_FIELD,-17.637,-22.586,-27.922
GYROSCOPE,-0.3481932,0.183565,0.5513059
ORIENTATION,113,332,352
ACCELEROMETER,1.186327,4.5753193,8.548497
MAGNETIC_FIELD,-17.637,-22.586,-27.922
GYROSCOPE,0.4569272,0.038179077,0.12736541
ORIENTATION,117,335,357
ACCELEROMETER,0.47285482,4.232949,9.1272955
MAGNETIC_FIELD,-17.961,-22.586,-27.922
GYROSCOPE,-0.19761491,0.11056661,0.16462818
ORIENTATION,118,336,356
ACCELEROMETER,0.5530606,3.9223008,8.734647
MAGNETIC_FIELD,-17.961,-22.586,-27.922
GYROSCOPE,-0.50640726,0.21655174,-0.25778514
ORIENTATION,115,334,355
ACCELEROMETER,0.8062474,4.309563,8.668806
MAGNETIC_FIELD,-17.961,-21.688,-27.59
GYROSCOPE,0.10720685,0.023823744,-0.25778514
ORIENTATION,111,333,359
ACCELEROMETER,0.078410104,4.289212,8.511387
MAGNETIC_FIELD,-17.961,-21.089,-27.59
GYROSCOPE,0.07360926,0.14844026,-0.23823744
ORIENTATION,110,334,0
ACCELEROMETER,-0.031124622,4.197634,8.455722
MAGNETIC_FIELD,-17.961,-21.553,-27.59
GYROSCOPE,0.050701816,-0.14569137,-0.16157386
ORIENTATION,119,339,1
ACCELEROMETER,-0.17357962,3.7984009,9.818023
MAGNETIC_FIELD,-17.961,-22.077,-27.59
GYROSCOPE,-0.18661933,-0.116980694,-0.06627888
ORIENTATION,118,336,357
ACCELEROMETER,0.4369418,3.9677908,8.963891
MAGNETIC_FIELD,-17.961,-21.093,-27.59
GYROSCOPE,0.36041048,-0.18020524,-0.09896017
ORIENTATION,98,327,357
ACCELEROMETER,0.46866497,4.9583917,7.7051396
MAGNETIC_FIELD,-17.961,-22.055,-27.59
GYROSCOPE,0.3268129,-0.32284227,0.1591304
ORIENTATION,102,328,358
ACCELEROMETER,0.28072014,5.1517234,8.180388
MAGNETIC_FIELD,-18.283,-22.587,-27.59
GYROSCOPE,0.47983465,0.07269296,0.14752395
ORIENTATION,96,325,353
ACCELEROMETER,0.93852705,5.354632,7.651869
MAGNETIC_FIELD,-18.283,-23.039,-27.59
GYROSCOPE,-0.013439035,0.22021692,0.059253927
ORIENTATION,105,328,355
ACCELEROMETER,0.6973112,5.125387,8.154053
MAGNETIC_FIELD,-18.283,-23.039,-27.59
GYROSCOPE,-0.12186762,0.007941248,0.019242255
ORIENTATION,108,330,354
ACCELEROMETER,0.9624691,4.9721584,8.455123
MAGNETIC_FIELD,-18.283,-23.039,-27.59
GYROSCOPE,-0.058643065,-0.01282817,0.053145275
ORIENTATION,116,334,355
ACCELEROMETER,0.7272388,4.4364557,8.968679
MAGNETIC_FIELD,-18.283,-22.679,-27.59
GYROSCOPE,-0.17898351,-0.021380283,-0.08979719
ORIENTATION,108,330,355
ACCELEROMETER,0.65182143,4.744709,8.219295
MAGNETIC_FIELD,-18.283,-22.679,-27.59
GYROSCOPE,0.042455133,-0.007941248,0.025350908
ORIENTATION,111,332,356
ACCELEROMETER,0.59855044,4.638766,8.571242
MAGNETIC_FIELD,-18.283,-22.337,-27.59
GYROSCOPE,0.05467244,0.07513642,0.04153884
ORIENTATION,110,331,356
ACCELEROMETER,0.5650316,4.6657004,8.524555
MAGNETIC_FIELD,-18.283,-21.963,-27.937
GYROSCOPE,0.054061573,0.030848695,0.046731193
ORIENTATION,107,331,356
ACCELEROMETER,0.55126494,4.763264,8.573038
MAGNETIC_FIELD,-18.283,-21.963,-27.937
GYROSCOPE,-0.008246681,0.009468411,-0.051923547
ORIENTATION,106,330,355
ACCELEROMETER,0.6817489,4.8500543,8.494628
MAGNETIC_FIELD,-18.283,-21.963,-27.937
GYROSCOPE,-0.050701816,-0.017715093,0.02565634
ORIENTATION,106,330,356
ACCELEROMETER,0.6476316,4.823718,8.48984
MAGNETIC_FIELD,-18.283,-21.963,-28.237
GYROSCOPE,0.010079277,0.015271631,0.0070249503
ORIENTATION,104,330,356
ACCELEROMETER,0.61411273,4.875193,8.328231
MAGNETIC_FIELD,-18.283,-21.963,-28.237
GYROSCOPE,0.08002335,0.009773844,0.012217305
ORIENTATION,104,330,356
ACCELEROMETER,0.6338649,4.8997335,8.401853
MAGNETIC_FIELD,-18.283,-21.963,-28.237
GYROSCOPE,0.014049901,0.03940081,0.004886922
ORIENTATION,105,330,356
ACCELEROMETER,0.51954174,4.8021703,8.291121
MAGNETIC_FIELD,-18.283,-21.963,-28.541
GYROSCOPE,0.04795292,-0.06414085,-0.009468411
ORIENTATION,103,330,356
ACCELEROMETER,0.5835867,4.8937483,8.295909
MAGNETIC_FIELD,-18.283,-22.344,-28.541
GYROSCOPE,-0.17012598,0.021685716,-0.073303826
ORIENTATION,110,332,356
ACCELEROMETER,0.53091425,4.4981065,8.450335
MAGNETIC_FIELD,-18.283,-22.344,-28.541
GYROSCOPE,-0.094989546,-0.03145956,-0.098043874
ORIENTATION,110,332,357
ACCELEROMETER,0.4189853,4.710592,8.97287
MAGNETIC_FIELD,-18.283,-22.344,-28.541
GYROSCOPE,-0.06261369,-0.019242255,-0.13775012
ORIENTATION,107,331,357
ACCELEROMETER,0.38486794,4.417302,7.9391727
MAGNETIC_FIELD,-18.283,-22.344,-28.541
GYROSCOPE,0.49693888,-0.056199603,-0.24251351
ORIENTATION,106,330,358
ACCELEROMETER,0.25737667,4.9039235,8.543709
MAGNETIC_FIELD,-18.283,-22.344,-28.541
GYROSCOPE,0.39522982,-0.15393804,0.14385876
ORIENTATION,92,321,7
ACCELEROMETER,-0.81642276,5.5312047,6.7839704
MAGNETIC_FIELD,-17.886,-22.711,-28.541
GYROSCOPE,-0.07422013,0.24220806,-0.013133603
ORIENTATION,106,329,3
ACCELEROMETER,-0.45669398,5.0320134,8.41921
MAGNETIC_FIELD,-15.48,-22.711,-28.541
GYROSCOPE,-0.21685717,0.4560109,-0.11942416
ORIENTATION,114,332,360
ACCELEROMETER,0.045489833,4.4364557,8.450933
MAGNETIC_FIELD,-15.48,-22.711,-28.913
GYROSCOPE,-0.1432479,-0.5561928,-0.17806722
ORIENTATION,115,333,358
ACCELEROMETER,0.24121583,4.6285906,8.977658
MAGNETIC_FIELD,-16.409,-22.711,-28.913
GYROSCOPE,0.07269296,-0.2125811,0.13500121
ORIENTATION,109,331,359
ACCELEROMETER,0.15382746,4.7255554,8.444349
MAGNETIC_FIELD,-16.409,-22.711,-28.913
GYROSCOPE,-0.041233405,0.057726767,0.020463986
ORIENTATION,103,328,358
ACCELEROMETER,0.22385786,4.953005,7.9206176
MAGNETIC_FIELD,-16.409,-22.711,-29.29
GYROSCOPE,0.44440445,-0.064751714,0.08979719
ORIENTATION,103,328,357
ACCELEROMETER,0.3669114,5.0667295,8.179192
MAGNETIC_FIELD,-16.409,-22.711,-29.29
GYROSCOPE,-0.10476339,0.13897185,-0.0027488936
ORIENTATION,104,328,358
ACCELEROMETER,0.23163901,4.860828,7.905654
MAGNETIC_FIELD,-16.409,-22.711,-29.29
GYROSCOPE,0.18234327,-0.11209377,-0.025961773
ORIENTATION,104,329,357
ACCELEROMETER,0.36511576,5.067328,8.271967
MAGNETIC_FIELD,-16.409,-22.711,-29.29
GYROSCOPE,0.010995574,0.10567969,0.03634648
ORIENTATION,104,329,356
ACCELEROMETER,0.5153519,5.140351,8.383297
MAGNETIC_FIELD,-16.409,-22.711,-29.29
GYROSCOPE,0.095294975,-0.005497787,-0.018020526
ORIENTATION,101,328,356
ACCELEROMETER,0.5231331,5.1571107,8.107366
MAGNETIC_FIELD,-16.409,-22.711,-29.635
GYROSCOPE,-0.09040806,-0.04428773,-0.037873644
ORIENTATION,101,328,356
ACCELEROMETER,0.51475334,5.1559134,8.103774
MAGNETIC_FIELD,-16.409,-22.711,-29.635
GYROSCOPE,0.092240654,-0.024740042,-0.06169739
ORIENTATION,98,327,356
ACCELEROMETER,0.54408234,5.3103395,8.020576
MAGNETIC_FIELD,-16.409,-22.711,-29.635
GYROSCOPE,0.042760566,-0.07666359,-0.03604105
ORIENTATION,100,327,356
ACCELEROMETER,0.6344634,5.249287,8.180388
MAGNETIC_FIELD,-16.409,-22.711,-29.635
GYROSCOPE,-0.01985312,0.04734206,0.017715093
ORIENTATION,105,329,357
ACCELEROMETER,0.4333505,5.017648,8.378509
MAGNETIC_FIELD,-16.409,-23.034,-29.635
GYROSCOPE,-0.04795292,0.01038471,-0.020158553
ORIENTATION,103,328,357
ACCELEROMETER,0.46686932,5.0930657,8.21271
MAGNETIC_FIELD,-16.409,-23.034,-29.635
GYROSCOPE,0.032986723,0.014966198,0.01740966
ORIENTATION,90,323,354
ACCELEROMETER,0.7882909,5.6000376,7.4974427
MAGNETIC_FIELD,-16.409,-23.034,-29.301
GYROSCOPE,0.4071417,0.0106901415,0.116980694
ORIENTATION,102,327,356
ACCELEROMETER,0.5746084,5.237316,8.127716
MAGNETIC_FIELD,-16.099,-23.35,-29.301
GYROSCOPE,-0.13133603,0.049480084,-0.022602014
ORIENTATION,106,329,357
ACCELEROMETER,0.47465047,5.197812,8.474875
MAGNETIC_FIELD,-16.099,-23.35,-29.301
GYROSCOPE,-0.038789943,0.008246681,-0.016798794
ORIENTATION,104,328,356
ACCELEROMETER,0.57281274,5.140351,8.104373
MAGNETIC_FIELD,-16.099,-23.35,-28.602
GYROSCOPE,0.032070424,0.005192355,-0.053450707
ORIENTATION,111,330,357
ACCELEROMETER,0.3597288,4.7459064,8.226477
MAGNETIC_FIELD,-16.099,-23.35,-28.602
GYROSCOPE,0.17654006,-0.008552114,0.10170906
ORIENTATION,98,324,1
ACCELEROMETER,-0.142455,5.7724204,7.9667063
MAGNETIC_FIELD,-16.099,-23.35,-28.004
GYROSCOPE,-0.11453723,0.2770274,-0.059864793
ORIENTATION,111,330,4
ACCELEROMETER,-0.6135142,5.0421886,8.686164
MAGNETIC_FIELD,-16.099,-23.35,-28.483
GYROSCOPE,-0.04337143,0.38912117,-0.0027488936
ORIENTATION,107,328,5
ACCELEROMETER,-0.85772276,5.5868697,8.971672
MAGNETIC_FIELD,-16.099,-23.35,-28.483
GYROSCOPE,-0.21044308,0.12797627,0.010995574
