ORIENTATION,0,0,0
ACCELEROMETER,-0.4405331,2.8640637,9.587581
MAGNETIC_FIELD,-7.746,-22.383,-50.817
GYROSCOPE,-0.08979719,-0.818254,-0.3005457
ORIENTATION,134,345,1
ACCELEROMETER,-0.20530279,2.4893713,9.321824
MAGNETIC_FIELD,-14.103,-20.207,-49.653
GYROSCOPE,-0.046120327,-0.818254,-0.026572637
ORIENTATION,115,345,359
ACCELEROMETER,0.15322891,2.4744074,9.026739
MAGNETIC_FIELD,-19.447,-18.739,-48.124
GYROSCOPE,-0.040927973,-0.069027774,-0.086437434
ORIENTATION,109,346,359
ACCELEROMETER,0.2172738,2.3870192,9.602545
MAGNETIC_FIELD,-21.636,-17.62,-48.124
GYROSCOPE,0.057421334,-0.12980886,0.12186762
ORIENTATION,100,344,358
ACCELEROMETER,0.39923313,2.6821043,9.344569
MAGNETIC_FIELD,-22.329,-17.956,-48.124
GYROSCOPE,-0.002443461,0.053145275,-0.029932396
ORIENTATION,102,345,357
ACCELEROMETER,0.49081135,2.5689783,9.379285
MAGNETIC_FIELD,-22.329,-19.059,-48.124
GYROSCOPE,-0.03176499,-0.064446285,0.023518313
ORIENTATION,106,345,357
ACCELEROMETER,0.4985925,2.4378958,9.066842
MAGNETIC_FIELD,-22.329,-18.299,-47.003
GYROSCOPE,-0.160963,-0.0143553335,-0.011911872
ORIENTATION,107,346,356
ACCELEROMETER,0.6596026,2.4343045,9.524733
MAGNETIC_FIELD,-23.774,-17.147,-47.412
GYROSCOPE,0.017104227,0.00580322,-0.116980694
ORIENTATION,98,344,357
ACCELEROMETER,0.52971715,2.7168205,9.287108
MAGNETIC_FIELD,-23.774,-16.459,-47.024
GYROSCOPE,0.038179077,0.047036625,-0.058643065
ORIENTATION,114,353,359
ACCELEROMETER,0.16160862,1.3317747,10.370484
MAGNETIC_FIELD,-22.204,-17.665,-45.445
GYROSCOPE,0.37048978,-0.01985312,-0.106595986
ORIENTATION,72,334,353
ACCELEROMETER,1.2114661,4.569334,9.22426
MAGNETIC_FIELD,-24.119,-19.738,-42.169
GYROSCOPE,0.559858,-0.5021312,-0.013744468
ORIENTATION,101,340,359
ACCELEROMETER,0.15562311,3.1304188,8.836999
MAGNETIC_FIELD,-22.955,-20.98,-40.335
GYROSCOPE,0.17989981,-0.14202617,-0.013744468
ORIENTATION,87,333,352
ACCELEROMETER,1.0606314,4.034828,7.8589673
MAGNETIC_FIELD,-20.257,-23.01,-39.578
GYROSCOPE,0.30543262,0.0870483,0.1966986
ORIENTATION,104,336,359
ACCELEROMETER,0.12150574,3.8061821,8.53054
MAGNETIC_FIELD,-21.488,-24.127,-39.019
GYROSCOPE,0.06536258,-0.021685716,-0.08674286
ORIENTATION,103,335,359
ACCELEROMETER,0.21428105,4.1383777,8.702325
MAGNETIC_FIELD,-21.095,-24.504,-38.078
GYROSCOPE,0.04917465,0.14721853,0.0143553335
ORIENTATION,105,334,1
ACCELEROMETER,-0.11492168,4.2359414,8.787319
MAGNETIC_FIELD,-20.133,-25.027,-38.078
GYROSCOPE,0.03970624,0.11942416,-0.119729586
ORIENTATION,110,336,358
ACCELEROMETER,0.28909984,4.1820717,9.248801
MAGNETIC_FIELD,-18.307,-25.886,-38.383
GYROSCOPE,0.05100725,0.03359759,0.10262536
ORIENTATION,112,336,1
ACCELEROMETER,-0.22026655,4.0821137,8.99322
MAGNETIC_FIELD,-18.783,-25.495,-37.847
GYROSCOPE,-0.06811147,-0.12034045,-0.10873401
ORIENTATION,111,335,358
ACCELEROMETER,0.26874915,4.2904096,9.064447
MAGNETIC_FIELD,-19.203,-25.495,-37.847
GYROSCOPE,-0.0036651916,-0.061391957,0.0693332
ORIENTATION,109,334,360
ACCELEROMETER,0.034715924,4.267066,8.804078
MAGNETIC_FIELD,-19.967,-24.804,-37.847
GYROSCOPE,0.06536258,-0.06078109,0.0012217305
ORIENTATION,100,331,358
ACCELEROMETER,0.34596214,4.4801497,8.237849
MAGNETIC_FIELD,-21.415,-26.11,-37.225
GYROSCOPE,0.11636983,-0.083383106,-0.01160644
ORIENTATION,102,331,356
ACCELEROMETER,0.635062,4.767454,8.545505
MAGNETIC_FIELD,-21.415,-26.756,-36.717
GYROSCOPE,0.12186762,-0.02076942,0.020463986
ORIENTATION,105,331,357
ACCELEROMETER,0.41060558,4.8255134,8.783129
MAGNETIC_FIELD,-21.415,-27.648,-36.331
GYROSCOPE,0.13591751,-0.06047566,-0.0106901415
ORIENTATION,93,325,356
ACCELEROMETER,0.5153519,5.4420204,7.74225
MAGNETIC_FIELD,-21.415,-27.648,-34.875
GYROSCOPE,0.36163223,-0.032375857,0.090713486
ORIENTATION,99,326,357
ACCELEROMETER,0.3585317,5.2540755,7.854179
MAGNETIC_FIELD,-21.792,-29.959,-32.723
GYROSCOPE,-0.2144137,0.003970624,-0.03268129
ORIENTATION,114,330,357
ACCELEROMETER,0.39324763,4.9733553,8.626308
MAGNETIC_FIELD,-21.792,-29.959,-32.723
GYROSCOPE,-0.1994475,0.14355333,-0.0421497
ORIENTATION,112,329,357
ACCELEROMETER,0.4261679,4.912902,8.078036
MAGNETIC_FIELD,-21.792,-28.414,-33.329
GYROSCOPE,0.20005837,-0.028405234,0.035124753
ORIENTATION,110,330,358
ACCELEROMETER,0.26515785,4.8614264,8.379107
MAGNETIC_FIELD,-21.792,-28.778,-33.724
GYROSCOPE,-0.10751228,-0.054367006,-0.030543262
ORIENTATION,111,330,357
ACCELEROMETER,0.37828386,4.7656584,8.304289
MAGNETIC_FIELD,-21.456,-28.108,-34.426
GYROSCOPE,-0.0106901415,0.029626964,-0.0070249503
ORIENTATION,110,331,358
ACCELEROMETER,0.29269117,4.735731,8.443152
MAGNETIC_FIELD,-21.456,-28.108,-35.16
GYROSCOPE,-0.016493361,0.027488936,0.008857546
ORIENTATION,110,331,357
ACCELEROMETER,0.42078096,4.6860514,8.4234
MAGNETIC_FIELD,-21.456,-27.192,-34.317
GYROSCOPE,0.00580322,0.04642576,0.027794369
ORIENTATION,109,331,358
ACCELEROMETER,0.3489549,4.619014,8.416218
MAGNETIC_FIELD,-21.06,-26.837,-34.317
GYROSCOPE,0.0036651916,0.037873644,-0.032986723
ORIENTATION,110,332,358
ACCELEROMETER,0.2861071,4.5555673,8.619724
MAGNETIC_FIELD,-21.06,-26.837,-34.317
GYROSCOPE,-0.008552114,-0.009162978,0.0033597588
ORIENTATION,111,332,358
ACCELEROMETER,0.29688102,4.533421,8.665813
MAGNETIC_FIELD,-21.06,-26.837,-35.235
GYROSCOPE,-0.029626964,0.005497787,-0.023823744
ORIENTATION,108,331,358
ACCELEROMETER,0.34476504,4.620809,8.418612
MAGNETIC_FIELD,-21.06,-27.168,-35.235
GYROSCOPE,0.0076358155,0.004886922,-0.023823744
ORIENTATION,110,332,358
ACCELEROMETER,0.27593175,4.518457,8.632295
MAGNETIC_FIELD,-21.06,-27.168,-34.411
GYROSCOPE,-0.0027488936,0.01160644,0.0067195175
ORIENTATION,109,331,357
ACCELEROMETER,0.45549688,4.669292,8.426991
MAGNETIC_FIELD,-21.06,-27.168,-34.411
GYROSCOPE,0.021991149,0.022296581,0.020463986
ORIENTATION,112,333,358
ACCELEROMETER,0.28909984,4.4568067,8.585608
MAGNETIC_FIELD,-21.06,-27.168,-35.054
GYROSCOPE,-0.026572637,-0.005192355,0.034513887
ORIENTATION,112,333,357
ACCELEROMETER,0.40043023,4.4765587,8.71669
MAGNETIC_FIELD,-21.398,-27.168,-35.054
GYROSCOPE,-0.008246681,-0.027488936,0.038179077
ORIENTATION,110,332,356
ACCELEROMETER,0.5518635,4.554969,8.516774
MAGNETIC_FIELD,-21.398,-27.52,-34.625
GYROSCOPE,0.043982297,0.010995574,0.035124753
ORIENTATION,114,333,357
ACCELEROMETER,0.504578,4.4101195,8.71669
MAGNETIC_FIELD,-21.398,-27.52,-34.625
GYROSCOPE,-0.025961773,-0.010079277,0.01863139
ORIENTATION,112,332,357
ACCELEROMETER,0.46686932,4.4418426,8.488044
MAGNETIC_FIELD,-21.398,-27.16,-34.625
GYROSCOPE,0.019242255,0.035124753,0.030543262
ORIENTATION,112,333,357
ACCELEROMETER,0.4369418,4.3957543,8.6574335
MAGNETIC_FIELD,-21.398,-27.16,-34.625
GYROSCOPE,-0.022907447,0.029321533,-0.017715093
ORIENTATION,113,333,357
ACCELEROMETER,0.46806642,4.404134,8.684967
MAGNETIC_FIELD,-21.398,-26.649,-35.108
GYROSCOPE,0.009773844,0.0061086523,-0.0027488936
ORIENTATION,109,332,357
ACCELEROMETER,0.50757074,4.4903255,8.576031
MAGNETIC_FIELD,-21.398,-26.649,-35.108
GYROSCOPE,0.0,-0.002443461,-0.016493361
ORIENTATION,110,333,357
ACCELEROMETER,0.41060558,4.322731,8.461707
MAGNETIC_FIELD,-21.398,-26.649,-35.108
GYROSCOPE,-0.0143553335,-0.0106901415,-0.05589417
ORIENTATION,111,334,358
ACCELEROMETER,0.34237084,4.301782,8.632295
MAGNETIC_FIELD,-21.398,-26.649,-35.108
GYROSCOPE,-0.024740042,-0.027488936,-0.020463986
ORIENTATION,111,333,357
ACCELEROMETER,0.5009867,4.5256395,8.876503
MAGNETIC_FIELD,-21.398,-26.649,-35.108
GYROSCOPE,-0.010079277,-0.0015271631,-0.057726767
ORIENTATION,112,334,358
ACCELEROMETER,0.32022446,4.274847,8.684967
MAGNETIC_FIELD,-21.398,-26.649,-35.108
GYROSCOPE,0.014966198,6.1086525E-4,-0.040317107
ORIENTATION,109,332,358
ACCELEROMETER,0.26755205,4.3879733,8.396465
MAGNETIC_FIELD,-21.398,-26.319,-35.461
GYROSCOPE,-0.018936822,0.0125227375,-0.016798794
ORIENTATION,113,335,358
ACCELEROMETER,0.38067806,4.260482,8.992621
MAGNETIC_FIELD,-21.398,-26.319,-35.461
GYROSCOPE,-0.087659165,-0.011911872,-0.02443461
ORIENTATION,113,334,356
ACCELEROMETER,0.6392518,4.23235,8.820838
MAGNETIC_FIELD,-21.398,-26.319,-35.461
GYROSCOPE,-0.0015271631,-0.08979719,-0.015577064
ORIENTATION,114,335,357
ACCELEROMETER,0.48602295,4.1401734,9.042301
MAGNETIC_FIELD,-21.398,-26.319,-35.83
GYROSCOPE,-0.008246681,-0.037873644,-0.04917465
ORIENTATION,110,334,358
ACCELEROMETER,0.26515785,4.2940006,8.608353
MAGNETIC_FIELD,-21.398,-26.319,-35.83
GYROSCOPE,-0.010079277,0.027794369,-0.07147124
ORIENTATION,109,333,359
ACCELEROMETER,0.16519992,4.359243,8.624513
MAGNETIC_FIELD,-21.398,-26.319,-35.83
GYROSCOPE,-0.10293079,0.029932396,-0.086132
ORIENTATION,112,334,358
ACCELEROMETER,0.2717419,4.1706996,8.725668
MAGNETIC_FIELD,-21.398,-26.319,-36.137
GYROSCOPE,0.13561209,0.08674286,0.0106901415
ORIENTATION,107,332,358
ACCELEROMETER,0.2669535,4.549582,8.661025
MAGNETIC_FIELD,-21.398,-26.319,-36.137
GYROSCOPE,-0.06505715,0.061086524,0.031154128
ORIENTATION,112,335,359
ACCELEROMETER,0.17717093,4.0892963,8.756793
MAGNETIC_FIELD,-21.398,-26.319,-36.137
GYROSCOPE,0.10781772,-0.03940081,-0.013133603
ORIENTATION,116,338,1
ACCELEROMETER,-0.2100912,3.5757403,8.815451
MAGNETIC_FIELD,-21.398,-26.319,-36.468
GYROSCOPE,-0.06872234,-0.022296581,-0.16462818
ORIENTATION,109,333,359
ACCELEROMETER,0.2148796,4.665102,9.312846
MAGNETIC_FIELD,-21.398,-26.319,-36.468
GYROSCOPE,0.025045475,0.66798115,-0.12461651
ORIENTATION,98,328,358
ACCELEROMETER,0.24660277,4.7243586,7.6309195
MAGNETIC_FIELD,-21.398,-26.319,-36.468
GYROSCOPE,0.1863139,-0.034513887,-0.32070425
ORIENTATION,84,324,352
ACCELEROMETER,0.9876082,4.871602,6.659472
MAGNETIC_FIELD,-21.398,-26.319,-36.798
GYROSCOPE,0.47800204,-0.25411993,0.035124753
ORIENTATION,106,332,357
ACCELEROMETER,0.45848963,4.915296,9.327211
MAGNETIC_FIELD,-20.977,-26.319,-36.798
GYROSCOPE,-0.0076358155,0.13225232,0.2782491
ORIENTATION,107,332,358
ACCELEROMETER,0.3585317,4.747103,9.025542
MAGNETIC_FIELD,-20.504,-27.101,-36.798
GYROSCOPE,-0.32895094,-0.004276057,0.27183503
ORIENTATION,108,332,4
ACCELEROMETER,-0.5638345,4.1401734,7.8667483
MAGNETIC_FIELD,-21.116,-27.101,-36.334
GYROSCOPE,0.13683382,0.03268129,0.30451632
ORIENTATION,103,330,360
ACCELEROMETER,0.016759412,5.003283,8.531139
MAGNETIC_FIELD,-21.418,-27.101,-35.247
GYROSCOPE,-0.14019357,-0.047647487,0.024740042
ORIENTATION,106,330,358
ACCELEROMETER,0.32800564,4.758476,8.289924
MAGNETIC_FIELD,-21.418,-26.768,-35.247
GYROSCOPE,0.1685988,0.03176499,-0.040011674
ORIENTATION,115,336,2
ACCELEROMETER,-0.35434186,4.0258503,9.016563
MAGNETIC_FIELD,-21.418,-26.768,-35.71
GYROSCOPE,-0.01985312,0.09254608,-0.15149458
ORIENTATION,105,331,358
ACCELEROMETER,0.24361002,4.743512,8.449138
MAGNETIC_FIELD,-21.116,-26.768,-35.71
GYROSCOPE,0.21563543,0.020158553,-0.038789943
ORIENTATION,109,332,355
ACCELEROMETER,0.83497787,4.7267528,8.9040365
MAGNETIC_FIELD,-21.116,-27.18,-35.71
GYROSCOPE,0.115453534,-0.027488936,0.020463986
ORIENTATION,99,327,358
ACCELEROMETER,0.23822308,4.953005,7.703344
MAGNETIC_FIELD,-20.75,-27.18,-35.133
GYROSCOPE,0.082161374,-0.05222898,-0.028710667
ORIENTATION,111,333,357
ACCELEROMETER,0.40162733,4.5112743,8.66701
MAGNETIC_FIELD,-20.75,-27.661,-34.405
GYROSCOPE,-0.25442538,-0.04520403,-0.116980694
ORIENTATION,113,333,358
ACCELEROMETER,0.29867667,4.5579615,8.829816
MAGNETIC_FIELD,-20.75,-27.661,-34.405
GYROSCOPE,-0.009773844,-0.06352998,0.053145275
ORIENTATION,113,332,359
ACCELEROMETER,0.18674773,4.59567,8.78672
MAGNETIC_FIELD,-20.75,-27.661,-34.751
GYROSCOPE,0.04917465,-0.018020526,-0.02687807
ORIENTATION,108,330,356
ACCELEROMETER,0.6015432,4.7147818,8.162432
MAGNETIC_FIELD,-20.75,-27.661,-34.751
GYROSCOPE,0.06780604,-0.009162978,0.0580322
ORIENTATION,107,329,358
ACCELEROMETER,0.3369839,4.9135003,8.330027
MAGNETIC_FIELD,-20.75,-27.661,-34.158
GYROSCOPE,0.032375857,0.03726278,0.06780604
ORIENTATION,106,329,356
ACCELEROMETER,0.49440265,4.819528,7.8876977
MAGNETIC_FIELD,-20.75,-27.661,-34.657
GYROSCOPE,0.14202617,0.030848695,-0.03390302
ORIENTATION,108,330,358
ACCELEROMETER,0.30286652,4.8338933,8.333617
MAGNETIC_FIELD,-20.75,-27.661,-34.657
GYROSCOPE,0.16249016,-0.13133603,0.15882497
ORIENTATION,111,331,357
ACCELEROMETER,0.40701428,4.7279496,8.662222
MAGNETIC_FIELD,-20.442,-28.015,-34.275
GYROSCOPE,0.09010262,0.028405234,0.064751714
ORIENTATION,106,328,356
ACCELEROMETER,0.51954174,4.8895583,7.8727336
MAGNETIC_FIELD,-20.442,-28.015,-34.275
GYROSCOPE,0.038789943,0.008857546,0.031154128
ORIENTATION,108,329,359
ACCELEROMETER,0.12569559,5.125387,8.605359
MAGNETIC_FIELD,-20.442,-28.015,-34.275
GYROSCOPE,-0.012217305,-0.00580322,0.021991149
ORIENTATION,103,327,354
ACCELEROMETER,0.87927055,5.2504845,8.100183
MAGNETIC_FIELD,-20.442,-28.015,-34.275
GYROSCOPE,0.20891592,0.059253927,0.009773844
ORIENTATION,104,327,360
ACCELEROMETER,0.053869538,5.073313,7.960122
MAGNETIC_FIELD,-20.779,-28.015,-34.275
GYROSCOPE,0.14110987,-0.04062254,-0.102319926
ORIENTATION,102,326,1
ACCELEROMETER,-0.11671733,5.08708,7.656657
MAGNETIC_FIELD,-20.779,-28.015,-33.921
GYROSCOPE,0.13041973,-0.0729984,-0.04062254
ORIENTATION,101,326,357
ACCELEROMETER,0.35553896,5.457583,8.059482
MAGNETIC_FIELD,-20.779,-28.015,-33.921
GYROSCOPE,-0.054367006,0.0027488936,0.06352998
ORIENTATION,103,327,357
ACCELEROMETER,0.39264908,5.3983264,8.249222
MAGNETIC_FIELD,-20.779,-28.457,-33.921
GYROSCOPE,-0.004581489,0.058643065,0.04550946
ORIENTATION,106,328,360
ACCELEROMETER,0.05207389,5.1648917,8.115147
MAGNETIC_FIELD,-20.469,-28.457,-33.921
GYROSCOPE,0.013744468,0.044593163,-0.059253927
ORIENTATION,107,328,3
ACCELEROMETER,-0.43993455,4.895544,7.796119
MAGNETIC_FIELD,-20.469,-28.787,-33.573
GYROSCOPE,0.004886922,0.009162978,-0.048258353
ORIENTATION,107,327,358
ACCELEROMETER,0.34955344,5.3396683,8.359355
MAGNETIC_FIELD,-20.469,-28.787,-33.573
GYROSCOPE,-0.0852157,-0.009773844,0.010079277
ORIENTATION,108,328,0
ACCELEROMETER,-0.020350715,5.036802,8.099585
MAGNETIC_FIELD,-20.469,-28.787,-33.573
GYROSCOPE,-0.011911872,0.04642576,-0.0061086523
ORIENTATION,107,328,359
ACCELEROMETER,0.15083471,5.1607018,8.131308
MAGNETIC_FIELD,-20.164,-29.173,-33.573
GYROSCOPE,-0.008552114,-0.067500606,-0.047647487
ORIENTATION,108,327,357
ACCELEROMETER,0.38187516,5.2702365,8.218696
MAGNETIC_FIELD,-20.164,-29.173,-33.573
GYROSCOPE,3.0543262E-4,0.0027488936,-0.034513887
ORIENTATION,112,330,0
ACCELEROMETER,-0.04249708,4.8219223,8.26239
MAGNETIC_FIELD,-20.164,-29.173,-33.573
GYROSCOPE,0.026572637,-0.014660766,-0.046731193
ORIENTATION,111,329,358
ACCELEROMETER,0.3250129,5.0122614,8.265383
MAGNETIC_FIELD,-20.164,-29.173,-33.267
GYROSCOPE,-0.025045475,-0.048563786,-0.027183503
ORIENTATION,113,330,359
ACCELEROMETER,0.20949265,5.09127,8.66701
MAGNETIC_FIELD,-20.164,-29.173,-33.267
GYROSCOPE,-0.0125227375,0.0018325958,-0.035430185
ORIENTATION,110,328,359
ACCELEROMETER,0.16220717,5.065532,8.11395
MAGNETIC_FIELD,-20.164,-29.173,-33.267
GYROSCOPE,0.06536258,-0.0070249503,0.017104227
ORIENTATION,110,328,359
ACCELEROMETER,0.18734628,5.0134583,8.137293
MAGNETIC_FIELD,-20.164,-29.481,-33.267
GYROSCOPE,0.028099801,-0.024129177,0.015882496
ORIENTATION,107,326,358
ACCELEROMETER,0.34117374,5.263054,7.89907
MAGNETIC_FIELD,-20.164,-29.481,-33.267
GYROSCOPE,-0.005497787,0.009468411,-0.003970624
ORIENTATION,114,330,359
ACCELEROMETER,0.19093758,5.021838,8.643666
MAGNETIC_FIELD,-20.164,-29.481,-33.267
GYROSCOPE,-0.029626964,0.02443461,0.059253927
ORIENTATION,114,330,358
ACCELEROMETER,0.31004912,4.8817773,8.419808
MAGNETIC_FIELD,-20.164,-29.481,-33.267
GYROSCOPE,-0.025961773,0.042760566,0.070249505
ORIENTATION,112,329,358
ACCELEROMETER,0.2908955,5.0344076,8.325836
MAGNETIC_FIELD,-19.804,-29.481,-33.267
GYROSCOPE,-0.025045475,0.0421497,-0.0015271631
ORIENTATION,114,330,0
ACCELEROMETER,-0.010773907,4.84347,8.38629
MAGNETIC_FIELD,-19.804,-29.481,-33.267
GYROSCOPE,0.006414085,0.053450707,-0.02076942
ORIENTATION,114,330,359
ACCELEROMETER,0.08499416,4.859032,8.424597
MAGNETIC_FIELD,-19.804,-29.481,-33.267
GYROSCOPE,0.01985312,0.04886922,-0.012217305
ORIENTATION,115,331,1
ACCELEROMETER,-0.20829555,4.787805,8.482059
MAGNETIC_FIELD,-19.804,-29.481,-33.267
GYROSCOPE,-0.03359759,-0.0070249503,0.010079277
ORIENTATION,115,331,360
ACCELEROMETER,0.036511578,4.7494974,8.411429
MAGNETIC_FIELD,-19.804,-29.481,-33.267
GYROSCOPE,0.009162978,0.029321533,-0.0012217305
ORIENTATION,116,331,1
ACCELEROMETER,-0.108936176,4.6884456,8.557475
MAGNETIC_FIELD,-19.804,-29.481,-33.628
GYROSCOPE,0.016798794,0.02565634,-0.0033597588
ORIENTATION,116,331,360
ACCELEROMETER,0.011372458,4.699219,8.588001
MAGNETIC_FIELD,-19.804,-29.481,-33.628
GYROSCOPE,-0.02076942,0.011301007,-0.047647487
ORIENTATION,114,330,359
ACCELEROMETER,0.11372458,4.9655743,8.668207
MAGNETIC_FIELD,-19.804,-29.481,-33.973
GYROSCOPE,-0.028405234,-0.029932396,-0.20647246
ORIENTATION,115,331,359
ACCELEROMETER,0.15322891,4.7937903,8.473679
MAGNETIC_FIELD,-19.804,-29.481,-33.973
GYROSCOPE,0.062002823,-0.41386122,0.07971791
ORIENTATION,116,332,1
ACCELEROMETER,-0.08319851,4.575918,8.539519
MAGNETIC_FIELD,-19.804,-29.481,-33.973
GYROSCOPE,0.0027488936,0.04886922,-0.0036651916
ORIENTATION,115,331,360
ACCELEROMETER,0.05566519,4.699219,8.48146
MAGNETIC_FIELD,-19.804,-29.481,-33.973
GYROSCOPE,-0.019242255,0.0070249503,-0.011301007
ORIENTATION,115,331,360
ACCELEROMETER,0.037110128,4.675876,8.431181
MAGNETIC_FIELD,-20.15,-29.481,-34.303
GYROSCOPE,0.03359759,0.018936822,-0.008857546
ORIENTATION,114,331,359
ACCELEROMETER,0.17357962,4.7656584,8.477868
MAGNETIC_FIELD,-20.15,-29.481,-34.303
GYROSCOPE,0.01160644,0.020158553,0.008857546
ORIENTATION,115,331,360
ACCELEROMETER,0.035913024,4.678869,8.532336
MAGNETIC_FIELD,-20.15,-29.481,-34.303
GYROSCOPE,0.010079277,0.002443461,6.1086525E-4
ORIENTATION,115,331,359
ACCELEROMETER,0.11492168,4.747702,8.636484
MAGNETIC_FIELD,-20.15,-29.481,-34.303
GYROSCOPE,-0.02076942,-0.01282817,-0.0018325958
ORIENTATION,115,331,360
ACCELEROMETER,0.062249243,4.6776714,8.565855
MAGNETIC_FIELD,-20.15,-29.481,-34.303
GYROSCOPE,-0.0021380284,-0.005497787,-0.0027488936
ORIENTATION,115,332,0
ACCELEROMETER,-0.038307227,4.6519337,8.6017685
MAGNETIC_FIELD,-20.15,-29.481,-34.303
GYROSCOPE,0.015271631,0.014660766,0.0012217305
ORIENTATION,113,330,359
ACCELEROMETER,0.15801731,4.7698483,8.373122
MAGNETIC_FIELD,-20.15,-29.148,-34.692
GYROSCOPE,0.02076942,0.020158553,-0.0076358155
ORIENTATION,111,330,359
ACCELEROMETER,0.11611878,4.8039656,8.294113
MAGNETIC_FIELD,-20.15,-29.148,-34.692
GYROSCOPE,0.010995574,-0.005192355,-0.0076358155
ORIENTATION,112,330,359
ACCELEROMETER,0.15322891,4.8015714,8.3821
MAGNETIC_FIELD,-20.15,-29.148,-34.692
GYROSCOPE,-3.0543262E-4,0.0027488936,-0.012217305
ORIENTATION,112,330,359
ACCELEROMETER,0.11492168,4.8045645,8.350976
MAGNETIC_FIELD,-20.15,-29.148,-34.692
GYROSCOPE,0.03145956,0.005497787,-0.02565634
ORIENTATION,113,331,360
ACCELEROMETER,0.030526072,4.730344,8.44375
MAGNETIC_FIELD,-20.15,-29.148,-34.692
GYROSCOPE,0.02443461,0.009468411,-0.04153884
ORIENTATION,112,331,0
ACCELEROMETER,-0.05566519,4.818331,8.534731
MAGNETIC_FIELD,-20.15,-29.148,-34.692
GYROSCOPE,0.014049901,0.012217305,0.01038471
ORIENTATION,110,329,360
ACCELEROMETER,0.055066638,4.936844,8.30369
MAGNETIC_FIELD,-20.15,-29.148,-34.692
GYROSCOPE,0.047647487,0.006414085,-0.011301007
ORIENTATION,111,330,1
ACCELEROMETER,-0.12150574,4.8374844,8.255806
MAGNETIC_FIELD,-20.15,-29.148,-34.692
GYROSCOPE,0.024129177,-0.01160644,-0.028405234
ORIENTATION,110,329,1
ACCELEROMETER,-0.090381116,4.879383,8.213309
MAGNETIC_FIELD,-20.15,-29.148,-34.692
GYROSCOPE,0.021991149,-0.004581489,-0.02076942
ORIENTATION,109,329,1
ACCELEROMETER,-0.090979666,4.9984946,8.326435
MAGNETIC_FIELD,-20.15,-29.148,-34.692
GYROSCOPE,-0.021380283,0.027794369,0.046731193
ORIENTATION,111,330,359
ACCELEROMETER,0.095768064,4.8865657,8.308478
MAGNETIC_FIELD,-20.15,-29.148,-34.692
GYROSCOPE,0.02443461,0.038789943,0.062308256
ORIENTATION,110,329,0
ACCELEROMETER,-0.025139118,5.0122614,8.453327
MAGNETIC_FIELD,-20.15,-29.148,-34.692
GYROSCOPE,-0.016493361,0.047647487,0.008246681
ORIENTATION,111,330,1
ACCELEROMETER,-0.15143326,4.799776,8.189965
MAGNETIC_FIELD,-20.15,-29.148,-34.692
GYROSCOPE,0.031154128,0.025350908,-0.027488936
ORIENTATION,112,330,1
ACCELEROMETER,-0.19093758,4.871003,8.597578
MAGNETIC_FIELD,-20.15,-29.148,-34.692
GYROSCOPE,-0.009773844,0.012217305,-0.04153884
ORIENTATION,111,330,2
ACCELEROMETER,-0.28909984,4.8374844,8.406042
MAGNETIC_FIELD,-20.15,-29.148,-34.692
GYROSCOPE,-0.00580322,0.005497787,0.01038471
ORIENTATION,112,330,1
ACCELEROMETER,-0.17956513,4.896741,8.592192
MAGNETIC_FIELD,-20.15,-29.148,-34.692
GYROSCOPE,-0.0842994,0.030543262,-0.016187929
ORIENTATION,112,331,2
ACCELEROMETER,-0.32680854,4.7884035,8.46889
MAGNETIC_FIELD,-20.15,-29.148,-34.692
GYROSCOPE,0.03023783,-0.010995574,0.0033597588
ORIENTATION,110,329,0
ACCELEROMETER,-0.0035913025,4.8937483,8.224083
MAGNETIC_FIELD,-19.836,-29.148,-34.692
GYROSCOPE,0.04886922,0.032375857,0.017715093
ORIENTATION,110,329,1
ACCELEROMETER,-0.12330139,5.0344076,8.425196
MAGNETIC_FIELD,-19.836,-29.148,-34.692
GYROSCOPE,0.0036651916,-0.010079277,-0.013439035
ORIENTATION,110,329,360
ACCELEROMETER,0.05327099,4.8458643,8.049306
MAGNETIC_FIELD,-19.836,-29.148,-34.692
GYROSCOPE,-0.023518313,-0.07666359,-0.010995574
ORIENTATION,112,330,0
ACCELEROMETER,-0.061052144,4.92607,8.681973
MAGNETIC_FIELD,-19.836,-29.148,-34.692
GYROSCOPE,-0.028710667,-0.035430185,-0.021991149
ORIENTATION,112,330,359
ACCELEROMETER,0.11552023,4.7979803,8.414422
MAGNETIC_FIELD,-19.836,-29.148,-34.692
GYROSCOPE,0.030848695,-0.04153884,0.04153884
ORIENTATION,111,329,359
ACCELEROMETER,0.16759412,4.84766,8.182783
MAGNETIC_FIELD,-19.836,-29.148,-34.692
GYROSCOPE,0.014049901,-0.0070249503,-0.03390302
ORIENTATION,109,329,358
ACCELEROMETER,0.30885202,5.0320134,8.250419
MAGNETIC_FIELD,-19.836,-29.148,-34.692
GYROSCOPE,0.01863139,-0.018936822,-0.07513642
ORIENTATION,112,330,359
ACCELEROMETER,0.18076223,4.851251,8.3390045
MAGNETIC_FIELD,-19.836,-29.148,-34.692
GYROSCOPE,0.048563786,-0.0012217305,-0.0030543262
ORIENTATION,113,331,360
ACCELEROMETER,0.026934769,4.7123876,8.421006
MAGNETIC_FIELD,-19.493,-29.148,-35.008
GYROSCOPE,-0.007941248,-0.046731193,-0.05375614
ORIENTATION,112,330,359
ACCELEROMETER,0.15741876,4.8500543,8.501212
MAGNETIC_FIELD,-19.493,-29.148,-35.008
GYROSCOPE,-0.008246681,0.009162978,-0.049480084
ORIENTATION,105,327,2
ACCELEROMETER,-0.23463176,5.071518,7.7967176
MAGNETIC_FIELD,-19.493,-28.828,-35.008
GYROSCOPE,0.17684549,-0.014049901,-0.04917465
ORIENTATION,106,328,1
ACCELEROMETER,-0.18375498,5.450999,8.636484
MAGNETIC_FIELD,-19.493,-28.828,-35.008
GYROSCOPE,0.0842994,0.4266894,-0.14752395
ORIENTATION,107,328,7
ACCELEROMETER,-1.0468647,5.134964,8.085817
MAGNETIC_FIELD,-19.049,-28.828,-35.008
GYROSCOPE,-0.06811147,0.1414153,-0.0015271631
ORIENTATION,104,327,2
ACCELEROMETER,-0.25198972,5.507861,8.345589
MAGNETIC_FIELD,-18.084,-28.828,-35.008
GYROSCOPE,-0.08674286,-0.032986723,3.0543262E-4
ORIENTATION,107,328,3
ACCELEROMETER,-0.36750996,5.0882773,8.03554
MAGNETIC_FIELD,-17.778,-28.828,-35.008
GYROSCOPE,-0.004276057,-0.20586158,0.04886922
ORIENTATION,111,330,4
ACCELEROMETER,-0.5979519,4.950012,8.424597
MAGNETIC_FIELD,-17.778,-28.828,-35.008
GYROSCOPE,-0.034513887,-0.031154128,-0.026267206
ORIENTATION,110,329,2
ACCELEROMETER,-0.32800564,5.0679264,8.314464
MAGNETIC_FIELD,-17.778,-28.828,-35.008
GYROSCOPE,0.00580322,0.004276057,0.10476339
ORIENTATION,105,326,3
ACCELEROMETER,-0.44831428,5.317522,7.9702973
MAGNETIC_FIELD,-17.778,-28.828,-35.008
GYROSCOPE,0.08246681,0.06872234,0.16401732
ORIENTATION,108,328,6
ACCELEROMETER,-0.8242039,5.288193,8.426991
MAGNETIC_FIELD,-17.198,-28.828,-35.008
GYROSCOPE,0.20372356,0.23609942,0.016187929
