ORIENTATION,0,0,0
ACCELEROMETER,-0.009127894,1.2183493,2.5013423
MAGNETIC_FIELD,-4.1145,-6.7195,-9.8765
GYROSCOPE,-0.111177474,-0.21227567,-0.16279559
ORIENTATION,100,329,0
ACCELEROMETER,-7.1077887E-4,2.2491279,3.7828388
MAGNETIC_FIELD,-7.7538753,-11.759125,-16.845625
GYROSCOPE,0.036957346,-0.21227567,0.005497787
ORIENTATION,99,328,359
ACCELEROMETER,0.05677812,2.9859996,4.854244
MAGNETIC_FIELD,-10.751156,-15.975594,-21.568468
GYROSCOPE,-0.17928895,-0.08246681,-0.09162979
ORIENTATION,99,327,360
ACCELEROMETER,0.04003975,3.6142204,5.6344547
MAGNETIC_FIELD,-12.999117,-19.032196,-25.110601
GYROSCOPE,0.113926366,-0.03481932,0.0842994
ORIENTATION,99,327,359
ACCELEROMETER,0.06983341,4.0876307,6.193725
MAGNETIC_FIELD,-14.574337,-21.586897,-27.7672
GYROSCOPE,0.10934488,0.009468411,0.027794369
ORIENTATION,100,326,360
ACCELEROMETER,0.055068538,4.4166512,6.64954
MAGNETIC_FIELD,-15.755753,-23.502922,-29.759651
GYROSCOPE,0.08582657,-0.013133603,-0.05497787
ORIENTATION,98,325,359
ACCELEROMETER,0.086043045,4.827569,6.8996735
MAGNETIC_FIELD,-16.754314,-25.062191,-31.05449
GYROSCOPE,0.29779682,-0.081855945,0.13194689
ORIENTATION,98,324,359
ACCELEROMETER,0.1314203,5.091465,7.1158543
MAGNETIC_FIELD,-17.614487,-26.465643,-31.905367
GYROSCOPE,0.03390302,0.0076358155,0.05131268
ORIENTATION,99,324,359
ACCELEROMETER,0.10784276,5.2450943,7.3049245
MAGNETIC_FIELD,-18.350615,-27.323732,-32.420776
GYROSCOPE,0.043066,0.032375857,-0.015577064
ORIENTATION,99,324,359
ACCELEROMETER,0.13130994,5.4019156,7.4474754
MAGNETIC_FIELD,-18.80771,-27.9673,-32.968834
GYROSCOPE,0.0021380284,0.04184427,0.008246681
ORIENTATION,99,324,359
ACCELEROMETER,0.10491687,5.5095053,7.543465
MAGNETIC_FIELD,-19.226032,-28.449976,-33.232124
GYROSCOPE,0.035430185,-0.053145275,-0.023518313
ORIENTATION,99,323,359
ACCELEROMETER,0.13270682,5.6006722,7.563234
MAGNETIC_FIELD,-19.539774,-28.943481,-33.429592
GYROSCOPE,0.02076942,0.014966198,-0.01863139
ORIENTATION,98,323,359
ACCELEROMETER,0.13424604,5.703913,7.576414
MAGNETIC_FIELD,-19.775082,-29.417862,-33.430946
GYROSCOPE,0.041233405,-0.03390302,-0.014049901
ORIENTATION,98,323,359
ACCELEROMETER,0.1511124,5.787479,7.56954
MAGNETIC_FIELD,-19.951561,-29.773647,-33.43196
GYROSCOPE,0.007330383,0.035430185,0.003970624
ORIENTATION,98,322,359
ACCELEROMETER,0.14206472,5.864219,7.5081205
MAGNETIC_FIELD,-20.083921,-30.040485,-33.43272
GYROSCOPE,0.047647487,0.021685716,-0.01160644
ORIENTATION,98,322,359
ACCELEROMETER,0.11926773,5.9181833,7.4695377
MAGNETIC_FIELD,-20.183191,-30.240614,-33.43329
GYROSCOPE,0.03023783,0.05467244,-0.008552114
ORIENTATION,99,322,359
ACCELEROMETER,0.09648377,5.927083,7.550734
MAGNETIC_FIELD,-20.257645,-30.52871,-33.433716
GYROSCOPE,-0.04734206,0.036651913,-0.034513887
ORIENTATION,99,322,359
ACCELEROMETER,0.10752766,5.97401,7.5365133
MAGNETIC_FIELD,-20.227734,-30.649282,-33.345036
GYROSCOPE,0.0027488936,-0.0021380284,0.0070249503
ORIENTATION,99,321,360
ACCELEROMETER,0.048324022,5.9884057,7.5066943
MAGNETIC_FIELD,-20.2053,-30.739712,-33.411777
GYROSCOPE,-0.021380283,0.006414085,0.01160644
ORIENTATION,98,321,359
ACCELEROMETER,0.10642305,5.986633,7.471162
MAGNETIC_FIELD,-20.188475,-30.665783,-33.461834
GYROSCOPE,-0.016493361,0.04520403,-0.017104227
ORIENTATION,98,321,359
ACCELEROMETER,0.13608103,6.031242,7.495988
MAGNETIC_FIELD,-20.175856,-30.610336,-33.499374
GYROSCOPE,0.071776666,0.042455133,0.0106901415
ORIENTATION,98,321,359
ACCELEROMETER,0.12615243,6.0313296,7.51341
MAGNETIC_FIELD,-20.166391,-30.568752,-33.52753
GYROSCOPE,0.015271631,0.043676864,-0.020158553
ORIENTATION,98,321,360
ACCELEROMETER,0.0471792,6.0022163,7.543386
MAGNETIC_FIELD,-20.159294,-30.622564,-33.54865
GYROSCOPE,0.0021380284,0.018020526,-0.057726767
ORIENTATION,98,321,359
ACCELEROMETER,0.071746334,6.061634,7.530853
MAGNETIC_FIELD,-20.15397,-30.662924,-33.488487
GYROSCOPE,-0.03604105,0.04062254,0.0030543262
ORIENTATION,99,322,360
ACCELEROMETER,0.00502789,6.007886,7.589837
MAGNETIC_FIELD,-20.149979,-30.693193,-33.443367
GYROSCOPE,-0.003970624,0.004276057,0.0033597588
ORIENTATION,100,322,0
ACCELEROMETER,-0.021218562,5.9755054,7.6523314
MAGNETIC_FIELD,-20.146984,-30.791395,-33.409523
GYROSCOPE,0.0027488936,0.037873644,-0.03023783
ORIENTATION,101,322,0
ACCELEROMETER,-0.040903404,5.9575047,7.6620917
MAGNETIC_FIELD,-20.144737,-30.865047,-33.38414
GYROSCOPE,0.02107485,0.010995574,0.013133603
ORIENTATION,101,322,0
ACCELEROMETER,-0.05207573,5.9686947,7.6622295
MAGNETIC_FIELD,-20.143053,-30.920286,-33.365105
GYROSCOPE,0.03390302,-0.010995574,0.008552114
ORIENTATION,101,322,0
ACCELEROMETER,-8.9920685E-4,5.9844193,7.67595
MAGNETIC_FIELD,-20.14179,-30.961716,-33.35083
GYROSCOPE,-0.0015271631,0.027794369,0.021685716
ORIENTATION,102,322,0
ACCELEROMETER,-0.03269685,5.9553614,7.704346
MAGNETIC_FIELD,-20.140842,-30.992786,-33.340122
GYROSCOPE,-0.07422013,0.025961773,0.047036625
ORIENTATION,102,322,360
ACCELEROMETER,0.0013646707,5.929079,7.6629453
MAGNETIC_FIELD,-20.140133,-31.01609,-33.332092
GYROSCOPE,0.008246681,-0.03940081,-0.054367006
ORIENTATION,101,322,360
ACCELEROMETER,0.022122405,5.969821,7.6884575
MAGNETIC_FIELD,-20.139599,-31.033567,-33.32607
GYROSCOPE,0.008552114,-0.004276057,-0.054061573
ORIENTATION,102,322,0
ACCELEROMETER,-0.009445138,5.940522,7.6588097
MAGNETIC_FIELD,-20.139198,-31.046677,-33.321552
GYROSCOPE,0.02321288,-0.013439035,-0.058643065
ORIENTATION,101,322,360
ACCELEROMETER,2.4838932E-4,5.947129,7.658421
MAGNETIC_FIELD,-20.138899,-31.056507,-33.318165
GYROSCOPE,0.03023783,-0.03176499,0.014660766
ORIENTATION,102,322,360
ACCELEROMETER,0.034902215,5.952982,7.676535
MAGNETIC_FIELD,-20.138674,-31.06388,-33.315624
GYROSCOPE,-0.02321288,0.010995574,0.026267206
ORIENTATION,101,322,360
ACCELEROMETER,0.030216876,5.959915,7.624729
MAGNETIC_FIELD,-20.138506,-31.06941,-33.313717
GYROSCOPE,0.03390302,-0.015271631,-0.01038471
ORIENTATION,101,322,360
ACCELEROMETER,0.0076988973,5.9663124,7.6255283
MAGNETIC_FIELD,-20.13838,-31.073559,-33.312286
GYROSCOPE,0.03970624,0.010995574,-0.023518313
ORIENTATION,101,322,0
ACCELEROMETER,-0.022656973,5.962132,7.6080217
MAGNETIC_FIELD,-20.138285,-31.07667,-33.311214
GYROSCOPE,0.005192355,0.020158553,-0.007941248
ORIENTATION,101,322,360
ACCELEROMETER,0.008744936,5.988775,7.615691
MAGNETIC_FIELD,-20.138214,-31.079002,-33.31041
GYROSCOPE,0.028099801,0.02687807,0.025045475
ORIENTATION,101,322,360
ACCELEROMETER,0.009701092,6.004866,7.6654367
MAGNETIC_FIELD,-20.13816,-31.080751,-33.309807
GYROSCOPE,-0.036957346,-0.010995574,-0.035124753
ORIENTATION,100,322,360
ACCELEROMETER,0.041842107,5.9908977,7.5626855
MAGNETIC_FIELD,-20.13812,-31.082064,-33.309357
GYROSCOPE,0.019242255,-0.016493361,0.08979719
ORIENTATION,101,322,360
ACCELEROMETER,0.020607673,5.985958,7.615657
MAGNETIC_FIELD,-20.13809,-31.083048,-33.309017
GYROSCOPE,-0.015271631,0.06169739,-0.030848695
ORIENTATION,102,322,0
ACCELEROMETER,-0.003997134,5.945442,7.668404
MAGNETIC_FIELD,-20.138067,-31.083786,-33.30876
GYROSCOPE,-0.03481932,0.0018325958,-0.03726278
ORIENTATION,102,322,0
ACCELEROMETER,-0.006738791,5.9267273,7.6525984
MAGNETIC_FIELD,-20.13805,-31.08434,-33.30857
GYROSCOPE,0.03604105,0.01863139,-0.02443461
ORIENTATION,101,322,0
ACCELEROMETER,-0.011937423,6.043624,7.6765075
MAGNETIC_FIELD,-20.138039,-31.084755,-33.308426
GYROSCOPE,0.071776666,0.0067195175,0.030543262
ORIENTATION,100,321,360
ACCELEROMETER,0.05150052,6.0296926,7.539714
MAGNETIC_FIELD,-20.13803,-31.085066,-33.30832
GYROSCOPE,0.129198,0.06505715,0.093767814
ORIENTATION,96,320,359
ACCELEROMETER,0.110002525,6.1660385,7.351077
MAGNETIC_FIELD,-20.138021,-31.0853,-33.30824
GYROSCOPE,0.086132,0.087659165,0.018936822
ORIENTATION,99,321,360
ACCELEROMETER,0.037460975,6.0825977,7.4645824
MAGNETIC_FIELD,-20.138016,-31.085476,-33.308178
GYROSCOPE,-0.07269296,0.022907447,-0.119729586
ORIENTATION,100,321,0
ACCELEROMETER,-0.023978159,6.016725,7.51305
MAGNETIC_FIELD,-20.138012,-31.085608,-33.308132
GYROSCOPE,0.015577064,-0.053145275,-0.084910266
ORIENTATION,100,321,1
ACCELEROMETER,-0.12647088,5.9583426,7.4240046
MAGNETIC_FIELD,-20.138008,-31.085705,-33.308098
GYROSCOPE,0.01160644,-0.04520403,-0.059864793
ORIENTATION,100,321,1
ACCELEROMETER,-0.0798894,5.995509,7.4583755
MAGNETIC_FIELD,-20.138006,-31.08578,-33.308075
GYROSCOPE,0.009468411,-0.17867808,-0.09193522
ORIENTATION,98,321,359
ACCELEROMETER,0.06503035,6.0483737,7.3949695
MAGNETIC_FIELD,-20.138004,-31.085835,-33.308056
GYROSCOPE,-0.089186326,0.020158553,0.073303826
ORIENTATION,99,321,359
ACCELEROMETER,0.07017094,5.990309,7.436449
MAGNETIC_FIELD,-20.138004,-31.085876,-33.23279
GYROSCOPE,0.017104227,-0.063224554,-0.033292156
ORIENTATION,100,321,359
ACCELEROMETER,0.12340679,6.0012283,7.5395346
MAGNETIC_FIELD,-20.138004,-31.085907,-33.176346
GYROSCOPE,-0.0012217305,0.020158553,-0.021380283
ORIENTATION,99,321,359
ACCELEROMETER,0.16453078,6.0534115,7.454791
MAGNETIC_FIELD,-20.138004,-31.16218,-33.13401
GYROSCOPE,0.106901415,0.04734206,-0.061391957
ORIENTATION,99,321,359
ACCELEROMETER,0.108583964,6.0992823,7.4792204
MAGNETIC_FIELD,-20.222754,-31.219385,-33.102257
GYROSCOPE,-0.09407325,0.087964594,0.01282817
ORIENTATION,97,320,360
ACCELEROMETER,0.057346318,6.2233186,7.391749
MAGNETIC_FIELD,-20.286316,-31.26229,-33.07844
GYROSCOPE,-0.08093964,0.047647487,0.067500606
ORIENTATION,98,320,359
ACCELEROMETER,0.075331464,6.1595254,7.3797154
MAGNETIC_FIELD,-20.333986,-31.294468,-33.06058
GYROSCOPE,0.06658431,0.16829337,-0.04886922
ORIENTATION,100,321,1
ACCELEROMETER,-0.10196762,6.0536213,7.445958
MAGNETIC_FIELD,-20.36974,-31.40335,-33.047188
GYROSCOPE,0.17287487,0.058948494,-0.018020526
ORIENTATION,100,321,1
ACCELEROMETER,-0.100268096,6.0760965,7.420971
MAGNETIC_FIELD,-20.396555,-31.485012,-33.03714
GYROSCOPE,0.13347405,0.10903945,0.02321288
ORIENTATION,98,320,2
ACCELEROMETER,-0.20837855,6.2102685,7.32397
MAGNETIC_FIELD,-20.416666,-31.546259,-33.029606
GYROSCOPE,-0.03573562,0.17592919,0.048258353
ORIENTATION,98,319,2
ACCELEROMETER,-0.29933745,6.249696,7.2515182
MAGNETIC_FIELD,-20.43175,-31.592194,-33.023956
GYROSCOPE,0.13958271,0.071776666,0.051923547
