ORIENTATION,0,0,0
ACCELEROMETER,0.13931261,1.4483424,1.9437925
MAGNETIC_FIELD,-0.286,-2.83775,-11.1135
GYROSCOPE,-0.028405234,-0.0070249503,-0.03023783
ORIENTATION,355,326,357
ACCELEROMETER,0.20474166,2.3800235,3.497405
MAGNETIC_FIELD,-0.5005,-5.4023123,-19.448624
GYROSCOPE,0.19150625,-0.0070249503,-0.08582657
ORIENTATION,1,327,359
ACCELEROMETER,0.09893852,3.0497546,4.664859
MAGNETIC_FIELD,-0.66137505,-7.1162343,-25.699966
GYROSCOPE,-0.10262536,0.13927728,-0.22479841
ORIENTATION,3,328,359
ACCELEROMETER,0.06507599,3.5815315,5.6314287
MAGNETIC_FIELD,-0.7820313,-8.401676,-30.388474
GYROSCOPE,-0.033292156,-0.03268129,-0.012217305
ORIENTATION,359,327,358
ACCELEROMETER,0.1905138,4.0867567,6.2303615
MAGNETIC_FIELD,-0.8725235,-9.365757,-33.904854
GYROSCOPE,0.054061573,-0.03359759,0.12797627
ORIENTATION,1,326,359
ACCELEROMETER,0.14108971,4.404324,6.600403
MAGNETIC_FIELD,-0.9403926,-10.165567,-36.54214
GYROSCOPE,0.2134974,0.030543262,0.05131268
ORIENTATION,1,326,359
ACCELEROMETER,0.121229954,4.6814055,6.9400334
MAGNETIC_FIELD,-0.9912945,-11.015676,-38.520103
GYROSCOPE,0.06841691,-0.024740042,0.03359759
ORIENTATION,359,326,358
ACCELEROMETER,0.24085936,4.9522142,7.3403535
MAGNETIC_FIELD,-1.1057209,-11.808507,-40.00358
GYROSCOPE,0.019547688,-0.025961773,0.101098195
ORIENTATION,0,326,358
ACCELEROMETER,0.20503545,5.1168637,7.4737477
MAGNETIC_FIELD,-1.1915407,-12.403131,-41.116184
GYROSCOPE,0.00580322,-0.106595986,-0.05955936
ORIENTATION,0,325,358
ACCELEROMETER,0.20704758,5.2578583,7.5369825
MAGNETIC_FIELD,-1.2559055,-12.927348,-41.950638
GYROSCOPE,0.01740966,-0.0030543262,-0.027794369
ORIENTATION,360,324,358
ACCELEROMETER,0.2444697,5.412087,7.4973197
MAGNETIC_FIELD,-1.3041792,-13.320511,-42.576477
GYROSCOPE,0.118202426,0.021991149,0.064751714
ORIENTATION,360,324,358
ACCELEROMETER,0.23946638,5.461918,7.579651
MAGNETIC_FIELD,-1.4288844,-13.817633,-43.045856
GYROSCOPE,-0.02321288,0.0143553335,-0.021991149
ORIENTATION,359,325,358
ACCELEROMETER,0.29512003,5.438987,7.752431
MAGNETIC_FIELD,-1.5224133,-14.1904745,-43.397892
GYROSCOPE,-0.036957346,-0.070249505,-0.017104227
ORIENTATION,357,325,357
ACCELEROMETER,0.38294864,5.526535,7.7730794
MAGNETIC_FIELD,-1.7295599,-14.262106,-43.66192
GYROSCOPE,0.01160644,-0.086132,-0.052534413
ORIENTATION,357,325,357
ACCELEROMETER,0.45734942,5.5199213,7.874458
MAGNETIC_FIELD,-1.9864199,-14.315829,-43.77544
GYROSCOPE,-0.046120327,0.007330383,-0.054061573
ORIENTATION,357,325,356
ACCELEROMETER,0.49534315,5.5362096,7.906498
MAGNETIC_FIELD,-2.375565,-14.356122,-43.86058
GYROSCOPE,-0.0061086523,-0.099571034,-0.07971791
ORIENTATION,358,325,356
ACCELEROMETER,0.51486015,5.497699,7.9474373
MAGNETIC_FIELD,-2.6674237,-14.386341,-43.924435
GYROSCOPE,-0.07849618,-0.0033597588,-0.0033597588
ORIENTATION,360,325,356
ACCELEROMETER,0.48340955,5.5331597,7.8579826
MAGNETIC_FIELD,-3.0620677,-14.409006,-43.97233
GYROSCOPE,0.14752395,-0.057726767,-0.050701816
ORIENTATION,6,324,358
ACCELEROMETER,0.2807054,5.5483828,7.7147264
MAGNETIC_FIELD,-3.3580508,-14.426004,-44.008247
GYROSCOPE,0.093767814,0.116675265,0.027183503
ORIENTATION,5,323,357
ACCELEROMETER,0.34669927,5.701956,7.480242
MAGNETIC_FIELD,-2.9730382,-14.438753,-44.035187
GYROSCOPE,0.14355333,0.31703907,0.15760323
ORIENTATION,4,323,357
ACCELEROMETER,0.34831065,5.739773,7.650939
MAGNETIC_FIELD,-3.0380287,-14.448315,-44.05539
GYROSCOPE,0.00580322,-0.20586158,-0.15149458
ORIENTATION,4,323,357
ACCELEROMETER,0.3635851,5.8380165,7.8549776
MAGNETIC_FIELD,-3.0867715,-14.455486,-44.07054
GYROSCOPE,-0.14049901,-0.04337143,-0.19608775
ORIENTATION,8,323,359
ACCELEROMETER,0.19727148,5.784657,7.79208
MAGNETIC_FIELD,-3.2010787,-14.460865,-44.004406
GYROSCOPE,0.16798794,-0.051618114,0.022296581
ORIENTATION,3,322,357
ACCELEROMETER,0.42179042,5.978371,7.7104897
MAGNETIC_FIELD,-3.366059,-14.568398,-43.954803
GYROSCOPE,-0.08674286,-0.14874569,0.116675265
ORIENTATION,4,323,357
ACCELEROMETER,0.37993878,5.887379,7.670097
MAGNETIC_FIELD,-3.6485443,-14.649049,-43.917603
GYROSCOPE,-0.17592919,-0.06505715,-0.22266038
ORIENTATION,6,323,357
ACCELEROMETER,0.38625875,5.8964977,7.820714
MAGNETIC_FIELD,-3.9601583,-14.820037,-43.8897
GYROSCOPE,-0.026267206,-0.15851954,-0.11453723
ORIENTATION,8,324,357
ACCELEROMETER,0.37244368,5.76986,7.967046
MAGNETIC_FIELD,-4.3398685,-14.948277,-43.868774
GYROSCOPE,-0.08827003,-0.014966198,-3.0543262E-4
ORIENTATION,8,324,357
ACCELEROMETER,0.42912,5.798482,7.832137
MAGNETIC_FIELD,-4.750901,-15.044458,-43.77058
GYROSCOPE,-0.026572637,-0.07269296,-0.0061086523
ORIENTATION,9,324,357
ACCELEROMETER,0.4695323,5.7415385,7.808917
MAGNETIC_FIELD,-5.059176,-15.116594,-43.696938
GYROSCOPE,0.038179077,0.06291912,0.028099801
ORIENTATION,11,324,357
ACCELEROMETER,0.46692127,5.691798,7.929767
MAGNETIC_FIELD,-5.290382,-15.170696,-43.641705
GYROSCOPE,-0.018936822,0.02076942,-0.0143553335
ORIENTATION,9,324,356
ACCELEROMETER,0.5472637,5.7112055,7.8525114
MAGNETIC_FIELD,-5.4637866,-15.211272,-43.60028
GYROSCOPE,9.162979E-4,-0.021380283,0.01160644
ORIENTATION,10,324,356
ACCELEROMETER,0.5494611,5.669348,7.8858485
MAGNETIC_FIELD,-5.59384,-15.318455,-43.56921
GYROSCOPE,-0.0421497,-0.0027488936,-0.03604105
ORIENTATION,10,324,356
ACCELEROMETER,0.59629977,5.6596518,7.856084
MAGNETIC_FIELD,-5.69138,-15.398841,-43.545906
GYROSCOPE,-0.0012217305,0.04184427,0.024129177
ORIENTATION,12,324,356
ACCELEROMETER,0.5247371,5.614222,7.843487
MAGNETIC_FIELD,-5.764535,-15.459131,-43.52843
GYROSCOPE,0.028405234,0.032375857,-0.03848451
ORIENTATION,11,324,356
ACCELEROMETER,0.58254516,5.6431475,7.8165317
MAGNETIC_FIELD,-5.8194013,-15.504349,-43.515324
GYROSCOPE,-0.004276057,0.028710667,0.009773844
ORIENTATION,11,324,356
ACCELEROMETER,0.59178376,5.649279,7.8733788
MAGNETIC_FIELD,-5.860551,-15.538261,-43.505493
GYROSCOPE,0.032375857,0.015577064,0.0
ORIENTATION,11,325,356
ACCELEROMETER,0.6049975,5.6266437,7.943248
MAGNETIC_FIELD,-5.891413,-15.563696,-43.49812
GYROSCOPE,-6.1086525E-4,-0.0021380284,0.0125227375
ORIENTATION,12,325,356
ACCELEROMETER,0.58902055,5.634507,7.909159
MAGNETIC_FIELD,-5.91456,-15.582772,-43.49259
GYROSCOPE,0.03726278,-0.009773844,0.032375857
ORIENTATION,12,325,356
ACCELEROMETER,0.58137727,5.609579,7.970532
MAGNETIC_FIELD,-6.00667,-15.597079,-43.488445
GYROSCOPE,-0.0421497,0.019547688,0.031154128
ORIENTATION,10,325,355
ACCELEROMETER,0.68592775,5.665702,7.948477
MAGNETIC_FIELD,-6.0757523,-15.607809,-43.485336
GYROSCOPE,-0.0027488936,-0.0021380284,0.07422013
ORIENTATION,11,325,355
ACCELEROMETER,0.6480722,5.6287856,7.915176
MAGNETIC_FIELD,-6.1275644,-15.615857,-43.483
GYROSCOPE,0.03176499,0.005192355,0.02076942
ORIENTATION,14,325,356
ACCELEROMETER,0.5617708,5.618007,7.917584
MAGNETIC_FIELD,-6.1664233,-15.621893,-43.48125
GYROSCOPE,0.18020524,0.10262536,-0.10140363
ORIENTATION,12,324,355
ACCELEROMETER,0.6103204,5.691476,7.742219
MAGNETIC_FIELD,-6.1955676,-15.62642,-43.47994
GYROSCOPE,0.12797627,0.18967366,-0.047647487
ORIENTATION,16,324,357
ACCELEROMETER,0.45759064,5.672058,7.795647
MAGNETIC_FIELD,-6.217426,-15.629815,-43.478954
GYROSCOPE,-0.08735373,0.16646078,0.086132
ORIENTATION,17,323,357
ACCELEROMETER,0.36144876,5.6703634,7.6350546
MAGNETIC_FIELD,-6.2338195,-15.632361,-43.478218
GYROSCOPE,-0.10415252,0.18417588,0.1554652
ORIENTATION,18,324,357
ACCELEROMETER,0.34470826,5.67418,7.8044577
MAGNETIC_FIELD,-6.2461147,-15.634272,-43.477665
GYROSCOPE,-0.24251351,0.062308256,0.04886922
ORIENTATION,18,325,357
ACCELEROMETER,0.44483,5.515883,7.9901686
MAGNETIC_FIELD,-6.255336,-15.635704,-43.47725
GYROSCOPE,-0.12980886,-0.06811147,-0.06872234
ORIENTATION,22,327,357
ACCELEROMETER,0.3713312,5.3283267,8.152197
MAGNETIC_FIELD,-6.1810017,-15.636778,-43.476936
GYROSCOPE,-0.0012217305,-0.12736541,-0.015577064
ORIENTATION,23,327,358
ACCELEROMETER,0.29929802,5.307968,8.121237
MAGNETIC_FIELD,-6.1252513,-15.530833,-43.476704
GYROSCOPE,0.055283304,0.1386664,-0.014049901
ORIENTATION,23,327,358
ACCELEROMETER,0.30782166,5.239877,8.162361
MAGNETIC_FIELD,-5.9534388,-15.451375,-43.47653
GYROSCOPE,0.069027774,0.029932396,0.006414085
ORIENTATION,22,327,358
ACCELEROMETER,0.31556112,5.2265177,8.159386
MAGNETIC_FIELD,-5.8245792,-15.276781,-43.476395
GYROSCOPE,0.19914207,-0.09315695,0.021685716
ORIENTATION,22,327,358
ACCELEROMETER,0.24265635,5.301941,8.007816
MAGNETIC_FIELD,-5.6099343,-15.145836,-43.476295
GYROSCOPE,0.119729586,0.10781772,-0.032375857
ORIENTATION,19,326,358
ACCELEROMETER,0.26339513,5.4366193,8.026868
MAGNETIC_FIELD,-5.369701,-15.0476265,-43.476223
GYROSCOPE,0.10476339,-0.06719518,-0.015882496
ORIENTATION,17,325,358
ACCELEROMETER,0.243934,5.5723443,7.887778
MAGNETIC_FIELD,-5.1895256,-15.06447,-43.476166
GYROSCOPE,-0.013744468,-0.01160644,0.005497787
ORIENTATION,18,325,359
ACCELEROMETER,0.18684109,5.5559244,7.990858
MAGNETIC_FIELD,-5.0543942,-15.077103,-43.476124
GYROSCOPE,-0.069027774,0.04917465,0.009468411
ORIENTATION,17,324,359
ACCELEROMETER,0.1794855,5.679181,7.8694496
MAGNETIC_FIELD,-4.8277955,-15.086576,-43.476093
GYROSCOPE,0.18753563,0.06780604,0.07422013
ORIENTATION,18,325,359
ACCELEROMETER,0.105734065,5.6189933,7.9819
MAGNETIC_FIELD,-4.6578465,-15.180182,-43.47607
GYROSCOPE,-0.29016098,0.021380283,-0.10720685
ORIENTATION,17,324,359
ACCELEROMETER,0.13526502,5.6286197,7.838789
MAGNETIC_FIELD,-4.530385,-15.250387,-43.47605
GYROSCOPE,0.06688975,-0.11056661,0.0106901415
ORIENTATION,16,324,359
ACCELEROMETER,0.13556615,5.64377,7.8154025
MAGNETIC_FIELD,-4.4347887,-15.3030405,-43.55729
GYROSCOPE,0.022602014,0.010079277,0.006414085
ORIENTATION,14,324,359
ACCELEROMETER,0.18846442,5.679524,7.7772126
MAGNETIC_FIELD,-4.3630915,-15.34253,-43.618217
GYROSCOPE,0.004276057,0.007941248,0.009773844
ORIENTATION,13,324,358
ACCELEROMETER,0.21616712,5.6737185,7.7946587
MAGNETIC_FIELD,-4.2240686,-15.372148,-43.663914
GYROSCOPE,0.03604105,-0.028099801,-0.004581489
ORIENTATION,13,324,358
ACCELEROMETER,0.21599488,5.6787915,7.852784
MAGNETIC_FIELD,-4.1198015,-15.394361,-43.698185
GYROSCOPE,-0.01038471,0.032986723,-0.025045475
ORIENTATION,11,324,358
ACCELEROMETER,0.25118017,5.664191,7.7840004
MAGNETIC_FIELD,-4.041601,-15.41102,-43.72389
GYROSCOPE,0.015882496,-0.01985312,-0.0018325958
ORIENTATION,12,324,358
ACCELEROMETER,0.21621773,5.680025,7.870977
MAGNETIC_FIELD,-3.982951,-15.423515,-43.743164
GYROSCOPE,0.018020526,0.014660766,-0.0018325958
ORIENTATION,11,324,358
ACCELEROMETER,0.2767857,5.715095,7.8999968
MAGNETIC_FIELD,-3.854463,-15.432886,-43.75762
GYROSCOPE,-0.018936822,0.014966198,0.009162978
ORIENTATION,11,324,358
ACCELEROMETER,0.22868818,5.7080283,7.8409576
MAGNETIC_FIELD,-3.7580974,-15.439915,-43.768467
GYROSCOPE,0.020463986,-0.025350908,-0.0076358155
ORIENTATION,9,324,358
ACCELEROMETER,0.273569,5.730561,7.8336387
MAGNETIC_FIELD,-3.685823,-15.445187,-43.7766
GYROSCOPE,0.029321533,0.048563786,-0.013133603
ORIENTATION,10,324,358
ACCELEROMETER,0.23869556,5.707058,7.893541
MAGNETIC_FIELD,-3.6316173,-15.449141,-43.7827
GYROSCOPE,0.007330383,0.013744468,0.009773844
ORIENTATION,9,324,358
ACCELEROMETER,0.29005277,5.7503333,7.985903
MAGNETIC_FIELD,-3.590963,-15.4521055,-43.787273
GYROSCOPE,-0.0143553335,0.027794369,-0.025045475
ORIENTATION,9,324,358
ACCELEROMETER,0.27350405,5.708869,7.901945
MAGNETIC_FIELD,-3.5604722,-15.4543295,-43.790703
GYROSCOPE,6.1086525E-4,-0.03756821,0.0021380284
ORIENTATION,8,324,358
ACCELEROMETER,0.29476097,5.6901903,7.790644
MAGNETIC_FIELD,-3.5376043,-15.559748,-43.793278
GYROSCOPE,0.035124753,-0.013439035,0.0061086523
ORIENTATION,9,324,358
ACCELEROMETER,0.26446563,5.6892,7.774655
MAGNETIC_FIELD,-3.5204532,-15.638811,-43.795208
GYROSCOPE,0.029626964,0.011301007,-0.01863139
ORIENTATION,8,324,358
ACCELEROMETER,0.28858072,5.6995306,7.814438
MAGNETIC_FIELD,-3.5075898,-15.698109,-43.796654
GYROSCOPE,-0.0036651916,0.004886922,0.006414085
ORIENTATION,9,324,358
ACCELEROMETER,0.24052718,5.683486,7.806566
MAGNETIC_FIELD,-3.4979424,-15.742581,-43.79774
GYROSCOPE,-0.0125227375,-0.013133603,-0.03970624
ORIENTATION,7,324,358
ACCELEROMETER,0.33048192,5.774553,7.812484
MAGNETIC_FIELD,-3.490707,-15.775936,-43.798553
GYROSCOPE,0.0290161,-0.022907447,-0.040011674
ORIENTATION,9,324,358
ACCELEROMETER,0.26985818,5.7615995,7.849543
MAGNETIC_FIELD,-3.4852803,-15.800952,-43.799164
GYROSCOPE,-0.079107046,-0.02565634,-0.006414085
ORIENTATION,6,323,357
ACCELEROMETER,0.3681921,5.7595162,7.697473
MAGNETIC_FIELD,-3.4812102,-15.819714,-43.79962
GYROSCOPE,0.043982297,-0.056199603,0.09560041
ORIENTATION,7,323,358
ACCELEROMETER,0.31235638,5.7052813,7.6313047
MAGNETIC_FIELD,-3.4781578,-15.833785,-43.799965
GYROSCOPE,0.06872234,0.02687807,-0.0580322
ORIENTATION,7,323,358
ACCELEROMETER,0.33003536,5.792845,7.7313156
MAGNETIC_FIELD,-3.4758682,-15.844339,-43.800224
GYROSCOPE,-0.040927973,0.03359759,0.0015271631
ORIENTATION,7,323,358
ACCELEROMETER,0.3334185,5.764844,7.778641
MAGNETIC_FIELD,-3.4741511,-15.852255,-43.721916
GYROSCOPE,0.010079277,0.01985312,0.008857546
ORIENTATION,7,323,358
ACCELEROMETER,0.31979498,5.7731724,7.795281
MAGNETIC_FIELD,-3.4728634,-15.8581915,-43.663185
GYROSCOPE,6.1086525E-4,-0.016187929,-0.005192355
ORIENTATION,7,323,358
ACCELEROMETER,0.32394257,5.7886963,7.8132973
MAGNETIC_FIELD,-3.4718976,-15.862644,-43.61914
GYROSCOPE,0.010995574,0.0036651916,-0.010995574
ORIENTATION,8,324,358
ACCELEROMETER,0.30281198,5.7820835,7.8603287
MAGNETIC_FIELD,-3.4711733,-15.865983,-43.586105
GYROSCOPE,-0.01985312,0.012217305,0.0070249503
ORIENTATION,7,324,358
ACCELEROMETER,0.33350134,5.801066,7.84682
MAGNETIC_FIELD,-3.47063,-15.868487,-43.56133
GYROSCOPE,-0.018936822,0.005192355,-0.03145956
ORIENTATION,8,324,358
ACCELEROMETER,0.28663757,5.7942038,7.866317
MAGNETIC_FIELD,-3.4702225,-15.870365,-43.542747
GYROSCOPE,0.016187929,-0.0015271631,-0.048563786
ORIENTATION,6,323,357
ACCELEROMETER,0.38167447,5.8698616,7.9202943
MAGNETIC_FIELD,-3.4699168,-15.871774,-43.52881
GYROSCOPE,-0.06566802,-0.009773844,0.023518313
ORIENTATION,8,323,358
ACCELEROMETER,0.28146744,5.8065953,7.820567
MAGNETIC_FIELD,-3.4696877,-15.87283,-43.518356
GYROSCOPE,-0.08307768,-0.03940081,-0.04734206
ORIENTATION,6,323,357
ACCELEROMETER,0.3460737,5.8336654,7.76717
MAGNETIC_FIELD,-3.4695158,-15.873623,-43.510517
GYROSCOPE,0.058643065,-0.028710667,0.06566802
ORIENTATION,7,323,358
ACCELEROMETER,0.33437407,5.841099,7.827828
MAGNETIC_FIELD,-3.4693868,-15.874217,-43.50464
GYROSCOPE,0.00580322,0.032986723,-0.054367006
ORIENTATION,7,324,358
ACCELEROMETER,0.34026384,5.7944508,7.9213552
MAGNETIC_FIELD,-3.4692903,-15.874662,-43.50023
GYROSCOPE,-0.03604105,-0.02107485,-0.06994407
ORIENTATION,7,324,357
ACCELEROMETER,0.34887102,5.7899904,7.8684983
MAGNETIC_FIELD,-3.4692178,-15.874997,-43.49692
GYROSCOPE,-0.008246681,-0.09682214,-0.004581489
ORIENTATION,7,323,358
ACCELEROMETER,0.32958874,5.769138,7.7567306
MAGNETIC_FIELD,-3.4691634,-15.875248,-43.494442
GYROSCOPE,0.044898596,0.0018325958,-0.021380283
ORIENTATION,6,323,357
ACCELEROMETER,0.36256215,5.891015,7.7589464
MAGNETIC_FIELD,-3.4691226,-15.875436,-43.49258
GYROSCOPE,-0.004886922,0.047647487,-0.051618114
ORIENTATION,6,323,357
ACCELEROMETER,0.3709817,5.943218,7.8342295
MAGNETIC_FIELD,-3.469092,-15.875577,-43.491184
GYROSCOPE,0.006414085,-0.013439035,0.019547688
ORIENTATION,6,323,357
ACCELEROMETER,0.38283294,5.88765,7.8169208
MAGNETIC_FIELD,-3.469069,-15.875683,-43.49014
GYROSCOPE,-0.0106901415,-0.02321288,0.089491755
ORIENTATION,6,323,357
ACCELEROMETER,0.38229424,5.8337035,7.7657814
MAGNETIC_FIELD,-3.4690518,-15.875762,-43.489353
GYROSCOPE,-0.0027488936,-0.014966198,-0.020463986
ORIENTATION,5,323,357
ACCELEROMETER,0.41555864,5.754936,7.735956
MAGNETIC_FIELD,-3.469039,-15.875822,-43.488766
GYROSCOPE,-0.09193522,-0.011911872,0.03481932
ORIENTATION,3,323,356
ACCELEROMETER,0.49542397,5.7353654,7.673485
MAGNETIC_FIELD,-3.4690292,-15.875867,-43.488323
GYROSCOPE,0.035430185,-0.12675454,-0.011911872
ORIENTATION,2,324,356
ACCELEROMETER,0.52300125,5.6503572,7.7699842
MAGNETIC_FIELD,-3.4690218,-15.8759,-43.48799
GYROSCOPE,-0.006414085,0.046731193,-0.06963864
ORIENTATION,3,324,356
ACCELEROMETER,0.51794654,5.664562,7.811533
MAGNETIC_FIELD,-3.4690163,-15.875925,-43.487743
GYROSCOPE,0.005497787,-0.070554934,-0.015577064
ORIENTATION,2,324,356
ACCELEROMETER,0.5608424,5.6758146,7.8783083
MAGNETIC_FIELD,-3.4690123,-15.875944,-43.487556
GYROSCOPE,0.004276057,0.03176499,-0.017715093
ORIENTATION,1,324,356
ACCELEROMETER,0.5952589,5.708645,7.8799076
MAGNETIC_FIELD,-3.550259,-15.875958,-43.48742
GYROSCOPE,0.02107485,-0.04184427,-0.008246681
ORIENTATION,2,324,356
ACCELEROMETER,0.5845597,5.743443,8.005606
MAGNETIC_FIELD,-3.6111944,-15.875969,-43.487312
GYROSCOPE,-0.020158553,0.0015271631,6.1086525E-4
ORIENTATION,2,324,356
ACCELEROMETER,0.59942985,5.750388,8.036881
MAGNETIC_FIELD,-3.6568956,-15.875977,-43.487236
GYROSCOPE,-0.05131268,-0.026267206,0.022296581
ORIENTATION,1,324,355
ACCELEROMETER,0.6282397,5.724173,7.905463
MAGNETIC_FIELD,-3.6911716,-15.875982,-43.487175
GYROSCOPE,0.0067195175,-0.054367006,0.0030543262
ORIENTATION,1,324,355
ACCELEROMETER,0.62904745,5.710048,7.914938
MAGNETIC_FIELD,-3.8073788,-15.875987,-43.48713
GYROSCOPE,-0.008857546,-0.008246681,0.009162978
ORIENTATION,360,324,355
ACCELEROMETER,0.69040614,5.7090316,7.830466
MAGNETIC_FIELD,-3.894534,-15.87599,-43.4871
GYROSCOPE,0.032070424,0.016187929,0.002443461
ORIENTATION,3,324,356
ACCELEROMETER,0.5620973,5.658889,7.8031745
MAGNETIC_FIELD,-3.9599006,-15.875993,-43.487076
GYROSCOPE,0.55955255,0.008552114,-0.19303341
ORIENTATION,6,323,357
ACCELEROMETER,0.43519002,5.7632875,7.737216
MAGNETIC_FIELD,-4.0089254,-15.875995,-43.487057
GYROSCOPE,-0.12522738,0.52778757,0.10140363
