ORIENTATION,0,0,0
ACCELEROMETER,-0.032920275,0.97189623,2.1172225
MAGNETIC_FIELD,-4.55625,-5.5835,-8.31175
GYROSCOPE,-0.015882496,-0.04917465,-0.03268129
ORIENTATION,106,334,2
ACCELEROMETER,-0.15936404,1.806762,3.6795514
MAGNETIC_FIELD,-8.329937,-9.771125,-14.291063
GYROSCOPE,-0.0018325958,-0.04917465,-0.30604348
ORIENTATION,105,333,0
ACCELEROMETER,-0.026747718,2.5656397,5.044181
MAGNETIC_FIELD,-11.400953,-13.132343,-18.234297
GYROSCOPE,-0.258396,0.183565,-0.021380283
ORIENTATION,107,333,0
ACCELEROMETER,-0.033977088,2.996084,5.8708797
MAGNETIC_FIELD,-13.782715,-15.653257,-21.330223
GYROSCOPE,-0.5326745,-0.10934488,0.28008172
ORIENTATION,107,333,1
ACCELEROMETER,-0.1356161,3.2810588,6.3598213
MAGNETIC_FIELD,-15.870036,-16.927443,-24.034668
GYROSCOPE,0.25411993,-0.1386664,0.5558874
ORIENTATION,109,335,3
ACCELEROMETER,-0.36417645,3.1637917,6.890979
MAGNETIC_FIELD,-17.435528,-17.502832,-26.063
GYROSCOPE,-0.0015271631,0.40042216,1.0235047
ORIENTATION,107,336,4
ACCELEROMETER,-0.5361953,3.2887754,7.229492
MAGNETIC_FIELD,-18.712395,-17.284624,-27.82875
GYROSCOPE,-0.022296581,0.41722095,1.9413297
ORIENTATION,105,337,5
ACCELEROMETER,-0.6270518,3.3457026,7.706038
MAGNETIC_FIELD,-19.370047,-15.602718,-30.014063
GYROSCOPE,-0.15760323,1.1346822,2.0317378
ORIENTATION,95,335,2
ACCELEROMETER,-0.30882984,3.7065275,7.9994025
MAGNETIC_FIELD,-18.851036,-12.482288,-32.503796
GYROSCOPE,0.15088372,1.2873985,1.6270396
ORIENTATION,89,339,0
ACCELEROMETER,-0.07345544,3.349117,8.532168
MAGNETIC_FIELD,-16.937027,-9.509966,-34.805096
GYROSCOPE,0.06169739,0.5555819,0.30726522
ORIENTATION,78,339,358
ACCELEROMETER,0.23445718,3.2941432,8.752776
MAGNETIC_FIELD,-14.740021,-7.4242244,-36.88782
GYROSCOPE,0.02321288,0.2968805,0.035124753
ORIENTATION,61,337,358
ACCELEROMETER,0.25844285,3.6516972,8.730736
MAGNETIC_FIELD,-12.744515,-6.3004184,-38.549118
GYROSCOPE,0.01282817,-0.020463986,-0.086437434
ORIENTATION,50,335,360
ACCELEROMETER,0.065592706,3.972086,8.714655
MAGNETIC_FIELD,-10.462387,-5.347064,-39.79509
GYROSCOPE,0.5180137,-0.18417588,0.28130344
ORIENTATION,46,334,4
ACCELEROMETER,-0.502669,3.9973483,8.166143
MAGNETIC_FIELD,-8.52829,-5.3270483,-40.829567
GYROSCOPE,-0.070249505,-0.16249016,0.4092797
ORIENTATION,39,335,2
ACCELEROMETER,-0.3485706,3.8889537,8.153543
MAGNETIC_FIELD,-5.8474674,-5.3120365,-41.749176
GYROSCOPE,0.0015271631,1.1145236,0.24404067
ORIENTATION,26,333,1
ACCELEROMETER,-0.19962761,4.1132174,8.132422
MAGNETIC_FIELD,-4.2061005,-5.0882773,-42.53638
GYROSCOPE,0.6151413,-0.0711658,-0.20555615
ORIENTATION,20,335,1
ACCELEROMETER,-0.16812614,4.0834446,8.675777
MAGNETIC_FIELD,-3.7023253,-4.493208,-42.965286
GYROSCOPE,-0.68752885,-0.24709499,-1.5940529
ORIENTATION,359,336,355
ACCELEROMETER,0.9046092,4.273451,9.676606
MAGNETIC_FIELD,-3.324494,-4.046906,-43.435215
GYROSCOPE,-0.12767084,0.19975294,-1.0152581
ORIENTATION,339,340,350
ACCELEROMETER,1.5825673,3.3209076,9.156506
MAGNETIC_FIELD,-4.4871206,-3.4329295,-43.65216
GYROSCOPE,-0.31887165,-1.570229,-4.26781
ORIENTATION,337,343,349
ACCELEROMETER,1.9301755,3.072023,9.610835
MAGNETIC_FIELD,-5.7000904,-3.542447,-43.814873
GYROSCOPE,0.032070424,-0.27091873,-1.5112807
ORIENTATION,353,347,352
ACCELEROMETER,1.4064813,2.2691517,9.497133
MAGNETIC_FIELD,-7.5368176,-4.9210854,-43.588406
GYROSCOPE,0.65118235,-0.3662137,-1.6649132
ORIENTATION,31,346,355
ACCELEROMETER,0.8871172,2.3875031,9.570024
MAGNETIC_FIELD,-9.317364,-8.363813,-42.653553
GYROSCOPE,0.24678956,-0.904386,-1.2956452
ORIENTATION,68,345,357
ACCELEROMETER,0.5595441,2.4340692,9.368212
MAGNETIC_FIELD,-11.093273,-11.9378605,-41.249165
GYROSCOPE,0.49846604,-0.8032878,-1.5464053
ORIENTATION,96,346,1
ACCELEROMETER,-0.12382573,2.4375696,9.4287405
MAGNETIC_FIELD,-12.211205,-16.682146,-38.783875
GYROSCOPE,-0.13561209,-0.72418076,-1.7180585
ORIENTATION,110,344,3
ACCELEROMETER,-0.5449245,2.699068,9.109619
MAGNETIC_FIELD,-10.992403,-20.63836,-36.934906
GYROSCOPE,0.75441855,-0.121256754,-1.3570372
ORIENTATION,119,341,5
ACCELEROMETER,-0.8146602,3.1618462,9.13813
MAGNETIC_FIELD,-7.9338026,-24.32177,-35.13943
GYROSCOPE,0.9272934,-0.21410827,-0.768163
ORIENTATION,138,342,6
ACCELEROMETER,-0.91460985,2.9724789,9.132729
MAGNETIC_FIELD,-4.596352,-27.760826,-32.686825
GYROSCOPE,-0.08827003,-0.7367035,-1.1371256
ORIENTATION,149,341,9
ACCELEROMETER,-1.3563339,3.0755599,8.770295
MAGNETIC_FIELD,-1.1035142,-30.18587,-30.930868
GYROSCOPE,0.052534413,-0.6236934,-0.2770274
ORIENTATION,158,338,10
ACCELEROMETER,-1.5378397,3.5917575,8.592442
MAGNETIC_FIELD,2.2281141,-31.532402,-30.13515
GYROSCOPE,0.3213151,-0.11728613,-0.16218472
ORIENTATION,168,333,10
ACCELEROMETER,-1.5463281,4.4885716,8.735433
MAGNETIC_FIELD,4.6158357,-33.0558,-28.775614
GYROSCOPE,0.9437868,-0.3475823,2.1416936
ORIENTATION,173,333,13
ACCELEROMETER,-1.9598584,4.426611,8.499856
MAGNETIC_FIELD,4.2043767,-35.4916,-25.28346
GYROSCOPE,-0.21410827,-0.5002986,2.0836613
ORIENTATION,175,334,14
ACCELEROMETER,-2.1417665,4.369217,8.663151
MAGNETIC_FIELD,1.4882827,-36.82745,-23.186846
GYROSCOPE,-0.35124752,1.0048733,1.820073
ORIENTATION,172,334,11
ACCELEROMETER,-1.752072,4.326022,8.747614
MAGNETIC_FIELD,-2.4392881,-35.846836,-23.472134
GYROSCOPE,-0.028405234,1.9107865,1.2638801
ORIENTATION,165,334,9
ACCELEROMETER,-1.3596935,4.3899927,8.7570915
MAGNETIC_FIELD,-5.655466,-34.034126,-24.4506
GYROSCOPE,-0.7840455,0.7360926,-0.677755
ORIENTATION,155,333,8
ACCELEROMETER,-1.28822,4.5882063,8.863559
MAGNETIC_FIELD,-8.402849,-32.093594,-25.70095
GYROSCOPE,-0.16768251,0.548557,0.051618114
ORIENTATION,146,330,5
ACCELEROMETER,-0.7075913,4.9852653,8.570961
MAGNETIC_FIELD,-10.463387,-30.344444,-26.952213
GYROSCOPE,0.6713409,-0.355829,0.6924158
ORIENTATION,136,331,6
ACCELEROMETER,-0.89580923,4.943831,8.736381
MAGNETIC_FIELD,-12.68754,-28.721083,-27.78916
GYROSCOPE,-0.1853976,-0.26083946,0.21563543
ORIENTATION,126,330,8
ACCELEROMETER,-1.1171784,4.776585,8.188573
MAGNETIC_FIELD,-14.355656,-27.13581,-28.73212
GYROSCOPE,0.37812558,-0.0983493,0.55680364
ORIENTATION,119,330,8
ACCELEROMETER,-1.0835888,4.5694485,7.769786
MAGNETIC_FIELD,-15.168491,-25.946857,-29.91109
GYROSCOPE,0.48838675,1.745242,0.19333886
ORIENTATION,113,329,7
ACCELEROMETER,-0.9621796,4.8945823,8.108116
MAGNETIC_FIELD,-16.05412,-25.055143,-30.716318
GYROSCOPE,0.12858713,0.54550266,-0.15607607
ORIENTATION,114,332,8
ACCELEROMETER,-1.138974,4.558737,8.581831
MAGNETIC_FIELD,-16.71834,-24.866858,-31.320238
GYROSCOPE,-0.36377025,0.022602014,-0.8402451
ORIENTATION,109,330,8
ACCELEROMETER,-1.1220818,4.695611,8.041685
MAGNETIC_FIELD,-16.463255,-24.910393,-32.07893
GYROSCOPE,-0.022602014,-0.505491,0.03176499
ORIENTATION,103,327,8
ACCELEROMETER,-1.0450685,4.9540396,7.6123347
MAGNETIC_FIELD,-16.59069,-24.943045,-32.474197
GYROSCOPE,0.31856623,0.22479841,-0.18203785
ORIENTATION,103,327,9
ACCELEROMETER,-1.2759595,5.238541,7.981648
MAGNETIC_FIELD,-16.360268,-25.496284,-32.66015
GYROSCOPE,-0.061086524,0.4266894,-0.47067168
ORIENTATION,103,327,9
ACCELEROMETER,-1.2935046,5.3669233,8.041209
MAGNETIC_FIELD,-15.561451,-26.265965,-32.79961
GYROSCOPE,-0.34605515,0.3915646,-0.14049901
ORIENTATION,100,323,13
ACCELEROMETER,-1.6672901,5.5719967,7.3308086
MAGNETIC_FIELD,-14.509838,-26.310223,-33.451958
GYROSCOPE,0.077579886,-0.41386122,0.0012217305
ORIENTATION,102,325,15
ACCELEROMETER,-2.1319828,5.7893972,7.9090676
MAGNETIC_FIELD,-13.442629,-26.710417,-33.94122
GYROSCOPE,-0.12583824,0.14080444,0.06872234
ORIENTATION,100,323,15
ACCELEROMETER,-2.011987,5.760014,7.4600496
MAGNETIC_FIELD,-13.263721,-27.152813,-34.134914
GYROSCOPE,0.12064589,-0.2574797,0.926988
ORIENTATION,101,324,14
ACCELEROMETER,-1.9127125,5.6603146,7.4527884
MAGNETIC_FIELD,-13.705041,-27.15036,-34.280186
GYROSCOPE,0.21930063,0.05955936,1.570229
ORIENTATION,104,325,15
ACCELEROMETER,-1.9804124,5.3016777,7.450634
MAGNETIC_FIELD,-14.3160305,-26.13402,-35.05139
GYROSCOPE,-0.514654,0.84665924,1.2773192
ORIENTATION,104,327,13
ACCELEROMETER,-1.8579069,5.145676,7.7900424
MAGNETIC_FIELD,-13.848523,-24.120514,-36.566795
GYROSCOPE,0.047647487,1.3741413,1.5906931
ORIENTATION,97,327,13
ACCELEROMETER,-1.7284688,5.0457335,7.6250153
MAGNETIC_FIELD,-12.9698925,-21.392635,-38.222095
GYROSCOPE,-0.0571159,0.7538077,1.1661417
ORIENTATION,84,326,9
ACCELEROMETER,-1.2730081,5.3917074,7.9785886
MAGNETIC_FIELD,-11.271919,-18.488728,-39.914574
GYROSCOPE,0.12339478,0.47342056,0.5195409
ORIENTATION,75,329,6
ACCELEROMETER,-0.8203815,5.0848093,8.452513
MAGNETIC_FIELD,-9.677939,-16.121296,-41.18393
GYROSCOPE,-0.32895094,0.21166481,0.1423316
ORIENTATION,63,330,4
ACCELEROMETER,-0.5867053,4.9592323,8.525141
MAGNETIC_FIELD,-8.205455,-13.885972,-42.32345
GYROSCOPE,-0.35155296,0.04337143,-0.14966199
ORIENTATION,42,327,3
ACCELEROMETER,-0.37284172,5.2264247,8.00246
MAGNETIC_FIELD,-7.0020914,-12.209479,-43.280334
GYROSCOPE,0.33383787,-0.112704635,0.08399397
ORIENTATION,31,326,2
ACCELEROMETER,-0.2335429,5.598902,8.327363
MAGNETIC_FIELD,-6.0995684,-11.413859,-43.998
GYROSCOPE,0.11911872,0.2611449,0.20433442
ORIENTATION,25,326,1
ACCELEROMETER,-0.14687568,5.428899,8.184526
MAGNETIC_FIELD,-4.852176,-10.817144,-44.53625
GYROSCOPE,0.4034765,0.25381452,0.8536842
ORIENTATION,20,327,1
ACCELEROMETER,-0.1544495,5.2874794,7.9880652
MAGNETIC_FIELD,-3.546132,-10.369608,-45.17344
GYROSCOPE,0.410196,-0.14294247,0.0711658
ORIENTATION,12,327,360
ACCELEROMETER,0.016442537,5.0688877,7.884264
MAGNETIC_FIELD,-2.326349,-10.419206,-45.73158
GYROSCOPE,-0.07422013,0.3051272,-0.6038403
ORIENTATION,359,330,357
ACCELEROMETER,0.46812806,4.8926735,8.532754
MAGNETIC_FIELD,-1.1680118,-10.634404,-46.251183
GYROSCOPE,0.10903945,-0.19303341,-1.5427402
ORIENTATION,349,331,355
ACCELEROMETER,0.6852368,4.86077,8.665228
MAGNETIC_FIELD,-2.0667589,-11.334053,-46.280636
GYROSCOPE,-0.017104227,-1.5677856,-2.005776
ORIENTATION,352,333,355
ACCELEROMETER,0.7250663,4.6635623,8.937415
MAGNETIC_FIELD,-4.0265694,-12.546539,-45.83323
GYROSCOPE,0.28955013,-1.5204436,-2.2321017
ORIENTATION,9,332,357
ACCELEROMETER,0.47631317,4.6627502,8.840036
MAGNETIC_FIELD,-7.2174273,-15.013655,-44.45867
GYROSCOPE,0.04642576,-1.5827519,-1.881465
ORIENTATION,47,333,360
ACCELEROMETER,0.001396656,4.3477526,8.593273
MAGNETIC_FIELD,-9.516821,-18.39599,-42.314503
GYROSCOPE,0.2657264,-1.2684617,-1.461495
ORIENTATION,72,332,1
ACCELEROMETER,-0.20350711,4.5002627,8.506063
MAGNETIC_FIELD,-11.3558655,-22.248993,-39.53713
GYROSCOPE,-0.4352415,-0.9877691,-1.6218473
ORIENTATION,94,332,3
ACCELEROMETER,-0.4275146,4.619733,8.507245
MAGNETIC_FIELD,-11.746399,-25.845745,-37.018845
GYROSCOPE,-0.25961772,-0.5354234,-1.352761
ORIENTATION,105,329,3
ACCELEROMETER,-0.39784896,5.0183372,8.389318
MAGNETIC_FIELD,-10.8678,-28.92281,-34.926384
GYROSCOPE,0.31673363,-0.7449502,-0.29565877
ORIENTATION,124,330,0
ACCELEROMETER,-0.040710777,4.938109,8.435099
MAGNETIC_FIELD,-9.98835,-31.230606,-33.255787
GYROSCOPE,-0.36285394,-0.47891834,-1.2260065
ORIENTATION,138,330,359
ACCELEROMETER,0.15501755,4.8363385,8.408381
MAGNETIC_FIELD,-8.753013,-33.250206,-31.65709
GYROSCOPE,-0.32345316,-0.56077427,-1.5592335
ORIENTATION,148,330,358
ACCELEROMETER,0.26515257,4.92536,8.378767
MAGNETIC_FIELD,-6.9895096,-34.764904,-30.583567
GYROSCOPE,0.20250183,-0.8906415,-0.99387777
ORIENTATION,152,325,358
ACCELEROMETER,0.28804845,5.373553,7.7907763
MAGNETIC_FIELD,-4.111132,-35.90093,-29.580425
GYROSCOPE,1.1936307,-0.3173445,-0.24678956
ORIENTATION,164,325,359
ACCELEROMETER,0.16964868,5.5156174,7.7518597
MAGNETIC_FIELD,-1.1055992,-37.218445,-27.68257
GYROSCOPE,-0.003970624,-0.03970624,-0.7669413
ORIENTATION,176,325,360
ACCELEROMETER,0.027428225,5.4397573,7.7068105
MAGNETIC_FIELD,2.6360507,-37.350586,-27.098677
GYROSCOPE,0.7703011,-0.56046885,-0.8026769
ORIENTATION,188,327,1
ACCELEROMETER,-0.10138348,5.1610994,7.8492966
MAGNETIC_FIELD,6.224288,-37.005188,-26.660757
GYROSCOPE,-0.53969944,-0.593761,-1.3481796
ORIENTATION,204,324,359
ACCELEROMETER,0.06716558,5.4521947,7.6058598
MAGNETIC_FIELD,9.6287155,-35.95689,-26.612818
GYROSCOPE,0.0125227375,-1.1285735,-0.4914411
ORIENTATION,216,324,359
ACCELEROMETER,0.1009517,5.7236376,7.9109507
MAGNETIC_FIELD,12.010786,-34.583668,-27.228113
GYROSCOPE,0.12095132,-0.33475417,-0.36377025
ORIENTATION,231,322,356
ACCELEROMETER,0.49065888,6.033163,7.743828
MAGNETIC_FIELD,13.977089,-32.91175,-27.964834
GYROSCOPE,0.9034697,-0.4364632,0.15363261
ORIENTATION,240,322,356
ACCELEROMETER,0.48860207,6.093374,7.667866
MAGNETIC_FIELD,14.659317,-32.57506,-28.121876
GYROSCOPE,0.17989981,-0.68630713,0.4456262
ORIENTATION,243,321,357
ACCELEROMETER,0.40371132,6.01957,7.487294
MAGNETIC_FIELD,15.597988,-31.528797,-28.603657
GYROSCOPE,0.19028452,-0.11362094,-0.15821409
ORIENTATION,248,321,357
ACCELEROMETER,0.40363923,6.171315,7.608494
MAGNETIC_FIELD,16.459991,-30.744099,-28.846992
GYROSCOPE,0.29810223,-0.40469822,-0.5500842
ORIENTATION,247,323,357
ACCELEROMETER,0.42573154,5.9192605,7.7869315
MAGNETIC_FIELD,16.932743,-30.155575,-29.029495
GYROSCOPE,-0.21502456,-0.5479461,-0.3707952
ORIENTATION,251,322,357
ACCELEROMETER,0.33486098,5.8728237,7.4262075
MAGNETIC_FIELD,17.454557,-28.51893,-29.792122
GYROSCOPE,0.048563786,-0.2660318,-0.1554652
ORIENTATION,259,320,357
ACCELEROMETER,0.41963768,5.9626446,7.2123775
MAGNETIC_FIELD,17.967419,-26.735699,-30.364092
GYROSCOPE,0.24556783,0.19150625,-0.36865717
ORIENTATION,256,325,359
ACCELEROMETER,0.13007545,5.764104,8.202269
MAGNETIC_FIELD,18.171314,-25.474274,-30.962069
GYROSCOPE,-0.70554936,-0.46731192,-0.6264423
ORIENTATION,260,325,359
ACCELEROMETER,0.15157577,5.699445,8.071103
MAGNETIC_FIELD,18.161486,-24.099705,-31.798801
GYROSCOPE,-0.24801129,-0.10476339,0.23457226
ORIENTATION,266,324,357
ACCELEROMETER,0.39155886,5.805077,7.923648
MAGNETIC_FIELD,18.379114,-23.068779,-32.2806
GYROSCOPE,0.453262,0.5006041,-0.28191432
ORIENTATION,269,323,355
ACCELEROMETER,0.7196874,5.892681,7.856152
MAGNETIC_FIELD,18.542336,-22.556583,-32.641953
GYROSCOPE,-0.070554934,-0.5381723,-1.2767084
ORIENTATION,268,324,352
ACCELEROMETER,1.1568711,5.695321,7.7756023
MAGNETIC_FIELD,18.107002,-21.624687,-33.314713
GYROSCOPE,-0.37720928,-0.7156286,-1.6102408
ORIENTATION,272,324,353
ACCELEROMETER,0.9857174,5.5912943,7.539815
MAGNETIC_FIELD,16.763752,-19.152016,-34.951035
GYROSCOPE,0.05100725,-1.3277156,-1.3466524
ORIENTATION,284,323,356
ACCELEROMETER,0.6061106,5.9039783,7.8757825
MAGNETIC_FIELD,14.213814,-16.12601,-36.849777
GYROSCOPE,-0.08979719,-0.84971356,-0.8533788
ORIENTATION,297,327,1
ACCELEROMETER,-0.08456135,5.318477,8.056979
MAGNETIC_FIELD,11.26611,-13.692759,-38.273834
GYROSCOPE,0.17562376,-0.33628133,-0.7535023
ORIENTATION,311,327,1
ACCELEROMETER,-0.10756411,5.2784348,8.147238
MAGNETIC_FIELD,8.835083,-12.352319,-39.341877
GYROSCOPE,-0.122783914,-0.1554652,-0.4538729
ORIENTATION,325,325,0
ACCELEROMETER,-0.014383614,5.593617,7.959949
MAGNETIC_FIELD,6.6760626,-11.887739,-40.23066
GYROSCOPE,0.055588737,-0.31764993,-0.15882497
ORIENTATION,339,323,1
ACCELEROMETER,-0.14650902,5.957046,7.7874603
MAGNETIC_FIELD,5.056797,-11.539305,-40.897243
GYROSCOPE,-0.09682214,-0.3885103,-0.63163465
ORIENTATION,342,322,360
ACCELEROMETER,0.011623979,6.0216217,7.792468
MAGNETIC_FIELD,4.090098,-11.963979,-41.223434
GYROSCOPE,-0.35369098,-0.16310102,-0.3915646
ORIENTATION,348,322,1
ACCELEROMETER,-0.12685369,6.1116524,7.7089853
MAGNETIC_FIELD,2.6358235,-11.825984,-41.636326
GYROSCOPE,0.5039638,-0.6395759,-0.27275133
ORIENTATION,356,321,2
ACCELEROMETER,-0.29086626,6.334799,7.838358
MAGNETIC_FIELD,1.4296176,-11.188988,-42.207245
GYROSCOPE,0.34605515,-0.37507126,-0.24862215
ORIENTATION,10,323,6
ACCELEROMETER,-0.78243315,5.845249,7.7624063
MAGNETIC_FIELD,0.6709632,-11.812241,-42.37493
GYROSCOPE,0.16493362,0.27885997,-0.33505958
ORIENTATION,8,322,4
ACCELEROMETER,-0.5486673,5.996432,7.582291
MAGNETIC_FIELD,0.28097242,-13.152181,-42.500698
GYROSCOPE,-0.23640485,-0.11759156,-0.3268129
ORIENTATION,360,323,0
ACCELEROMETER,-0.03411448,5.911998,7.730768
MAGNETIC_FIELD,-1.0137706,-14.497386,-42.595024
GYROSCOPE,0.0143553335,-0.2302962,-1.3723087
ORIENTATION,3,325,360
ACCELEROMETER,0.06434634,5.667012,8.054611
MAGNETIC_FIELD,-2.9593277,-15.793539,-42.378517
GYROSCOPE,-0.19914207,-1.2855659,-2.0015
ORIENTATION,7,326,358
ACCELEROMETER,0.32912955,5.6305165,8.4363575
MAGNETIC_FIELD,-5.655246,-17.526653,-41.63664
GYROSCOPE,-0.19792034,-1.5454891,-1.6120734
ORIENTATION,25,327,358
ACCELEROMETER,0.37014854,5.5615454,8.4917755
MAGNETIC_FIELD,-8.686934,-19.68374,-39.97373
GYROSCOPE,0.064446285,-1.6930131,-1.9526308
ORIENTATION,48,326,358
ACCELEROMETER,0.3154697,5.658557,8.312176
MAGNETIC_FIELD,-10.767701,-22.827055,-37.804546
GYROSCOPE,0.38728857,-1.402852,-1.3234396
ORIENTATION,89,328,2
ACCELEROMETER,-0.23655179,5.086078,8.281174
MAGNETIC_FIELD,-11.467775,-26.37429,-34.82766
GYROSCOPE,0.0067195175,-1.2357804,-1.0268645
ORIENTATION,108,328,3
ACCELEROMETER,-0.45289668,5.2690363,8.422674
MAGNETIC_FIELD,-10.993582,-29.849216,-31.318995
GYROSCOPE,-0.6224717,-0.6545421,-1.3081679
ORIENTATION,119,325,4
ACCELEROMETER,-0.5303108,5.6531568,8.135402
MAGNETIC_FIELD,-9.761686,-32.55791,-28.809496
GYROSCOPE,0.39920044,-0.52106804,-0.51893
ORIENTATION,127,323,6
ACCELEROMETER,-0.7869405,6.0084343,8.020504
MAGNETIC_FIELD,-7.6252646,-34.700935,-26.743372
GYROSCOPE,0.21930063,-0.75625116,-0.46303585
ORIENTATION,145,326,5
ACCELEROMETER,-0.70378035,5.5220656,8.174648
MAGNETIC_FIELD,-5.4124484,-36.51295,-25.000029
GYROSCOPE,0.05009095,-0.63499445,-0.21074851
ORIENTATION,154,326,6
ACCELEROMETER,-0.8785858,5.416013,7.9353166
MAGNETIC_FIELD,-3.1915863,-37.481712,-23.97002
GYROSCOPE,-0.41630468,-0.24617869,-0.3032946
ORIENTATION,159,324,8
ACCELEROMETER,-0.98589754,5.405456,7.4379873
MAGNETIC_FIELD,-1.3261898,-38.208282,-23.104015
GYROSCOPE,0.35338554,0.06841691,0.68844515
ORIENTATION,167,329,9
ACCELEROMETER,-1.3366268,5.0476856,8.41966
MAGNETIC_FIELD,-0.4083923,-39.103714,-21.73801
GYROSCOPE,-0.88514376,0.6087272,0.93523467
ORIENTATION,169,330,11
ACCELEROMETER,-1.5842611,4.9641604,8.455011
MAGNETIC_FIELD,-1.1350442,-39.417534,-21.048508
GYROSCOPE,-0.035430185,0.870483,1.4184291
ORIENTATION,168,328,10
ACCELEROMETER,-1.4749014,5.1864266,8.21128
MAGNETIC_FIELD,-2.941533,-38.9179,-21.100632
GYROSCOPE,0.30940324,1.3558154,1.3921618
ORIENTATION,164,326,8
ACCELEROMETER,-1.1583996,5.4161234,7.999601
MAGNETIC_FIELD,-5.1826496,-37.910927,-21.915474
GYROSCOPE,0.029626964,0.62125,0.42241332
ORIENTATION,158,324,6
ACCELEROMETER,-0.8040066,5.561162,7.734749
MAGNETIC_FIELD,-7.556487,-36.824196,-22.393105
GYROSCOPE,0.22052236,0.18173242,0.54061574
ORIENTATION,152,325,5
ACCELEROMETER,-0.6755792,5.5698338,7.8053074
MAGNETIC_FIELD,-10.037365,-35.704147,-22.751328
GYROSCOPE,0.010079277,-0.22082779,0.19517145
ORIENTATION,144,324,5
ACCELEROMETER,-0.7033082,5.7336063,7.9602795
MAGNETIC_FIELD,-12.012524,-34.03811,-23.862995
GYROSCOPE,0.18936823,0.06078109,0.33078352
ORIENTATION,138,327,7
ACCELEROMETER,-0.9650215,5.4371514,8.271337
MAGNETIC_FIELD,-13.493893,-32.947582,-24.515997
GYROSCOPE,-0.64568454,-0.13652839,0.53969944
ORIENTATION,132,325,5
ACCELEROMETER,-0.7032658,5.508399,7.970423
MAGNETIC_FIELD,-14.6811695,-31.435186,-25.800247
GYROSCOPE,-0.015577064,0.5552765,0.19456059
ORIENTATION,128,327,5
ACCELEROMETER,-0.77435136,5.3686523,8.2731085
MAGNETIC_FIELD,-16.001877,-29.85289,-26.947685
GYROSCOPE,0.055588737,0.24098633,-0.06658431
ORIENTATION,124,329,4
ACCELEROMETER,-0.6555823,5.2185025,8.495783
MAGNETIC_FIELD,-17.164907,-28.557417,-27.808264
GYROSCOPE,0.034208454,-0.113926366,0.069027774
