ORIENTATION,0,0,0
ACCELEROMETER,0.12659341,0.82824415,2.2152352
MAGNETIC_FIELD,-1.87775,0.154,-10.36375
GYROSCOPE,-0.03023783,0.023518313,-0.047036625
ORIENTATION,19,339,357
ACCELEROMETER,0.19699791,1.4732196,3.8687305
MAGNETIC_FIELD,-3.1170626,0.16425,-18.310062
GYROSCOPE,0.14080444,0.023518313,0.113926366
ORIENTATION,19,339,357
ACCELEROMETER,0.24097267,1.903381,5.061118
MAGNETIC_FIELD,-3.524797,0.1719375,-24.156796
GYROSCOPE,0.0021380284,0.2049453,-0.040317107
ORIENTATION,14,339,357
ACCELEROMETER,0.33725044,2.3350878,6.158766
MAGNETIC_FIELD,-3.4905977,0.028703123,-28.541847
GYROSCOPE,-0.20616703,0.16218472,-0.007330383
ORIENTATION,10,338,357
ACCELEROMETER,0.36995444,2.6793683,6.73091
MAGNETIC_FIELD,-3.5714483,-0.078722656,-31.969135
GYROSCOPE,0.15424347,0.08460484,-0.23487769
ORIENTATION,10,338,357
ACCELEROMETER,0.35198537,2.9366808,7.3327
MAGNETIC_FIELD,-3.6320863,-0.323542,-34.425102
GYROSCOPE,-0.0067195175,-0.18784106,-0.027488936
ORIENTATION,10,338,358
ACCELEROMETER,0.30424154,3.1833851,7.6996465
MAGNETIC_FIELD,-3.8550649,-0.77740645,-36.37433
GYROSCOPE,-0.052839845,0.064751714,-0.09773844
ORIENTATION,11,337,358
ACCELEROMETER,0.25152463,3.363176,7.9884734
MAGNETIC_FIELD,-4.022299,-1.1178048,-37.836246
GYROSCOPE,-0.0030543262,0.019242255,0.014049901
ORIENTATION,12,337,358
ACCELEROMETER,0.23877206,3.4954753,8.1838455
MAGNETIC_FIELD,-3.9172242,-1.3731036,-38.932686
GYROSCOPE,0.0015271631,0.09132435,0.01740966
ORIENTATION,11,336,358
ACCELEROMETER,0.25030655,3.6717632,8.336061
MAGNETIC_FIELD,-3.838418,-1.5645777,-39.755013
GYROSCOPE,0.041233405,0.022907447,0.105068825
ORIENTATION,11,336,358
ACCELEROMETER,0.23157373,3.711054,8.456207
MAGNETIC_FIELD,-3.7793136,-1.7081833,-40.371758
GYROSCOPE,-0.017715093,0.056199603,-0.06352998
ORIENTATION,11,336,359
ACCELEROMETER,0.21138898,3.755486,8.610362
MAGNETIC_FIELD,-3.734985,-1.9916375,-40.83432
GYROSCOPE,0.009162978,-0.040011674,0.028405234
ORIENTATION,9,336,358
ACCELEROMETER,0.3243402,3.7922516,8.713408
MAGNETIC_FIELD,-3.608739,-2.0517282,-41.18124
GYROSCOPE,0.073303826,-0.011301007,-0.10048734
ORIENTATION,8,336,358
ACCELEROMETER,0.32929677,3.8696551,8.720513
MAGNETIC_FIELD,-3.800054,-2.181796,-41.44143
GYROSCOPE,0.22693644,-0.3051272,0.033292156
ORIENTATION,8,335,358
ACCELEROMETER,0.32523304,3.9881616,8.665688
MAGNETIC_FIELD,-3.9435406,-2.472097,-41.636574
GYROSCOPE,0.19730948,0.089186326,0.025045475
ORIENTATION,8,334,358
ACCELEROMETER,0.33684975,4.1303124,8.620678
MAGNETIC_FIELD,-3.9726553,-3.0223227,-41.78293
GYROSCOPE,-0.006414085,0.03359759,0.045814894
ORIENTATION,8,334,358
ACCELEROMETER,0.3409235,4.234681,8.627024
MAGNETIC_FIELD,-3.8544915,-3.4349918,-41.892696
GYROSCOPE,0.0125227375,0.037873644,0.0
ORIENTATION,8,333,358
ACCELEROMETER,0.32003677,4.331213,8.579859
MAGNETIC_FIELD,-3.7658687,-3.744494,-41.97502
GYROSCOPE,-0.058643065,0.015882496,-0.027183503
ORIENTATION,8,333,358
ACCELEROMETER,0.30601776,4.4248605,8.551967
MAGNETIC_FIELD,-3.6994014,-3.9766204,-42.036766
GYROSCOPE,-0.004276057,0.04917465,-0.023823744
ORIENTATION,9,333,358
ACCELEROMETER,0.26303214,4.430303,8.635944
MAGNETIC_FIELD,-3.649551,-4.001715,-42.187576
GYROSCOPE,-0.07880162,-0.02076942,-0.032070424
ORIENTATION,8,332,358
ACCELEROMETER,0.25937372,4.4667068,8.460854
MAGNETIC_FIELD,-3.612163,-3.8525364,-42.300682
GYROSCOPE,-0.2950479,-0.017715093,0.118507855
ORIENTATION,10,332,359
ACCELEROMETER,0.13811691,4.4435816,8.446852
MAGNETIC_FIELD,-3.5841222,-3.8406525,-42.385513
GYROSCOPE,-0.13194689,0.20219639,-0.01740966
ORIENTATION,12,333,359
ACCELEROMETER,0.08488298,4.305181,8.617412
MAGNETIC_FIELD,-3.5630918,-3.6272392,-42.449135
GYROSCOPE,-0.2687807,0.073303826,-0.13652839
ORIENTATION,10,333,359
ACCELEROMETER,0.12770712,4.335306,8.585369
MAGNETIC_FIELD,-3.547319,-3.4671793,-42.49685
GYROSCOPE,0.1469131,-0.11911872,0.08735373
ORIENTATION,9,333,359
ACCELEROMETER,0.17957741,4.344433,8.660696
MAGNETIC_FIELD,-3.535489,-3.3471346,-42.53264
GYROSCOPE,0.0021380284,-0.040927973,-0.061086524
ORIENTATION,9,333,359
ACCELEROMETER,0.19558556,4.333172,8.533437
MAGNETIC_FIELD,-3.5266168,-3.362851,-42.55948
GYROSCOPE,0.14477506,-0.0842994,-0.033292156
ORIENTATION,8,332,358
ACCELEROMETER,0.24978948,4.453414,8.423178
MAGNETIC_FIELD,-3.5199625,-3.374638,-42.57961
GYROSCOPE,-0.116675265,0.02443461,-0.0015271631
ORIENTATION,8,333,358
ACCELEROMETER,0.24465331,4.398148,8.555364
MAGNETIC_FIELD,-3.4397218,-3.3834786,-42.594707
GYROSCOPE,-0.40378192,0.116675265,-0.011911872
ORIENTATION,8,333,358
ACCELEROMETER,0.25800952,4.337246,8.571155
MAGNETIC_FIELD,-3.3795414,-3.4668589,-42.60603
GYROSCOPE,0.28069258,0.008552114,0.034208454
ORIENTATION,7,333,358
ACCELEROMETER,0.26323825,4.30354,8.620108
MAGNETIC_FIELD,-3.334406,-3.5293941,-42.61452
GYROSCOPE,-0.031154128,0.045814894,0.02565634
ORIENTATION,7,334,358
ACCELEROMETER,0.26820728,4.2586584,8.62884
MAGNETIC_FIELD,-3.3005543,-3.5762956,-42.62089
GYROSCOPE,0.06291912,-0.01740966,6.1086525E-4
ORIENTATION,7,334,358
ACCELEROMETER,0.3032083,4.259264,8.640926
MAGNETIC_FIELD,-3.2751656,-3.6114717,-42.625668
GYROSCOPE,0.005497787,-0.018325957,0.030543262
ORIENTATION,6,334,358
ACCELEROMETER,0.30551705,4.206447,8.581607
MAGNETIC_FIELD,-3.256124,-3.6378536,-42.62925
GYROSCOPE,6.1086525E-4,0.01740966,-0.0076358155
ORIENTATION,6,335,358
ACCELEROMETER,0.36455983,4.1514215,8.724763
MAGNETIC_FIELD,-3.241843,-3.6576402,-42.631935
GYROSCOPE,-0.12461651,-0.02321288,-0.041233405
ORIENTATION,6,335,358
ACCELEROMETER,0.33701587,4.143223,8.780056
MAGNETIC_FIELD,-3.2311323,-3.67248,-42.63395
GYROSCOPE,-0.03634648,0.016187929,-0.042455133
ORIENTATION,7,335,358
ACCELEROMETER,0.2976532,4.1143284,8.7402725
MAGNETIC_FIELD,-3.2230992,-3.68361,-42.63546
GYROSCOPE,-0.020158553,-0.011301007,-0.021685716
ORIENTATION,6,335,358
ACCELEROMETER,0.34130397,4.1151032,8.834634
MAGNETIC_FIELD,-3.2170744,-3.6919575,-42.636597
GYROSCOPE,-0.22235495,-0.027183503,0.06261369
ORIENTATION,6,335,358
ACCELEROMETER,0.32855222,4.1222687,8.875178
MAGNETIC_FIELD,-3.212556,-3.698218,-42.637447
GYROSCOPE,-0.13164146,0.16432275,0.002443461
ORIENTATION,6,335,358
ACCELEROMETER,0.34412754,4.1746287,8.858151
MAGNETIC_FIELD,-3.209167,-3.7029135,-42.638084
GYROSCOPE,0.07788532,-0.06078109,-0.082161374
ORIENTATION,6,335,358
ACCELEROMETER,0.31376085,4.1880116,8.818746
MAGNETIC_FIELD,-3.2066252,-3.7064352,-42.638565
GYROSCOPE,0.03268129,-0.040011674,-0.058948494
ORIENTATION,7,334,358
ACCELEROMETER,0.3001137,4.230969,8.816575
MAGNETIC_FIELD,-3.2047188,-3.7090764,-42.638924
GYROSCOPE,-0.0143553335,-0.067500606,0.021991149
ORIENTATION,6,334,358
ACCELEROMETER,0.31875843,4.2525625,8.795344
MAGNETIC_FIELD,-3.203289,-3.7110572,-42.63919
GYROSCOPE,0.0012217305,0.016493361,-0.004581489
ORIENTATION,6,334,358
ACCELEROMETER,0.3508481,4.273696,8.75548
MAGNETIC_FIELD,-3.2907166,-3.712543,-42.639393
GYROSCOPE,-0.036651913,-0.07666359,0.005192355
ORIENTATION,5,334,358
ACCELEROMETER,0.3782074,4.256925,8.759998
MAGNETIC_FIELD,-3.3562875,-3.7136574,-42.639545
GYROSCOPE,-0.030848695,-0.0012217305,-0.020463986
ORIENTATION,5,334,357
ACCELEROMETER,0.40186924,4.2783146,8.747974
MAGNETIC_FIELD,-3.4054656,-3.714493,-42.63966
GYROSCOPE,0.03359759,-0.03176499,-0.023823744
ORIENTATION,5,334,357
ACCELEROMETER,0.41407904,4.3085723,8.718306
MAGNETIC_FIELD,-3.521099,-3.7151198,-42.639744
GYROSCOPE,-0.0290161,-0.004886922,-0.004581489
ORIENTATION,5,334,357
ACCELEROMETER,0.4364045,4.2944546,8.706828
MAGNETIC_FIELD,-3.6078243,-3.71559,-42.63981
GYROSCOPE,-0.032375857,0.010079277,-0.021991149
ORIENTATION,5,334,357
ACCELEROMETER,0.4401301,4.3025713,8.667395
MAGNETIC_FIELD,-3.6728683,-3.7159424,-42.639854
GYROSCOPE,0.031154128,0.013439035,-0.003970624
ORIENTATION,5,333,357
ACCELEROMETER,0.4391834,4.3128486,8.635575
MAGNETIC_FIELD,-3.721651,-3.7162068,-42.639893
GYROSCOPE,0.036957346,0.02443461,-0.0143553335
ORIENTATION,6,334,357
ACCELEROMETER,0.41961902,4.3135233,8.65346
MAGNETIC_FIELD,-3.7582383,-3.7164052,-42.63992
GYROSCOPE,0.02443461,0.0106901415,-0.014049901
ORIENTATION,7,334,357
ACCELEROMETER,0.39372292,4.3047523,8.674055
MAGNETIC_FIELD,-3.7856789,-3.716554,-42.63994
GYROSCOPE,-0.0030543262,0.01863139,-0.011911872
ORIENTATION,7,334,358
ACCELEROMETER,0.37474975,4.294882,8.679327
MAGNETIC_FIELD,-3.8062592,-3.7166655,-42.639954
GYROSCOPE,-0.017715093,0.009468411,-0.02687807
ORIENTATION,7,334,358
ACCELEROMETER,0.36246517,4.2946615,8.646919
MAGNETIC_FIELD,-3.8216944,-3.7167492,-42.639965
GYROSCOPE,0.0012217305,0.002443461,-0.016493361
ORIENTATION,7,333,357
ACCELEROMETER,0.37749302,4.309909,8.607649
MAGNETIC_FIELD,-3.9137707,-3.716812,-42.639973
GYROSCOPE,0.053450707,0.008552114,0.003970624
ORIENTATION,8,333,358
ACCELEROMETER,0.36018312,4.3018913,8.603635
MAGNETIC_FIELD,-3.9828281,-3.7168589,-42.63998
GYROSCOPE,0.017104227,-0.014660766,0.03604105
ORIENTATION,8,333,358
ACCELEROMETER,0.37204054,4.309645,8.588055
MAGNETIC_FIELD,-4.0346212,-3.7168941,-42.639984
GYROSCOPE,-6.1086525E-4,-3.0543262E-4,0.018020526
ORIENTATION,7,333,357
ACCELEROMETER,0.3987405,4.3121686,8.603304
MAGNETIC_FIELD,-4.073466,-3.7169206,-42.639988
GYROSCOPE,0.022296581,0.012217305,0.016187929
ORIENTATION,8,333,357
ACCELEROMETER,0.39527237,4.317652,8.610851
GYROSCOPE,0.017104227,6.1086525E-4,-0.0018325958
MAGNETIC_FIELD,-4.102599,-3.7999403,-42.63999
ORIENTATION,7,333,357
ACCELEROMETER,0.41960603,4.3492985,8.597807
MAGNETIC_FIELD,-4.1244493,-3.8622053,-42.63999
GYROSCOPE,0.043982297,0.012217305,-0.0012217305
ORIENTATION,7,333,357
ACCELEROMETER,0.4444403,4.373931,8.566774
MAGNETIC_FIELD,-4.1408367,-3.9089038,-42.63999
GYROSCOPE,0.045814894,0.013439035,-0.005192355
ORIENTATION,8,333,358
ACCELEROMETER,0.37477985,4.334795,8.683112
MAGNETIC_FIELD,-4.1531277,-3.9439278,-42.63999
GYROSCOPE,-0.16462818,-0.002443461,-0.09407325
ORIENTATION,9,333,358
ACCELEROMETER,0.3427356,4.3431516,8.631053
MAGNETIC_FIELD,-4.162346,-3.9701958,-42.63999
GYROSCOPE,0.059253927,0.12980886,-0.008552114
ORIENTATION,10,332,358
ACCELEROMETER,0.22862054,4.5255423,8.482175
MAGNETIC_FIELD,-4.1692595,-3.9898968,-42.63999
GYROSCOPE,0.30879238,0.032986723,0.11484267
ORIENTATION,11,332,359
ACCELEROMETER,0.21306467,4.438029,8.474215
MAGNETIC_FIELD,-4.1744447,-4.0046725,-42.63999
GYROSCOPE,0.006414085,0.15241088,0.01740966
ORIENTATION,11,330,359
ACCELEROMETER,0.13061917,4.6740627,8.256657
MAGNETIC_FIELD,-4.1783333,-4.0962543,-42.63999
GYROSCOPE,0.030848695,0.27030787,-0.08857546
