ORIENTATION,0,0,0
ACCELEROMETER,0.034865562,1.2364556,2.3549967
MAGNETIC_FIELD,-0.7955,-9.54275,-6.7255
GYROSCOPE,-0.61453044,-0.51159966,-0.28313604
ORIENTATION,169,331,2
ACCELEROMETER,-0.12288989,2.1272857,3.7941363
MAGNETIC_FIELD,-1.9143751,-16.699814,-11.870874
GYROSCOPE,-0.02687807,-0.51159966,-0.3659083
ORIENTATION,166,331,1
ACCELEROMETER,-0.11880291,2.7885249,4.954894
MAGNETIC_FIELD,-2.5212812,-22.067612,-15.729906
GYROSCOPE,0.032986723,-0.14385876,-0.1600467
ORIENTATION,166,329,1
ACCELEROMETER,-0.082817405,3.3930912,5.7347817
MAGNETIC_FIELD,-2.815461,-26.09346,-18.62418
GYROSCOPE,-0.21624629,-0.36285394,-0.12370021
ORIENTATION,165,328,2
ACCELEROMETER,-0.19020283,3.8487606,6.265379
MAGNETIC_FIELD,-3.1790957,-29.112846,-20.966885
GYROSCOPE,0.31306845,-0.05681047,-0.21166481
ORIENTATION,164,326,1
ACCELEROMETER,-0.1568677,4.293613,6.4649076
MAGNETIC_FIELD,-3.1853218,-31.377384,-22.723913
GYROSCOPE,0.5109888,0.20372356,-0.48991394
ORIENTATION,158,326,6
ACCELEROMETER,-0.67669684,4.6396723,6.7213955
MAGNETIC_FIELD,-2.9107413,-33.07579,-23.957436
GYROSCOPE,0.1685988,-0.20005837,-0.5314528
ORIENTATION,166,329,3
ACCELEROMETER,-0.37314805,4.4648185,7.386915
MAGNETIC_FIELD,-1.879056,-34.27059,-24.882576
GYROSCOPE,-0.22815818,-0.13164146,-0.7449502
ORIENTATION,170,329,2
ACCELEROMETER,-0.30739436,4.482568,7.460635
MAGNETIC_FIELD,-1.105292,-35.166695,-25.576431
GYROSCOPE,-0.2452624,-0.7467828,-0.3680463
ORIENTATION,173,328,2
ACCELEROMETER,-0.27349177,4.698489,7.4197083
MAGNETIC_FIELD,-0.34471893,-35.83877,-26.096825
GYROSCOPE,0.052839845,-0.23823744,-0.20738874
ORIENTATION,175,326,2
ACCELEROMETER,-0.28367856,5.2038484,7.7578697
MAGNETIC_FIELD,0.47121078,-36.26283,-26.487118
GYROSCOPE,0.54519725,0.03573562,-0.07666359
ORIENTATION,173,325,5
ACCELEROMETER,-0.60600656,5.2437887,7.3497934
MAGNETIC_FIELD,1.083158,-36.58087,-26.583338
GYROSCOPE,-0.10048734,-0.24373524,0.5516113
ORIENTATION,177,323,4
ACCELEROMETER,-0.46976796,5.2252617,6.993907
MAGNETIC_FIELD,2.0441184,-36.819405,-26.655502
GYROSCOPE,0.10781772,0.95142263,0.1020145
ORIENTATION,182,325,3
ACCELEROMETER,-0.40439987,5.4245996,7.6194305
MAGNETIC_FIELD,2.3553388,-36.998302,-26.463877
GYROSCOPE,0.49571714,0.36071593,-0.70371675
ORIENTATION,186,326,2
ACCELEROMETER,-0.23267096,5.1828012,7.817281
MAGNETIC_FIELD,2.710504,-37.132477,-26.038658
GYROSCOPE,-0.38545597,-0.56291234,-0.1826487
ORIENTATION,186,326,2
ACCELEROMETER,-0.25904846,5.119816,7.568081
MAGNETIC_FIELD,3.5811281,-37.23311,-26.007494
GYROSCOPE,-0.24404067,-0.21074851,-0.32895094
ORIENTATION,191,324,2
ACCELEROMETER,-0.19697982,5.2997265,7.420686
MAGNETIC_FIELD,4.412596,-37.308582,-25.80162
GYROSCOPE,0.05467244,0.17684549,0.06261369
ORIENTATION,193,327,1
ACCELEROMETER,-0.12768343,5.119373,8.011789
MAGNETIC_FIELD,5.255947,-37.36519,-25.557716
GYROSCOPE,-0.2678644,0.310625,-0.22296582
ORIENTATION,194,330,1
ACCELEROMETER,-0.15995711,5.0581784,8.645157
MAGNETIC_FIELD,5.49096,-37.407642,-25.087036
GYROSCOPE,-0.30787608,-0.1020145,-0.21960606
ORIENTATION,192,329,3
ACCELEROMETER,-0.43480533,5.0968275,8.603784
MAGNETIC_FIELD,5.50347,-37.439484,-25.035276
GYROSCOPE,0.15668693,-0.2837469,0.2434298
ORIENTATION,190,329,4
ACCELEROMETER,-0.6608433,5.0093966,8.449602
MAGNETIC_FIELD,5.6418524,-37.463364,-24.996456
GYROSCOPE,0.086132,-0.121256754,0.64476824
ORIENTATION,191,331,4
ACCELEROMETER,-0.6138462,4.8702016,8.611693
MAGNETIC_FIELD,5.5343895,-37.481274,-24.854591
GYROSCOPE,-0.15302174,0.46792278,1.4147639
ORIENTATION,188,331,6
ACCELEROMETER,-0.94027245,4.72241,8.493542
MAGNETIC_FIELD,4.392542,-37.586956,-24.748194
GYROSCOPE,0.21899518,0.5131268,1.4288138
ORIENTATION,185,332,6
ACCELEROMETER,-0.8681597,4.7300797,8.806256
MAGNETIC_FIELD,2.4236565,-37.666218,-24.668396
GYROSCOPE,-0.09896017,0.956615,2.0405953
ORIENTATION,179,333,7
ACCELEROMETER,-1.0298525,4.485189,8.900732
MAGNETIC_FIELD,-1.3952577,-37.725662,-24.948048
GYROSCOPE,0.105374254,0.96974856,1.7663169
ORIENTATION,173,333,4
ACCELEROMETER,-0.5444913,4.473604,8.8016
MAGNETIC_FIELD,-5.0806932,-37.0645,-25.656786
GYROSCOPE,-0.06627888,1.6911805,2.3533583
ORIENTATION,164,333,3
ACCELEROMETER,-0.45580357,4.370644,8.668593
MAGNETIC_FIELD,-8.07827,-34.541374,-27.90384
GYROSCOPE,-0.48349985,1.5738943,1.2461652
ORIENTATION,152,333,3
ACCELEROMETER,-0.47113955,4.376622,8.407529
MAGNETIC_FIELD,-9.770203,-31.15678,-30.38938
GYROSCOPE,-0.35918877,1.3213016,0.5653558
ORIENTATION,139,330,1
ACCELEROMETER,-0.18650872,4.749065,8.349398
MAGNETIC_FIELD,-10.541402,-27.226086,-32.861286
GYROSCOPE,-0.23487769,0.4700608,0.729984
ORIENTATION,123,331,2
ACCELEROMETER,-0.35356402,4.7217894,8.340814
MAGNETIC_FIELD,-10.641802,-23.024565,-35.136215
GYROSCOPE,-0.06841691,0.32436943,0.5946773
ORIENTATION,108,332,4
ACCELEROMETER,-0.63881814,4.5172787,8.437177
MAGNETIC_FIELD,-10.344351,-19.475424,-37.22441
GYROSCOPE,0.18600847,0.29810223,0.7281514
ORIENTATION,89,332,4
ACCELEROMETER,-0.5558777,4.431831,8.166031
MAGNETIC_FIELD,-9.525513,-15.885068,-38.994057
GYROSCOPE,0.21380283,0.514654,0.44532076
ORIENTATION,72,332,3
ACCELEROMETER,-0.45506585,4.4902983,8.610602
MAGNETIC_FIELD,-8.2743845,-13.100552,-40.40879
GYROSCOPE,0.42180246,0.39522982,-0.5729916
ORIENTATION,64,335,3
ACCELEROMETER,-0.50096273,4.042589,8.58116
MAGNETIC_FIELD,-7.3360386,-11.686164,-41.566345
GYROSCOPE,-0.07391469,-0.3979787,-0.2144137
ORIENTATION,50,333,3
ACCELEROMETER,-0.46969447,4.2056994,8.361257
MAGNETIC_FIELD,-6.779029,-10.993373,-42.43451
GYROSCOPE,-0.21227567,-0.09254608,-0.33017266
ORIENTATION,36,330,2
ACCELEROMETER,-0.2852332,4.548897,7.947632
MAGNETIC_FIELD,-6.5067716,-10.302279,-43.23313
GYROSCOPE,0.060170226,0.16157386,-0.1518
ORIENTATION,34,333,1
ACCELEROMETER,-0.119952485,4.5023813,8.843343
MAGNETIC_FIELD,-6.110079,-10.358709,-43.8321
GYROSCOPE,-0.14538592,0.13713925,-0.75319684
ORIENTATION,30,332,0
ACCELEROMETER,-0.053901702,4.5477004,8.683889
MAGNETIC_FIELD,-6.375309,-10.4010315,-44.281326
GYROSCOPE,-0.053450707,-0.83169305,-0.19058995
ORIENTATION,28,331,0
ACCELEROMETER,-0.015137523,4.586179,8.278491
MAGNETIC_FIELD,-6.7142315,-10.215274,-44.618244
GYROSCOPE,0.03573562,-0.14874569,-0.50823987
ORIENTATION,26,330,360
ACCELEROMETER,0.030096475,4.6781845,8.084276
MAGNETIC_FIELD,-6.6071734,-9.885205,-45.027435
GYROSCOPE,0.12370021,0.24648413,-0.33383787
ORIENTATION,20,331,358
ACCELEROMETER,0.29446387,4.6069784,8.20093
MAGNETIC_FIELD,-7.44538,-10.410654,-45.153828
GYROSCOPE,-0.2049453,-0.118507855,-0.71837753
ORIENTATION,18,330,356
ACCELEROMETER,0.5171304,4.767705,8.09868
MAGNETIC_FIELD,-8.727535,-10.685241,-45.24862
GYROSCOPE,0.28680122,-0.40194935,-0.025350908
ORIENTATION,27,332,357
ACCELEROMETER,0.46491116,4.5527625,8.411499
MAGNETIC_FIELD,-9.319151,-10.89118,-45.319714
GYROSCOPE,0.47739118,0.0061086523,0.046120327
ORIENTATION,36,332,359
ACCELEROMETER,0.19575375,4.404275,8.375419
MAGNETIC_FIELD,-10.2778635,-11.922635,-45.100784
GYROSCOPE,-0.06383542,-0.2519819,-0.30787608
ORIENTATION,40,333,358
ACCELEROMETER,0.3214424,4.4271345,8.604538
MAGNETIC_FIELD,-11.766647,-13.361476,-44.820087
GYROSCOPE,-0.3820962,-0.35643986,-1.0085385
ORIENTATION,39,331,356
ACCELEROMETER,0.6181686,4.682951,8.447025
MAGNETIC_FIELD,-13.202236,-14.672607,-44.609566
GYROSCOPE,0.50243664,-0.1740966,-1.2947289
ORIENTATION,51,334,354
ACCELEROMETER,0.97628486,4.493088,9.18362
MAGNETIC_FIELD,-14.009177,-17.213455,-44.253426
GYROSCOPE,-0.2660318,-0.5180137,-2.6893342
ORIENTATION,69,335,354
ACCELEROMETER,0.88663965,4.185191,8.901239
MAGNETIC_FIELD,-14.201633,-21.041092,-42.83207
GYROSCOPE,-0.034513887,-1.8319849,-2.1197023
ORIENTATION,86,333,357
ACCELEROMETER,0.4061067,4.319983,8.540414
MAGNETIC_FIELD,-12.942475,-24.91507,-41.0428
GYROSCOPE,0.18387043,-1.2308935,-1.582141
ORIENTATION,98,331,358
ACCELEROMETER,0.24023587,4.6491246,8.345961
MAGNETIC_FIELD,-10.710856,-28.335802,-39.45785
GYROSCOPE,0.9877691,-1.0931433,-1.0140363
ORIENTATION,109,329,359
ACCELEROMETER,0.08874832,5.049659,8.251446
MAGNETIC_FIELD,-9.181143,-31.829601,-37.08539
GYROSCOPE,0.39675698,-2.1444426,-0.3213151
ORIENTATION,124,327,2
ACCELEROMETER,-0.23166652,4.9105735,7.6580257
MAGNETIC_FIELD,-7.429357,-34.00995,-35.87979
GYROSCOPE,0.06566802,-0.40286562,0.10842858
ORIENTATION,140,328,2
ACCELEROMETER,-0.25500312,4.934499,7.9853897
MAGNETIC_FIELD,-5.604768,-35.502213,-35.307842
GYROSCOPE,0.3023783,0.97341377,-0.24129178
ORIENTATION,151,329,2
ACCELEROMETER,-0.22536972,4.724545,7.7917266
MAGNETIC_FIELD,-4.011326,-37.01741,-34.394382
GYROSCOPE,-0.1414153,-0.1563815,0.51923543
ORIENTATION,159,327,1
ACCELEROMETER,-0.18818091,4.8998737,7.6360044
MAGNETIC_FIELD,-2.5822444,-38.073307,-33.858788
GYROSCOPE,0.22815818,0.6542367,0.47769663
ORIENTATION,160,328,5
ACCELEROMETER,-0.6407756,4.883528,7.798736
MAGNETIC_FIELD,-1.9534333,-38.86523,-33.457092
GYROSCOPE,-0.040317107,0.15210545,0.4831944
ORIENTATION,164,331,5
ACCELEROMETER,-0.7470863,4.5859103,8.107233
MAGNETIC_FIELD,-1.9383249,-39.707424,-32.75457
GYROSCOPE,0.43493605,0.37812558,0.76052725
ORIENTATION,166,331,5
ACCELEROMETER,-0.69094837,4.5114365,8.042173
MAGNETIC_FIELD,-2.4359937,-40.84182,-31.470428
GYROSCOPE,0.053450707,0.50823987,0.8570439
ORIENTATION,167,332,4
ACCELEROMETER,-0.6519873,4.4023104,8.34383
MAGNETIC_FIELD,-3.2867453,-41.540615,-30.70807
GYROSCOPE,-0.06169739,1.0216721,0.636827
ORIENTATION,165,333,6
ACCELEROMETER,-0.87385845,4.449902,8.590424
MAGNETIC_FIELD,-4.599559,-41.942963,-30.400803
GYROSCOPE,-0.11056661,0.4783075,0.45723262
ORIENTATION,163,334,6
ACCELEROMETER,-0.8889781,4.3709736,8.965408
MAGNETIC_FIELD,-6.033169,-41.918472,-30.424852
GYROSCOPE,-0.30940324,0.22052236,0.72326446
ORIENTATION,163,334,3
ACCELEROMETER,-0.5265232,4.3189597,9.03476
MAGNETIC_FIELD,-7.7878766,-40.962605,-31.47789
GYROSCOPE,-0.14721853,0.8588765,1.0644327
ORIENTATION,155,335,6
ACCELEROMETER,-0.96142036,4.010901,8.588331
MAGNETIC_FIELD,-9.480408,-39.722954,-32.73417
GYROSCOPE,0.024129177,0.6747007,1.0070114
ORIENTATION,146,331,7
ACCELEROMETER,-1.0483227,4.746815,8.586154
MAGNETIC_FIELD,-10.466306,-37.955467,-34.51613
GYROSCOPE,-0.20586158,0.8918633,1.6432275
ORIENTATION,142,333,8
ACCELEROMETER,-1.2596954,4.7244415,9.317296
MAGNETIC_FIELD,-10.8602295,-35.59085,-36.723347
GYROSCOPE,-0.18387043,1.4691309,0.9477574
ORIENTATION,131,331,8
ACCELEROMETER,-1.2859453,4.859693,8.624708
MAGNETIC_FIELD,-9.997172,-33.530888,-39.10326
GYROSCOPE,-0.016798794,0.23671028,0.8546005
ORIENTATION,124,331,10
ACCELEROMETER,-1.5022565,4.654674,8.197594
MAGNETIC_FIELD,-8.449629,-32.142666,-41.109444
GYROSCOPE,-0.15515977,1.2687671,0.4841107
ORIENTATION,116,329,10
ACCELEROMETER,-1.3553387,4.8573465,7.924992
MAGNETIC_FIELD,-7.537472,-31.474998,-42.614082
GYROSCOPE,-0.258396,0.18784106,0.6960809
ORIENTATION,111,328,8
ACCELEROMETER,-1.1815543,5.0772862,8.15883
MAGNETIC_FIELD,-7.5961037,-30.028248,-44.111813
GYROSCOPE,-0.028710667,0.3839288,0.8237518
ORIENTATION,111,331,10
ACCELEROMETER,-1.4019666,4.678257,8.333011
MAGNETIC_FIELD,-7.4905777,-27.818186,-45.79811
GYROSCOPE,-0.3381139,0.042760566,0.66645396
ORIENTATION,97,330,9
ACCELEROMETER,-1.2448068,4.9167824,8.302786
MAGNETIC_FIELD,-8.093433,-26.02339,-47.06283
GYROSCOPE,-0.22907446,-0.33475417,0.6218608
ORIENTATION,94,332,5
ACCELEROMETER,-0.7455106,4.6787863,8.616802
MAGNETIC_FIELD,-9.080575,-23.587042,-48.226124
GYROSCOPE,-0.17501289,-0.49388456,0.17837265
ORIENTATION,78,331,3
ACCELEROMETER,-0.46007285,4.809141,8.637435
MAGNETIC_FIELD,-9.820931,-21.05553,-49.471344
GYROSCOPE,-0.17379116,0.14385876,0.36193767
ORIENTATION,57,329,1
ACCELEROMETER,-0.20274928,5.068067,8.500877
MAGNETIC_FIELD,-10.376199,-18.531147,-50.48076
GYROSCOPE,-0.018020526,0.08674286,0.23060162
ORIENTATION,45,326,2
ACCELEROMETER,-0.32429484,5.4517026,8.08018
MAGNETIC_FIELD,-10.313899,-16.63786,-51.23782
GYROSCOPE,-0.16462818,-0.098043874,0.12217305
ORIENTATION,63,332,8
ACCELEROMETER,-1.207037,4.804344,8.770671
MAGNETIC_FIELD,-9.9081745,-14.961895,-52.031113
GYROSCOPE,-0.09468412,0.47036624,-0.4746423
ORIENTATION,67,336,8
ACCELEROMETER,-1.240017,4.194177,9.120346
MAGNETIC_FIELD,-8.191631,-13.041171,-52.986584
GYROSCOPE,-0.6563747,0.111177474,-0.5546656
ORIENTATION,50,334,5
ACCELEROMETER,-0.7954886,4.1996803,8.663743
MAGNETIC_FIELD,-6.9042234,-12.353878,-53.703186
GYROSCOPE,-0.38606682,-0.44073927,0.31031954
ORIENTATION,39,335,2
ACCELEROMETER,-0.36497742,4.1360216,8.843975
MAGNETIC_FIELD,-6.0591674,-11.450659,-54.35914
GYROSCOPE,-0.03604105,-0.07544186,0.6267477
ORIENTATION,31,335,1
ACCELEROMETER,-0.21477585,4.0903726,8.840136
MAGNETIC_FIELD,-5.1408753,-10.488244,-55.088852
GYROSCOPE,0.47647488,0.111177474,0.43676865
ORIENTATION,39,338,4
ACCELEROMETER,-0.62525773,3.6775527,8.9919815
MAGNETIC_FIELD,-3.7501564,-10.438433,-55.81439
GYROSCOPE,-0.16768251,0.18020524,-0.029626964
ORIENTATION,31,338,3
ACCELEROMETER,-0.52490777,3.7152467,9.0092
MAGNETIC_FIELD,-1.9643674,-10.401074,-56.50304
GYROSCOPE,-0.15882497,0.49480084,0.25167647
ORIENTATION,22,338,3
ACCELEROMETER,-0.4417145,3.651939,8.898514
MAGNETIC_FIELD,-0.37402558,-10.137556,-57.14128
GYROSCOPE,0.49632803,0.050701816,-0.91599244
ORIENTATION,358,335,359
ACCELEROMETER,0.13528416,4.0572615,8.797691
MAGNETIC_FIELD,0.5132308,-10.290417,-57.47021
GYROSCOPE,0.8784242,-0.3036,-0.6114761
ORIENTATION,350,334,358
ACCELEROMETER,0.31888655,3.9952397,8.351422
MAGNETIC_FIELD,0.5854231,-12.397562,-57.39266
GYROSCOPE,0.50946164,-0.09040806,-0.18906279
ORIENTATION,343,337,357
ACCELEROMETER,0.40451446,3.6705472,8.624998
MAGNETIC_FIELD,0.14006734,-14.1359215,-57.334496
GYROSCOPE,0.11942416,-0.312763,-1.2843442
ORIENTATION,343,337,357
ACCELEROMETER,0.39840573,3.6196115,8.6407385
MAGNETIC_FIELD,-1.5496995,-16.18419,-56.95412
GYROSCOPE,-0.013133603,-0.63346726,-1.564426
ORIENTATION,347,335,356
ACCELEROMETER,0.5741375,4.0596514,8.6049595
MAGNETIC_FIELD,-3.3080246,-18.182144,-56.33234
GYROSCOPE,0.1966986,-1.2464706,-1.57084
ORIENTATION,357,333,356
ACCELEROMETER,0.56198496,4.371276,8.437615
MAGNETIC_FIELD,-5.3057685,-20.553608,-55.661507
GYROSCOPE,0.23976462,-0.6973027,-1.6450601
ORIENTATION,16,330,358
ACCELEROMETER,0.35115904,4.807454,8.271107
MAGNETIC_FIELD,-6.5708265,-24.042456,-54.23238
GYROSCOPE,0.2406809,-0.75228053,-1.1462886
ORIENTATION,53,331,0
ACCELEROMETER,-0.034259915,4.5532455,8.269825
MAGNETIC_FIELD,-8.16937,-27.487593,-52.573036
GYROSCOPE,-0.02321288,-1.2712106,-1.7461584
ORIENTATION,90,332,2
ACCELEROMETER,-0.29908285,4.427981,8.382738
MAGNETIC_FIELD,-8.118278,-30.398445,-50.564026
GYROSCOPE,0.11484267,-0.5366451,-1.25319
ORIENTATION,122,335,1
ACCELEROMETER,-0.20276432,4.2746263,9.00537
MAGNETIC_FIELD,-7.058708,-32.974834,-48.672768
GYROSCOPE,-0.56138515,-0.6423248,-1.8634444
ORIENTATION,141,335,0
ACCELEROMETER,-0.0221878,4.194925,8.840574
MAGNETIC_FIELD,-5.684031,-35.050877,-46.632576
GYROSCOPE,-0.038179077,-1.1383474,-1.5528195
ORIENTATION,147,334,2
ACCELEROMETER,-0.3168139,4.299301,8.890856
MAGNETIC_FIELD,-3.4132733,-36.607906,-45.102432
GYROSCOPE,-0.3848451,-0.7556403,-0.7440339
ORIENTATION,157,332,2
ACCELEROMETER,-0.30105674,4.680001,8.936199
MAGNETIC_FIELD,-0.887455,-37.15743,-44.193073
GYROSCOPE,0.3436117,-0.83260936,-0.32406402
ORIENTATION,171,334,2
ACCELEROMETER,-0.2892389,4.529332,9.147976
MAGNETIC_FIELD,0.7411587,-38.28007,-42.864056
GYROSCOPE,-0.23487769,-0.5308419,-0.6985244
ORIENTATION,178,337,2
ACCELEROMETER,-0.2974342,4.0392437,9.464376
MAGNETIC_FIELD,3.279369,-38.678555,-41.86729
GYROSCOPE,-0.017104227,0.23151793,-0.83658
ORIENTATION,179,336,5
ACCELEROMETER,-0.78646123,3.9259117,8.962467
MAGNETIC_FIELD,7.0385265,-37.999916,-41.119717
GYROSCOPE,-0.20525073,-0.23396139,-0.50701815
ORIENTATION,186,337,7
ACCELEROMETER,-1.1291399,4.043223,9.251923
MAGNETIC_FIELD,10.295895,-37.13469,-40.559036
GYROSCOPE,0.21044308,-0.004581489,-0.310625
ORIENTATION,198,335,7
ACCELEROMETER,-1.1575027,4.2916174,9.122903
MAGNETIC_FIELD,12.851921,-35.996017,-40.138527
GYROSCOPE,0.09101892,-0.19120082,-0.04642576
ORIENTATION,212,333,7
ACCELEROMETER,-1.0031002,4.448435,8.57917
MAGNETIC_FIELD,14.42444,-35.50376,-39.576145
GYROSCOPE,0.05497787,-0.06719518,0.31429017
ORIENTATION,231,330,2
ACCELEROMETER,-0.27168912,5.0776587,8.760644
MAGNETIC_FIELD,15.05708,-35.30107,-39.338608
GYROSCOPE,0.5723807,0.07727446,0.9621128
ORIENTATION,225,332,4
ACCELEROMETER,-0.668242,4.7264204,8.714341
MAGNETIC_FIELD,13.16181,-35.973804,-38.875706
GYROSCOPE,-0.110872045,-0.6795876,0.8555168
ORIENTATION,222,333,0
ACCELEROMETER,-0.04613352,4.5511284,8.959885
MAGNETIC_FIELD,10.177608,-37.006104,-37.95228
GYROSCOPE,-0.7706065,0.2510656,0.818254
ORIENTATION,217,334,356
ACCELEROMETER,0.6229075,4.33676,8.9528055
MAGNETIC_FIELD,6.7449555,-37.34683,-37.612457
GYROSCOPE,-0.16920967,-0.15668693,-1.1316279
ORIENTATION,209,336,354
ACCELEROMETER,0.86327136,4.0071926,8.792622
MAGNETIC_FIELD,5.6474667,-37.75587,-37.081345
GYROSCOPE,1.3952162,0.6630942,-0.2134974
ORIENTATION,206,336,354
ACCELEROMETER,0.96034575,3.9832761,8.988817
MAGNETIC_FIELD,7.0931,-38.219654,-36.25501
GYROSCOPE,-0.055588737,0.016493361,-1.01312
ORIENTATION,205,339,354
ACCELEROMETER,0.9325951,3.613541,9.170231
MAGNETIC_FIELD,8.310825,-38.22374,-36.044006
GYROSCOPE,-0.6087272,-1.0592403,-2.1591032
ORIENTATION,204,340,356
ACCELEROMETER,0.6466242,3.2605228,9.036196
MAGNETIC_FIELD,10.050369,-36.971054,-37.009754
GYROSCOPE,-0.355829,-0.54305923,-1.8628336
ORIENTATION,208,339,358
ACCELEROMETER,0.27218348,3.4900122,9.041313
MAGNETIC_FIELD,12.331277,-33.82479,-38.699318
GYROSCOPE,0.30115658,-0.7715228,-1.4300356
ORIENTATION,212,342,360
ACCELEROMETER,0.081285134,3.0248227,9.520401
MAGNETIC_FIELD,14.321958,-30.401592,-40.25549
GYROSCOPE,-0.1740966,-0.3921755,-1.9107865
ORIENTATION,217,343,2
ACCELEROMETER,-0.30100954,2.9711657,9.5966015
MAGNETIC_FIELD,16.179468,-26.587444,-41.72212
GYROSCOPE,-0.07391469,-0.22174409,-1.0641272
ORIENTATION,233,341,1
ACCELEROMETER,-0.19687709,3.261622,9.477479
MAGNETIC_FIELD,17.338852,-22.789333,-43.16134
GYROSCOPE,0.7443393,-0.8958339,-1.0567969
ORIENTATION,246,341,1
ACCELEROMETER,-0.1352379,3.4333758,9.987736
MAGNETIC_FIELD,17.00589,-20.03,-44.73625
GYROSCOPE,-0.73731434,-1.0534371,-2.060143
ORIENTATION,268,336,357
ACCELEROMETER,0.53812265,4.0509076,9.10599
MAGNETIC_FIELD,16.318417,-16.8145,-46.02794
GYROSCOPE,0.947452,-0.6310238,0.66950834
ORIENTATION,281,335,356
ACCELEROMETER,0.6234096,4.204756,9.033056
MAGNETIC_FIELD,15.115313,-14.612375,-47.147453
GYROSCOPE,0.2125811,-0.8017606,-0.93584555
ORIENTATION,291,334,357
ACCELEROMETER,0.43343985,4.286623,8.949625
MAGNETIC_FIELD,12.938484,-11.926531,-48.26834
GYROSCOPE,0.33658674,-0.42119157,-0.8857546
ORIENTATION,296,338,359
ACCELEROMETER,0.13563868,3.8947709,9.76303
MAGNETIC_FIELD,10.880863,-10.0943985,-49.023006
GYROSCOPE,-0.30024028,-0.32650748,-0.83658
ORIENTATION,309,339,0
ACCELEROMETER,-0.040277064,3.8341668,9.7704935
MAGNETIC_FIELD,8.281898,-9.321299,-49.589005
GYROSCOPE,0.06261369,-1.0173961,-0.25473082
ORIENTATION,327,337,2
ACCELEROMETER,-0.27292,4.0341196,9.703367
MAGNETIC_FIELD,6.823923,-8.523224,-49.899254
GYROSCOPE,-0.13958271,-0.41141775,0.07422013
ORIENTATION,343,334,3
ACCELEROMETER,-0.47224206,4.3729267,9.069286
MAGNETIC_FIELD,5.4806924,-7.4206676,-50.01319
GYROSCOPE,0.7675522,-0.45142943,0.5213735
ORIENTATION,346,332,1
ACCELEROMETER,-0.19017872,4.515702,8.367024
MAGNETIC_FIELD,4.617019,-7.684001,-50.098644
GYROSCOPE,0.11026118,0.571159,1.1264355
ORIENTATION,354,336,4
ACCELEROMETER,-0.5388744,3.8075573,8.407155
MAGNETIC_FIELD,3.9692645,-7.8815007,-50.524483
GYROSCOPE,-1.4321736,0.66553766,0.5326745
ORIENTATION,358,337,4
ACCELEROMETER,-0.5971883,3.648448,8.617118
MAGNETIC_FIELD,3.7499485,-6.0803757,-50.84386
GYROSCOPE,0.37232238,0.018020526,2.0271564
ORIENTATION,358,336,4
ACCELEROMETER,-0.5150785,3.5864272,8.105111
MAGNETIC_FIELD,5.1519613,-6.4710317,-50.918396
GYROSCOPE,-0.5467244,1.0167851,2.112983
ORIENTATION,348,339,3
ACCELEROMETER,-0.43479145,3.2467716,8.647363
MAGNETIC_FIELD,7.3902206,-7.188524,-50.266045
GYROSCOPE,-0.44837508,0.97035944,1.0870347
ORIENTATION,341,340,4
ACCELEROMETER,-0.6457195,3.2435708,8.75762
MAGNETIC_FIELD,8.677416,-7.9651427,-49.528034
GYROSCOPE,0.3924809,1.2993103,0.57604593
ORIENTATION,329,339,3
ACCELEROMETER,-0.43954802,3.4201367,8.962417
MAGNETIC_FIELD,10.631561,-9.440607,-48.731525
GYROSCOPE,0.82833326,0.419359,0.7189884
ORIENTATION,309,339,360
ACCELEROMETER,0.027523965,3.566627,9.322215
MAGNETIC_FIELD,11.7626705,-11.718956,-47.859394
GYROSCOPE,0.6719518,-0.93523467,0.80481493
ORIENTATION,299,338,359
ACCELEROMETER,0.09486323,3.5867121,8.973761
MAGNETIC_FIELD,12.331753,-13.681717,-47.059296
GYROSCOPE,-0.16157386,0.13255776,0.4999932
ORIENTATION,298,335,359
ACCELEROMETER,0.19385025,4.0830107,8.840809
MAGNETIC_FIELD,12.909565,-16.394037,-45.68322
GYROSCOPE,-0.25900686,0.64873886,0.43096542
ORIENTATION,290,335,360
ACCELEROMETER,0.036002606,4.2819543,9.006553
MAGNETIC_FIELD,13.342924,-19.085278,-44.158665
GYROSCOPE,-0.033292156,0.39370266,0.3912592
ORIENTATION,268,337,4
ACCELEROMETER,-0.658039,3.606509,8.674017
MAGNETIC_FIELD,13.861943,-21.645208,-42.389
GYROSCOPE,0.1301143,0.42455134,0.26236662
ORIENTATION,246,338,6
ACCELEROMETER,-0.98508877,3.5079868,8.763096
MAGNETIC_FIELD,14.632957,-23.035406,-41.061752
GYROSCOPE,0.14752395,0.124311075,1.0665708
ORIENTATION,251,336,5
ACCELEROMETER,-0.7557256,3.8660989,8.619514
MAGNETIC_FIELD,14.235718,-24.671305,-39.774063
GYROSCOPE,0.63499445,0.75716746,0.9288206
ORIENTATION,246,336,0
ACCELEROMETER,-0.048000634,3.9587092,8.846567
MAGNETIC_FIELD,12.8917885,-27.438229,-37.63455
GYROSCOPE,0.52534413,0.080634214,1.3866642
ORIENTATION,229,337,2
ACCELEROMETER,-0.26988405,3.7453518,8.766962
MAGNETIC_FIELD,10.803591,-29.69717,-35.80066
GYROSCOPE,-1.2012665,0.18784106,0.010995574
ORIENTATION,223,335,360
ACCELEROMETER,0.0016926527,4.079886,8.666108
MAGNETIC_FIELD,9.367443,-31.150377,-34.425243
GYROSCOPE,0.39064834,0.84391034,0.29626966
ORIENTATION,220,332,359
ACCELEROMETER,0.091052055,4.316571,8.259319
MAGNETIC_FIELD,8.102833,-32.240284,-33.506184
GYROSCOPE,0.43890667,0.3295618,0.18081611
ORIENTATION,209,332,2
ACCELEROMETER,-0.2565742,4.3019505,8.098478
MAGNETIC_FIELD,7.1543746,-33.53171,-31.958887
GYROSCOPE,-0.4288274,0.50488013,0.21868975
ORIENTATION,199,334,3
ACCELEROMETER,-0.44157726,4.0618896,8.244502
MAGNETIC_FIELD,6.596281,-34.294033,-31.028166
GYROSCOPE,-0.15363261,0.8542951,-9.162979E-4
ORIENTATION,195,333,4
ACCELEROMETER,-0.60008174,4.163013,8.244185
MAGNETIC_FIELD,6.261961,-34.517525,-30.725374
GYROSCOPE,0.8219192,0.3371976,-0.024129177
ORIENTATION,195,333,4
ACCELEROMETER,-0.5268254,4.4383225,8.580334
MAGNETIC_FIELD,6.011221,-35.180893,-29.95853
GYROSCOPE,-0.23976462,-0.11178834,-0.73426
ORIENTATION,198,331,2
ACCELEROMETER,-0.22393364,4.5192585,8.152342
MAGNETIC_FIELD,6.469166,-35.67842,-29.175398
GYROSCOPE,0.67011917,-0.20066923,0.025350908
ORIENTATION,199,330,2
ACCELEROMETER,-0.28631356,4.7349854,8.042188
MAGNETIC_FIELD,6.9701242,-36.051567,-28.824549
GYROSCOPE,0.64568454,-0.54153204,-0.0421497
ORIENTATION,198,331,2
ACCELEROMETER,-0.35404778,4.632221,8.210514
MAGNETIC_FIELD,7.749843,-35.960426,-28.71066
GYROSCOPE,0.08674286,0.27488935,-0.19211712
ORIENTATION,199,331,4
ACCELEROMETER,-0.50675166,4.6557045,8.230367
MAGNETIC_FIELD,8.848633,-35.89207,-28.625246
GYROSCOPE,0.0012217305,0.36682457,-0.2932153
ORIENTATION,207,329,2
ACCELEROMETER,-0.22623628,4.930993,8.144549
MAGNETIC_FIELD,9.807474,-35.9318,-28.174934
GYROSCOPE,0.6178902,-0.30970868,-0.03176499
ORIENTATION,210,327,2
ACCELEROMETER,-0.30315396,5.0523157,7.887005
MAGNETIC_FIELD,10.018606,-36.5476,-27.3747
GYROSCOPE,0.07086037,-1.1899655,-0.6151413
ORIENTATION,211,329,359
ACCELEROMETER,0.16214123,5.168147,8.574164
MAGNETIC_FIELD,10.605955,-36.23745,-27.568275
GYROSCOPE,0.15332718,-0.28496864,-0.5696318
ORIENTATION,214,330,358
ACCELEROMETER,0.2984776,4.9594865,8.436815
MAGNETIC_FIELD,10.814217,-35.756836,-28.107456
GYROSCOPE,-0.3051272,-1.4498887,-0.8393288
ORIENTATION,219,328,355
ACCELEROMETER,0.6865377,5.1378803,8.234892
MAGNETIC_FIELD,10.762162,-35.216377,-28.767092
GYROSCOPE,-0.6200282,-1.169807,-1.8173242
ORIENTATION,221,329,354
ACCELEROMETER,0.8625114,5.005021,8.15767
MAGNETIC_FIELD,12.158122,-33.725784,-29.70382
GYROSCOPE,0.36193767,-0.9294315,-1.8567249
ORIENTATION,224,330,356
ACCELEROMETER,0.5606923,4.881435,8.407858
MAGNETIC_FIELD,13.205091,-30.826588,-31.362865
GYROSCOPE,-0.9621128,-0.91538155,-1.9138408
ORIENTATION,229,332,358
ACCELEROMETER,0.26010773,4.5545626,8.452445
MAGNETIC_FIELD,13.113318,-26.04844,-33.723648
GYROSCOPE,0.34147367,-0.88178396,-0.72387534
ORIENTATION,245,331,0
ACCELEROMETER,-0.036857486,4.682754,8.337594
MAGNETIC_FIELD,12.142738,-22.08358,-35.694485
GYROSCOPE,0.026267206,-0.66828656,-0.6230826
ORIENTATION,264,330,2
ACCELEROMETER,-0.25613976,4.7253275,8.223623
MAGNETIC_FIELD,11.4148035,-18.803434,-37.297363
GYROSCOPE,-0.14172074,-0.08857546,-0.8900307
ORIENTATION,286,330,3
ACCELEROMETER,-0.43885723,4.7939186,8.288681
MAGNETIC_FIELD,10.998102,-15.880075,-38.499523
GYROSCOPE,0.16584991,-0.1255328,-0.49571714
ORIENTATION,292,332,0
ACCELEROMETER,-0.010115564,4.8455114,8.945152
MAGNETIC_FIELD,10.151327,-13.687557,-39.78139
GYROSCOPE,-0.52656585,-0.7470882,-0.6933321
ORIENTATION,300,332,359
ACCELEROMETER,0.1618031,4.5470724,8.703683
MAGNETIC_FIELD,8.760495,-11.486668,-40.742794
GYROSCOPE,-0.3417791,-0.56016344,-0.7287622
ORIENTATION,310,332,358
ACCELEROMETER,0.3269544,4.4927826,8.440579
MAGNETIC_FIELD,6.9338713,-9.836,-41.463844
GYROSCOPE,0.12644911,-0.59681535,-0.2180789
ORIENTATION,323,333,359
ACCELEROMETER,0.15692961,4.68565,9.160232
MAGNETIC_FIELD,5.4864035,-8.4755,-42.00463
GYROSCOPE,-0.267559,-0.20861048,0.3359759
ORIENTATION,339,331,1
ACCELEROMETER,-0.11798203,4.6297855,8.521424
MAGNETIC_FIELD,4.1483026,-7.604625,-42.554222
GYROSCOPE,-0.1151481,0.14477506,0.514654
ORIENTATION,344,329,360
ACCELEROMETER,0.009526104,4.617815,7.8014026
MAGNETIC_FIELD,4.337977,-6.697719,-43.109665
GYROSCOPE,-0.031154128,0.8014552,0.11178834
ORIENTATION,345,331,0
ACCELEROMETER,-0.058396697,4.559457,8.060302
MAGNETIC_FIELD,4.747483,-6.2457895,-43.605
GYROSCOPE,0.37995818,0.8341365,-0.21960606
ORIENTATION,339,333,359
ACCELEROMETER,0.16300164,4.3407617,8.527714
MAGNETIC_FIELD,4.6751122,-5.797842,-44.0745
GYROSCOPE,-0.009162978,-0.5161811,-0.16737708
ORIENTATION,340,336,0
ACCELEROMETER,-0.032025144,3.959766,8.8663025
MAGNETIC_FIELD,3.9818342,-5.2686315,-44.42663
GYROSCOPE,-0.94134337,-0.22052236,-0.8570439
ORIENTATION,339,334,358
ACCELEROMETER,0.32329,4.2146597,8.711883
MAGNETIC_FIELD,2.8296256,-4.8717237,-44.598473
GYROSCOPE,0.26053402,-0.49327368,-0.10323623
ORIENTATION,343,333,357
ACCELEROMETER,0.39794096,4.55442,8.940983
MAGNETIC_FIELD,1.5542192,-4.886543,-44.727356
GYROSCOPE,0.25809056,-0.2510656,-0.11789699
ORIENTATION,345,333,356
ACCELEROMETER,0.56196755,4.550966,8.775225
MAGNETIC_FIELD,0.5976644,-5.285657,-44.824017
GYROSCOPE,0.24281894,0.038179077,0.065973446
ORIENTATION,344,334,356
ACCELEROMETER,0.67600924,4.1688943,8.6770935
MAGNETIC_FIELD,0.21274832,-5.8564925,-44.89651
GYROSCOPE,-0.04550946,0.039095376,-1.2223413
ORIENTATION,337,336,353
ACCELEROMETER,1.0346291,3.9879847,8.807751
MAGNETIC_FIELD,-1.0536889,-5.7731194,-45.078133
GYROSCOPE,-0.4251622,-0.51068336,-1.561677
ORIENTATION,338,339,353
ACCELEROMETER,1.0966452,3.5902872,9.073637
MAGNETIC_FIELD,-3.5185165,-5.9143395,-44.94435
GYROSCOPE,0.35063666,-0.79137594,-1.7385225
ORIENTATION,344,337,351
ACCELEROMETER,1.3777891,3.8548012,8.829675
MAGNETIC_FIELD,-6.590887,-6.8187547,-44.72576
GYROSCOPE,-0.026572637,-0.9630291,-1.5851953
ORIENTATION,3,337,352
ACCELEROMETER,1.1722056,3.7368526,8.724813
MAGNETIC_FIELD,-9.636915,-8.285566,-44.28382
GYROSCOPE,-0.11178834,-0.9718866,-1.6114625
ORIENTATION,25,337,354
ACCELEROMETER,1.0296896,3.8143394,9.043306
MAGNETIC_FIELD,-12.262686,-10.912675,-43.039864
GYROSCOPE,-0.26328292,-0.5714644,-1.1420126
ORIENTATION,54,336,357
ACCELEROMETER,0.41388512,3.8525527,8.769966
MAGNETIC_FIELD,-13.965264,-13.273506,-41.953896
GYROSCOPE,0.2846632,-0.66981375,-0.6817256
ORIENTATION,71,336,360
ACCELEROMETER,0.06830019,3.851734,8.766523
MAGNETIC_FIELD,-14.745448,-16.05463,-40.83792
GYROSCOPE,-0.13530666,0.15149458,-0.4914411
ORIENTATION,83,336,2
ACCELEROMETER,-0.28620768,3.873865,8.593354
MAGNETIC_FIELD,-14.918586,-18.140472,-40.000942
GYROSCOPE,0.20922135,-0.30482176,-0.6243043
ORIENTATION,92,336,2
ACCELEROMETER,-0.2812445,3.9374492,8.914934
MAGNETIC_FIELD,-14.806939,-20.324854,-39.373207
GYROSCOPE,0.13683382,-0.009162978,-0.23335053
ORIENTATION,104,338,2
ACCELEROMETER,-0.24086088,3.7383852,9.027131
MAGNETIC_FIELD,-14.876954,-22.923641,-38.224655
GYROSCOPE,-0.25167647,-0.28252518,0.05131268
ORIENTATION,110,336,1
ACCELEROMETER,-0.2182047,3.9143991,8.867969
MAGNETIC_FIELD,-14.929465,-24.720482,-37.363243
GYROSCOPE,-0.35002577,-0.17470746,0.23732115
ORIENTATION,116,336,1
ACCELEROMETER,-0.1670952,3.8014529,8.595667
MAGNETIC_FIELD,-15.278349,-25.819862,-36.717182
GYROSCOPE,-0.226631,0.005497787,0.66431594
ORIENTATION,120,336,360
ACCELEROMETER,0.056039378,3.873264,8.683533
MAGNETIC_FIELD,-15.683512,-26.382647,-36.577385
GYROSCOPE,0.68539083,0.7131852,0.8304713
ORIENTATION,121,336,359
ACCELEROMETER,0.119242534,3.9560027,8.868544
MAGNETIC_FIELD,-16.718134,-26.970234,-36.030037
GYROSCOPE,-0.30207285,0.5198463,0.41996986
ORIENTATION,118,335,360
ACCELEROMETER,0.041547865,4.2039065,8.873077
MAGNETIC_FIELD,-17.2446,-26.927425,-36.363777
GYROSCOPE,-0.17959438,0.15515977,0.076358154
ORIENTATION,114,333,1
ACCELEROMETER,-0.17279515,4.4281416,8.859419
MAGNETIC_FIELD,-17.5097,-26.520569,-36.968082
GYROSCOPE,0.06719518,0.23609942,0.11789699
ORIENTATION,110,333,3
ACCELEROMETER,-0.38742194,4.547536,8.742483
MAGNETIC_FIELD,-17.202776,-26.215427,-37.42131
GYROSCOPE,-0.04153884,-0.033292156,-0.12644911
