ORIENTATION,0,0,0
ACCELEROMETER,0.4213795,1.6017209,2.5788546
MAGNETIC_FIELD,-0.3105,-9.428,-7.04225
GYROSCOPE,-0.113926366,-0.16401732,0.022296581
ORIENTATION,189,322,353
ACCELEROMETER,0.4269161,2.851943,3.6518312
MAGNETIC_FIELD,-0.84387505,-16.499,-12.244938
GYROSCOPE,-0.10751228,-0.16401732,0.096516706
ORIENTATION,183,327,355
ACCELEROMETER,0.48359135,3.2943091,5.086837
MAGNETIC_FIELD,-1.3549063,-22.44,-15.8189535
GYROSCOPE,-1.31672,-0.017104227,-0.625526
ORIENTATION,183,326,353
ACCELEROMETER,0.6856115,3.8798692,5.656718
MAGNETIC_FIELD,-2.0006797,-26.265251,-18.777966
GYROSCOPE,-0.06352998,-1.3286319,-0.036651913
ORIENTATION,183,322,353
ACCELEROMETER,0.70769006,4.42199,5.549024
MAGNETIC_FIELD,-3.10526,-29.635689,-20.839224
GYROSCOPE,0.9245446,-0.29871312,6.1086525E-4
ORIENTATION,175,321,354
ACCELEROMETER,0.609028,4.7452326,5.8987613
MAGNETIC_FIELD,-3.230195,-32.352768,-22.197418
GYROSCOPE,0.44135013,2.0726657,-0.015271631
ORIENTATION,175,322,354
ACCELEROMETER,0.66027814,5.0582933,6.422182
MAGNETIC_FIELD,-3.1991463,-34.091827,-23.216064
GYROSCOPE,-0.10354166,0.42546764,-0.014966198
ORIENTATION,175,319,354
ACCELEROMETER,0.61940783,5.497344,6.402197
MAGNETIC_FIELD,-3.2571096,-35.259872,-24.159798
GYROSCOPE,0.24801129,-0.037873644,-0.21838433
ORIENTATION,171,320,357
ACCELEROMETER,0.4105367,5.6216288,6.750378
MAGNETIC_FIELD,-2.8338323,-36.395153,-24.632599
GYROSCOPE,0.19914207,0.20555615,-0.49541172
ORIENTATION,172,324,358
ACCELEROMETER,0.25059134,5.5637083,7.5681663
MAGNETIC_FIELD,-1.8518742,-37.246613,-24.9872
GYROSCOPE,-0.5549711,-0.2764165,-0.10567969
ORIENTATION,174,323,359
ACCELEROMETER,0.06838305,5.4868984,7.373763
MAGNETIC_FIELD,-0.8611556,-37.55046,-25.25315
GYROSCOPE,0.15027285,-0.21166481,-0.119729586
ORIENTATION,176,323,1
ACCELEROMETER,-0.07994489,5.7038765,7.536663
MAGNETIC_FIELD,-0.11811674,-37.778347,-25.452614
GYROSCOPE,-0.15332718,0.30207285,0.07941248
ORIENTATION,179,324,0
ACCELEROMETER,-0.028983686,5.8263574,7.917412
MAGNETIC_FIELD,0.7696625,-37.714012,-25.602211
GYROSCOPE,0.09101892,-0.11453723,-0.39950588
ORIENTATION,186,324,358
ACCELEROMETER,0.22471538,5.5584893,7.6533546
MAGNETIC_FIELD,1.4354969,-37.83551,-25.606909
GYROSCOPE,0.116675265,-0.2489276,-0.40653083
ORIENTATION,187,322,360
ACCELEROMETER,0.052417755,5.788395,7.4188004
MAGNETIC_FIELD,2.2006226,-37.926632,-25.498932
GYROSCOPE,0.16829337,-0.20922135,-0.11056661
ORIENTATION,187,321,1
ACCELEROMETER,-0.18918331,6.0543475,7.442651
MAGNETIC_FIELD,3.271467,-37.779472,-25.41795
GYROSCOPE,0.3753767,-0.02076942,0.034513887
ORIENTATION,188,319,4
ACCELEROMETER,-0.44026488,6.048958,7.0418525
MAGNETIC_FIELD,4.3413506,-37.808353,-24.998713
GYROSCOPE,0.1518,0.33108896,0.6411031
ORIENTATION,193,318,4
ACCELEROMETER,-0.4461678,5.9980793,6.7553196
MAGNETIC_FIELD,5.498513,-37.706017,-24.787285
GYROSCOPE,0.09987647,0.5366451,0.3042109
ORIENTATION,192,321,6
ACCELEROMETER,-0.7959586,6.01783,7.393654
MAGNETIC_FIELD,6.0013847,-37.847763,-24.628714
GYROSCOPE,0.28619036,0.1853976,-0.26053402
ORIENTATION,190,321,8
ACCELEROMETER,-1.0716194,6.0173798,7.428879
MAGNETIC_FIELD,6.2697887,-38.134823,-24.173285
GYROSCOPE,0.46486846,-0.21502456,0.5497787
ORIENTATION,185,322,11
ACCELEROMETER,-1.4525433,5.766998,7.1751757
MAGNETIC_FIELD,6.2468414,-38.350117,-23.424713
GYROSCOPE,-0.07147124,0.53023106,1.0076222
ORIENTATION,186,324,11
ACCELEROMETER,-1.4590123,5.570533,7.545291
MAGNETIC_FIELD,5.664631,-38.61284,-22.595036
GYROSCOPE,-0.073303826,0.86437434,1.9504927
ORIENTATION,182,329,12
ACCELEROMETER,-1.8443925,5.174636,8.527371
MAGNETIC_FIELD,3.6832232,-38.96688,-21.894527
GYROSCOPE,-0.57604593,1.6313156,1.3924674
ORIENTATION,177,331,13
ACCELEROMETER,-1.9776549,4.797657,8.513948
MAGNETIC_FIELD,0.31766748,-39.093163,-22.127895
GYROSCOPE,-0.27305678,1.1881329,1.7440202
ORIENTATION,171,331,11
ACCELEROMETER,-1.6484411,4.847717,8.57885
MAGNETIC_FIELD,-3.3322492,-38.676872,-23.337921
GYROSCOPE,-0.065973446,1.8649716,1.8658879
ORIENTATION,161,330,11
ACCELEROMETER,-1.5540115,4.898729,8.293834
MAGNETIC_FIELD,-6.238937,-36.713905,-25.51769
GYROSCOPE,-0.30909783,1.4850134,0.7583892
ORIENTATION,151,326,7
ACCELEROMETER,-0.9492823,5.3229036,7.9569197
MAGNETIC_FIELD,-7.6164527,-34.14243,-28.243519
GYROSCOPE,-0.04520403,1.2198979,1.7733418
ORIENTATION,139,324,5
ACCELEROMETER,-0.675899,5.7026854,7.8493824
MAGNETIC_FIELD,-8.22409,-30.686071,-31.17514
GYROSCOPE,-0.035430185,0.73731434,0.66614854
ORIENTATION,120,323,5
ACCELEROMETER,-0.66494155,6.0565042,8.046308
MAGNETIC_FIELD,-8.173317,-27.264053,-33.855354
GYROSCOPE,-0.4465425,0.6948592,-0.122478485
ORIENTATION,101,323,4
ACCELEROMETER,-0.5087319,5.984735,8.044962
MAGNETIC_FIELD,-7.652238,-24.69754,-35.865517
GYROSCOPE,-0.057421334,-0.30879238,0.6093381
ORIENTATION,80,323,4
ACCELEROMETER,-0.5096387,5.852648,7.6502566
MAGNETIC_FIELD,-6.9181786,-21.837154,-37.926888
GYROSCOPE,0.102319926,-0.0983493,0.14202617
ORIENTATION,58,323,3
ACCELEROMETER,-0.3403305,5.845759,7.698244
MAGNETIC_FIELD,-6.144384,-19.542116,-39.472916
GYROSCOPE,0.0061086523,0.024129177,-0.7281514
ORIENTATION,32,323,358
ACCELEROMETER,0.2321218,5.93247,7.974553
MAGNETIC_FIELD,-5.7820377,-18.355087,-40.63244
GYROSCOPE,-0.08674286,-0.12064589,-0.3894266
ORIENTATION,22,323,357
ACCELEROMETER,0.34991553,5.6685996,7.6255817
MAGNETIC_FIELD,-7.0447783,-16.743565,-41.39258
GYROSCOPE,0.14446963,-1.4969252,-0.8194757
ORIENTATION,28,324,358
ACCELEROMETER,0.23654935,5.738698,7.8732195
MAGNETIC_FIELD,-7.9918337,-15.797423,-41.962685
GYROSCOPE,0.42363504,-0.0061086523,-0.3622431
ORIENTATION,33,325,359
ACCELEROMETER,0.092717126,5.4940915,7.742614
MAGNETIC_FIELD,-8.581625,-15.832317,-42.390263
GYROSCOPE,0.33933565,0.007330383,0.06627888
ORIENTATION,45,327,2
ACCELEROMETER,-0.23662071,5.1397505,7.8649263
MAGNETIC_FIELD,-9.504219,-15.581238,-42.83545
GYROSCOPE,-0.27000242,-0.24098633,-1.0143417
ORIENTATION,29,327,355
ACCELEROMETER,0.78799635,5.6782966,8.819022
MAGNETIC_FIELD,-10.676914,-15.799929,-43.16934
GYROSCOPE,0.64812803,-0.13530666,-1.0372492
ORIENTATION,43,330,356
ACCELEROMETER,0.60311794,5.1671724,8.903722
MAGNETIC_FIELD,-11.643685,-17.752197,-42.889004
GYROSCOPE,-0.41905355,-0.5308419,-1.2589933
ORIENTATION,57,330,357
ACCELEROMETER,0.46580583,4.851615,8.533597
MAGNETIC_FIELD,-12.188765,-20.481398,-42.061253
GYROSCOPE,-0.37232238,-1.1731668,-1.7067575
ORIENTATION,77,331,359
ACCELEROMETER,0.17622367,4.841798,8.715092
MAGNETIC_FIELD,-12.597573,-23.211548,-41.10194
GYROSCOPE,0.004276057,-0.9801333,-1.3045027
ORIENTATION,107,335,1
ACCELEROMETER,-0.13284045,4.252943,9.303717
MAGNETIC_FIELD,-12.08518,-26.094162,-40.142956
GYROSCOPE,-0.50885075,-0.31673363,-1.6163495
ORIENTATION,116,334,1
ACCELEROMETER,-0.22577484,4.314533,9.030516
MAGNETIC_FIELD,-10.722885,-28.789871,-39.160217
GYROSCOPE,-0.13225232,-1.0491611,-0.86437434
ORIENTATION,122,333,4
ACCELEROMETER,-0.53998345,4.484626,8.825316
MAGNETIC_FIELD,-9.236914,-31.080902,-38.423164
GYROSCOPE,0.087659165,-0.30451632,-0.77213365
ORIENTATION,132,333,4
ACCELEROMETER,-0.59577554,4.735347,9.213553
MAGNETIC_FIELD,-7.5986853,-33.127678,-37.547623
GYROSCOPE,-0.01160644,-0.38515055,-0.7987063
ORIENTATION,141,331,2
ACCELEROMETER,-0.2762448,4.776144,8.63429
MAGNETIC_FIELD,-5.913264,-35.19801,-36.485466
GYROSCOPE,0.09193522,-0.41996986,-0.41722095
ORIENTATION,146,330,4
ACCELEROMETER,-0.65250516,4.767088,8.346337
MAGNETIC_FIELD,-4.018448,-36.660007,-35.7911
GYROSCOPE,0.13897185,-0.5225952,-0.24587326
ORIENTATION,155,331,4
ACCELEROMETER,-0.6855538,4.963055,8.75511
MAGNETIC_FIELD,-2.5973358,-37.756508,-35.094826
GYROSCOPE,-0.021380283,-0.24312437,0.24953845
ORIENTATION,162,331,4
ACCELEROMETER,-0.6054443,4.597522,8.145159
MAGNETIC_FIELD,-1.7607518,-38.71163,-34.21812
GYROSCOPE,0.3549127,-0.10903945,0.50426924
ORIENTATION,164,332,6
ACCELEROMETER,-0.86693335,4.469418,8.278016
MAGNETIC_FIELD,-1.6058139,-39.602222,-33.38359
GYROSCOPE,0.19761491,-0.172264,0.8436049
ORIENTATION,165,332,6
ACCELEROMETER,-0.9116169,4.6429873,8.602863
MAGNETIC_FIELD,-2.0106103,-40.172165,-32.849194
GYROSCOPE,0.3481932,0.47494772,0.95386606
ORIENTATION,159,329,8
ACCELEROMETER,-1.2286929,5.054632,8.316483
MAGNETIC_FIELD,-3.3644578,-40.777374,-31.996895
GYROSCOPE,-0.22632557,0.6554584,0.8509353
ORIENTATION,155,330,11
ACCELEROMETER,-1.6091045,4.7223186,8.141351
MAGNETIC_FIELD,-4.7998433,-41.010033,-31.21342
GYROSCOPE,-0.3222314,0.9211848,1.4285084
ORIENTATION,156,331,9
ACCELEROMETER,-1.3368635,4.687963,8.43183
MAGNETIC_FIELD,-7.677633,-40.404274,-31.010315
GYROSCOPE,0.61422503,0.034513887,1.0644327
ORIENTATION,149,331,9
ACCELEROMETER,-1.4286659,4.8974266,8.700567
MAGNETIC_FIELD,-10.872725,-39.160454,-31.446735
GYROSCOPE,-0.15821409,1.6441438,1.5778649
ORIENTATION,142,333,11
ACCELEROMETER,-1.6473049,4.55668,8.648185
MAGNETIC_FIELD,-12.613293,-37.26234,-33.0713
GYROSCOPE,-0.113926366,1.3884968,1.9346102
ORIENTATION,132,330,13
ACCELEROMETER,-1.9511954,4.985712,8.384441
MAGNETIC_FIELD,-12.809469,-34.098507,-35.749226
GYROSCOPE,-0.15088372,1.432479,0.36713
ORIENTATION,121,328,12
ACCELEROMETER,-1.7484561,5.336516,8.416777
MAGNETIC_FIELD,-10.483102,-31.417881,-38.45317
GYROSCOPE,0.04734206,0.79168135,-0.12186762
ORIENTATION,112,327,12
ACCELEROMETER,-1.7913796,5.3881807,8.250838
MAGNETIC_FIELD,-7.5598264,-29.56691,-40.82438
GYROSCOPE,0.004886922,0.22693644,-9.162979E-4
ORIENTATION,108,329,13
ACCELEROMETER,-1.8255174,5.0511894,8.059946
MAGNETIC_FIELD,-5.2148695,-28.713182,-42.602783
GYROSCOPE,0.31673363,0.22296582,0.3200934
ORIENTATION,97,327,14
ACCELEROMETER,-1.93402,5.199475,7.6541624
MAGNETIC_FIELD,-3.781902,-28.364136,-44.114338
GYROSCOPE,-0.1020145,-0.16218472,0.5729916
ORIENTATION,91,326,16
ACCELEROMETER,-2.0718102,5.217165,7.413121
MAGNETIC_FIELD,-2.8394265,-27.809101,-45.450253
GYROSCOPE,-0.057421334,0.61575216,0.5910121
ORIENTATION,90,327,16
ACCELEROMETER,-2.1304114,5.1167083,7.6448913
MAGNETIC_FIELD,-2.22482,-27.265076,-46.65694
GYROSCOPE,-0.29077184,0.7528914,1.069625
ORIENTATION,74,324,16
ACCELEROMETER,-2.1722674,5.7389765,7.4815855
MAGNETIC_FIELD,-2.300865,-26.264307,-47.849705
GYROSCOPE,-0.08460484,0.13255776,0.33383787
ORIENTATION,79,327,16
ACCELEROMETER,-2.2700984,5.2764277,7.6696043
MAGNETIC_FIELD,-2.5113988,-25.07573,-48.83603
GYROSCOPE,-0.80664754,0.45448375,-0.26542094
ORIENTATION,62,325,13
ACCELEROMETER,-1.7084098,5.5726585,7.6416774
MAGNETIC_FIELD,-2.3315492,-23.403048,-50.04802
GYROSCOPE,-0.16249016,0.19608775,0.2773328
ORIENTATION,58,324,15
ACCELEROMETER,-1.9042487,5.510969,7.2683353
MAGNETIC_FIELD,-2.196662,-21.044537,-51.244263
GYROSCOPE,-0.13988814,-0.041233405,-0.049785517
ORIENTATION,56,324,17
ACCELEROMETER,-2.2182732,5.6046133,7.3696055
MAGNETIC_FIELD,-2.0954964,-18.728153,-52.14145
GYROSCOPE,-0.355829,0.7012733,-0.3481932
ORIENTATION,55,329,14
ACCELEROMETER,-1.9441258,5.0011783,8.002211
MAGNETIC_FIELD,-2.2151222,-17.209114,-52.81434
GYROSCOPE,0.44409904,-0.076052725,-0.41172317
ORIENTATION,41,330,8
ACCELEROMETER,-1.1891955,4.773058,8.059026
MAGNETIC_FIELD,-3.1318417,-16.223085,-53.319004
GYROSCOPE,-0.44868052,-0.6389651,0.38240165
ORIENTATION,32,329,6
ACCELEROMETER,-0.7600659,4.678582,7.8254056
MAGNETIC_FIELD,-4.091381,-15.639814,-53.57025
GYROSCOPE,-0.036957346,0.23823744,0.049785517
ORIENTATION,30,330,4
ACCELEROMETER,-0.5663085,4.746589,8.122297
MAGNETIC_FIELD,-4.6495357,-15.202361,-54.02144
GYROSCOPE,0.12217305,0.25717425,0.33658674
ORIENTATION,25,327,3
ACCELEROMETER,-0.47096938,5.141312,7.770956
MAGNETIC_FIELD,-4.762652,-15.09127,-54.50533
GYROSCOPE,0.3475823,0.101098195,0.6927212
ORIENTATION,29,328,4
ACCELEROMETER,-0.58501565,5.0219603,7.9714766
MAGNETIC_FIELD,-3.4889889,-16.331703,-55.200497
GYROSCOPE,-0.10293079,0.6062838,0.16310102
ORIENTATION,20,328,2
ACCELEROMETER,-0.31396398,5.0033746,7.8851404
MAGNETIC_FIELD,-1.1564918,-15.944277,-55.826622
GYROSCOPE,0.267559,0.08857546,0.5186246
ORIENTATION,1,328,359
ACCELEROMETER,0.13772321,5.0784698,8.2809725
MAGNETIC_FIELD,-0.8003688,-16.534958,-56.106968
GYROSCOPE,0.15454891,-1.1917981,-0.204029
ORIENTATION,5,327,1
ACCELEROMETER,-0.09273286,5.167113,8.022093
MAGNETIC_FIELD,-2.6220264,-18.203968,-55.434475
GYROSCOPE,0.14202617,-0.21410827,0.47616947
ORIENTATION,32,331,4
ACCELEROMETER,-0.63503015,4.653899,8.286273
MAGNETIC_FIELD,-2.8030198,-18.838226,-55.144104
GYROSCOPE,0.5225952,0.50488013,1.5876387
ORIENTATION,29,331,3
ACCELEROMETER,-0.3978625,4.422966,7.944366
MAGNETIC_FIELD,-2.6702647,-19.67392,-54.834076
GYROSCOPE,0.15393804,0.16340645,2.3356433
ORIENTATION,40,333,4
ACCELEROMETER,-0.5993181,4.5387163,8.765776
MAGNETIC_FIELD,-0.7381985,-21.23219,-54.07131
GYROSCOPE,-0.21533,2.4807239,2.8047879
ORIENTATION,52,334,5
ACCELEROMETER,-0.7475667,4.2289896,8.774902
MAGNETIC_FIELD,1.433351,-23.525642,-52.833733
GYROSCOPE,0.15760323,1.0219775,1.8219056
ORIENTATION,93,336,5
ACCELEROMETER,-0.7029804,3.7375221,8.410946
MAGNETIC_FIELD,3.9005132,-26.661982,-50.54105
GYROSCOPE,0.39614612,1.9859229,2.0430388
ORIENTATION,278,331,358
ACCELEROMETER,0.28559613,4.6810937,8.536163
MAGNETIC_FIELD,5.385385,-30.343987,-46.93229
GYROSCOPE,-0.4202753,1.6584991,1.8680259
ORIENTATION,241,332,355
ACCELEROMETER,0.765911,4.6142483,8.687387
MAGNETIC_FIELD,4.212039,-33.75574,-43.875717
GYROSCOPE,0.25289822,1.432479,0.72112644
ORIENTATION,228,330,354
ACCELEROMETER,0.9365562,4.742781,8.300118
MAGNETIC_FIELD,4.4395294,-35.806305,-42.570786
GYROSCOPE,-0.011301007,0.87995136,0.7715228
ORIENTATION,230,327,354
ACCELEROMETER,0.82167834,5.2791157,8.096457
MAGNETIC_FIELD,4.486397,-37.70823,-41.27234
GYROSCOPE,0.1282817,0.15210545,0.35460728
ORIENTATION,227,325,354
ACCELEROMETER,0.87662816,5.8242702,8.42689
MAGNETIC_FIELD,3.6580477,-39.55967,-39.624504
GYROSCOPE,0.70249504,0.007330383,0.0571159
ORIENTATION,210,326,356
ACCELEROMETER,0.5723273,5.7308025,8.560991
MAGNETIC_FIELD,3.0367856,-41.802254,-37.286877
GYROSCOPE,-0.048258353,-0.43279803,-0.4914411
ORIENTATION,199,325,358
ACCELEROMETER,0.26853472,5.6855416,8.056282
MAGNETIC_FIELD,3.9280891,-43.23044,-35.99241
GYROSCOPE,0.22357668,-0.5476407,-0.027488936
ORIENTATION,196,327,359
ACCELEROMETER,0.22444522,5.6831694,8.65683
MAGNETIC_FIELD,5.3300667,-44.30158,-34.691055
GYROSCOPE,0.046731193,-0.045814894,-0.5561928
ORIENTATION,201,325,358
ACCELEROMETER,0.3076465,5.7373548,8.286029
MAGNETIC_FIELD,6.38155,-44.861935,-33.834793
GYROSCOPE,0.14508049,-1.0522153,0.1777618
ORIENTATION,199,326,0
ACCELEROMETER,-0.034422964,5.7612343,8.390552
MAGNETIC_FIELD,7.5119123,-44.8287,-33.429096
GYROSCOPE,-0.13469578,-0.108123146,-0.43860126
ORIENTATION,201,323,3
ACCELEROMETER,-0.36010763,5.940154,7.796323
MAGNETIC_FIELD,9.127184,-44.355526,-33.27357
GYROSCOPE,0.5128214,0.1459968,-0.4266894
ORIENTATION,208,320,5
ACCELEROMETER,-0.5900059,6.2227845,7.372648
MAGNETIC_FIELD,11.567138,-43.892647,-32.36443
GYROSCOPE,0.20830505,0.5155703,0.35338554
ORIENTATION,215,319,7
ACCELEROMETER,-0.93331575,6.6638527,7.5512395
MAGNETIC_FIELD,13.260603,-44.019737,-31.375322
GYROSCOPE,0.14477506,-0.022907447,0.64721173
ORIENTATION,213,319,10
ACCELEROMETER,-1.2558906,6.4074755,7.3496957
MAGNETIC_FIELD,13.011703,-44.311554,-31.349241
GYROSCOPE,-0.021991149,-0.5815437,0.52778757
ORIENTATION,211,322,7
ACCELEROMETER,-1.0122476,6.132892,7.7128425
MAGNETIC_FIELD,11.813527,-44.530415,-31.329681
GYROSCOPE,-0.4352415,-0.58184916,-0.19822577
ORIENTATION,208,323,5
ACCELEROMETER,-0.7184843,5.979627,8.041018
MAGNETIC_FIELD,10.750646,-44.169563,-31.392012
GYROSCOPE,-0.0842994,-0.40194935,-1.0671816
ORIENTATION,207,326,2
ACCELEROMETER,-0.3609441,5.7084565,8.37738
MAGNETIC_FIELD,11.806984,-43.164925,-31.73976
GYROSCOPE,0.8384125,-0.36071593,-0.99112886
ORIENTATION,208,329,1
ACCELEROMETER,-0.18990377,5.1917377,8.710606
MAGNETIC_FIELD,14.400238,-41.837944,-31.83082
GYROSCOPE,-0.29626966,-0.22479841,-1.0390818
ORIENTATION,209,333,4
ACCELEROMETER,-0.5723367,4.576151,8.881217
MAGNETIC_FIELD,16.79818,-39.78246,-32.644115
GYROSCOPE,-0.034513887,-1.0607675,-1.781894
ORIENTATION,214,333,6
ACCELEROMETER,-0.9227573,4.481073,8.7099
MAGNETIC_FIELD,19.307884,-35.969345,-34.036835
GYROSCOPE,0.5177083,-0.65179324,-0.83169305
ORIENTATION,218,336,8
ACCELEROMETER,-1.2737093,3.8686748,8.7889595
MAGNETIC_FIELD,21.588413,-32.153008,-35.316875
GYROSCOPE,-0.20525073,-0.21166481,-1.4935656
ORIENTATION,222,339,10
ACCELEROMETER,-1.6412208,3.5367177,9.282054
MAGNETIC_FIELD,22.96506,-28.446255,-36.844906
GYROSCOPE,-0.25137106,-0.5946773,-1.0619892
ORIENTATION,237,338,9
ACCELEROMETER,-1.3793561,3.7652435,9.0033455
MAGNETIC_FIELD,23.160046,-24.41369,-38.73618
GYROSCOPE,0.4016439,-0.6081163,-0.7651087
ORIENTATION,245,339,8
ACCELEROMETER,-1.3553401,3.663699,9.540257
MAGNETIC_FIELD,22.179785,-21.873518,-40.652134
GYROSCOPE,-0.61544675,-0.87995136,-1.7916678
ORIENTATION,261,336,3
ACCELEROMETER,-0.4745177,4.2233505,9.593687
MAGNETIC_FIELD,20.68084,-18.831638,-42.6301
GYROSCOPE,0.9297369,-0.6001751,0.20158553
ORIENTATION,276,334,3
ACCELEROMETER,-0.48188314,4.2891965,8.860882
MAGNETIC_FIELD,18.79163,-16.987728,-44.266823
GYROSCOPE,-0.2098322,-0.5296202,-0.7507534
ORIENTATION,294,330,2
ACCELEROMETER,-0.373533,4.935934,8.710959
MAGNETIC_FIELD,17.747972,-15.604796,-45.24212
GYROSCOPE,0.5180137,-0.33414328,0.01038471
ORIENTATION,293,334,3
ACCELEROMETER,-0.534384,4.5541368,9.265752
MAGNETIC_FIELD,16.059229,-14.775097,-46.345337
GYROSCOPE,-0.3567453,-0.3051272,-0.7715228
ORIENTATION,306,331,3
ACCELEROMETER,-0.49805245,4.990389,9.067285
MAGNETIC_FIELD,13.873422,-14.1528225,-47.064255
GYROSCOPE,0.3744604,-1.0305296,-0.1591304
ORIENTATION,324,327,4
ACCELEROMETER,-0.59605044,5.3546877,8.248656
MAGNETIC_FIELD,11.617316,-14.261367,-47.60344
GYROSCOPE,0.35430184,-0.4092797,0.5726862
ORIENTATION,329,327,4
ACCELEROMETER,-0.5842555,5.405401,8.418037
MAGNETIC_FIELD,10.0557375,-14.484275,-47.87283
GYROSCOPE,0.16615535,0.13713925,0.54733527
ORIENTATION,339,327,5
ACCELEROMETER,-0.7855005,5.2614765,8.1865425
MAGNETIC_FIELD,8.404303,-14.767706,-48.07487
GYROSCOPE,0.106595986,-0.043982297,1.4721853
ORIENTATION,347,328,6
ACCELEROMETER,-0.9056089,5.0639005,8.085046
MAGNETIC_FIELD,8.540727,-14.653529,-48.226402
GYROSCOPE,0.016493361,1.2660183,1.1523973
ORIENTATION,347,327,6
ACCELEROMETER,-0.8544323,5.09244,7.8904104
MAGNETIC_FIELD,9.409045,-15.128647,-47.78155
GYROSCOPE,0.40469822,0.65393126,1.5381587
ORIENTATION,343,327,6
ACCELEROMETER,-0.9191502,5.410876,8.376802
MAGNETIC_FIELD,10.615284,-17.247986,-46.533913
GYROSCOPE,0.1142318,1.3869696,1.6991217
ORIENTATION,340,329,8
ACCELEROMETER,-1.1934917,5.021673,8.114466
MAGNETIC_FIELD,11.821463,-19.627989,-44.786186
GYROSCOPE,-0.29016098,0.7021896,0.7360926
ORIENTATION,317,329,7
ACCELEROMETER,-1.1336411,5.2895656,8.8522
MAGNETIC_FIELD,13.749598,-21.703241,-42.81189
GYROSCOPE,0.08246681,1.4456125,0.49235737
ORIENTATION,283,332,8
ACCELEROMETER,-1.2491647,4.8325286,8.946262
MAGNETIC_FIELD,14.827948,-24.23368,-40.50292
GYROSCOPE,-0.016493361,0.0061086523,0.5018258
ORIENTATION,274,329,8
ACCELEROMETER,-1.0968361,4.9437513,8.236749
MAGNETIC_FIELD,15.952461,-26.24501,-38.36094
GYROSCOPE,-0.5195409,0.52320606,0.15577064
ORIENTATION,265,328,6
ACCELEROMETER,-0.86662054,5.241749,8.297627
MAGNETIC_FIELD,15.767596,-28.826258,-35.939953
GYROSCOPE,0.4016439,0.2574797,0.84207773
ORIENTATION,255,326,7
ACCELEROMETER,-1.0070007,5.5713396,8.257693
MAGNETIC_FIELD,14.488197,-30.762194,-34.124214
GYROSCOPE,0.04520403,-0.2968805,0.6151413
ORIENTATION,236,327,8
ACCELEROMETER,-1.1149793,5.3627367,8.25767
MAGNETIC_FIELD,12.877148,-33.032146,-31.585161
GYROSCOPE,-0.3182608,0.9584476,0.8573494
ORIENTATION,232,324,5
ACCELEROMETER,-0.7018599,5.595193,7.784948
MAGNETIC_FIELD,11.553361,-34.73461,-29.550371
GYROSCOPE,0.35430184,0.9682214,0.54519725
ORIENTATION,226,322,4
ACCELEROMETER,-0.54120904,5.9428153,7.6743155
MAGNETIC_FIELD,9.787271,-36.445457,-27.655779
GYROSCOPE,-0.024740042,0.31215215,0.02687807
ORIENTATION,217,323,1
ACCELEROMETER,-0.1657384,5.7987623,7.617079
MAGNETIC_FIELD,8.599203,-37.728592,-26.008583
GYROSCOPE,0.14660765,0.33628133,0.26358834
ORIENTATION,212,321,1
ACCELEROMETER,-0.10470128,5.9235587,7.33922
MAGNETIC_FIELD,7.7081523,-38.517693,-25.195938
GYROSCOPE,0.2434298,0.009773844,0.10842858
ORIENTATION,204,323,2
ACCELEROMETER,-0.2708103,5.8785915,7.8520794
MAGNETIC_FIELD,7.1696143,-38.88602,-24.762203
GYROSCOPE,-0.06627888,0.0012217305,-0.9059132
ORIENTATION,198,324,4
ACCELEROMETER,-0.5444311,5.736229,7.915452
MAGNETIC_FIELD,7.3379607,-39.044014,-24.325653
GYROSCOPE,-0.16462818,-0.8622363,-0.17745635
ORIENTATION,200,324,3
ACCELEROMETER,-0.3776476,5.6662683,7.8046646
MAGNETIC_FIELD,7.9874706,-39.34376,-23.53549
GYROSCOPE,-0.33169982,0.18203785,-0.3707952
ORIENTATION,201,325,2
ACCELEROMETER,-0.24178609,5.5696545,7.989725
MAGNETIC_FIELD,8.474603,-39.23932,-23.668867
GYROSCOPE,0.02107485,-0.11026118,-0.906524
ORIENTATION,204,325,0
ACCELEROMETER,-0.031103402,5.5634837,8.076297
MAGNETIC_FIELD,9.278952,-38.92574,-23.86865
GYROSCOPE,0.19883664,-0.8038987,-1.3078625
ORIENTATION,206,327,359
ACCELEROMETER,0.103116214,5.343228,8.381693
MAGNETIC_FIELD,10.670713,-38.415554,-24.018488
GYROSCOPE,-0.32253686,-1.1319333,-1.8057177
ORIENTATION,208,331,358
ACCELEROMETER,0.34713376,4.8759174,8.803324
MAGNETIC_FIELD,12.740285,-36.323418,-25.453115
GYROSCOPE,-0.31123585,-1.1255192,-2.3157902
ORIENTATION,215,330,358
ACCELEROMETER,0.31736225,4.7422595,8.330209
MAGNETIC_FIELD,14.758214,-32.05781,-27.788837
GYROSCOPE,0.42149702,-1.0903945,-1.5674802
ORIENTATION,222,333,2
ACCELEROMETER,-0.23019439,4.493127,8.696626
MAGNETIC_FIELD,15.09566,-27.70311,-30.276127
GYROSCOPE,-0.37568212,-1.2250903,-1.7400496
ORIENTATION,233,333,3
ACCELEROMETER,-0.47506338,4.4409513,8.533749
MAGNETIC_FIELD,14.040995,-23.469582,-32.819847
GYROSCOPE,0.5360342,-0.95294976,-1.0961977
ORIENTATION,254,330,4
ACCELEROMETER,-0.5482826,4.795516,8.229182
MAGNETIC_FIELD,12.884747,-20.294436,-35.017883
GYROSCOPE,0.1881465,-0.5180137,-0.52687126
ORIENTATION,276,328,1
ACCELEROMETER,-0.13228747,5.2843995,8.563844
MAGNETIC_FIELD,11.64431,-18.161577,-36.890163
GYROSCOPE,-0.00580322,-0.43096542,-0.58062744
ORIENTATION,295,326,0
ACCELEROMETER,-0.024097525,5.376926,8.089995
MAGNETIC_FIELD,9.475483,-16.561934,-38.569874
GYROSCOPE,0.09101892,-0.9755518,-0.25137106
ORIENTATION,315,324,1
ACCELEROMETER,-0.12461512,5.6635947,7.9301853
MAGNETIC_FIELD,7.7313623,-14.9824505,-39.906406
GYROSCOPE,0.17073683,-0.12980886,0.24220806
ORIENTATION,329,325,2
ACCELEROMETER,-0.24040547,5.6957393,8.080275
MAGNETIC_FIELD,6.5075216,-13.713338,-40.908806
GYROSCOPE,0.08582657,-0.26236662,0.16279559
ORIENTATION,350,323,6
ACCELEROMETER,-0.7204959,5.67346,7.391831
MAGNETIC_FIELD,5.8686414,-13.305754,-41.791855
GYROSCOPE,-0.20311269,0.46822822,0.9737192
ORIENTATION,355,321,6
ACCELEROMETER,-0.73594826,5.8277864,7.142003
MAGNETIC_FIELD,6.347981,-12.734065,-42.52914
GYROSCOPE,0.13713925,0.95172805,0.4184427
ORIENTATION,350,323,5
ACCELEROMETER,-0.6579046,5.66745,7.5881977
MAGNETIC_FIELD,7.041236,-12.516048,-42.688107
GYROSCOPE,0.27580565,0.7648033,-0.24740042
ORIENTATION,344,324,4
ACCELEROMETER,-0.47861433,5.652692,7.7537527
MAGNETIC_FIELD,7.025927,-12.714537,-42.899582
GYROSCOPE,0.089491755,-0.28802297,0.32284227
ORIENTATION,343,324,3
ACCELEROMETER,-0.43617374,5.5419645,7.6564555
MAGNETIC_FIELD,6.6681952,-12.554402,-43.354935
GYROSCOPE,-0.23609942,-0.31642818,0.45142943
ORIENTATION,355,324,7
ACCELEROMETER,-0.9373525,5.523862,7.6484256
MAGNETIC_FIELD,6.5531464,-12.132802,-43.7812
GYROSCOPE,0.09621128,0.56199604,0.9947941
ORIENTATION,357,325,8
ACCELEROMETER,-1.0441881,5.4109254,7.7697444
MAGNETIC_FIELD,7.45461,-12.0948515,-43.782402
GYROSCOPE,0.40225476,1.0381655,1.9898936
ORIENTATION,354,328,8
ACCELEROMETER,-1.1454138,5.1502495,8.143549
MAGNETIC_FIELD,9.070208,-13.861138,-42.8143
GYROSCOPE,0.33383787,1.7788396,2.2806654
ORIENTATION,353,324,10
ACCELEROMETER,-1.2499137,5.5048103,7.450061
MAGNETIC_FIELD,10.889156,-17.652853,-40.328224
GYROSCOPE,-0.027488936,1.2403619,1.9385809
ORIENTATION,332,322,7
ACCELEROMETER,-0.87264216,5.7910814,7.437216
MAGNETIC_FIELD,11.869617,-22.03514,-36.816418
GYROSCOPE,-0.5564982,2.0332649,1.3106114
ORIENTATION,312,318,3
ACCELEROMETER,-0.4183535,6.2438583,6.931833
MAGNETIC_FIELD,12.233963,-25.398354,-34.661064
GYROSCOPE,0.3484986,1.459357,2.3237314
ORIENTATION,281,321,3
ACCELEROMETER,-0.33486402,5.962445,7.46768
MAGNETIC_FIELD,11.818472,-28.634266,-32.370796
GYROSCOPE,-0.56169057,2.0522017,1.1328496
ORIENTATION,243,326,2
ACCELEROMETER,-0.22855273,5.3150415,7.8843794
MAGNETIC_FIELD,10.240854,-30.8377,-31.026596
GYROSCOPE,-0.47708577,0.38912117,0.81092364
ORIENTATION,229,327,359
ACCELEROMETER,0.14536825,5.0077076,7.8355293
MAGNETIC_FIELD,7.9368906,-32.253025,-30.337196
GYROSCOPE,1.0207558,0.22449298,0.8604037
ORIENTATION,220,326,360
ACCELEROMETER,0.027772963,5.274004,7.701777
MAGNETIC_FIELD,5.530418,-33.720016,-29.616898
GYROSCOPE,0.4175264,1.2043208,0.5320636
ORIENTATION,202,327,1
ACCELEROMETER,-0.18522125,5.164874,7.8583903
MAGNETIC_FIELD,3.3803134,-35.141014,-28.623924
GYROSCOPE,-0.04520403,0.40225476,0.19639318
ORIENTATION,190,326,2
ACCELEROMETER,-0.3277586,5.363148,7.847312
MAGNETIC_FIELD,1.180485,-36.38451,-27.781944
GYROSCOPE,0.018020526,0.10720685,0.20341812
ORIENTATION,180,325,3
ACCELEROMETER,-0.3721131,5.5446243,7.9403076
MAGNETIC_FIELD,-0.5801363,-37.026882,-27.433208
GYROSCOPE,-0.14935656,0.30390546,0.03176499
ORIENTATION,172,325,3
ACCELEROMETER,-0.41091555,5.4908414,7.801759
MAGNETIC_FIELD,-1.9006022,-37.50866,-27.041906
GYROSCOPE,0.008552114,-0.028710667,-3.0543262E-4
ORIENTATION,167,325,3
ACCELEROMETER,-0.4241558,5.5087132,7.8087287
MAGNETIC_FIELD,-3.0367017,-37.755745,-26.987179
GYROSCOPE,-0.01863139,-0.0852157,-0.01038471
ORIENTATION,166,327,2
ACCELEROMETER,-0.34026322,5.366943,8.11338
MAGNETIC_FIELD,-3.8887763,-37.82106,-27.060884
GYROSCOPE,-0.13958271,-0.041233405,0.040927973
ORIENTATION,165,327,1
ACCELEROMETER,-0.18935686,5.3411202,8.139111
MAGNETIC_FIELD,-5.0133324,-37.759045,-27.554413
GYROSCOPE,-0.04886922,-0.13530666,0.096516706
ORIENTATION,162,327,1
ACCELEROMETER,-0.17239408,5.2449894,8.158857
MAGNETIC_FIELD,-5.961749,-37.712532,-27.74206
GYROSCOPE,0.08093964,0.04153884,-0.08582657
ORIENTATION,158,327,1
ACCELEROMETER,-0.18271619,5.265367,8.0984
MAGNETIC_FIELD,-6.509062,-37.8034,-27.770044
GYROSCOPE,0.070554934,0.014049901,-0.03268129
ORIENTATION,157,327,2
ACCELEROMETER,-0.23504978,5.2281275,8.143737
MAGNETIC_FIELD,-6.919546,-38.039047,-27.791033
GYROSCOPE,0.002443461,0.0070249503,-0.03481932
ORIENTATION,156,328,2
ACCELEROMETER,-0.23285036,5.1960077,8.192853
MAGNETIC_FIELD,-6.96266,-38.016037,-27.676525
GYROSCOPE,-0.20158553,-0.077579886,0.06719518
ORIENTATION,156,328,2
ACCELEROMETER,-0.31604528,5.094406,8.279819
MAGNETIC_FIELD,-7.095745,-37.99878,-27.669394
GYROSCOPE,-0.076358154,0.09865474,-0.08246681
ORIENTATION,156,329,2
ACCELEROMETER,-0.27997994,5.091976,8.396967
MAGNETIC_FIELD,-7.1955585,-37.886585,-27.664045
GYROSCOPE,-0.019242255,0.0070249503,-0.06169739
