ORIENTATION,96,334,8
ACCELEROMETER,-1.1936951,4.249832,8.807556
MAGNETIC_FIELD,-6.8237305,-24.577332,-49.40033
GYROSCOPE,-0.021255493,-0.11048889,0.09719849
ORIENTATION,84,332,4
ACCELEROMETER,-0.5855255,4.490814,8.549881
MAGNETIC_FIELD,-9.4192505,-24.046326,-50.061035
GYROSCOPE,0.05305481,-0.117889404,0.04989624
ORIENTATION,75,331,2
ACCELEROMETER,-0.25849915,4.5662384,8.31015
MAGNETIC_FIELD,-11.199951,-23.760986,-48.32306
GYROSCOPE,-0.021194458,-0.07899475,-0.014007568
ORIENTATION,84,332,2
ACCELEROMETER,-0.22822571,4.569168,8.649384
MAGNETIC_FIELD,-9.776306,-24.501038,-48.36731
GYROSCOPE,0.018844604,-0.030395508,-0.01449585
ORIENTATION,86,332,1
ACCELEROMETER,-0.09501648,4.4894714,8.523209
MAGNETIC_FIELD,-10.180664,-24.639893,-48.44513
GYROSCOPE,0.06384277,-0.01663208,0.015426636
ORIENTATION,80,331,0
ACCELEROMETER,-0.031036377,4.6150055,8.366287
MAGNETIC_FIELD,-10.395813,-25.923157,-48.220825
GYROSCOPE,0.019241333,0.016830444,-0.022842407
ORIENTATION,87,331,1
ACCELEROMETER,-0.08673096,4.610916,8.342102
MAGNETIC_FIELD,-11.01532,-24.317932,-47.816467
GYROSCOPE,0.0012664795,-0.026397705,0.0061187744
ORIENTATION,80,331,1
ACCELEROMETER,-0.07847595,4.7283936,8.45752
MAGNETIC_FIELD,-10.929871,-24.917603,-48.735046
GYROSCOPE,0.004928589,-0.019943237,0.007675171
ORIENTATION,79,331,360
ACCELEROMETER,0.015106201,4.677704,8.375702
MAGNETIC_FIELD,-10.290527,-25.19989,-48.484802
GYROSCOPE,-0.009933472,-0.016693115,-0.028121948
ORIENTATION,84,331,1
ACCELEROMETER,-0.092437744,4.6435547,8.477798
MAGNETIC_FIELD,-10.06012,-24.069214,-48.550415
GYROSCOPE,-0.041549683,0.02178955,-6.5612793E-4
ORIENTATION,79,332,0
ACCELEROMETER,-0.039505005,4.5740356,8.446854
MAGNETIC_FIELD,-10.192871,-24.668884,-48.980713
GYROSCOPE,-0.02017212,-0.0029754639,0.016098022
ORIENTATION,83,332,1
ACCELEROMETER,-0.106048584,4.5523987,8.482162
MAGNETIC_FIELD,-9.394836,-24.389648,-48.719788
GYROSCOPE,0.034866333,0.038146973,0.040878296
ORIENTATION,80,332,0
ACCELEROMETER,-0.0020141602,4.544754,8.42778
MAGNETIC_FIELD,-10.261536,-24.243164,-48.547363
GYROSCOPE,-0.049346924,0.005569458,-0.03138733
ORIENTATION,82,332,0
ACCELEROMETER,-6.1035156E-5,4.540207,8.49556
MAGNETIC_FIELD,-10.932922,-25.245667,-49.238586
GYROSCOPE,-0.008575439,4.8828125E-4,-0.07543945
ORIENTATION,87,332,2
ACCELEROMETER,-0.30555725,4.5597534,8.541885
MAGNETIC_FIELD,-9.555054,-23.71521,-48.75641
GYROSCOPE,0.010772705,0.022399902,-0.018829346
ORIENTATION,81,332,2
ACCELEROMETER,-0.27165222,4.505493,8.473816
MAGNETIC_FIELD,-11.628723,-25.08545,-48.573303
GYROSCOPE,0.007171631,0.007461548,0.014404297
ORIENTATION,87,332,1
ACCELEROMETER,-0.20663452,4.5357513,8.489105
MAGNETIC_FIELD,-9.864807,-24.085999,-48.19641
GYROSCOPE,-0.014144897,-0.005279541,0.009857178
ORIENTATION,82,332,1
ACCELEROMETER,-0.12800598,4.5629272,8.5043335
MAGNETIC_FIELD,-10.180664,-24.598694,-49.172974
GYROSCOPE,0.013214111,-0.016143799,0.012771606
ORIENTATION,82,332,1
ACCELEROMETER,-0.16123962,4.5486145,8.452759
MAGNETIC_FIELD,-10.902405,-24.685669,-49.336243
GYROSCOPE,-0.011962891,-0.057144165,0.0010375977
ORIENTATION,83,332,1
ACCELEROMETER,-0.14802551,4.557907,8.518494
MAGNETIC_FIELD,-10.951233,-24.37439,-49.27368
GYROSCOPE,0.024887085,-0.017913818,0.02607727
ORIENTATION,79,332,360
ACCELEROMETER,0.019378662,4.592804,8.465179
MAGNETIC_FIELD,-12.277222,-25.44403,-48.580933
GYROSCOPE,0.032821655,-0.012008667,-0.005264282
ORIENTATION,86,331,0
ACCELEROMETER,-0.03152466,4.599304,8.432159
MAGNETIC_FIELD,-11.022949,-25.512695,-48.14911
GYROSCOPE,0.045715332,0.0050964355,-0.010345459
ORIENTATION,84,331,0
ACCELEROMETER,-0.010391235,4.660614,8.361588
MAGNETIC_FIELD,-10.678101,-26.205444,-47.654724
GYROSCOPE,0.02230835,0.007949829,-0.01727295
ORIENTATION,88,331,1
ACCELEROMETER,-0.11227417,4.7173004,8.377243
MAGNETIC_FIELD,-9.962463,-26.101685,-48.571777
GYROSCOPE,0.0038452148,0.015213013,-0.007980347
ORIENTATION,83,330,1
ACCELEROMETER,-0.07878113,4.771164,8.379929
MAGNETIC_FIELD,-9.736633,-25.94757,-48.7381
GYROSCOPE,0.019378662,0.011062622,0.008026123
ORIENTATION,82,330,1
ACCELEROMETER,-0.11198425,4.742859,8.357147
MAGNETIC_FIELD,-10.575867,-25.776672,-48.254395
GYROSCOPE,-0.024795532,0.013504028,0.013793945
ORIENTATION,83,330,1
ACCELEROMETER,-0.102249146,4.7836,8.403946
MAGNETIC_FIELD,-11.065674,-25.8255,-48.143005
GYROSCOPE,0.02394104,0.012420654,0.0070648193
ORIENTATION,83,330,360
ACCELEROMETER,0.018157959,4.7499847,8.363861
MAGNETIC_FIELD,-10.5911255,-26.315308,-47.236633
GYROSCOPE,0.040496826,-0.05130005,-0.029830933
ORIENTATION,87,330,1
ACCELEROMETER,-0.19154358,4.762192,8.303284
MAGNETIC_FIELD,-11.538696,-26.060486,-48.179626
GYROSCOPE,-0.023986816,-0.028701782,0.018615723
ORIENTATION,83,330,0
ACCELEROMETER,-0.010910034,4.848175,8.40477
MAGNETIC_FIELD,-11.546326,-26.577759,-47.63794
GYROSCOPE,0.012939453,0.014190674,0.004425049
ORIENTATION,88,330,1
ACCELEROMETER,-0.09991455,4.7274017,8.312424
MAGNETIC_FIELD,-10.580444,-25.424194,-47.5708
GYROSCOPE,-0.02709961,0.0031280518,0.025054932
ORIENTATION,82,330,360
ACCELEROMETER,0.03869629,4.74144,8.353638
MAGNETIC_FIELD,-10.510254,-26.213074,-48.312378
GYROSCOPE,-0.017532349,-0.0037994385,0.026000977
ORIENTATION,80,331,360
ACCELEROMETER,0.00680542,4.7157135,8.3693695
MAGNETIC_FIELD,-11.846924,-26.194763,-47.51892
GYROSCOPE,-0.003692627,0.07116699,0.021865845
ORIENTATION,83,330,360
ACCELEROMETER,0.0032958984,4.757904,8.361572
MAGNETIC_FIELD,-10.317993,-25.694275,-46.98181
GYROSCOPE,-5.645752E-4,-0.0058288574,-0.02331543
ORIENTATION,89,330,1
ACCELEROMETER,-0.19052124,4.752533,8.357788
MAGNETIC_FIELD,-8.972168,-25.164795,-48.620605
GYROSCOPE,-0.015426636,-8.087158E-4,-0.03919983
ORIENTATION,82,331,2
ACCELEROMETER,-0.28616333,4.620865,8.363876
MAGNETIC_FIELD,-9.34906,-25.358582,-49.32556
GYROSCOPE,-0.019973755,-0.0046081543,-0.009811401
ORIENTATION,80,332,2
ACCELEROMETER,-0.29138184,4.570648,8.60112
MAGNETIC_FIELD,-9.411621,-25.079346,-48.284912
GYROSCOPE,-0.040649414,-0.101257324,0.00869751
ORIENTATION,83,332,0
ACCELEROMETER,-0.032073975,4.5442047,8.462891
MAGNETIC_FIELD,-10.3302,-24.653625,-48.191833
GYROSCOPE,-0.043441772,-0.004135132,0.045211792
ORIENTATION,80,332,359
ACCELEROMETER,0.09719849,4.409088,8.415268
MAGNETIC_FIELD,-11.695862,-23.809814,-48.986816
GYROSCOPE,-0.05029297,-0.0597229,0.16955566
ORIENTATION,78,333,358
ACCELEROMETER,0.368042,4.24263,8.468033
MAGNETIC_FIELD,-12.922668,-22.958374,-48.79303
GYROSCOPE,-0.047042847,0.036514282,0.031433105
ORIENTATION,80,334,358
ACCELEROMETER,0.30418396,4.1469116,8.6562195
MAGNETIC_FIELD,-13.166809,-21.688843,-49.398804
GYROSCOPE,-0.008514404,0.020568848,-0.03857422
ORIENTATION,77,334,358
ACCELEROMETER,0.29356384,4.227066,8.797089
MAGNETIC_FIELD,-11.708069,-22.253418,-49.80774
GYROSCOPE,0.07809448,0.032302856,-0.032409668
ORIENTATION,81,333,360
ACCELEROMETER,0.064956665,4.409912,8.532272
MAGNETIC_FIELD,-10.20813,-23.875427,-48.558044
GYROSCOPE,0.04348755,0.0030670166,0.0023956299
ORIENTATION,83,332,0
ACCELEROMETER,-0.031829834,4.527481,8.4045105
MAGNETIC_FIELD,-9.976196,-24.311829,-49.147034
GYROSCOPE,0.00642395,0.0078125,-8.544922E-4
ORIENTATION,86,332,0
ACCELEROMETER,-0.048339844,4.5293427,8.42807
MAGNETIC_FIELD,-10.954285,-24.145508,-48.831177
GYROSCOPE,0.024002075,0.001159668,0.010391235
ORIENTATION,81,332,0
ACCELEROMETER,-0.03842163,4.5404205,8.48407
MAGNETIC_FIELD,-11.703491,-25.3479,-48.4787
GYROSCOPE,0.019042969,0.012435913,0.0021209717
ORIENTATION,84,332,1
ACCELEROMETER,-0.12214661,4.602188,8.509293
MAGNETIC_FIELD,-9.60083,-24.536133,-49.586487
GYROSCOPE,0.030044556,0.0073394775,0.00944519
ORIENTATION,80,331,1
ACCELEROMETER,-0.09098816,4.688629,8.389938
MAGNETIC_FIELD,-10.198975,-25.58136,-48.71521
GYROSCOPE,-0.010818481,0.009231567,0.033950806
ORIENTATION,78,330,1
ACCELEROMETER,-0.085494995,4.7998962,8.434814
MAGNETIC_FIELD,-9.680176,-25.566101,-48.81134
GYROSCOPE,0.0390625,0.018936157,0.018539429
ORIENTATION,77,330,1
ACCELEROMETER,-0.08934021,4.8507233,8.39418
MAGNETIC_FIELD,-10.325623,-25.675964,-48.82965
GYROSCOPE,0.03425598,-0.013763428,-0.009338379
ORIENTATION,82,329,1
ACCELEROMETER,-0.09075928,4.9789276,8.309982
MAGNETIC_FIELD,-10.586548,-27.990723,-47.895813
GYROSCOPE,0.036972046,0.015274048,0.001373291
ORIENTATION,80,328,1
ACCELEROMETER,-0.12800598,5.006729,8.166946
MAGNETIC_FIELD,-10.484314,-28.076172,-47.984314
GYROSCOPE,-0.010543823,-0.005218506,-0.006286621
ORIENTATION,84,329,1
ACCELEROMETER,-0.1366272,4.9748993,8.225571
MAGNETIC_FIELD,-10.902405,-26.960754,-48.059082
GYROSCOPE,-0.004501343,0.0010986328,-0.013671875
ORIENTATION,81,329,1
ACCELEROMETER,-0.19146729,4.950348,8.305023
MAGNETIC_FIELD,-10.134888,-27.386475,-46.987915
GYROSCOPE,0.007095337,-0.0018310547,-0.015029907
ORIENTATION,84,329,1
ACCELEROMETER,-0.18173218,4.9619446,8.265137
MAGNETIC_FIELD,-9.339905,-27.349854,-48.017883
GYROSCOPE,0.010498047,-0.02368164,-0.008453369
ORIENTATION,80,329,1
ACCELEROMETER,-0.115448,5.025528,8.239365
MAGNETIC_FIELD,-10.975647,-27.267456,-47.769165
GYROSCOPE,0.008865356,-0.019470215,0.0011749268
ORIENTATION,84,329,0
ACCELEROMETER,-0.056015015,5.0180206,8.200638
MAGNETIC_FIELD,-9.222412,-27.32544,-47.42737
GYROSCOPE,-0.03036499,-0.009963989,-0.018966675
ORIENTATION,85,329,1
ACCELEROMETER,-0.11595154,4.9854584,8.27121
MAGNETIC_FIELD,-9.646606,-27.911377,-46.81549
GYROSCOPE,0.038391113,-0.0017547607,-5.0354004E-4
ORIENTATION,83,328,1
ACCELEROMETER,-0.08728027,5.02977,8.134277
MAGNETIC_FIELD,-11.079407,-28.155518,-46.917725
GYROSCOPE,0.016677856,0.011688232,0.024993896
ORIENTATION,82,328,0
ACCELEROMETER,-0.068344116,5.094803,8.134705
MAGNETIC_FIELD,-11.129761,-27.616882,-47.729492
GYROSCOPE,-0.0053863525,-6.1035156E-4,-0.015090942
ORIENTATION,85,328,1
ACCELEROMETER,-0.12872314,5.088089,8.144165
MAGNETIC_FIELD,-10.501099,-27.055359,-47.824097
GYROSCOPE,-0.02696228,-0.010513306,-0.0054626465
ORIENTATION,75,328,1
ACCELEROMETER,-0.1357727,5.06604,8.183319
MAGNETIC_FIELD,-10.671997,-27.407837,-46.998596
GYROSCOPE,0.012252808,0.0017089844,0.0053100586
ORIENTATION,77,328,0
ACCELEROMETER,-0.011077881,5.051346,8.116226
MAGNETIC_FIELD,-9.976196,-26.556396,-47.834778
GYROSCOPE,-0.023239136,0.08576965,-0.07394409
ORIENTATION,86,329,3
ACCELEROMETER,-0.47886658,4.893585,8.162186
MAGNETIC_FIELD,-8.773804,-26.893616,-49.136353
GYROSCOPE,-0.091156006,0.10307312,-0.04774475
