ORIENTATION,262,329,7
ACCELEROMETER,-1.0050507,5.231537,8.555786
MAGNETIC_FIELD,7.7285767,-15.367126,-24.905396
GYROSCOPE,-0.17219543,0.025115967,-0.061660767
ORIENTATION,263,330,12
ACCELEROMETER,-1.6518555,4.678543,7.950897
MAGNETIC_FIELD,8.946228,-13.140869,-25.411987
GYROSCOPE,-0.3363037,-0.0068511963,-0.049179077
ORIENTATION,263,335,11
ACCELEROMETER,-1.7473755,4.332123,8.9787445
MAGNETIC_FIELD,7.206726,-13.9678955,-24.855042
GYROSCOPE,0.09832764,-0.03060913,0.12815857
ORIENTATION,256,334,6
ACCELEROMETER,-0.89126587,4.28714,8.557022
MAGNETIC_FIELD,6.929016,-14.741516,-25.117493
GYROSCOPE,0.08779907,-0.067733765,-0.08772278
ORIENTATION,256,332,6
ACCELEROMETER,-0.94104004,4.4808044,8.41156
MAGNETIC_FIELD,7.2921753,-13.710022,-25.439453
GYROSCOPE,-0.032928467,-0.05734253,0.038360596
ORIENTATION,268,333,7
ACCELEROMETER,-1.028656,4.420059,8.483948
MAGNETIC_FIELD,7.1365356,-13.356018,-25.6073
GYROSCOPE,-0.10044861,-0.06222534,-0.059753418
ORIENTATION,269,333,7
ACCELEROMETER,-1.0890656,4.3592987,8.552277
MAGNETIC_FIELD,5.986023,-13.739014,-26.098633
GYROSCOPE,-0.059387207,-0.07574463,-0.00920105
ORIENTATION,255,334,6
ACCELEROMETER,-0.94996643,4.15184,8.573303
MAGNETIC_FIELD,6.690979,-13.276672,-26.87378
GYROSCOPE,0.021759033,-0.037734985,0.0040130615
ORIENTATION,269,334,6
ACCELEROMETER,-0.9014282,4.3054657,8.898178
MAGNETIC_FIELD,5.923462,-12.684631,-25.090027
GYROSCOPE,0.0022888184,-0.006713867,-0.05595398
ORIENTATION,267,334,5
ACCELEROMETER,-0.7946167,4.1729584,8.481201
MAGNETIC_FIELD,6.694031,-14.317322,-25.524902
GYROSCOPE,0.0016021729,-0.010650635,-0.050323486
ORIENTATION,243,336,5
ACCELEROMETER,-0.7027283,4.010269,8.900803
MAGNETIC_FIELD,5.491638,-13.458252,-25.209045
GYROSCOPE,0.00642395,-0.13139343,-0.015167236
ORIENTATION,257,334,5
ACCELEROMETER,-0.7408905,4.2254333,8.526108
MAGNETIC_FIELD,5.0704956,-13.710022,-26.58844
GYROSCOPE,-0.08721924,-0.09901428,-0.075164795
ORIENTATION,245,335,5
ACCELEROMETER,-0.8426056,4.069214,8.811737
MAGNETIC_FIELD,6.1019897,-13.38501,-25.91858
GYROSCOPE,0.08026123,0.033462524,-0.01876831
ORIENTATION,260,335,3
ACCELEROMETER,-0.4927826,4.278717,9.005661
MAGNETIC_FIELD,4.6203613,-14.996338,-25.187683
GYROSCOPE,0.25239563,-0.12638855,0.12524414
ORIENTATION,272,329,3
ACCELEROMETER,-0.37878418,4.8899384,8.172211
MAGNETIC_FIELD,4.6432495,-15.658569,-24.684143
GYROSCOPE,0.073287964,0.0052948,0.06958008
ORIENTATION,250,331,0
ACCELEROMETER,-0.05621338,4.556076,8.170975
MAGNETIC_FIELD,4.386902,-14.23645,-24.438477
GYROSCOPE,-0.05558777,0.10015869,0.0209198
ORIENTATION,258,331,2
ACCELEROMETER,-0.3431549,4.6500854,8.538712
MAGNETIC_FIELD,6.1569214,-14.450073,-25.544739
GYROSCOPE,0.01979065,0.10517883,-0.10421753
ORIENTATION,275,330,5
ACCELEROMETER,-0.6776886,4.7530975,8.279221
MAGNETIC_FIELD,5.760193,-14.750671,-24.938965
GYROSCOPE,-0.10391235,-0.0050201416,0.095581055
ORIENTATION,252,333,2
ACCELEROMETER,-0.32855225,4.497864,8.673065
MAGNETIC_FIELD,4.6188354,-14.004517,-24.198914
GYROSCOPE,-0.0635376,-0.016082764,-0.0868988
ORIENTATION,248,333,4
ACCELEROMETER,-0.6109009,4.449875,8.560638
MAGNETIC_FIELD,4.4662476,-13.441467,-25.868225
GYROSCOPE,-0.0119018555,-0.011474609,-0.06776428
ORIENTATION,269,333,4
ACCELEROMETER,-0.64964294,4.393936,8.560486
MAGNETIC_FIELD,5.4092407,-13.710022,-24.938965
GYROSCOPE,-0.05558777,0.0050964355,-0.010757446
ORIENTATION,255,334,4
ACCELEROMETER,-0.5718689,4.3279114,8.677536
MAGNETIC_FIELD,5.3085327,-13.790894,-25.17395
GYROSCOPE,-0.012710571,0.02708435,0.0660553
ORIENTATION,255,334,3
ACCELEROMETER,-0.47540283,4.356735,8.764969
MAGNETIC_FIELD,5.923462,-13.760376,-24.772644
GYROSCOPE,0.08529663,-0.0015563965,0.0184021
ORIENTATION,266,332,3
ACCELEROMETER,-0.5128174,4.501648,8.41983
MAGNETIC_FIELD,5.57251,-14.889526,-25.585938
GYROSCOPE,0.06309509,0.0050354004,-0.0748291
ORIENTATION,260,331,4
ACCELEROMETER,-0.5932007,4.595459,8.400009
MAGNETIC_FIELD,5.4382324,-14.472961,-25.848389
GYROSCOPE,0.048171997,0.013702393,0.035095215
ORIENTATION,267,331,4
ACCELEROMETER,-0.5510559,4.5834503,8.397018
MAGNETIC_FIELD,4.992676,-14.99176,-25.85907
GYROSCOPE,-0.04751587,0.0032653809,0.040603638
ORIENTATION,257,332,3
ACCELEROMETER,-0.51208496,4.634857,8.55835
MAGNETIC_FIELD,5.3115845,-14.485168,-24.85962
GYROSCOPE,-0.041137695,-0.010040283,0.013793945
ORIENTATION,254,332,3
ACCELEROMETER,-0.45454407,4.506256,8.540756
MAGNETIC_FIELD,4.5578003,-14.414978,-25.421143
GYROSCOPE,-0.009735107,0.017456055,-0.0057373047
ORIENTATION,256,332,3
ACCELEROMETER,-0.5196533,4.5348206,8.56575
MAGNETIC_FIELD,4.725647,-14.395142,-25.77362
GYROSCOPE,0.052581787,-0.03060913,-0.016937256
ORIENTATION,265,332,3
ACCELEROMETER,-0.4569397,4.564331,8.439072
MAGNETIC_FIELD,6.365967,-14.0060425,-25.691223
GYROSCOPE,-0.023834229,-4.7302246E-4,-0.0014648438
ORIENTATION,269,332,3
ACCELEROMETER,-0.47950745,4.586975,8.56279
MAGNETIC_FIELD,5.8502197,-14.306641,-24.461365
GYROSCOPE,-0.0181427,0.0019073486,-0.040420532
ORIENTATION,262,331,4
ACCELEROMETER,-0.60398865,4.6570435,8.468491
MAGNETIC_FIELD,5.8181763,-14.607239,-24.798584
GYROSCOPE,0.03425598,0.024230957,-0.024398804
ORIENTATION,259,331,3
ACCELEROMETER,-0.45741272,4.571274,8.403656
MAGNETIC_FIELD,5.670166,-13.894653,-25.01831
GYROSCOPE,-0.045944214,0.008895874,-0.0076293945
ORIENTATION,271,331,5
ACCELEROMETER,-0.72239685,4.6960754,8.508591
MAGNETIC_FIELD,4.774475,-14.541626,-24.736023
GYROSCOPE,0.02935791,0.008285522,0.032943726
ORIENTATION,259,331,3
ACCELEROMETER,-0.44122314,4.597168,8.31427
MAGNETIC_FIELD,5.995178,-13.78479,-25.01831
GYROSCOPE,-0.02078247,0.064193726,0.050231934
ORIENTATION,267,332,4
ACCELEROMETER,-0.55970764,4.565735,8.565933
MAGNETIC_FIELD,5.99823,-13.635254,-25.52185
GYROSCOPE,-0.022964478,-0.014587402,-0.0032958984
ORIENTATION,274,332,4
ACCELEROMETER,-0.541214,4.6019287,8.503326
MAGNETIC_FIELD,5.995178,-14.485168,-25.737
GYROSCOPE,-0.030838013,-6.1035156E-4,-0.064712524
ORIENTATION,262,332,4
ACCELEROMETER,-0.54341125,4.5601044,8.608582
MAGNETIC_FIELD,6.176758,-13.447571,-24.5224
GYROSCOPE,0.06465149,-0.046691895,-0.070755005
ORIENTATION,226,332,4
ACCELEROMETER,-0.64138794,4.3888245,8.399216
MAGNETIC_FIELD,4.8706055,-14.378357,-24.60022
GYROSCOPE,-0.06440735,0.03312683,0.069992065
ORIENTATION,252,332,3
ACCELEROMETER,-0.44812012,4.506378,8.600433
MAGNETIC_FIELD,5.055237,-15.263367,-24.282837
GYROSCOPE,0.0155181885,0.020507813,0.040863037
ORIENTATION,256,332,3
ACCELEROMETER,-0.49595642,4.589325,8.502258
MAGNETIC_FIELD,5.484009,-14.115906,-25.019836
GYROSCOPE,0.02230835,0.011062622,-0.050048828
ORIENTATION,273,332,5
ACCELEROMETER,-0.7561035,4.551605,8.391129
MAGNETIC_FIELD,6.436157,-14.715576,-25.100708
GYROSCOPE,0.008529663,0.01826477,0.030151367
ORIENTATION,257,332,4
ACCELEROMETER,-0.6500244,4.530258,8.3546295
MAGNETIC_FIELD,6.5231323,-16.181946,-24.005127
GYROSCOPE,-0.015701294,0.05645752,0.0010375977
ORIENTATION,265,332,5
ACCELEROMETER,-0.804245,4.605072,8.605209
MAGNETIC_FIELD,6.613159,-14.974976,-24.967957
GYROSCOPE,-0.035507202,0.011810303,0.0075531006
ORIENTATION,253,332,6
ACCELEROMETER,-0.9423218,4.5171814,8.573639
MAGNETIC_FIELD,6.6116333,-13.70697,-25.256348
GYROSCOPE,-0.09576416,0.051498413,0.03652954
ORIENTATION,271,333,5
ACCELEROMETER,-0.8343048,4.4533997,8.746735
MAGNETIC_FIELD,5.9188843,-14.048767,-25.093079
GYROSCOPE,0.053329468,-0.0016937256,-0.0499115
ORIENTATION,268,332,6
ACCELEROMETER,-0.96673584,4.541458,8.525223
MAGNETIC_FIELD,7.2387695,-14.659119,-24.386597
GYROSCOPE,-0.06448364,-0.060943604,-0.018157959
ORIENTATION,243,333,7
ACCELEROMETER,-0.9744415,4.4566193,8.548889
MAGNETIC_FIELD,7.646179,-14.916992,-25.123596
GYROSCOPE,0.017211914,-0.007736206,0.10997009
ORIENTATION,243,333,6
ACCELEROMETER,-0.8767853,4.3786316,8.5716095
MAGNETIC_FIELD,6.0943604,-14.778137,-25.325012
GYROSCOPE,-0.020645142,-0.088974,0.07337952
ORIENTATION,272,332,7
ACCELEROMETER,-0.9791107,4.6139984,8.589493
MAGNETIC_FIELD,5.5770874,-14.048767,-26.283264
GYROSCOPE,-0.08932495,-0.07295227,-0.04096985
ORIENTATION,259,333,6
ACCELEROMETER,-0.9492798,4.4802246,8.812195
MAGNETIC_FIELD,6.436157,-13.723755,-25.990295
GYROSCOPE,-0.01651001,0.03488159,-0.013473511
ORIENTATION,249,335,5
ACCELEROMETER,-0.83480835,4.097122,8.742264
MAGNETIC_FIELD,6.42395,-13.209534,-24.943542
GYROSCOPE,-0.014953613,-0.006164551,0.010940552
ORIENTATION,254,334,5
ACCELEROMETER,-0.77282715,4.26503,8.809448
MAGNETIC_FIELD,5.508423,-13.981628,-25.85144
GYROSCOPE,-0.049682617,-0.048934937,-0.04849243
ORIENTATION,264,333,5
ACCELEROMETER,-0.7915039,4.386505,8.741241
MAGNETIC_FIELD,6.932068,-13.95874,-25.456238
GYROSCOPE,0.056106567,0.03060913,-0.029342651
ORIENTATION,258,333,5
ACCELEROMETER,-0.7985382,4.2855835,8.435837
MAGNETIC_FIELD,5.105591,-12.684631,-25.978088
GYROSCOPE,-0.044525146,-0.019546509,-0.021347046
ORIENTATION,247,334,5
ACCELEROMETER,-0.7177429,4.191742,8.694229
MAGNETIC_FIELD,5.7525635,-14.239502,-25.933838
GYROSCOPE,0.033843994,-0.01852417,-0.010482788
ORIENTATION,237,334,5
ACCELEROMETER,-0.785614,4.391754,8.787979
MAGNETIC_FIELD,6.2561035,-14.370728,-25.610352
GYROSCOPE,-0.031906128,-0.0070495605,-0.008117676
ORIENTATION,257,334,5
ACCELEROMETER,-0.7756195,4.221054,8.572006
MAGNETIC_FIELD,6.436157,-13.356018,-25.964355
GYROSCOPE,-0.12033081,0.017791748,0.025268555
ORIENTATION,250,336,5
ACCELEROMETER,-0.7416687,4.057419,8.9166565
MAGNETIC_FIELD,5.607605,-12.8967285,-26.289368
GYROSCOPE,0.046875,4.119873E-4,-0.020401001
ORIENTATION,247,334,5
ACCELEROMETER,-0.7865448,4.1451874,8.642258
MAGNETIC_FIELD,6.3476563,-13.302612,-25.700378
GYROSCOPE,0.026031494,0.004348755,0.017990112
ORIENTATION,263,334,5
ACCELEROMETER,-0.72566223,4.2250366,8.664856
MAGNETIC_FIELD,5.834961,-13.798523,-26.022339
GYROSCOPE,-0.011352539,0.008621216,-0.0057373047
ORIENTATION,263,334,5
ACCELEROMETER,-0.68463135,4.208557,8.696579
MAGNETIC_FIELD,5.5770874,-13.365173,-26.437378
GYROSCOPE,-0.008300781,0.0027160645,0.002319336
ORIENTATION,246,334,5
ACCELEROMETER,-0.6829071,4.20726,8.595322
MAGNETIC_FIELD,5.4107666,-13.874817,-26.119995
GYROSCOPE,-0.009262085,0.004425049,-0.011230469
ORIENTATION,257,334,5
ACCELEROMETER,-0.7418976,4.222763,8.649414
MAGNETIC_FIELD,5.2078247,-13.699341,-26.446533
GYROSCOPE,-0.0065307617,0.005493164,-0.008178711
ORIENTATION,242,334,5
ACCELEROMETER,-0.749588,4.2785187,8.754074
MAGNETIC_FIELD,6.5719604,-12.95166,-26.44806
GYROSCOPE,0.0337677,0.031158447,0.0042266846
ORIENTATION,256,334,5
ACCELEROMETER,-0.77397156,4.3638763,8.721298
MAGNETIC_FIELD,6.1065674,-13.903809,-25.790405
GYROSCOPE,0.016403198,0.040023804,0.015899658
ORIENTATION,261,334,5
ACCELEROMETER,-0.8043213,4.336136,8.736618
MAGNETIC_FIELD,7.3043823,-13.682556,-25.6073
GYROSCOPE,-0.012771606,0.016357422,0.016571045
ORIENTATION,248,333,6
ACCELEROMETER,-0.8370514,4.390915,8.643356
MAGNETIC_FIELD,6.0058594,-13.101196,-25.195313
GYROSCOPE,0.0043945313,0.014389038,0.012496948
ORIENTATION,284,333,6
ACCELEROMETER,-0.83662415,4.3891144,8.585419
MAGNETIC_FIELD,6.336975,-14.323425,-25.517273
GYROSCOPE,-0.0041046143,0.017990112,7.7819824E-4
ORIENTATION,269,333,6
ACCELEROMETER,-0.8748932,4.2964478,8.461533
MAGNETIC_FIELD,5.696106,-13.485718,-25.732422
GYROSCOPE,-0.07635498,1.373291E-4,0.015075684
ORIENTATION,257,334,5
ACCELEROMETER,-0.74780273,4.299652,8.698654
MAGNETIC_FIELD,6.4437866,-13.88092,-25.436401
GYROSCOPE,0.03968811,0.023284912,-0.07937622
ORIENTATION,260,333,7
ACCELEROMETER,-1.0539398,4.3089447,8.417191
MAGNETIC_FIELD,6.1798096,-13.9678955,-24.354553
GYROSCOPE,-0.06645203,0.052444458,-0.0076293945
ORIENTATION,239,334,7
ACCELEROMETER,-1.0996399,4.1443634,8.609955
MAGNETIC_FIELD,5.593872,-14.065552,-26.40686
GYROSCOPE,-0.016586304,-0.0037994385,-0.019851685
ORIENTATION,265,333,7
ACCELEROMETER,-1.0447235,4.5233765,8.738113
MAGNETIC_FIELD,6.0684204,-13.694763,-24.787903
GYROSCOPE,0.04953003,-0.04724121,0.036331177
ORIENTATION,258,333,6
ACCELEROMETER,-0.90423584,4.298462,8.403793
MAGNETIC_FIELD,5.9265137,-13.90686,-25.778198
GYROSCOPE,0.10877991,0.10852051,0.0019836426
ORIENTATION,260,333,6
ACCELEROMETER,-0.97213745,4.4186707,8.687164
MAGNETIC_FIELD,8.030701,-15.52887,-23.731995
GYROSCOPE,0.12771606,0.10668945,-0.038513184
ORIENTATION,253,330,10
ACCELEROMETER,-1.3893433,4.7142487,8.134613
MAGNETIC_FIELD,7.8170776,-15.0894165,-24.60022
GYROSCOPE,-0.12643433,-0.07106018,0.0019836426
ORIENTATION,254,332,8
ACCELEROMETER,-1.2458801,4.5838776,8.39917
MAGNETIC_FIELD,7.2265625,-13.955688,-25.852966
GYROSCOPE,-0.13682556,-0.15284729,0.041412354
ORIENTATION,261,334,6
ACCELEROMETER,-0.9568329,4.317856,8.609741
MAGNETIC_FIELD,5.9890747,-13.261414,-26.70288
GYROSCOPE,-0.080963135,-0.07106018,0.021118164
ORIENTATION,271,334,5
ACCELEROMETER,-0.81181335,4.287262,8.706604
MAGNETIC_FIELD,5.2383423,-12.85553,-25.273132
GYROSCOPE,1.0681152E-4,0.012359619,-0.015640259
ORIENTATION,261,334,5
ACCELEROMETER,-0.76148987,4.2029877,8.700699
MAGNETIC_FIELD,5.834961,-13.798523,-25.515747
GYROSCOPE,0.011383057,-0.027069092,0.01826477
ORIENTATION,256,334,4
ACCELEROMETER,-0.6656647,4.265747,8.627029
MAGNETIC_FIELD,5.52063,-14.918518,-25.631714
GYROSCOPE,0.13891602,-0.19587708,-0.07435608
ORIENTATION,240,334,4
ACCELEROMETER,-0.55140686,4.2716675,8.9075165
MAGNETIC_FIELD,3.37677,-14.587402,-26.400757
GYROSCOPE,0.1197052,-0.46662903,-0.038650513
ORIENTATION,285,329,359
ACCELEROMETER,0.11592102,4.743515,7.9409943
MAGNETIC_FIELD,2.4841309,-15.2771,-25.756836
GYROSCOPE,0.25550842,0.17822266,0.030288696
ORIENTATION,266,330,359
ACCELEROMETER,0.20175171,4.982559,8.515442
MAGNETIC_FIELD,3.3569336,-16.729736,-25.248718
GYROSCOPE,0.026107788,0.052719116,0.05960083
ORIENTATION,264,327,359
ACCELEROMETER,0.15756226,5.0564117,7.8299255
MAGNETIC_FIELD,4.811096,-13.626099,-25.857544
GYROSCOPE,-0.35809326,0.27479553,-0.01638794
ORIENTATION,273,332,2
ACCELEROMETER,-0.2511902,4.673874,8.731369
MAGNETIC_FIELD,5.13916,-14.654541,-26.017761
GYROSCOPE,0.033706665,0.035705566,0.013046265
ORIENTATION,261,332,3
ACCELEROMETER,-0.44926453,4.4944,8.443375
MAGNETIC_FIELD,3.2470703,-14.134216,-25.500488
GYROSCOPE,-0.052871704,-0.05368042,0.036727905
ORIENTATION,256,332,2
ACCELEROMETER,-0.26512146,4.4807434,8.51387
MAGNETIC_FIELD,3.5842896,-13.61084,-26.376343
GYROSCOPE,-0.09196472,-0.07255554,0.010467529
ORIENTATION,270,333,1
ACCELEROMETER,-0.20491028,4.402832,8.570084
MAGNETIC_FIELD,4.5547485,-14.053345,-26.608276
GYROSCOPE,-0.0065460205,-0.038269043,0.017593384
ORIENTATION,267,333,1
ACCELEROMETER,-0.086135864,4.3748016,8.423233
MAGNETIC_FIELD,3.718567,-13.710022,-25.935364
GYROSCOPE,-0.10241699,0.026473999,0.04032898
ORIENTATION,245,336,360
ACCELEROMETER,0.0332489,4.1323395,9.135025
MAGNETIC_FIELD,4.600525,-14.135742,-25.994873
GYROSCOPE,0.16334534,0.24168396,-0.05215454
ORIENTATION,273,331,4
ACCELEROMETER,-0.51016235,4.4463196,8.118912
MAGNETIC_FIELD,5.8914185,-14.974976,-25.874329
GYROSCOPE,-0.036376953,-0.01676941,0.054779053
ORIENTATION,250,333,3
ACCELEROMETER,-0.42407227,4.407013,8.822464
MAGNETIC_FIELD,2.909851,-14.477539,-26.66626
GYROSCOPE,0.051086426,-0.14952087,0.04751587
ORIENTATION,258,333,1
ACCELEROMETER,-0.07887268,4.4610596,8.620529
MAGNETIC_FIELD,3.1860352,-14.228821,-25.790405
GYROSCOPE,-0.033325195,-0.10588074,0.004699707
ORIENTATION,254,333,360
ACCELEROMETER,0.061523438,4.4071045,8.65152
MAGNETIC_FIELD,3.753662,-13.62915,-26.220703
GYROSCOPE,-0.1816864,0.06350708,-0.12654114
ORIENTATION,255,334,1
ACCELEROMETER,-0.15544128,4.194931,8.712479
MAGNETIC_FIELD,3.9535522,-13.793945,-25.683594
GYROSCOPE,-0.03048706,0.10694885,-0.060836792
ORIENTATION,240,335,3
ACCELEROMETER,-0.46054077,4.0479584,8.599579
MAGNETIC_FIELD,4.310608,-14.460754,-26.377869
GYROSCOPE,0.07299805,-0.10282898,-0.021209717
ORIENTATION,247,335,1
ACCELEROMETER,-0.13383484,4.0839996,8.578369
MAGNETIC_FIELD,4.307556,-13.783264,-25.868225
GYROSCOPE,0.10395813,0.033996582,-0.26541138
ORIENTATION,266,333,4
ACCELEROMETER,-0.5703888,4.4929047,8.617706
MAGNETIC_FIELD,5.2474976,-14.2578125,-27.293396
GYROSCOPE,0.015991211,-0.058029175,-5.79834E-4
ORIENTATION,264,333,3
ACCELEROMETER,-0.48286438,4.4539948,8.857803
MAGNETIC_FIELD,3.9733887,-14.13269,-25.517273
GYROSCOPE,0.11216736,-0.03175354,0.108947754
