ORIENTATION,295,326,6
ACCELEROMETER,-0.82810974,5.424469,7.866501
MAGNETIC_FIELD,23.153687,-22.714233,-46.23413
GYROSCOPE,-0.12068176,0.1663971,0.17579651
ORIENTATION,287,329,4
ACCELEROMETER,-0.6156006,4.962555,8.309265
MAGNETIC_FIELD,23.21167,-21.418762,-45.144653
GYROSCOPE,0.037841797,0.17584229,-0.087646484
ORIENTATION,291,330,9
ACCELEROMETER,-1.2713928,4.9301147,8.292984
MAGNETIC_FIELD,25.518799,-20.454407,-44.874573
GYROSCOPE,-0.0011749268,-0.041870117,0.018341064
ORIENTATION,285,330,7
ACCELEROMETER,-1.0800934,4.824951,8.263779
MAGNETIC_FIELD,24.746704,-22.262573,-44.448853
GYROSCOPE,0.007843018,-0.045196533,-0.019515991
ORIENTATION,288,330,7
ACCELEROMETER,-1.0070038,4.869812,8.296936
MAGNETIC_FIELD,23.86322,-21.928406,-45.295715
GYROSCOPE,0.04498291,0.04600525,-0.038848877
ORIENTATION,288,329,8
ACCELEROMETER,-1.1420135,4.931122,8.194824
MAGNETIC_FIELD,24.899292,-21.577454,-45.458984
GYROSCOPE,-0.03793335,-0.012069702,0.040802002
ORIENTATION,284,329,7
ACCELEROMETER,-1.0293884,4.968857,8.275314
MAGNETIC_FIELD,25.112915,-23.46344,-45.259094
GYROSCOPE,-0.032440186,0.01473999,0.0023956299
ORIENTATION,285,329,6
ACCELEROMETER,-0.88438416,4.9442596,8.235748
MAGNETIC_FIELD,24.850464,-22.71576,-45.39032
GYROSCOPE,-0.03312683,0.014526367,-0.015106201
ORIENTATION,286,330,7
ACCELEROMETER,-1.0138702,4.8874054,8.365875
MAGNETIC_FIELD,24.328613,-21.45996,-45.947266
GYROSCOPE,0.058410645,-0.02734375,-0.014892578
ORIENTATION,284,329,7
ACCELEROMETER,-1.0074768,4.8889465,8.127548
MAGNETIC_FIELD,24.313354,-21.49353,-46.743774
GYROSCOPE,-0.039505005,-0.013153076,-0.035995483
ORIENTATION,285,330,7
ACCELEROMETER,-1.0003662,4.897278,8.337357
MAGNETIC_FIELD,24.397278,-21.751404,-45.669556
GYROSCOPE,0.040496826,-0.0052948,-0.030700684
ORIENTATION,286,329,8
ACCELEROMETER,-1.0769958,4.9249115,8.022644
MAGNETIC_FIELD,24.137878,-21.160889,-44.374084
GYROSCOPE,0.018844604,0.024368286,-0.021270752
ORIENTATION,288,329,8
ACCELEROMETER,-1.1324615,4.953491,8.171585
MAGNETIC_FIELD,25.17395,-20.481873,-45.565796
GYROSCOPE,0.026641846,0.038009644,-0.04095459
ORIENTATION,287,329,9
ACCELEROMETER,-1.2578583,4.976715,8.177155
MAGNETIC_FIELD,26.834106,-22.279358,-44.822693
GYROSCOPE,0.019927979,-0.026870728,0.0084991455
ORIENTATION,289,328,9
ACCELEROMETER,-1.2334442,5.0357056,8.123337
MAGNETIC_FIELD,25.001526,-21.498108,-44.737244
GYROSCOPE,-0.013870239,-0.0029144287,0.012496948
ORIENTATION,290,329,8
ACCELEROMETER,-1.1243134,4.972946,8.160263
MAGNETIC_FIELD,24.230957,-21.928406,-45.669556
GYROSCOPE,-0.014343262,-0.0023040771,-3.0517578E-4
ORIENTATION,288,329,7
ACCELEROMETER,-1.0799408,4.9443207,8.228851
MAGNETIC_FIELD,25.439453,-21.91925,-44.985962
GYROSCOPE,-0.028045654,0.012298584,0.006668091
ORIENTATION,286,329,6
ACCELEROMETER,-0.91674805,4.915573,8.250671
MAGNETIC_FIELD,25.076294,-21.238708,-45.66803
GYROSCOPE,-0.013397217,0.0061187744,3.0517578E-4
ORIENTATION,287,329,7
ACCELEROMETER,-0.98831177,4.922653,8.279831
MAGNETIC_FIELD,23.797607,-21.696472,-45.414734
GYROSCOPE,-0.013397217,0.0020446777,0.016159058
ORIENTATION,283,330,6
ACCELEROMETER,-0.8885803,4.8740845,8.45546
MAGNETIC_FIELD,24.824524,-21.46759,-45.573425
GYROSCOPE,0.091537476,-0.01676941,-0.05935669
ORIENTATION,289,328,8
ACCELEROMETER,-1.1827545,5.053131,8.073944
MAGNETIC_FIELD,24.775696,-22.509766,-44.73114
GYROSCOPE,0.01260376,-0.060394287,-0.01361084
ORIENTATION,290,327,7
ACCELEROMETER,-1.0108795,5.2810516,7.949936
MAGNETIC_FIELD,23.791504,-23.727417,-43.56537
GYROSCOPE,-0.014892578,0.10281372,-0.028869629
ORIENTATION,289,326,8
ACCELEROMETER,-1.0872345,5.4013214,8.008026
MAGNETIC_FIELD,25.428772,-23.634338,-44.317627
GYROSCOPE,-0.026824951,0.0027160645,0.014541626
ORIENTATION,288,327,8
ACCELEROMETER,-1.0535889,5.3021545,7.9664764
MAGNETIC_FIELD,24.42627,-22.766113,-44.29779
GYROSCOPE,-0.07086182,0.011260986,-0.009399414
ORIENTATION,289,328,7
ACCELEROMETER,-1.0598907,5.1970673,8.10498
MAGNETIC_FIELD,24.229431,-22.77832,-44.644165
GYROSCOPE,-0.018753052,0.01914978,-0.020324707
ORIENTATION,290,328,8
ACCELEROMETER,-1.1941223,5.145508,8.071274
MAGNETIC_FIELD,25.41809,-22.436523,-43.466187
GYROSCOPE,0.0016784668,0.024032593,0.014953613
ORIENTATION,286,328,8
ACCELEROMETER,-1.1645813,5.03862,8.011856
MAGNETIC_FIELD,24.909973,-22.975159,-45.291138
GYROSCOPE,-0.054840088,-0.049743652,-0.014282227
ORIENTATION,287,328,8
ACCELEROMETER,-1.1694489,5.1269226,8.18782
MAGNETIC_FIELD,25.088501,-22.428894,-44.326782
GYROSCOPE,0.0059509277,0.010116577,-0.010955811
ORIENTATION,287,328,8
ACCELEROMETER,-1.0927887,5.0801086,8.152039
MAGNETIC_FIELD,24.734497,-22.064209,-44.644165
GYROSCOPE,0.013214111,-0.026809692,-0.02168274
ORIENTATION,287,328,7
ACCELEROMETER,-1.0520935,5.115219,8.052109
MAGNETIC_FIELD,24.743652,-22.607422,-44.810486
GYROSCOPE,-0.025543213,0.0012969971,0.024917603
ORIENTATION,287,328,7
ACCELEROMETER,-0.94950867,5.113678,8.08963
MAGNETIC_FIELD,23.243713,-22.77069,-45.49408
GYROSCOPE,-0.046829224,0.016571045,-0.0022125244
ORIENTATION,286,329,6
ACCELEROMETER,-0.9037628,5.035721,8.238617
MAGNETIC_FIELD,23.846436,-21.476746,-44.683838
GYROSCOPE,-0.008773804,-0.0023651123,-0.010559082
ORIENTATION,288,329,7
ACCELEROMETER,-0.9528351,5.0007935,8.184555
MAGNETIC_FIELD,24.989319,-22.070313,-45.750427
GYROSCOPE,-0.03312683,0.0060424805,-0.0143585205
ORIENTATION,285,330,7
ACCELEROMETER,-0.94296265,4.899811,8.266846
MAGNETIC_FIELD,25.41504,-22.612,-44.961548
GYROSCOPE,0.032424927,0.009170532,-6.4086914E-4
ORIENTATION,285,329,7
ACCELEROMETER,-0.91348267,4.9058075,7.9926147
MAGNETIC_FIELD,23.452759,-23.22998,-44.88678
GYROSCOPE,-0.023986816,0.016433716,0.060958862
ORIENTATION,284,329,7
ACCELEROMETER,-0.96110535,4.995743,8.152832
MAGNETIC_FIELD,23.628235,-23.120117,-45.03479
GYROSCOPE,-0.013122559,-0.005630493,-0.009613037
ORIENTATION,286,329,6
ACCELEROMETER,-0.8256836,5.0169373,8.185013
MAGNETIC_FIELD,23.54126,-22.424316,-46.0083
GYROSCOPE,-0.054901123,-0.03807068,-0.009399414
ORIENTATION,285,329,6
ACCELEROMETER,-0.8628235,4.9097443,8.282639
MAGNETIC_FIELD,23.466492,-20.805359,-45.210266
GYROSCOPE,-0.055526733,0.0032653809,-0.012588501
ORIENTATION,285,330,5
ACCELEROMETER,-0.7258301,4.7890167,8.39798
MAGNETIC_FIELD,23.73352,-22.257996,-45.332336
GYROSCOPE,0.017623901,-0.008071899,-0.014221191
ORIENTATION,282,330,5
ACCELEROMETER,-0.7874298,4.8141785,8.191269
MAGNETIC_FIELD,24.230957,-21.577454,-46.321106
GYROSCOPE,-0.10432434,0.039886475,-0.10203552
ORIENTATION,285,332,7
ACCELEROMETER,-1.0558167,4.623337,8.639847
MAGNETIC_FIELD,22.091675,-17.903137,-46.89789
GYROSCOPE,-0.23721313,-0.190979,0.16886902
ORIENTATION,280,333,4
ACCELEROMETER,-0.5420685,4.329239,8.656723
MAGNETIC_FIELD,26.022339,-23.724365,-43.562317
GYROSCOPE,0.43978882,0.31803894,-0.12905884
ORIENTATION,287,326,8
ACCELEROMETER,-1.0559082,5.3658752,7.774948
MAGNETIC_FIELD,22.465515,-26.330566,-43.922424
GYROSCOPE,0.052978516,-0.013702393,-0.035125732
ORIENTATION,287,324,4
ACCELEROMETER,-0.59962463,5.6987762,7.7293396
MAGNETIC_FIELD,22.348022,-27.398682,-44.309998
GYROSCOPE,0.034866333,0.026611328,0.04975891
