ORIENTATION,309,332,6
ACCELEROMETER,-0.8967743,4.6965637,8.689392
MAGNETIC_FIELD,13.94043,-15.014648,-41.249084
GYROSCOPE,-0.096450806,0.11312866,0.083496094
ORIENTATION,307,335,6
ACCELEROMETER,-0.8928833,3.9680786,8.65593
MAGNETIC_FIELD,14.08844,-14.334106,-42.64679
GYROSCOPE,0.085632324,0.034820557,-0.015090942
ORIENTATION,304,334,6
ACCELEROMETER,-0.86180115,4.243164,8.503769
MAGNETIC_FIELD,14.828491,-13.360596,-42.47284
GYROSCOPE,-0.079071045,-0.029312134,0.0072784424
ORIENTATION,301,335,5
ACCELEROMETER,-0.8044586,4.244705,8.879822
MAGNETIC_FIELD,12.928772,-13.858032,-42.822266
GYROSCOPE,0.020339966,-0.036514282,-0.014770508
ORIENTATION,315,333,7
ACCELEROMETER,-1.0113525,4.3685303,8.491852
MAGNETIC_FIELD,13.868713,-14.112854,-42.399597
GYROSCOPE,0.048919678,0.031021118,-0.062194824
ORIENTATION,304,335,6
ACCELEROMETER,-0.97172546,4.1993256,8.753418
MAGNETIC_FIELD,12.945557,-13.206482,-42.47284
GYROSCOPE,-0.030151367,-0.095214844,-0.0077056885
ORIENTATION,305,335,5
ACCELEROMETER,-0.7766876,4.036499,8.677551
MAGNETIC_FIELD,13.977051,-14.912415,-42.30957
GYROSCOPE,0.13600159,0.12934875,0.01637268
ORIENTATION,302,335,7
ACCELEROMETER,-1.131607,4.1107635,8.661072
MAGNETIC_FIELD,14.355469,-15.478516,-42.752075
GYROSCOPE,0.14562988,0.061065674,-0.013473511
ORIENTATION,316,331,9
ACCELEROMETER,-1.2795715,4.533325,8.197983
MAGNETIC_FIELD,14.31427,-15.751648,-41.12549
GYROSCOPE,0.011444092,0.13586426,0.019500732
ORIENTATION,305,331,7
ACCELEROMETER,-1.0119171,4.6418304,8.42131
MAGNETIC_FIELD,14.306641,-16.781616,-41.003418
GYROSCOPE,0.040771484,-0.05870056,0.04534912
ORIENTATION,304,331,8
ACCELEROMETER,-1.1228333,4.7213745,8.442993
MAGNETIC_FIELD,15.065002,-16.870117,-41.56494
GYROSCOPE,-0.009460449,0.049942017,-0.082092285
ORIENTATION,315,329,10
ACCELEROMETER,-1.4302521,4.929199,8.201523
MAGNETIC_FIELD,14.624023,-15.438843,-42.140198
GYROSCOPE,0.021759033,-0.024902344,-0.03302002
ORIENTATION,311,330,7
ACCELEROMETER,-0.9538269,4.758377,8.195068
MAGNETIC_FIELD,14.253235,-15.145874,-42.408752
GYROSCOPE,-0.09867859,-0.07269287,0.036392212
ORIENTATION,308,332,7
ACCELEROMETER,-1.0420532,4.709976,8.804672
MAGNETIC_FIELD,14.468384,-16.27655,-41.82892
GYROSCOPE,0.063583374,-0.023132324,-0.050735474
ORIENTATION,320,328,9
ACCELEROMETER,-1.2738037,4.8273773,7.7395325
MAGNETIC_FIELD,14.460754,-15.756226,-42.131042
GYROSCOPE,-0.11802673,0.11332703,0.10562134
ORIENTATION,301,332,6
ACCELEROMETER,-0.92401123,4.5898438,8.766632
MAGNETIC_FIELD,14.31427,-16.319275,-42.64679
GYROSCOPE,0.10462952,0.02708435,-0.021072388
ORIENTATION,310,330,7
ACCELEROMETER,-0.9901123,4.794815,8.330109
MAGNETIC_FIELD,14.489746,-16.26892,-42.149353
GYROSCOPE,0.08427429,-0.13444519,-0.07122803
ORIENTATION,310,330,6
ACCELEROMETER,-0.9130249,4.8029327,8.126358
MAGNETIC_FIELD,13.450623,-15.934753,-42.47284
GYROSCOPE,-0.029067993,0.08312988,-0.18403625
ORIENTATION,326,330,10
ACCELEROMETER,-1.492981,5.009598,8.415024
MAGNETIC_FIELD,15.307617,-15.519714,-42.15088
GYROSCOPE,-2.2888184E-4,-0.028701782,-0.051345825
ORIENTATION,313,331,9
ACCELEROMETER,-1.2321625,4.5566406,8.01593
MAGNETIC_FIELD,14.770508,-17.556763,-41.07361
GYROSCOPE,-0.05558777,-0.03543091,-0.057525635
ORIENTATION,303,331,8
ACCELEROMETER,-1.2935181,4.959717,8.780914
MAGNETIC_FIELD,13.546753,-16.027832,-42.240906
GYROSCOPE,0.023117065,-0.10675049,0.06788635
ORIENTATION,312,331,7
ACCELEROMETER,-1.0289307,4.5928345,8.119186
MAGNETIC_FIELD,14.007568,-16.807556,-42.263794
GYROSCOPE,0.07518005,0.007797241,-0.0178833
ORIENTATION,312,330,8
ACCELEROMETER,-1.1738586,4.8738403,8.386124
MAGNETIC_FIELD,14.912415,-14.620972,-42.43164
GYROSCOPE,-0.259552,0.3132782,0.20716858
ORIENTATION,305,333,6
ACCELEROMETER,-0.9365692,4.397232,8.481537
MAGNETIC_FIELD,15.936279,-15.4953,-42.893982
GYROSCOPE,0.07972717,-0.057418823,-0.06892395
ORIENTATION,308,332,8
ACCELEROMETER,-1.2580872,4.529663,8.4522705
MAGNETIC_FIELD,16.426086,-17.303467,-42.552185
GYROSCOPE,0.20739746,-0.058166504,-0.12606812
ORIENTATION,314,327,9
ACCELEROMETER,-1.2604675,5.207901,8.064392
MAGNETIC_FIELD,13.70697,-16.020203,-41.888428
GYROSCOPE,-0.04460144,-0.11204529,-0.064437866
ORIENTATION,316,330,8
ACCELEROMETER,-1.1434479,4.8768005,8.2621765
MAGNETIC_FIELD,14.924622,-17.887878,-42.549133
GYROSCOPE,0.10681152,0.051361084,-0.07543945
ORIENTATION,309,330,9
ACCELEROMETER,-1.2680511,4.7220306,8.096359
MAGNETIC_FIELD,15.878296,-15.275574,-41.789246
GYROSCOPE,-0.11714172,0.0036010742,-0.043060303
ORIENTATION,319,329,10
ACCELEROMETER,-1.4382477,4.945343,8.091141
MAGNETIC_FIELD,14.898682,-17.045593,-41.56494
GYROSCOPE,0.02923584,0.05734253,0.23254395
ORIENTATION,307,330,8
ACCELEROMETER,-1.1954651,5.00354,8.573563
MAGNETIC_FIELD,14.97345,-17.01355,-42.814636
GYROSCOPE,-0.08049011,0.09791565,0.20445251
ORIENTATION,307,329,5
ACCELEROMETER,-0.73587036,4.76326,7.8851624
MAGNETIC_FIELD,12.669373,-16.870117,-42.214966
GYROSCOPE,-0.056274414,-0.19316101,0.07467651
ORIENTATION,312,331,8
ACCELEROMETER,-1.1742096,4.9538574,8.877884
MAGNETIC_FIELD,14.562988,-16.705322,-42.222595
GYROSCOPE,0.072265625,0.093307495,-0.09825134
ORIENTATION,307,330,7
ACCELEROMETER,-0.9159546,4.537369,7.85289
MAGNETIC_FIELD,14.468384,-16.781616,-42.292786
GYROSCOPE,-0.103500366,0.027420044,0.0031280518
ORIENTATION,300,331,4
ACCELEROMETER,-0.65779114,4.771118,8.548264
MAGNETIC_FIELD,13.623047,-17.565918,-42.938232
GYROSCOPE,0.079055786,-0.06399536,-0.1703186
ORIENTATION,306,331,7
ACCELEROMETER,-1.0444031,4.7646484,8.590591
MAGNETIC_FIELD,13.600159,-15.939331,-42.79785
GYROSCOPE,-0.08280945,0.015274048,-0.013473511
ORIENTATION,310,331,6
ACCELEROMETER,-0.85961914,4.482437,7.9657593
MAGNETIC_FIELD,13.998413,-15.438843,-42.85736
GYROSCOPE,-0.11958313,-0.084365845,-0.15837097
ORIENTATION,306,333,7
ACCELEROMETER,-1.0089569,4.5759277,8.846664
MAGNETIC_FIELD,13.586426,-14.559937,-43.862915
GYROSCOPE,-0.0861969,-0.11883545,0.039993286
ORIENTATION,312,332,6
ACCELEROMETER,-0.8791046,4.4676056,8.433853
MAGNETIC_FIELD,12.35199,-14.271545,-43.528748
GYROSCOPE,-0.09950256,0.12358093,0.08329773
ORIENTATION,312,335,7
ACCELEROMETER,-1.0859528,4.199402,8.81665
MAGNETIC_FIELD,13.743591,-14.689636,-43.008423
GYROSCOPE,0.045318604,0.06289673,-0.013336182
ORIENTATION,311,332,6
ACCELEROMETER,-0.9456177,4.475296,8.411392
MAGNETIC_FIELD,14.433289,-14.485168,-42.240906
GYROSCOPE,0.09907532,0.07321167,-0.07632446
ORIENTATION,311,332,7
ACCELEROMETER,-1.0583038,4.6161957,8.546326
MAGNETIC_FIELD,13.960266,-14.92157,-41.796875
GYROSCOPE,0.07775879,-0.05822754,0.013580322
ORIENTATION,309,333,8
ACCELEROMETER,-1.1443787,4.4362183,8.509644
MAGNETIC_FIELD,14.053345,-15.699768,-43.02826
GYROSCOPE,0.035888672,-0.05279541,-0.09403992
ORIENTATION,315,331,8
ACCELEROMETER,-1.0879059,4.6424255,8.173691
MAGNETIC_FIELD,12.921143,-14.916992,-42.9657
GYROSCOPE,-0.05836487,7.4768066E-4,-0.015853882
ORIENTATION,315,332,7
ACCELEROMETER,-1.0126495,4.571945,8.505524
MAGNETIC_FIELD,12.962341,-14.411926,-42.616272
GYROSCOPE,-0.026138306,-0.020080566,0.031295776
ORIENTATION,308,333,6
ACCELEROMETER,-0.90541077,4.4020233,8.715103
MAGNETIC_FIELD,12.945557,-15.426636,-43.322754
GYROSCOPE,-0.017730713,0.04598999,-0.006286621
ORIENTATION,317,331,7
ACCELEROMETER,-1.0006409,4.6884613,8.35907
MAGNETIC_FIELD,12.449646,-15.087891,-42.321777
GYROSCOPE,0.021499634,0.038146973,0.038024902
ORIENTATION,316,332,7
ACCELEROMETER,-1.0534058,4.4868164,8.323822
MAGNETIC_FIELD,13.371277,-14.665222,-42.045593
GYROSCOPE,-0.025802612,0.0036010742,-0.055892944
ORIENTATION,314,333,9
ACCELEROMETER,-1.2735138,4.410858,8.506546
MAGNETIC_FIELD,13.711548,-13.955688,-42.599487
GYROSCOPE,-0.055923462,0.0138549805,-0.030914307
ORIENTATION,315,333,8
ACCELEROMETER,-1.1945038,4.607254,8.788422
MAGNETIC_FIELD,14.450073,-14.579773,-43.57605
GYROSCOPE,0.032958984,0.04071045,0.020584106
ORIENTATION,316,332,8
ACCELEROMETER,-1.20018,4.3901825,8.226547
MAGNETIC_FIELD,13.630676,-14.395142,-41.75415
GYROSCOPE,-0.012786865,0.04953003,-0.022766113
ORIENTATION,315,333,9
ACCELEROMETER,-1.3685608,4.398056,8.512817
MAGNETIC_FIELD,15.06958,-13.63678,-42.897034
GYROSCOPE,-0.023361206,0.016693115,-0.038848877
ORIENTATION,316,332,9
ACCELEROMETER,-1.3002167,4.580765,8.594391
MAGNETIC_FIELD,15.390015,-14.884949,-43.141174
GYROSCOPE,-0.0793457,0.0025787354,0.063064575
ORIENTATION,308,333,8
ACCELEROMETER,-1.1453857,4.356415,8.406189
MAGNETIC_FIELD,15.582275,-14.448547,-42.65442
GYROSCOPE,0.04837036,0.023483276,-0.02583313
ORIENTATION,305,334,8
ACCELEROMETER,-1.2293549,4.3855133,8.782318
MAGNETIC_FIELD,13.676453,-14.605713,-42.903137
GYROSCOPE,0.03555298,-0.09005737,0.0118255615
ORIENTATION,321,331,9
ACCELEROMETER,-1.2212372,4.570053,8.095032
MAGNETIC_FIELD,13.415527,-15.045166,-42.684937
GYROSCOPE,0.022247314,-0.037872314,0.0042266846
ORIENTATION,307,333,7
ACCELEROMETER,-0.99887085,4.4297943,8.718857
MAGNETIC_FIELD,14.819336,-14.224243,-42.973328
GYROSCOPE,-0.04017639,-0.036514282,-0.017959595
ORIENTATION,315,332,8
ACCELEROMETER,-1.1805115,4.5130157,8.331619
MAGNETIC_FIELD,14.6698,-14.570618,-41.625977
GYROSCOPE,0.07876587,0.01826477,0.0317688
ORIENTATION,308,332,6
ACCELEROMETER,-0.9485321,4.6731873,8.56427
MAGNETIC_FIELD,14.828491,-15.559387,-42.131042
GYROSCOPE,0.01423645,0.021118164,0.07962036
ORIENTATION,308,331,6
ACCELEROMETER,-0.9167023,4.6841583,8.249069
MAGNETIC_FIELD,14.274597,-15.924072,-42.06543
GYROSCOPE,0.10823059,0.0041503906,-0.028671265
ORIENTATION,310,331,7
ACCELEROMETER,-1.0237274,4.6251526,8.128647
MAGNETIC_FIELD,14.558411,-15.682983,-42.567444
GYROSCOPE,-0.036849976,0.031906128,-0.0064849854
ORIENTATION,311,331,7
ACCELEROMETER,-1.1230164,4.8595886,8.60173
MAGNETIC_FIELD,14.660645,-15.896606,-42.756653
GYROSCOPE,-0.039505005,-0.024017334,0.017532349
ORIENTATION,306,331,6
ACCELEROMETER,-0.8109131,4.6871643,8.289246
MAGNETIC_FIELD,13.279724,-16.27655,-42.30652
GYROSCOPE,0.026306152,-0.079071045,0.023162842
ORIENTATION,311,331,7
ACCELEROMETER,-1.0088043,4.7521515,8.453018
MAGNETIC_FIELD,12.545776,-16.644287,-42.7948
GYROSCOPE,-0.032852173,-0.059448242,-0.008529663
ORIENTATION,303,331,4
ACCELEROMETER,-0.5750427,4.688965,8.552673
MAGNETIC_FIELD,12.774658,-15.431213,-42.974854
GYROSCOPE,-2.89917E-4,-0.06990051,-0.016525269
ORIENTATION,313,330,5
ACCELEROMETER,-0.7032471,4.7798004,8.267654
MAGNETIC_FIELD,11.740112,-15.55481,-42.60254
GYROSCOPE,0.016815186,-0.015548706,0.031234741
ORIENTATION,314,331,5
ACCELEROMETER,-0.6925049,4.723587,8.327393
MAGNETIC_FIELD,13.009644,-15.699768,-42.092896
GYROSCOPE,-0.038009644,0.024093628,-0.061325073
ORIENTATION,304,332,4
ACCELEROMETER,-0.6333618,4.64917,8.543716
MAGNETIC_FIELD,13.249207,-15.440369,-43.07556
GYROSCOPE,-0.032180786,-0.009567261,-0.001663208
ORIENTATION,312,331,6
ACCELEROMETER,-0.7997284,4.668228,8.292892
MAGNETIC_FIELD,12.005615,-15.943909,-42.330933
GYROSCOPE,-0.04269409,0.01499939,-0.014831543
ORIENTATION,305,332,5
ACCELEROMETER,-0.7070465,4.5173798,8.622269
MAGNETIC_FIELD,12.161255,-14.842224,-42.884827
GYROSCOPE,-0.061431885,0.016021729,-0.04624939
ORIENTATION,312,332,5
ACCELEROMETER,-0.7466583,4.555496,8.512009
MAGNETIC_FIELD,12.564087,-14.924622,-42.44995
GYROSCOPE,0.02746582,0.0049591064,-0.015365601
ORIENTATION,312,332,5
ACCELEROMETER,-0.7790375,4.5463715,8.341446
MAGNETIC_FIELD,12.507629,-15.847778,-42.03186
GYROSCOPE,0.05155945,0.00881958,-0.07286072
ORIENTATION,313,332,7
ACCELEROMETER,-1.0734558,4.6278687,8.509064
MAGNETIC_FIELD,13.076782,-16.090393,-41.789246
GYROSCOPE,-1.5258789E-4,0.04335022,-0.0019378662
ORIENTATION,318,330,7
ACCELEROMETER,-1.037262,4.67601,8.193878
MAGNETIC_FIELD,13.595581,-15.927124,-43.12439
GYROSCOPE,-0.04283142,0.0069274902,0.008300781
ORIENTATION,313,331,6
ACCELEROMETER,-0.92837524,4.718628,8.484039
MAGNETIC_FIELD,13.70697,-15.678406,-42.388916
GYROSCOPE,-0.023162842,-0.014526367,-0.008728027
ORIENTATION,316,331,8
ACCELEROMETER,-1.1221771,4.64769,8.300537
MAGNETIC_FIELD,12.921143,-14.892578,-42.46521
GYROSCOPE,0.032485962,0.019210815,0.06564331
ORIENTATION,311,330,6
ACCELEROMETER,-0.9120941,4.6914063,8.191452
MAGNETIC_FIELD,12.510681,-17.218018,-42.89093
GYROSCOPE,-0.043441772,0.013916016,0.01373291
ORIENTATION,308,331,5
ACCELEROMETER,-0.69828796,4.7192993,8.518799
MAGNETIC_FIELD,13.818359,-15.737915,-41.28723
GYROSCOPE,0.01965332,0.043563843,-0.0032958984
ORIENTATION,309,332,6
ACCELEROMETER,-0.9517822,4.6133575,8.468903
MAGNETIC_FIELD,13.793945,-15.763855,-41.80603
GYROSCOPE,0.049316406,-0.05354309,0.0030059814
ORIENTATION,309,330,6
ACCELEROMETER,-0.89897156,4.758301,8.203476
MAGNETIC_FIELD,13.536072,-15.849304,-42.222595
GYROSCOPE,0.006225586,-0.014862061,-0.054870605
ORIENTATION,302,330,4
ACCELEROMETER,-0.54148865,4.726303,8.216827
MAGNETIC_FIELD,12.358093,-16.007996,-42.36145
GYROSCOPE,-0.023498535,0.0034637451,-0.045715332
ORIENTATION,299,331,4
ACCELEROMETER,-0.5990753,4.7415314,8.532806
MAGNETIC_FIELD,12.133789,-15.455627,-42.9657
GYROSCOPE,-0.02784729,0.032714844,0.0074768066
ORIENTATION,312,331,5
ACCELEROMETER,-0.7191467,4.63031,8.303162
MAGNETIC_FIELD,12.236023,-15.805054,-42.114258
GYROSCOPE,-0.07472229,0.026870728,0.0128479
ORIENTATION,306,332,5
ACCELEROMETER,-0.70401,4.595337,8.627594
MAGNETIC_FIELD,13.009644,-16.171265,-42.886353
GYROSCOPE,0.021972656,0.013580322,-0.008514404
ORIENTATION,305,332,5
ACCELEROMETER,-0.7462616,4.584961,8.516388
MAGNETIC_FIELD,12.782288,-15.666199,-42.710876
GYROSCOPE,0.018295288,0.032104492,0.013519287
ORIENTATION,304,331,5
ACCELEROMETER,-0.72688293,4.5763397,8.287933
MAGNETIC_FIELD,12.449646,-16.098022,-41.212463
GYROSCOPE,-0.040863037,0.0105896,-0.05065918
ORIENTATION,310,331,6
ACCELEROMETER,-0.80685425,4.627243,8.367249
MAGNETIC_FIELD,13.194275,-15.336609,-42.222595
GYROSCOPE,-0.03387451,-0.0046844482,-0.052352905
ORIENTATION,308,332,6
ACCELEROMETER,-0.9170685,4.545044,8.514648
MAGNETIC_FIELD,12.324524,-14.820862,-42.399597
GYROSCOPE,-0.034210205,-0.005554199,0.008911133
ORIENTATION,312,332,6
ACCELEROMETER,-0.903244,4.491455,8.571091
MAGNETIC_FIELD,13.279724,-15.25116,-42.47284
GYROSCOPE,0.009277344,-0.012084961,0.014465332
ORIENTATION,309,332,6
ACCELEROMETER,-0.8687897,4.5701447,8.43605
MAGNETIC_FIELD,11.965942,-15.538025,-42.05017
GYROSCOPE,0.02923584,0.002319336,0.016098022
ORIENTATION,309,332,5
ACCELEROMETER,-0.75675964,4.567688,8.445511
MAGNETIC_FIELD,12.971497,-14.874268,-41.453552
GYROSCOPE,-0.027572632,-0.010925293,-0.007232666
ORIENTATION,307,332,6
ACCELEROMETER,-0.8662567,4.4814606,8.501724
MAGNETIC_FIELD,12.574768,-14.848328,-42.32483
GYROSCOPE,-0.05368042,0.002456665,0.011886597
ORIENTATION,310,332,5
ACCELEROMETER,-0.79981995,4.511856,8.460907
MAGNETIC_FIELD,13.972473,-15.782166,-42.556763
GYROSCOPE,-0.0049743652,-0.021438599,0.009796143
ORIENTATION,299,333,5
ACCELEROMETER,-0.68595886,4.4589386,8.600845
MAGNETIC_FIELD,12.521362,-15.501404,-41.711426
GYROSCOPE,-0.021194458,-0.019195557,0.0116119385
ORIENTATION,303,333,5
ACCELEROMETER,-0.77215576,4.380615,8.538315
MAGNETIC_FIELD,12.937927,-15.422058,-42.47284
GYROSCOPE,-0.03895569,-0.0051574707,0.008636475
ORIENTATION,304,333,5
ACCELEROMETER,-0.7478485,4.4402924,8.613541
MAGNETIC_FIELD,12.269592,-14.741516,-42.46826
GYROSCOPE,0.029571533,-0.023010254,0.048614502
ORIENTATION,302,333,2
ACCELEROMETER,-0.37391663,4.416992,8.578186
MAGNETIC_FIELD,12.017822,-15.1779175,-42.18445
GYROSCOPE,0.03187561,-0.040237427,-0.01184082
ORIENTATION,305,333,5
ACCELEROMETER,-0.7030029,4.467926,8.691727
MAGNETIC_FIELD,12.770081,-14.926147,-43.145752
GYROSCOPE,0.07884216,0.033737183,-0.0019378662
ORIENTATION,313,331,5
ACCELEROMETER,-0.7371826,4.654114,8.345642
MAGNETIC_FIELD,13.777161,-15.715027,-41.137695
GYROSCOPE,0.0748291,0.033996582,0.0423584
ORIENTATION,302,331,4
ACCELEROMETER,-0.5750427,4.612686,8.17395
MAGNETIC_FIELD,12.670898,-16.369629,-42.036438
GYROSCOPE,-0.08755493,0.0048217773,-0.0119018555
ORIENTATION,303,331,4
ACCELEROMETER,-0.6385498,4.6709747,8.571213
MAGNETIC_FIELD,11.64093,-16.15448,-43.078613
GYROSCOPE,-0.062438965,-0.007736206,-0.01184082
ORIENTATION,307,332,4
ACCELEROMETER,-0.6514435,4.4874268,8.466339
MAGNETIC_FIELD,12.106323,-15.104675,-43.164063
GYROSCOPE,-0.029129028,-0.0060272217,-0.03477478
ORIENTATION,309,332,4
ACCELEROMETER,-0.63975525,4.6038513,8.643311
MAGNETIC_FIELD,12.669373,-14.640808,-42.233276
GYROSCOPE,0.029022217,-0.013839722,-0.020324707
ORIENTATION,306,332,4
ACCELEROMETER,-0.60762024,4.427658,8.4808655
MAGNETIC_FIELD,12.774658,-14.912415,-42.626953
GYROSCOPE,-0.05381775,-0.017227173,-0.032470703
ORIENTATION,307,333,5
ACCELEROMETER,-0.7338257,4.4598083,8.5499115
MAGNETIC_FIELD,11.920166,-14.413452,-42.9657
GYROSCOPE,-0.02079773,0.0105896,-0.015777588
ORIENTATION,312,333,5
ACCELEROMETER,-0.7147217,4.4621735,8.561096
MAGNETIC_FIELD,13.780212,-15.083313,-43.470764
GYROSCOPE,-0.002746582,0.044509888,0.017593384
ORIENTATION,301,333,4
ACCELEROMETER,-0.5893097,4.3120117,8.505661
MAGNETIC_FIELD,12.8479,-13.792419,-42.710876
GYROSCOPE,-0.042556763,-0.008605957,-0.022155762
ORIENTATION,311,333,5
ACCELEROMETER,-0.77189636,4.4972534,8.636398
MAGNETIC_FIELD,11.463928,-14.064026,-42.897034
GYROSCOPE,0.019729614,-0.040374756,-0.016860962
ORIENTATION,312,333,4
ACCELEROMETER,-0.65556335,4.4055023,8.538879
MAGNETIC_FIELD,11.747742,-13.848877,-42.48047
GYROSCOPE,-0.014205933,-0.030334473,-0.020324707
ORIENTATION,310,333,4
ACCELEROMETER,-0.64294434,4.358368,8.594269
MAGNETIC_FIELD,11.740112,-13.543701,-42.651367
GYROSCOPE,-0.005996704,-0.004333496,-0.016998291
ORIENTATION,312,333,4
ACCELEROMETER,-0.6372528,4.368042,8.567062
MAGNETIC_FIELD,12.852478,-14.994812,-42.556763
GYROSCOPE,-0.0031433105,0.0063171387,-0.01272583
ORIENTATION,304,333,4
ACCELEROMETER,-0.6177368,4.42749,8.591187
MAGNETIC_FIELD,12.397766,-14.237976,-42.266846
GYROSCOPE,-0.010406494,-0.013977051,-0.015029907
ORIENTATION,307,333,4
ACCELEROMETER,-0.6317291,4.3608093,8.496017
MAGNETIC_FIELD,11.885071,-14.070129,-42.614746
GYROSCOPE,-0.045059204,-0.014175415,-0.036743164
ORIENTATION,307,334,4
ACCELEROMETER,-0.6729431,4.2885284,8.684021
MAGNETIC_FIELD,12.432861,-14.387512,-43.48297
GYROSCOPE,-0.01889038,0.004272461,0.008972168
ORIENTATION,303,334,3
ACCELEROMETER,-0.5026245,4.252884,8.684525
MAGNETIC_FIELD,11.585999,-13.745117,-43.141174
GYROSCOPE,-0.008575439,-0.0016937256,-0.007904053
ORIENTATION,311,334,4
ACCELEROMETER,-0.66381836,4.3305054,8.672241
MAGNETIC_FIELD,12.731934,-13.594055,-42.800903
GYROSCOPE,0.02746582,0.017044067,0.016296387
ORIENTATION,305,333,3
ACCELEROMETER,-0.5051422,4.306793,8.620316
MAGNETIC_FIELD,11.991882,-13.580322,-43.17169
GYROSCOPE,0.0034942627,0.015075684,-0.0067596436
ORIENTATION,310,333,4
ACCELEROMETER,-0.56399536,4.3681793,8.586227
MAGNETIC_FIELD,11.921692,-14.389038,-43.147278
GYROSCOPE,0.0033721924,0.012496948,-5.79834E-4
ORIENTATION,309,333,4
ACCELEROMETER,-0.62905884,4.3672943,8.565872
MAGNETIC_FIELD,12.167358,-13.624573,-42.89093
GYROSCOPE,0.0045928955,0.016571045,0.0289917
ORIENTATION,309,333,4
ACCELEROMETER,-0.53689575,4.3660126,8.566177
MAGNETIC_FIELD,12.854004,-14.299011,-41.37726
GYROSCOPE,-0.013671875,0.035217285,0.01739502
ORIENTATION,303,333,4
ACCELEROMETER,-0.547287,4.4220276,8.560425
MAGNETIC_FIELD,12.171936,-14.254761,-41.71753
GYROSCOPE,-0.017745972,-0.005493164,-2.4414063E-4
ORIENTATION,306,333,4
ACCELEROMETER,-0.6486206,4.3618774,8.6176605
MAGNETIC_FIELD,11.251831,-13.539124,-41.35132
GYROSCOPE,-0.013519287,-0.0036621094,0.017593384
ORIENTATION,308,333,4
ACCELEROMETER,-0.5485077,4.291275,8.5616455
MAGNETIC_FIELD,10.476685,-12.5946045,-40.699768
GYROSCOPE,-0.004837036,-0.025512695,-0.020187378
ORIENTATION,316,334,5
ACCELEROMETER,-0.79156494,4.292557,8.683411
MAGNETIC_FIELD,11.198425,-13.894653,-41.12854
GYROSCOPE,-0.0035552979,0.014877319,0.008224487
ORIENTATION,310,333,5
ACCELEROMETER,-0.69415283,4.384964,8.579422
MAGNETIC_FIELD,10.971069,-14.651489,-40.719604
GYROSCOPE,0.00390625,0.012969971,0.004562378
ORIENTATION,305,333,4
ACCELEROMETER,-0.628479,4.3498535,8.638763
MAGNETIC_FIELD,10.2005005,-13.88092,-40.293884
GYROSCOPE,-0.0051727295,-0.013092041,-0.01625061
ORIENTATION,314,333,5
ACCELEROMETER,-0.7653198,4.4203644,8.5503845
MAGNETIC_FIELD,11.0824585,-14.602661,-39.282227
GYROSCOPE,0.0075683594,-0.010513306,-0.022018433
ORIENTATION,303,333,5
ACCELEROMETER,-0.7101898,4.36911,8.609283
MAGNETIC_FIELD,10.379028,-14.395142,-38.970947
GYROSCOPE,-0.010070801,-0.0023651123,-0.010421753
ORIENTATION,303,333,4
ACCELEROMETER,-0.5907135,4.335861,8.547699
MAGNETIC_FIELD,11.201477,-14.250183,-39.483643
GYROSCOPE,-0.028656006,-0.007797241,-0.053451538
ORIENTATION,303,333,4
ACCELEROMETER,-0.6642151,4.3278503,8.643097
MAGNETIC_FIELD,10.977173,-12.754822,-40.237427
GYROSCOPE,-0.018554688,-0.0036621094,-0.053649902
ORIENTATION,312,334,5
ACCELEROMETER,-0.74360657,4.3145905,8.646286
MAGNETIC_FIELD,10.549927,-13.157654,-39.99176
GYROSCOPE,-0.0017852783,-0.011062622,-0.06260681
ORIENTATION,311,334,5
ACCELEROMETER,-0.7295685,4.2464294,8.633072
MAGNETIC_FIELD,11.051941,-13.865662,-39.642334
GYROSCOPE,-0.022827148,-0.007522583,-0.057647705
ORIENTATION,309,334,6
ACCELEROMETER,-0.90441895,4.3163147,8.6848755
MAGNETIC_FIELD,11.456299,-12.431335,-39.58435
GYROSCOPE,0.010559082,0.0126953125,-0.026641846
ORIENTATION,310,334,5
ACCELEROMETER,-0.7709198,4.2195587,8.606964
MAGNETIC_FIELD,11.981201,-12.908936,-40.85083
GYROSCOPE,0.008529663,-0.018859863,-0.039123535
ORIENTATION,312,334,6
ACCELEROMETER,-0.8861084,4.299835,8.63031
MAGNETIC_FIELD,11.087036,-13.026428,-40.611267
GYROSCOPE,0.026107788,-0.02218628,-0.011154175
ORIENTATION,313,333,5
ACCELEROMETER,-0.7620697,4.354294,8.58194
MAGNETIC_FIELD,10.359192,-13.189697,-42.134094
GYROSCOPE,0.020339966,-0.023208618,-0.025344849
ORIENTATION,320,332,5
ACCELEROMETER,-0.72039795,4.444351,8.50238
MAGNETIC_FIELD,11.25946,-14.476013,-41.851807
GYROSCOPE,0.0024871826,-0.024215698,-0.008102417
ORIENTATION,307,333,4
ACCELEROMETER,-0.56118774,4.411499,8.600128
MAGNETIC_FIELD,12.19635,-13.4262085,-43.362427
GYROSCOPE,0.008666992,-0.02015686,-0.010009766
ORIENTATION,314,333,5
ACCELEROMETER,-0.6672821,4.382263,8.459366
MAGNETIC_FIELD,11.936951,-13.787842,-41.996765
GYROSCOPE,-0.044052124,0.0057678223,0.019561768
ORIENTATION,306,333,3
ACCELEROMETER,-0.4976349,4.35878,8.618546
MAGNETIC_FIELD,12.503052,-11.921692,-44.0567
GYROSCOPE,-0.026016235,-8.69751E-4,0.014663696
ORIENTATION,311,333,3
ACCELEROMETER,-0.37976074,4.340317,8.674835
MAGNETIC_FIELD,12.733459,-14.575195,-45.12787
GYROSCOPE,0.012191772,0.0014953613,0.021255493
ORIENTATION,305,333,3
ACCELEROMETER,-0.37799072,4.3623047,8.6215515
MAGNETIC_FIELD,12.332153,-14.137268,-44.59381
GYROSCOPE,0.020874023,-0.0073242188,0.022338867
ORIENTATION,307,333,3
ACCELEROMETER,-0.40679932,4.321701,8.571762
MAGNETIC_FIELD,12.767029,-14.916992,-45.765686
GYROSCOPE,-0.024246216,-0.010787964,0.0011138916
ORIENTATION,306,333,3
ACCELEROMETER,-0.4423828,4.3617096,8.632385
MAGNETIC_FIELD,12.762451,-14.9002075,-45.637512
GYROSCOPE,-0.020309448,-0.015945435,-0.0036315918
ORIENTATION,305,333,3
ACCELEROMETER,-0.43278503,4.3380127,8.677795
MAGNETIC_FIELD,11.949158,-13.398743,-44.34662
GYROSCOPE,0.0011901855,-0.008682251,-0.033355713
ORIENTATION,313,333,4
ACCELEROMETER,-0.5717468,4.3624573,8.617935
MAGNETIC_FIELD,12.2543335,-13.88092,-45.777893
GYROSCOPE,4.5776367E-5,0.034744263,-0.0121154785
ORIENTATION,312,333,3
ACCELEROMETER,-0.52098083,4.2992096,8.570206
MAGNETIC_FIELD,12.937927,-14.387512,-44.61212
GYROSCOPE,-0.019088745,0.026000977,-0.017471313
ORIENTATION,307,333,4
ACCELEROMETER,-0.56843567,4.376816,8.659531
MAGNETIC_FIELD,12.667847,-14.137268,-45.58258
GYROSCOPE,0.0044555664,0.008224487,-0.027999878
ORIENTATION,311,333,4
ACCELEROMETER,-0.6130066,4.3019867,8.592575
MAGNETIC_FIELD,12.937927,-13.539124,-45.144653
GYROSCOPE,-0.021881104,-0.0027160645,-0.022705078
ORIENTATION,312,334,5
ACCELEROMETER,-0.68444824,4.3085785,8.629028
MAGNETIC_FIELD,13.02948,-14.291382,-44.911194
GYROSCOPE,-0.013809204,0.0072631836,0.009918213
ORIENTATION,308,333,4
ACCELEROMETER,-0.64009094,4.2873077,8.569824
MAGNETIC_FIELD,11.845398,-13.638306,-44.73877
GYROSCOPE,-0.0013885498,0.013031006,0.006668091
ORIENTATION,313,334,4
ACCELEROMETER,-0.6403351,4.2827606,8.5928955
MAGNETIC_FIELD,12.945557,-12.664795,-44.651794
GYROSCOPE,-0.033325195,0.03916931,-0.01184082
ORIENTATION,312,334,5
ACCELEROMETER,-0.70222473,4.2483826,8.746796
MAGNETIC_FIELD,12.425232,-12.812805,-44.33441
GYROSCOPE,-0.010818481,0.007736206,-0.019378662
ORIENTATION,313,334,5
ACCELEROMETER,-0.6868439,4.194504,8.566925
MAGNETIC_FIELD,12.416077,-13.352966,-45.161438
GYROSCOPE,-0.0072784424,0.002105713,-0.05493164
ORIENTATION,315,334,5
ACCELEROMETER,-0.7940979,4.3261566,8.795029
MAGNETIC_FIELD,11.691284,-13.792419,-45.59021
GYROSCOPE,0.10273743,-0.14653015,-0.045639038
ORIENTATION,318,332,4
ACCELEROMETER,-0.59620667,4.475113,8.45723
MAGNETIC_FIELD,10.542297,-14.7491455,-44.799805
GYROSCOPE,0.13545227,-0.18054199,-0.037368774
ORIENTATION,312,332,2
ACCELEROMETER,-0.26560974,4.486862,8.433136
MAGNETIC_FIELD,10.418701,-13.664246,-44.73114
GYROSCOPE,-0.09562683,-0.009979248,-0.0087890625
ORIENTATION,312,332,1
ACCELEROMETER,-0.15948486,4.4819183,8.549377
MAGNETIC_FIELD,9.335327,-14.729309,-45.950317
GYROSCOPE,0.018844604,-0.07662964,0.005584717
ORIENTATION,315,333,1
ACCELEROMETER,-0.19273376,4.5038757,8.655838
MAGNETIC_FIELD,10.639954,-13.931274,-45.21637
GYROSCOPE,0.026855469,0.042877197,0.010192871
ORIENTATION,312,332,1
ACCELEROMETER,-0.15431213,4.5329285,8.536697
MAGNETIC_FIELD,10.542297,-14.9002075,-44.978333
GYROSCOPE,0.07449341,0.012145996,-0.014419556
ORIENTATION,314,331,2
ACCELEROMETER,-0.29995728,4.555969,8.319046
MAGNETIC_FIELD,10.620117,-14.24408,-45.204163
GYROSCOPE,-0.05986023,0.040161133,0.05003357
ORIENTATION,311,332,1
ACCELEROMETER,-0.17308044,4.522156,8.604446
MAGNETIC_FIELD,10.424805,-14.704895,-45.59326
GYROSCOPE,-0.012435913,-0.012481689,-0.04170227
ORIENTATION,314,332,2
ACCELEROMETER,-0.28468323,4.5391846,8.530228
MAGNETIC_FIELD,9.429932,-14.994812,-45.729065
GYROSCOPE,-0.055526733,-0.13546753,-0.024810791
ORIENTATION,308,332,359
ACCELEROMETER,0.1748352,4.60968,8.663727
MAGNETIC_FIELD,7.9803467,-14.9002075,-45.14923
GYROSCOPE,0.105392456,-0.16560364,0.10820007
