ORIENTATION,74,344,5
ACCELEROMETER,-0.82310486,2.8606873,9.911713
MAGNETIC_FIELD,-3.2485962,-16.392517,-43.418884
GYROSCOPE,0.07954407,-0.07577515,0.13694763
ORIENTATION,81,336,5
ACCELEROMETER,-0.82702637,3.78714,8.639832
MAGNETIC_FIELD,-6.3842773,-15.2282715,-44.09027
GYROSCOPE,-0.18080139,-0.24876404,0.04437256
ORIENTATION,72,337,4
ACCELEROMETER,-0.6391907,3.7671661,8.799576
MAGNETIC_FIELD,-6.361389,-15.394592,-43.24951
GYROSCOPE,0.068344116,-0.018203735,0.0048828125
ORIENTATION,73,337,3
ACCELEROMETER,-0.41375732,3.7676086,8.865448
MAGNETIC_FIELD,-5.1361084,-17.401123,-43.099976
GYROSCOPE,0.19934082,0.06626892,-0.07736206
ORIENTATION,74,335,4
ACCELEROMETER,-0.571579,4.0471954,8.629181
MAGNETIC_FIELD,-5.569458,-18.151855,-41.818237
GYROSCOPE,0.04071045,-0.011703491,-0.13464355
ORIENTATION,79,334,5
ACCELEROMETER,-0.71315,4.217224,8.604355
MAGNETIC_FIELD,-4.9468994,-18.722534,-40.930176
GYROSCOPE,0.11265564,0.08534241,-0.037384033
ORIENTATION,77,332,6
ACCELEROMETER,-0.8546753,4.424347,8.424576
MAGNETIC_FIELD,-4.3884277,-18.66455,-41.625977
GYROSCOPE,3.3569336E-4,0.025161743,-0.059036255
ORIENTATION,80,334,6
ACCELEROMETER,-0.90571594,4.3150177,8.649521
MAGNETIC_FIELD,-6.011963,-17.726135,-42.06543
GYROSCOPE,-0.053329468,-0.040527344,-0.03996277
ORIENTATION,77,334,6
ACCELEROMETER,-0.9430237,4.286087,8.582535
MAGNETIC_FIELD,-4.071045,-18.544006,-43.034363
GYROSCOPE,-0.017990112,-2.1362305E-4,-0.022598267
ORIENTATION,76,334,6
ACCELEROMETER,-0.9065552,4.1717224,8.382477
MAGNETIC_FIELD,-6.794739,-15.690613,-43.40973
GYROSCOPE,-0.20625305,-0.17010498,0.0798645
ORIENTATION,72,336,3
ACCELEROMETER,-0.5283661,3.9895172,8.992371
MAGNETIC_FIELD,-5.4214478,-16.604614,-42.826843
GYROSCOPE,0.010650635,0.055007935,-0.073013306
ORIENTATION,77,336,4
ACCELEROMETER,-0.65275574,3.911911,8.821136
MAGNETIC_FIELD,-5.4138184,-17.478943,-43.322754
GYROSCOPE,0.036514282,0.027053833,-0.115982056
ORIENTATION,82,336,7
ACCELEROMETER,-1.0053558,3.9290314,8.688599
MAGNETIC_FIELD,-4.71344,-16.783142,-42.98706
GYROSCOPE,0.014846802,0.015182495,0.022109985
ORIENTATION,78,336,6
ACCELEROMETER,-0.8708801,3.9681091,8.831268
MAGNETIC_FIELD,-5.4779053,-17.5766,-42.72461
GYROSCOPE,0.021240234,-0.007080078,0.059646606
ORIENTATION,79,335,5
ACCELEROMETER,-0.7176666,4.022888,8.66983
MAGNETIC_FIELD,-4.597473,-16.711426,-42.43927
GYROSCOPE,-0.021453857,-0.020309448,0.03955078
ORIENTATION,75,336,4
ACCELEROMETER,-0.662735,3.9698029,8.731796
MAGNETIC_FIELD,-6.376648,-16.97998,-42.82074
GYROSCOPE,-0.0050964355,0.0050811768,0.02482605
ORIENTATION,78,335,5
ACCELEROMETER,-0.7081604,4.0069427,8.712845
MAGNETIC_FIELD,-5.635071,-17.190552,-42.556763
GYROSCOPE,0.01423645,0.012817383,0.020141602
ORIENTATION,78,335,4
ACCELEROMETER,-0.6479187,4.0022736,8.712692
MAGNETIC_FIELD,-5.3741455,-17.980957,-42.640686
GYROSCOPE,-0.0059814453,-0.010192871,-0.0090789795
ORIENTATION,82,335,5
ACCELEROMETER,-0.7011719,4.01622,8.730255
MAGNETIC_FIELD,-6.767273,-16.270447,-41.98456
GYROSCOPE,-0.015411377,-0.00944519,0.00730896
ORIENTATION,77,336,4
ACCELEROMETER,-0.6707306,3.9999542,8.793915
MAGNETIC_FIELD,-6.008911,-17.573547,-42.90161
GYROSCOPE,0.0023651123,-0.0012359619,0.018173218
ORIENTATION,79,335,4
ACCELEROMETER,-0.6542206,4.031784,8.674622
MAGNETIC_FIELD,-5.11322,-17.875671,-42.922974
GYROSCOPE,0.013427734,0.023727417,0.01675415
ORIENTATION,80,335,4
ACCELEROMETER,-0.60969543,3.9875336,8.69339
MAGNETIC_FIELD,-5.49469,-17.559814,-42.72461
GYROSCOPE,-0.033111572,0.02407837,0.007522583
ORIENTATION,82,336,4
ACCELEROMETER,-0.67193604,3.9654083,8.816055
MAGNETIC_FIELD,-5.407715,-16.801453,-42.7948
GYROSCOPE,-0.019958496,-0.016174316,-0.024276733
ORIENTATION,77,336,5
ACCELEROMETER,-0.7725525,3.9919891,8.7799835
MAGNETIC_FIELD,-5.3970337,-15.585327,-42.811584
GYROSCOPE,-0.042144775,-0.0052337646,0.03453064
ORIENTATION,71,336,4
ACCELEROMETER,-0.566391,3.8352814,8.729034
MAGNETIC_FIELD,-5.5618286,-16.921997,-42.311096
GYROSCOPE,0.05456543,0.03894043,-0.045196533
ORIENTATION,80,336,5
ACCELEROMETER,-0.8080902,3.9280548,8.717194
MAGNETIC_FIELD,-4.9682617,-17.90924,-43.751526
GYROSCOPE,-0.037384033,0.01171875,-0.021240234
ORIENTATION,81,336,5
ACCELEROMETER,-0.8399048,4.0067596,8.790039
MAGNETIC_FIELD,-5.92041,-17.445374,-43.676758
GYROSCOPE,1.2207031E-4,0.021636963,0.031814575
ORIENTATION,81,336,4
ACCELEROMETER,-0.6857147,3.8984222,8.826126
MAGNETIC_FIELD,-6.074524,-16.95404,-43.348694
GYROSCOPE,0.050750732,-0.034561157,-0.0023040771
ORIENTATION,76,335,4
ACCELEROMETER,-0.67552185,3.9915314,8.723343
MAGNETIC_FIELD,-5.569458,-17.810059,-43.15338
GYROSCOPE,0.045806885,-0.03517151,-0.02909851
ORIENTATION,78,335,6
ACCELEROMETER,-0.8412628,4.1170807,8.689148
MAGNETIC_FIELD,-5.470276,-16.500854,-43.40973
GYROSCOPE,0.030197144,-0.002456665,0.02659607
ORIENTATION,68,335,4
ACCELEROMETER,-0.55918884,4.0494385,8.602615
MAGNETIC_FIELD,-5.1971436,-17.42096,-42.573547
GYROSCOPE,-0.022949219,0.0077819824,-0.011734009
ORIENTATION,77,335,5
ACCELEROMETER,-0.75608826,4.1331635,8.7561035
MAGNETIC_FIELD,-4.6707153,-17.86499,-42.26532
GYROSCOPE,0.024963379,0.009750366,-0.0051574707
ORIENTATION,78,335,4
ACCELEROMETER,-0.641922,4.088394,8.646835
MAGNETIC_FIELD,-5.6915283,-17.590332,-42.486572
GYROSCOPE,0.012268066,0.0077209473,-0.009902954
ORIENTATION,78,335,5
ACCELEROMETER,-0.70191956,4.1067047,8.671036
MAGNETIC_FIELD,-4.7180176,-18.16864,-42.684937
GYROSCOPE,-0.005569458,-0.003753662,-0.031677246
ORIENTATION,79,335,5
ACCELEROMETER,-0.81211853,4.1484222,8.7078705
MAGNETIC_FIELD,-4.663086,-18.289185,-44.456482
GYROSCOPE,-0.017929077,0.0022277832,-0.023269653
ORIENTATION,77,335,5
ACCELEROMETER,-0.7328949,4.0767517,8.702957
MAGNETIC_FIELD,-4.740906,-17.138672,-43.162537
GYROSCOPE,0.009216309,0.0067749023,-0.031951904
ORIENTATION,74,335,6
ACCELEROMETER,-0.8456421,4.0867157,8.643997
MAGNETIC_FIELD,-4.273987,-18.405151,-42.39044
GYROSCOPE,-0.021514893,0.0054779053,-0.016830444
ORIENTATION,83,335,5
ACCELEROMETER,-0.8074951,4.0848236,8.713074
MAGNETIC_FIELD,-3.5339355,-17.475891,-43.00232
GYROSCOPE,0.0016174316,0.0069122314,-0.0061035156
ORIENTATION,75,335,5
ACCELEROMETER,-0.8313446,4.056595,8.686798
MAGNETIC_FIELD,-5.6427,-18.045044,-42.89856
GYROSCOPE,-0.0017089844,-9.0026855E-4,0.017364502
ORIENTATION,80,335,5
ACCELEROMETER,-0.80836487,4.1095276,8.692093
MAGNETIC_FIELD,-4.9346924,-17.443848,-42.807007
GYROSCOPE,0.014450073,0.0033721924,0.025772095
ORIENTATION,75,335,5
ACCELEROMETER,-0.7467804,4.116852,8.665558
MAGNETIC_FIELD,-5.0811768,-17.663574,-42.318726
GYROSCOPE,0.014038086,-0.016174316,0.011383057
ORIENTATION,78,335,5
ACCELEROMETER,-0.7328949,4.116089,8.728546
MAGNETIC_FIELD,-5.581665,-18.4906,-41.490173
GYROSCOPE,-0.0059814453,0.012054443,-0.027069092
ORIENTATION,85,335,6
ACCELEROMETER,-0.8740692,4.124588,8.63942
MAGNETIC_FIELD,-5.142212,-17.381287,-43.237305
GYROSCOPE,-0.012771606,-0.0019226074,1.373291E-4
ORIENTATION,75,335,5
ACCELEROMETER,-0.80244446,4.089325,8.666168
MAGNETIC_FIELD,-4.3411255,-16.900635,-42.38434
GYROSCOPE,-0.004837036,0.0059509277,0.01878357
ORIENTATION,70,335,5
ACCELEROMETER,-0.79063416,4.128357,8.633408
MAGNETIC_FIELD,-5.8288574,-17.384338,-43.743896
GYROSCOPE,0.00894165,0.0023651123,0.026855469
ORIENTATION,76,334,5
ACCELEROMETER,-0.7279358,4.1385345,8.563034
MAGNETIC_FIELD,-5.731201,-17.637634,-43.128967
GYROSCOPE,0.023406982,0.007522583,-0.0466156
ORIENTATION,78,335,6
ACCELEROMETER,-0.8764038,4.0903473,8.562698
MAGNETIC_FIELD,-4.385376,-17.012024,-43.118286
GYROSCOPE,0.0061035156,0.004257202,0.017166138
ORIENTATION,70,334,5
ACCELEROMETER,-0.7361603,4.1710663,8.637909
MAGNETIC_FIELD,-3.842163,-19.136047,-42.814636
GYROSCOPE,0.01966858,-0.017532349,-0.03488159
ORIENTATION,82,334,6
ACCELEROMETER,-0.8721924,4.166092,8.582779
MAGNETIC_FIELD,-4.2678833,-17.201233,-42.570496
GYROSCOPE,-0.014877319,0.004119873,0.03352356
ORIENTATION,75,334,5
ACCELEROMETER,-0.7851715,4.1878204,8.668625
MAGNETIC_FIELD,-5.3009033,-17.199707,-41.93268
GYROSCOPE,0.0017547607,0.0069732666,0.029037476
ORIENTATION,82,334,5
ACCELEROMETER,-0.8135376,4.154663,8.664886
MAGNETIC_FIELD,-5.128479,-17.893982,-42.71698
GYROSCOPE,-0.03968811,-0.032196045,0.08055115
ORIENTATION,72,335,4
ACCELEROMETER,-0.552948,4.025238,8.723236
MAGNETIC_FIELD,-6.161499,-16.506958,-43.736267
GYROSCOPE,0.0035247803,-0.0059814453,-0.02645874
ORIENTATION,77,335,3
ACCELEROMETER,-0.4361725,3.968338,8.686462
MAGNETIC_FIELD,-7.2128296,-15.164185,-43.751526
GYROSCOPE,-0.038467407,-0.012161255,-0.055038452
ORIENTATION,71,336,3
ACCELEROMETER,-0.4710083,3.9204407,8.90538
MAGNETIC_FIELD,-5.4595947,-15.611267,-43.177795
GYROSCOPE,0.043014526,-2.1362305E-4,-0.06893921
ORIENTATION,80,336,5
ACCELEROMETER,-0.7400055,3.9467773,8.778076
MAGNETIC_FIELD,-5.206299,-17.480469,-43.437195
GYROSCOPE,0.0046081543,0.0124053955,0.015670776
ORIENTATION,72,336,4
ACCELEROMETER,-0.68966675,4.0181885,8.824753
MAGNETIC_FIELD,-5.7525635,-15.582275,-42.643738
GYROSCOPE,0.023880005,-0.0073394775,0.008407593
ORIENTATION,72,335,5
ACCELEROMETER,-0.69096375,4.0290833,8.723282
MAGNETIC_FIELD,-4.460144,-16.867065,-41.911316
GYROSCOPE,0.0056915283,0.022994995,0.010635376
ORIENTATION,76,335,5
ACCELEROMETER,-0.7062988,4.035141,8.691193
MAGNETIC_FIELD,-5.657959,-17.37976,-42.062378
GYROSCOPE,0.014984131,-0.007827759,0.012268066
ORIENTATION,78,335,4
ACCELEROMETER,-0.61935425,4.0578613,8.707092
MAGNETIC_FIELD,-5.0598145,-17.485046,-42.814636
GYROSCOPE,-0.019424438,0.04034424,-0.016342163
ORIENTATION,79,335,5
ACCELEROMETER,-0.7158203,4.0632477,8.767914
MAGNETIC_FIELD,-5.2261353,-17.608643,-43.16559
GYROSCOPE,0.047027588,0.014099121,-0.024154663
ORIENTATION,76,334,5
ACCELEROMETER,-0.7016144,4.133423,8.599686
MAGNETIC_FIELD,-4.977417,-17.453003,-43.1015
GYROSCOPE,0.008270264,-1.5258789E-4,-0.03303528
ORIENTATION,83,334,5
ACCELEROMETER,-0.82447815,4.226425,8.6115265
MAGNETIC_FIELD,-4.789734,-18.93158,-42.240906
GYROSCOPE,-0.0059814453,0.0048675537,-0.014038086
ORIENTATION,79,334,6
ACCELEROMETER,-0.8346405,4.1837463,8.620926
MAGNETIC_FIELD,-4.876709,-17.475891,-42.504883
GYROSCOPE,-0.009643555,0.007385254,0.012619019
ORIENTATION,74,334,5
ACCELEROMETER,-0.82107544,4.200775,8.663101
MAGNETIC_FIELD,-5.924988,-17.84668,-43.225098
GYROSCOPE,0.02734375,0.025970459,8.087158E-4
ORIENTATION,71,334,6
ACCELEROMETER,-0.85079956,4.2654877,8.608215
MAGNETIC_FIELD,-5.055237,-17.822266,-42.82074
GYROSCOPE,0.009353638,0.008865356,0.014175415
ORIENTATION,85,334,6
ACCELEROMETER,-0.8735199,4.2702484,8.6201935
MAGNETIC_FIELD,-4.878235,-18.676758,-42.503357
GYROSCOPE,-0.016494751,0.0043945313,0.0043945313
ORIENTATION,72,334,6
ACCELEROMETER,-0.86976624,4.2190094,8.643112
MAGNETIC_FIELD,-4.7973633,-18.589783,-43.06488
GYROSCOPE,0.02394104,0.005554199,-0.04824829
ORIENTATION,80,334,6
ACCELEROMETER,-0.9503937,4.2512207,8.582306
MAGNETIC_FIELD,-4.4692993,-18.579102,-42.47284
GYROSCOPE,-0.023956299,0.015731812,-0.011795044
ORIENTATION,72,334,6
ACCELEROMETER,-0.95988464,4.246689,8.702515
MAGNETIC_FIELD,-4.4647217,-17.889404,-42.91687
GYROSCOPE,0.00630188,-0.011749268,-3.9672852E-4
ORIENTATION,75,334,6
ACCELEROMETER,-0.9530792,4.2217865,8.602142
MAGNETIC_FIELD,-4.736328,-17.634583,-42.79785
GYROSCOPE,0.0010070801,0.0056915283,-0.0037231445
ORIENTATION,78,334,6
ACCELEROMETER,-0.9629822,4.1884613,8.598068
MAGNETIC_FIELD,-4.2892456,-17.539978,-42.086792
GYROSCOPE,-0.02545166,0.0023651123,0.03691101
ORIENTATION,71,334,5
ACCELEROMETER,-0.8368988,4.212555,8.724487
MAGNETIC_FIELD,-3.804016,-17.04712,-42.860413
GYROSCOPE,0.020965576,0.009689331,-7.4768066E-4
ORIENTATION,72,334,6
ACCELEROMETER,-0.9294281,4.2469025,8.578781
MAGNETIC_FIELD,-3.755188,-18.582153,-42.738342
GYROSCOPE,-0.07009888,-0.04508972,0.030593872
ORIENTATION,72,335,5
ACCELEROMETER,-0.76597595,4.1444244,8.658432
MAGNETIC_FIELD,-4.951477,-17.718506,-42.74292
GYROSCOPE,-0.013717651,-0.012573242,-0.053329468
ORIENTATION,73,334,6
ACCELEROMETER,-0.8466797,4.1239014,8.523087
MAGNETIC_FIELD,-2.9205322,-18.415833,-43.40515
GYROSCOPE,0.026794434,0.03479004,-0.016616821
ORIENTATION,80,334,6
ACCELEROMETER,-0.8720398,4.179001,8.6054535
MAGNETIC_FIELD,-2.6062012,-18.4021,-43.052673
GYROSCOPE,0.037994385,0.015853882,0.048171997
ORIENTATION,71,334,6
ACCELEROMETER,-0.92115784,4.331024,8.741974
MAGNETIC_FIELD,-4.208374,-17.643738,-42.30957
GYROSCOPE,0.046417236,-0.03388977,0.03744507
ORIENTATION,74,334,6
ACCELEROMETER,-0.87724304,4.22406,8.593353
MAGNETIC_FIELD,-5.819702,-18.226624,-42.904663
GYROSCOPE,-0.0138549805,0.027542114,-0.006713867
ORIENTATION,78,333,6
ACCELEROMETER,-0.9365387,4.306778,8.523102
MAGNETIC_FIELD,-4.547119,-19.683838,-42.500305
GYROSCOPE,0.014587402,0.10551453,0.010574341
ORIENTATION,84,334,6
ACCELEROMETER,-0.9377594,4.224411,8.605652
MAGNETIC_FIELD,-4.284668,-18.086243,-44.06128
GYROSCOPE,-0.038604736,-0.011291504,-0.03819275
ORIENTATION,73,334,7
ACCELEROMETER,-1.0040131,4.2464447,8.584351
MAGNETIC_FIELD,-5.0720215,-17.295837,-43.00995
GYROSCOPE,-0.015274048,-0.07522583,-0.03147888
ORIENTATION,73,334,6
ACCELEROMETER,-0.9195709,4.211685,8.603226
MAGNETIC_FIELD,-4.5547485,-17.64679,-43.16864
GYROSCOPE,0.007598877,0.03187561,-0.00440979
ORIENTATION,74,335,5
ACCELEROMETER,-0.80841064,4.1703644,8.721512
MAGNETIC_FIELD,-5.0827026,-17.843628,-43.336487
GYROSCOPE,-0.0019073486,-0.017059326,-0.029037476
ORIENTATION,76,334,7
ACCELEROMETER,-1.0077972,4.1975555,8.6054535
MAGNETIC_FIELD,-3.617859,-18.244934,-43.907166
GYROSCOPE,-0.0026550293,0.038330078,0.011047363
ORIENTATION,75,334,6
ACCELEROMETER,-0.9100189,4.13208,8.593079
MAGNETIC_FIELD,-4.827881,-17.541504,-44.6167
GYROSCOPE,-0.022064209,-0.011276245,-0.0038604736
ORIENTATION,72,334,6
ACCELEROMETER,-0.95599365,4.1450043,8.597397
MAGNETIC_FIELD,-4.710388,-17.810059,-42.66815
GYROSCOPE,-0.03263855,-0.013244629,0.021224976
ORIENTATION,79,335,6
ACCELEROMETER,-0.90678406,4.1372833,8.73082
MAGNETIC_FIELD,-4.244995,-17.488098,-43.460083
GYROSCOPE,0.028900146,-0.0072784424,0.026519775
ORIENTATION,72,334,6
ACCELEROMETER,-0.8995819,4.2066193,8.654282
MAGNETIC_FIELD,-5.314636,-17.204285,-43.577576
GYROSCOPE,0.02557373,-7.6293945E-4,0.060394287
ORIENTATION,72,334,6
ACCELEROMETER,-0.832016,4.156128,8.612289
MAGNETIC_FIELD,-4.135132,-18.086243,-42.286682
GYROSCOPE,0.0025634766,0.0029754639,0.0574646
ORIENTATION,76,334,5
ACCELEROMETER,-0.74487305,4.1933594,8.620148
MAGNETIC_FIELD,-3.6758423,-18.995667,-42.799377
GYROSCOPE,0.013900757,-0.008300781,0.03791809
ORIENTATION,79,334,5
ACCELEROMETER,-0.76542664,4.20874,8.6167145
MAGNETIC_FIELD,-4.71344,-18.151855,-42.485046
GYROSCOPE,0.013427734,0.004257202,0.04348755
ORIENTATION,76,334,4
ACCELEROMETER,-0.67948914,4.2216034,8.667175
MAGNETIC_FIELD,-5.46875,-18.051147,-42.074585
GYROSCOPE,0.014312744,-0.0025939941,0.024490356
ORIENTATION,75,334,4
ACCELEROMETER,-0.65312195,4.2579193,8.523834
MAGNETIC_FIELD,-4.7058105,-17.842102,-42.98706
GYROSCOPE,-0.027770996,-0.008361816,0.0014801025
ORIENTATION,71,334,4
ACCELEROMETER,-0.622406,4.256836,8.660034
MAGNETIC_FIELD,-5.708313,-17.622375,-43.32428
GYROSCOPE,-0.0052948,-0.04800415,0.028900146
ORIENTATION,71,334,4
ACCELEROMETER,-0.5792389,4.251404,8.650589
MAGNETIC_FIELD,-5.680847,-18.315125,-41.775513
GYROSCOPE,0.009567261,-0.001373291,-0.00541687
ORIENTATION,78,334,4
ACCELEROMETER,-0.5321808,4.2486725,8.640579
MAGNETIC_FIELD,-5.7037354,-18.177795,-43.42804
GYROSCOPE,0.014389038,-0.07888794,-0.06399536
ORIENTATION,70,333,3
ACCELEROMETER,-0.52297974,4.308899,8.557816
MAGNETIC_FIELD,-5.7403564,-18.151855,-42.485046
GYROSCOPE,-0.007537842,0.039138794,-0.035003662
ORIENTATION,77,334,4
ACCELEROMETER,-0.57040405,4.224121,8.746109
MAGNETIC_FIELD,-6.692505,-18.91632,-42.22412
GYROSCOPE,0.057144165,-0.04562378,-0.020690918
ORIENTATION,76,333,4
ACCELEROMETER,-0.52575684,4.320465,8.357361
MAGNETIC_FIELD,-5.944824,-18.151855,-43.685913
GYROSCOPE,-0.04837036,0.038253784,-0.024291992
ORIENTATION,73,334,4
ACCELEROMETER,-0.61509705,4.303726,8.741562
MAGNETIC_FIELD,-5.89447,-18.678284,-42.83142
GYROSCOPE,0.016220093,0.017425537,-0.0022277832
ORIENTATION,77,334,4
ACCELEROMETER,-0.6621094,4.2421722,8.520615
MAGNETIC_FIELD,-4.559326,-17.973328,-43.43109
GYROSCOPE,-0.024917603,0.033096313,0.026184082
ORIENTATION,69,334,4
ACCELEROMETER,-0.623703,4.26857,8.6185
MAGNETIC_FIELD,-4.6966553,-17.463684,-43.33191
GYROSCOPE,-0.012496948,0.028274536,-6.713867E-4
ORIENTATION,70,334,4
ACCELEROMETER,-0.6469116,4.2201233,8.716232
MAGNETIC_FIELD,-6.587219,-18.811035,-43.52112
GYROSCOPE,0.09005737,-0.042510986,-0.02911377
ORIENTATION,76,333,5
ACCELEROMETER,-0.7229309,4.3369904,8.510986
MAGNETIC_FIELD,-5.9036255,-18.844604,-41.65039
GYROSCOPE,0.0012207031,-0.0030059814,0.032974243
ORIENTATION,78,333,4
ACCELEROMETER,-0.59176636,4.3979797,8.600906
MAGNETIC_FIELD,-5.2505493,-17.936707,-41.818237
GYROSCOPE,0.018859863,-0.0015106201,0.019729614
ORIENTATION,70,333,4
ACCELEROMETER,-0.6099243,4.400116,8.486221
MAGNETIC_FIELD,-5.5786133,-19.02008,-42.1463
GYROSCOPE,0.016693115,0.022857666,0.0069122314
ORIENTATION,76,333,4
ACCELEROMETER,-0.63442993,4.41835,8.544662
MAGNETIC_FIELD,-4.6279907,-19.093323,-41.734314
GYROSCOPE,-0.0026550293,-0.0022583008,0.009902954
ORIENTATION,75,333,4
ACCELEROMETER,-0.6151886,4.413849,8.4844055
MAGNETIC_FIELD,-5.381775,-17.822266,-42.826843
GYROSCOPE,-0.024642944,9.3078613E-4,0.0014801025
ORIENTATION,68,333,4
ACCELEROMETER,-0.58161926,4.402008,8.598572
MAGNETIC_FIELD,-4.803467,-18.544006,-41.841125
GYROSCOPE,-0.0063934326,-0.0017852783,-0.023330688
ORIENTATION,74,333,4
ACCELEROMETER,-0.66763306,4.380249,8.534027
MAGNETIC_FIELD,-6.0058594,-18.717957,-41.84265
GYROSCOPE,0.0030517578,0.010025024,-0.011123657
ORIENTATION,77,333,4
ACCELEROMETER,-0.6021271,4.344391,8.501419
MAGNETIC_FIELD,-5.923462,-19.410706,-41.87622
GYROSCOPE,0.0030517578,-0.007888794,-0.024765015
ORIENTATION,81,333,5
ACCELEROMETER,-0.68995667,4.419876,8.653427
MAGNETIC_FIELD,-5.569458,-18.17627,-41.63513
GYROSCOPE,0.01586914,0.001953125,-0.02027893
ORIENTATION,72,332,5
ACCELEROMETER,-0.70310974,4.4189453,8.421814
MAGNETIC_FIELD,-4.286194,-19.43512,-41.90216
GYROSCOPE,0.025848389,0.007446289,-0.026260376
ORIENTATION,77,333,5
ACCELEROMETER,-0.72984314,4.450302,8.570953
MAGNETIC_FIELD,-5.1376343,-18.296814,-42.279053
GYROSCOPE,0.012069702,-0.011413574,0.017562866
ORIENTATION,71,333,5
ACCELEROMETER,-0.71144104,4.408325,8.451324
MAGNETIC_FIELD,-4.0634155,-18.356323,-41.992188
GYROSCOPE,-0.041381836,0.036499023,0.027069092
ORIENTATION,70,333,5
ACCELEROMETER,-0.6979523,4.428406,8.532806
MAGNETIC_FIELD,-4.9865723,-19.438171,-42.23633
GYROSCOPE,-0.01928711,-0.004638672,0.024963379
ORIENTATION,77,333,4
ACCELEROMETER,-0.6693573,4.4311523,8.562683
MAGNETIC_FIELD,-5.415344,-19.544983,-42.707825
GYROSCOPE,0.037460327,-0.026550293,0.011123657
ORIENTATION,76,333,4
ACCELEROMETER,-0.6227417,4.3656616,8.3824005
MAGNETIC_FIELD,-6.842041,-19.60907,-41.744995
GYROSCOPE,0.078323364,-0.13970947,-0.093444824
ORIENTATION,78,332,4
ACCELEROMETER,-0.6140442,4.6027527,8.576157
MAGNETIC_FIELD,-7.6828003,-19.46106,-41.92505
GYROSCOPE,0.040512085,-0.16087341,0.043426514
ORIENTATION,67,331,360
ACCELEROMETER,0.05671692,4.633896,8.411514
MAGNETIC_FIELD,-7.0266724,-18.247986,-42.218018
GYROSCOPE,-0.07254028,0.0897522,0.015594482
