ORIENTATION,72,329,7
ACCELEROMETER,-0.9649658,5.046997,8.393677
MAGNETIC_FIELD,-3.540039,-18.894958,-38.331604
GYROSCOPE,0.01689148,0.05758667,-0.08387756
ORIENTATION,66,331,6
ACCELEROMETER,-0.9176636,4.692749,8.321136
MAGNETIC_FIELD,-3.5003662,-19.015503,-38.676453
GYROSCOPE,-0.011474609,-0.014816284,-0.022659302
ORIENTATION,72,330,6
ACCELEROMETER,-0.9292755,4.822357,8.291046
MAGNETIC_FIELD,-1.8981934,-17.718506,-38.89618
GYROSCOPE,0.02218628,-0.024383545,-0.029708862
ORIENTATION,57,330,6
ACCELEROMETER,-0.8699951,4.810913,8.270264
MAGNETIC_FIELD,-1.81427,-19.136047,-38.00049
GYROSCOPE,0.01940918,-0.011627197,-0.06813049
ORIENTATION,72,330,7
ACCELEROMETER,-0.9740448,4.8080444,8.329544
MAGNETIC_FIELD,-2.1438599,-19.525146,-36.65161
GYROSCOPE,0.06100464,-0.03164673,-0.053741455
ORIENTATION,78,330,6
ACCELEROMETER,-0.92626953,4.812607,8.219254
MAGNETIC_FIELD,-2.1469116,-19.862366,-36.808777
GYROSCOPE,0.047698975,-0.038970947,-0.0730896
ORIENTATION,78,329,8
ACCELEROMETER,-1.089447,4.881424,8.123383
MAGNETIC_FIELD,-2.0599365,-19.5755,-37.727356
GYROSCOPE,-0.05747986,-0.13114929,-0.0070495605
ORIENTATION,53,328,4
ACCELEROMETER,-0.5284729,5.053467,8.032898
MAGNETIC_FIELD,-3.8757324,-19.992065,-37.9776
GYROSCOPE,-0.10824585,-0.16242981,-0.12257385
ORIENTATION,98,333,4
ACCELEROMETER,-0.6522217,4.528412,8.973297
MAGNETIC_FIELD,-3.9367676,-18.623352,-37.850952
GYROSCOPE,0.08265686,-0.08213806,-0.068618774
ORIENTATION,80,332,5
ACCELEROMETER,-0.6743164,4.4769745,8.315216
MAGNETIC_FIELD,-3.3447266,-19.862366,-36.975098
GYROSCOPE,0.13269043,-0.08798218,0.08576965
ORIENTATION,62,328,3
ACCELEROMETER,-0.41299438,4.9653015,7.884201
MAGNETIC_FIELD,-4.017639,-20.204163,-36.135864
GYROSCOPE,-0.075531006,0.08493042,0.016143799
ORIENTATION,84,330,2
ACCELEROMETER,-0.24998474,4.818802,8.318314
MAGNETIC_FIELD,-4.371643,-18.493652,-37.809753
GYROSCOPE,-0.086517334,0.052627563,0.009216309
ORIENTATION,74,331,4
ACCELEROMETER,-0.6138458,4.7015686,8.4205475
MAGNETIC_FIELD,-3.7445068,-17.85431,-38.601685
GYROSCOPE,0.008743286,0.007171631,0.055908203
ORIENTATION,59,330,3
ACCELEROMETER,-0.41567993,4.7209167,8.276733
MAGNETIC_FIELD,-3.6010742,-18.580627,-38.227844
GYROSCOPE,-0.004547119,0.04638672,0.031341553
ORIENTATION,68,331,3
ACCELEROMETER,-0.46958923,4.6867676,8.341248
MAGNETIC_FIELD,-3.289795,-17.695618,-39.067078
GYROSCOPE,-0.07661438,0.032562256,-0.017913818
ORIENTATION,63,331,5
ACCELEROMETER,-0.70961,4.771927,8.546722
MAGNETIC_FIELD,-3.5247803,-18.74237,-37.408447
GYROSCOPE,0.06832886,0.0011291504,0.021972656
ORIENTATION,74,331,4
ACCELEROMETER,-0.5432739,4.660858,8.32785
MAGNETIC_FIELD,-3.0578613,-18.743896,-37.887573
GYROSCOPE,0.046676636,0.062942505,-0.049194336
ORIENTATION,73,330,6
ACCELEROMETER,-0.8474579,4.6793976,8.2104645
MAGNETIC_FIELD,-3.3935547,-18.812561,-37.8891
GYROSCOPE,0.019943237,-0.0118255615,0.066848755
ORIENTATION,68,330,4
ACCELEROMETER,-0.5961609,4.730255,8.182663
MAGNETIC_FIELD,-3.604126,-19.091797,-38.224792
GYROSCOPE,-0.06297302,0.041168213,0.05293274
ORIENTATION,74,331,4
ACCELEROMETER,-0.5863495,4.8195343,8.642563
MAGNETIC_FIELD,-2.4047852,-19.093323,-38.394165
GYROSCOPE,0.09861755,0.0708313,-0.12895203
ORIENTATION,66,329,7
ACCELEROMETER,-0.93240356,4.828598,8.047714
MAGNETIC_FIELD,-2.2491455,-19.929504,-36.8927
GYROSCOPE,0.03488159,0.041366577,0.09629822
ORIENTATION,80,330,5
ACCELEROMETER,-0.7437897,4.8104553,8.306763
MAGNETIC_FIELD,-1.9683838,-20.04242,-36.975098
GYROSCOPE,-0.015548706,0.032684326,0.0017547607
ORIENTATION,76,329,6
ACCELEROMETER,-0.8973999,4.9000854,8.185898
MAGNETIC_FIELD,-2.8060913,-19.204712,-37.283325
GYROSCOPE,-0.019485474,0.026779175,0.016479492
ORIENTATION,75,330,6
ACCELEROMETER,-0.9189911,4.8115845,8.257202
MAGNETIC_FIELD,-1.7242432,-19.13147,-37.704468
GYROSCOPE,-0.041046143,0.03276062,0.011123657
ORIENTATION,74,330,7
ACCELEROMETER,-1.0113068,4.767868,8.326004
MAGNETIC_FIELD,-0.47912598,-18.244934,-38.424683
GYROSCOPE,-0.035217285,0.014434814,0.001953125
ORIENTATION,56,330,7
ACCELEROMETER,-0.9532776,4.8535004,8.359283
MAGNETIC_FIELD,-1.7166138,-18.714905,-37.730408
GYROSCOPE,-5.493164E-4,-0.02268982,0.019195557
ORIENTATION,73,331,7
ACCELEROMETER,-0.9707031,4.66127,8.276932
MAGNETIC_FIELD,-2.3666382,-19.578552,-37.85553
GYROSCOPE,0.0030517578,-0.015487671,-0.0028381348
ORIENTATION,77,330,6
ACCELEROMETER,-0.91918945,4.75177,8.298782
MAGNETIC_FIELD,-2.5375366,-18.867493,-38.804626
GYROSCOPE,-0.02192688,-0.02532959,0.044921875
ORIENTATION,72,331,5
ACCELEROMETER,-0.7490692,4.6045227,8.365845
MAGNETIC_FIELD,-2.2354126,-18.443298,-37.4115
GYROSCOPE,-0.02178955,-0.008026123,-0.0113220215
ORIENTATION,73,331,6
ACCELEROMETER,-0.8326111,4.681076,8.40033
MAGNETIC_FIELD,-1.8783569,-18.405151,-39.367676
GYROSCOPE,-0.004211426,-0.0030059814,-0.01159668
ORIENTATION,66,331,6
ACCELEROMETER,-0.8333435,4.6413574,8.445877
MAGNETIC_FIELD,-1.8936157,-18.92395,-37.75177
GYROSCOPE,0.020355225,0.0071105957,-0.04852295
ORIENTATION,74,331,6
ACCELEROMETER,-0.8996277,4.7009735,8.379242
MAGNETIC_FIELD,-1.373291,-18.60199,-38.363647
GYROSCOPE,0.047836304,-0.05532837,0.004333496
ORIENTATION,61,330,5
ACCELEROMETER,-0.79296875,4.7365265,8.243729
MAGNETIC_FIELD,-1.701355,-18.525696,-37.564087
GYROSCOPE,0.034744263,-0.003753662,-0.018249512
ORIENTATION,66,330,6
ACCELEROMETER,-0.8152466,4.7717285,8.32988
MAGNETIC_FIELD,-1.9119263,-19.952393,-38.42926
GYROSCOPE,-0.0057678223,0.013824463,-0.01763916
ORIENTATION,74,330,6
ACCELEROMETER,-0.88160706,4.815735,8.282639
MAGNETIC_FIELD,-2.4017334,-19.082642,-37.73651
GYROSCOPE,0.02204895,-0.037078857,0.005554199
ORIENTATION,70,330,6
ACCELEROMETER,-0.835022,4.857773,8.297623
MAGNETIC_FIELD,-2.6519775,-19.992065,-37.13379
GYROSCOPE,0.060531616,-0.031234741,0.031814575
ORIENTATION,74,329,5
ACCELEROMETER,-0.67678833,4.8495026,8.111221
MAGNETIC_FIELD,-3.2440186,-19.274902,-37.719727
GYROSCOPE,-0.04626465,0.0036468506,0.0037994385
ORIENTATION,72,330,5
ACCELEROMETER,-0.7747345,4.886505,8.330933
MAGNETIC_FIELD,-3.1173706,-19.252014,-37.38098
GYROSCOPE,-0.001159668,-0.013519287,0.00630188
ORIENTATION,75,330,5
ACCELEROMETER,-0.7573395,4.8003845,8.2908325
MAGNETIC_FIELD,-2.9769897,-19.006348,-38.093567
GYROSCOPE,-0.008895874,0.010025024,-0.017837524
ORIENTATION,70,330,5
ACCELEROMETER,-0.7371521,4.812454,8.317444
MAGNETIC_FIELD,-2.9693604,-19.152832,-37.634277
GYROSCOPE,0.0018157959,-0.0209198,0.007659912
ORIENTATION,75,331,4
ACCELEROMETER,-0.6165161,4.7114716,8.399338
MAGNETIC_FIELD,-3.8955688,-19.667053,-37.809753
GYROSCOPE,0.01763916,-0.1269989,0.07987976
ORIENTATION,67,329,4
ACCELEROMETER,-0.49945068,4.9348907,8.09697
MAGNETIC_FIELD,-2.06604,-19.74945,-37.498474
GYROSCOPE,-0.018127441,0.15809631,-0.091415405
ORIENTATION,76,330,5
ACCELEROMETER,-0.77568054,4.7866516,8.303101
MAGNETIC_FIELD,-2.3269653,-20.019531,-38.13629
GYROSCOPE,-0.005432129,0.022918701,0.031143188
ORIENTATION,79,330,6
ACCELEROMETER,-0.82662964,4.77684,8.389008
MAGNETIC_FIELD,-3.6056519,-19.233704,-37.045288
GYROSCOPE,0.017105103,0.033096313,0.025924683
ORIENTATION,77,330,5
ACCELEROMETER,-0.74313354,4.799698,8.288971
MAGNETIC_FIELD,-0.9490967,-19.34967,-37.672424
GYROSCOPE,0.04750061,0.057373047,-0.051437378
ORIENTATION,66,329,6
ACCELEROMETER,-0.8990936,4.8644867,8.203476
MAGNETIC_FIELD,-1.9760132,-20.196533,-38.17444
GYROSCOPE,0.037597656,9.918213E-4,-0.057540894
ORIENTATION,79,330,8
ACCELEROMETER,-1.1385956,4.930954,8.448242
MAGNETIC_FIELD,-2.3269653,-19.174194,-37.63733
GYROSCOPE,-0.09033203,-0.117507935,0.07749939
ORIENTATION,66,329,5
ACCELEROMETER,-0.6511383,4.730301,7.9987335
MAGNETIC_FIELD,-1.8875122,-18.917847,-37.913513
GYROSCOPE,0.009231567,0.013015747,0.07675171
ORIENTATION,63,329,5
ACCELEROMETER,-0.80737305,5.0169983,8.474442
MAGNETIC_FIELD,-2.0187378,-21.017456,-38.56659
GYROSCOPE,0.09086609,0.07054138,0.037322998
ORIENTATION,80,330,4
ACCELEROMETER,-0.6109772,4.6548004,8.080841
MAGNETIC_FIELD,-3.0685425,-19.75708,-38.73291
GYROSCOPE,-0.11685181,0.10951233,-0.024017334
ORIENTATION,76,330,7
ACCELEROMETER,-0.96958923,4.750931,8.213913
MAGNETIC_FIELD,-1.9104004,-19.258118,-39.69879
GYROSCOPE,-0.07199097,-0.04562378,0.025039673
ORIENTATION,73,332,5
ACCELEROMETER,-0.7831421,4.6069794,8.545532
MAGNETIC_FIELD,-2.5741577,-17.895508,-38.394165
GYROSCOPE,-0.0491333,-0.027511597,-0.00630188
ORIENTATION,69,332,5
ACCELEROMETER,-0.7602997,4.5732117,8.460922
MAGNETIC_FIELD,-2.6657104,-18.16101,-38.99536
GYROSCOPE,0.019805908,-0.031097412,-0.04206848
ORIENTATION,69,331,7
ACCELEROMETER,-0.9519501,4.6324463,8.352676
MAGNETIC_FIELD,-2.9052734,-18.063354,-38.238525
GYROSCOPE,0.016342163,-0.015426636,0.014785767
ORIENTATION,71,332,5
ACCELEROMETER,-0.6736145,4.580948,8.501511
MAGNETIC_FIELD,-3.1906128,-18.151855,-38.970947
GYROSCOPE,0.012542725,-0.017730713,0.012817383
ORIENTATION,65,331,5
ACCELEROMETER,-0.6996155,4.655655,8.305923
MAGNETIC_FIELD,-2.1865845,-18.910217,-38.76648
GYROSCOPE,0.024902344,-0.035110474,-0.02734375
ORIENTATION,69,331,5
ACCELEROMETER,-0.715271,4.650345,8.354935
MAGNETIC_FIELD,-3.3447266,-18.849182,-38.500977
GYROSCOPE,-0.019226074,-0.021865845,-0.024215698
ORIENTATION,75,331,5
ACCELEROMETER,-0.69366455,4.614441,8.434769
MAGNETIC_FIELD,-2.1469116,-17.810059,-38.978577
GYROSCOPE,-0.0078125,-0.0059814453,-0.041381836
ORIENTATION,62,331,5
ACCELEROMETER,-0.6980591,4.5737,8.379944
MAGNETIC_FIELD,-2.4932861,-18.4906,-37.321472
GYROSCOPE,-0.0050964355,-0.019363403,-0.028900146
ORIENTATION,79,332,5
ACCELEROMETER,-0.72151184,4.537735,8.462143
MAGNETIC_FIELD,-2.4734497,-18.82019,-38.993835
GYROSCOPE,-0.02532959,-0.023834229,-0.042617798
ORIENTATION,74,332,5
ACCELEROMETER,-0.7728882,4.5340576,8.409088
MAGNETIC_FIELD,-2.1347046,-19.525146,-39.31732
GYROSCOPE,-0.031814575,-0.0128479,-0.040512085
ORIENTATION,80,332,5
ACCELEROMETER,-0.75535583,4.4987183,8.475418
MAGNETIC_FIELD,-1.3656616,-19.146729,-37.88147
GYROSCOPE,7.324219E-4,-0.008834839,-0.010513306
ORIENTATION,82,332,5
ACCELEROMETER,-0.79122925,4.496628,8.457642
MAGNETIC_FIELD,-2.2201538,-18.589783,-39.07318
GYROSCOPE,-0.018951416,0.008468628,9.460449E-4
ORIENTATION,74,332,5
ACCELEROMETER,-0.7590637,4.4618683,8.411606
MAGNETIC_FIELD,-2.6870728,-18.656921,-38.08441
GYROSCOPE,-0.022537231,0.0045318604,0.021499634
ORIENTATION,81,332,5
ACCELEROMETER,-0.75109863,4.489807,8.527374
MAGNETIC_FIELD,-1.8295288,-18.304443,-38.80768
GYROSCOPE,0.0033874512,-0.005584717,-6.1035156E-5
ORIENTATION,75,333,5
ACCELEROMETER,-0.7738342,4.4390717,8.564682
MAGNETIC_FIELD,-3.0029297,-16.760254,-38.65204
GYROSCOPE,0.00440979,-0.02696228,0.05265808
ORIENTATION,65,332,5
ACCELEROMETER,-0.6670685,4.4138794,8.436356
MAGNETIC_FIELD,-3.7628174,-18.424988,-38.549805
GYROSCOPE,0.027679443,0.0058135986,0.027954102
ORIENTATION,78,332,4
ACCELEROMETER,-0.63012695,4.4726563,8.48143
MAGNETIC_FIELD,-3.567505,-18.315125,-38.47046
GYROSCOPE,-0.043014526,-0.0011749268,-0.011184692
ORIENTATION,80,332,5
ACCELEROMETER,-0.7718353,4.500717,8.579895
MAGNETIC_FIELD,-2.8244019,-16.612244,-39.463806
GYROSCOPE,-0.05027771,-0.0031433105,0.017440796
ORIENTATION,75,333,5
ACCELEROMETER,-0.7547455,4.3740387,8.500381
MAGNETIC_FIELD,-3.4347534,-16.360474,-39.533997
GYROSCOPE,-0.024169922,-0.012573242,-0.053878784
ORIENTATION,61,335,2
ACCELEROMETER,-0.37817383,4.0591125,8.720367
MAGNETIC_FIELD,-4.6279907,-16.184998,-39.897156
GYROSCOPE,-0.008010864,-0.022079468,-0.003189087
ORIENTATION,73,334,3
ACCELEROMETER,-0.39076233,4.128189,8.633499
MAGNETIC_FIELD,-3.7948608,-16.539001,-39.567566
GYROSCOPE,0.06820679,-0.035110474,-0.012619019
ORIENTATION,70,334,2
ACCELEROMETER,-0.36611938,4.239975,8.513138
MAGNETIC_FIELD,-5.2764893,-16.99524,-38.16681
GYROSCOPE,-0.002243042,-0.04371643,0.0029144287
ORIENTATION,84,333,2
ACCELEROMETER,-0.36027527,4.329544,8.62001
MAGNETIC_FIELD,-3.8497925,-16.433716,-39.001465
GYROSCOPE,-0.0020446777,0.08859253,0.011795044
ORIENTATION,66,333,3
ACCELEROMETER,-0.51838684,4.3836517,8.624542
MAGNETIC_FIELD,-2.407837,-16.360474,-39.39209
GYROSCOPE,0.031417847,0.11317444,-0.020004272
ORIENTATION,66,333,6
ACCELEROMETER,-0.8873596,4.3883057,8.462173
MAGNETIC_FIELD,-2.8411865,-16.792297,-38.65204
GYROSCOPE,-0.016433716,-0.025527954,-0.029586792
ORIENTATION,72,333,6
ACCELEROMETER,-0.87605286,4.352783,8.555145
MAGNETIC_FIELD,-1.3092041,-18.144226,-38.47809
GYROSCOPE,0.024963379,-0.038497925,0.017562866
ORIENTATION,73,333,5
ACCELEROMETER,-0.694458,4.3148193,8.524689
MAGNETIC_FIELD,-3.0029297,-17.295837,-39.312744
GYROSCOPE,-0.09655762,0.0025634766,0.0022888184
ORIENTATION,77,335,4
ACCELEROMETER,-0.6629791,4.022949,8.739243
MAGNETIC_FIELD,-1.940918,-15.496826,-39.883423
GYROSCOPE,-0.100234985,0.0065612793,0.022521973
ORIENTATION,84,338,3
ACCELEROMETER,-0.44743347,3.5257416,8.851425
MAGNETIC_FIELD,-2.8961182,-12.091064,-40.603638
GYROSCOPE,-0.14875793,-0.0022583008,-0.036361694
ORIENTATION,77,342,4
ACCELEROMETER,-0.67988586,2.9985657,9.332718
MAGNETIC_FIELD,-2.8244019,-11.154175,-40.974426
GYROSCOPE,-0.050201416,-0.017730713,0.025375366
ORIENTATION,73,343,4
ACCELEROMETER,-0.63157654,2.8349457,9.248489
MAGNETIC_FIELD,-3.3920288,-10.765076,-41.308594
GYROSCOPE,0.050079346,-0.018875122,-0.012619019
ORIENTATION,70,342,4
ACCELEROMETER,-0.61550903,2.9251556,9.172516
MAGNETIC_FIELD,-3.036499,-11.561584,-41.896057
GYROSCOPE,0.02659607,0.017211914,-0.035079956
ORIENTATION,75,342,4
ACCELEROMETER,-0.70513916,3.0060577,9.158478
MAGNETIC_FIELD,-2.06604,-11.071777,-40.663147
GYROSCOPE,0.036499023,0.0035858154,-0.025238037
ORIENTATION,69,341,5
ACCELEROMETER,-0.8390198,3.0969849,9.023758
MAGNETIC_FIELD,-3.4179688,-11.407471,-40.377808
GYROSCOPE,-0.005844116,0.018981934,0.025238037
ORIENTATION,74,341,5
ACCELEROMETER,-0.8505554,3.1621704,9.036743
MAGNETIC_FIELD,-2.8244019,-12.669373,-40.655518
GYROSCOPE,0.040924072,-0.01210022,0.020614624
ORIENTATION,82,341,5
ACCELEROMETER,-0.8273163,3.1867218,9.012405
MAGNETIC_FIELD,-3.4301758,-12.420654,-41.233826
GYROSCOPE,0.021362305,7.324219E-4,0.006500244
ORIENTATION,68,340,5
ACCELEROMETER,-0.75787354,3.2025604,9.005249
MAGNETIC_FIELD,-2.9296875,-12.579346,-41.253662
GYROSCOPE,-0.0069274902,-0.004699707,0.017364502
ORIENTATION,69,340,5
ACCELEROMETER,-0.80485535,3.2427826,9.040588
MAGNETIC_FIELD,-2.6855469,-12.303162,-41.142273
GYROSCOPE,0.0011444092,-0.001449585,0.012878418
ORIENTATION,71,340,5
ACCELEROMETER,-0.7250366,3.220459,9.00502
MAGNETIC_FIELD,-2.5848389,-12.42218,-40.740967
GYROSCOPE,0.011260986,-0.0038146973,-0.009017944
ORIENTATION,73,340,5
ACCELEROMETER,-0.7678833,3.2142334,8.946564
MAGNETIC_FIELD,-1.2924194,-11.820984,-41.81671
GYROSCOPE,-0.008895874,0.021911621,-0.012268066
ORIENTATION,61,341,5
ACCELEROMETER,-0.7649536,3.1954498,9.064758
MAGNETIC_FIELD,-2.9525757,-12.567139,-40.55786
GYROSCOPE,-0.005706787,0.007171631,-0.027542114
ORIENTATION,76,340,6
ACCELEROMETER,-0.89437866,3.2416077,8.95874
MAGNETIC_FIELD,-2.571106,-12.889099,-40.711975
GYROSCOPE,0.030059814,0.02998352,-0.019470215
ORIENTATION,79,341,5
ACCELEROMETER,-0.7415619,3.1623077,9.006897
MAGNETIC_FIELD,-2.0645142,-12.251282,-41.56189
GYROSCOPE,-0.041793823,-0.07392883,-0.052993774
ORIENTATION,71,340,6
ACCELEROMETER,-0.9520569,3.2424316,9.053024
MAGNETIC_FIELD,-3.2684326,-13.674927,-41.407776
GYROSCOPE,0.0413208,0.028961182,-0.034805298
ORIENTATION,84,340,6
ACCELEROMETER,-0.89164734,3.200653,8.979492
MAGNETIC_FIELD,-2.972412,-11.558533,-40.7135
GYROSCOPE,0.026123047,0.043884277,0.005554199
ORIENTATION,69,340,6
ACCELEROMETER,-0.9295349,3.2452698,8.956268
MAGNETIC_FIELD,-1.5197754,-13.288879,-40.545654
GYROSCOPE,0.021636963,-0.0030059814,0.011123657
ORIENTATION,77,340,6
ACCELEROMETER,-0.9510956,3.2725677,8.909134
MAGNETIC_FIELD,-1.5396118,-12.950134,-41.241455
GYROSCOPE,0.011871338,0.004058838,0.014373779
ORIENTATION,72,340,6
ACCELEROMETER,-0.92678833,3.309616,9.0434265
MAGNETIC_FIELD,-3.3111572,-12.001038,-41.200256
GYROSCOPE,0.14924622,-0.11994934,-0.017303467
ORIENTATION,59,338,4
ACCELEROMETER,-0.6936493,3.5261536,8.850159
MAGNETIC_FIELD,-2.9327393,-14.120483,-39.881897
GYROSCOPE,-0.0034637451,-0.07398987,0.020355225
ORIENTATION,79,339,5
ACCELEROMETER,-0.8321991,3.4916534,8.844131
MAGNETIC_FIELD,-3.6376953,-14.543152,-40.989685
GYROSCOPE,-0.04512024,0.005355835,0.061401367
ORIENTATION,79,339,4
ACCELEROMETER,-0.5538025,3.4893951,8.94989
MAGNETIC_FIELD,-3.5995483,-13.787842,-40.737915
GYROSCOPE,-0.015960693,-0.009796143,0.031204224
ORIENTATION,75,339,4
ACCELEROMETER,-0.58454895,3.465683,8.998642
MAGNETIC_FIELD,-4.7958374,-14.085388,-39.608765
GYROSCOPE,0.08354187,-0.15110779,0.0034484863
ORIENTATION,74,338,2
ACCELEROMETER,-0.2887268,3.5661774,8.807373
MAGNETIC_FIELD,-4.8843384,-13.496399,-40.20691
GYROSCOPE,-0.041931152,0.011993408,-0.018310547
ORIENTATION,74,339,2
ACCELEROMETER,-0.25627136,3.452591,9.016846
MAGNETIC_FIELD,-3.6880493,-15.072632,-40.1474
GYROSCOPE,-0.027023315,0.08554077,-0.025100708
ORIENTATION,85,338,4
ACCELEROMETER,-0.6928711,3.527069,8.921463
MAGNETIC_FIELD,-4.722595,-13.182068,-40.652466
GYROSCOPE,0.010375977,-0.0096588135,0.060668945
ORIENTATION,72,339,3
ACCELEROMETER,-0.47789,3.4586792,8.969635
MAGNETIC_FIELD,-3.8757324,-14.74762,-40.815735
GYROSCOPE,0.093170166,0.06008911,0.014312744
ORIENTATION,73,337,3
ACCELEROMETER,-0.49346924,3.6750183,8.836594
MAGNETIC_FIELD,-4.612732,-14.642334,-41.384888
GYROSCOPE,0.029785156,0.013626099,0.04321289
ORIENTATION,67,336,3
ACCELEROMETER,-0.46591187,3.780182,8.680344
MAGNETIC_FIELD,-3.565979,-14.387512,-39.93225
GYROSCOPE,-0.057617188,-0.09938049,-0.0046844482
ORIENTATION,77,338,2
ACCELEROMETER,-0.38334656,3.5244598,8.921219
MAGNETIC_FIELD,-4.208374,-14.755249,-40.974426
GYROSCOPE,-0.061203003,-0.034088135,-0.046417236
ORIENTATION,79,338,3
ACCELEROMETER,-0.47817993,3.5133514,8.887054
MAGNETIC_FIELD,-5.0735474,-13.661194,-40.481567
GYROSCOPE,-0.031280518,-0.023498535,-0.01939392
ORIENTATION,71,339,1
ACCELEROMETER,-0.15351868,3.5202484,9.021072
MAGNETIC_FIELD,-5.618286,-14.706421,-39.598083
GYROSCOPE,0.07980347,-0.0076904297,-0.01512146
ORIENTATION,89,339,1
ACCELEROMETER,-0.14613342,3.31427,8.814041
MAGNETIC_FIELD,-4.029846,-13.018799,-40.649414
GYROSCOPE,-0.06452942,-0.021469116,-0.14631653
ORIENTATION,71,339,4
ACCELEROMETER,-0.64759827,3.4822388,8.959793
MAGNETIC_FIELD,-3.805542,-13.1073,-40.42511
GYROSCOPE,-0.017318726,0.09233093,0.029510498
ORIENTATION,67,338,3
ACCELEROMETER,-0.5157318,3.590744,9.025299
MAGNETIC_FIELD,-3.7765503,-14.505005,-40.885925
GYROSCOPE,0.12690735,-0.01828003,0.012008667
ORIENTATION,79,339,2
ACCELEROMETER,-0.36965942,3.4016113,8.837006
MAGNETIC_FIELD,-4.4418335,-13.980103,-39.02588
GYROSCOPE,-0.04206848,0.039001465,0.040237427
ORIENTATION,77,338,4
ACCELEROMETER,-0.61250305,3.581253,8.737854
MAGNETIC_FIELD,-2.6367188,-13.0355835,-40.84015
GYROSCOPE,-0.05923462,0.12124634,0.113464355
ORIENTATION,64,339,4
ACCELEROMETER,-0.54971313,3.3959656,8.713989
MAGNETIC_FIELD,-3.85437,-11.820984,-40.325928
GYROSCOPE,-0.06391907,-0.014541626,0.02923584
ORIENTATION,70,340,4
ACCELEROMETER,-0.64183044,3.3690643,9.367447
MAGNETIC_FIELD,-3.8970947,-13.938904,-41.08734
GYROSCOPE,0.018997192,-0.023162842,0.065826416
ORIENTATION,74,339,2
ACCELEROMETER,-0.37701416,3.3889618,8.831848
MAGNETIC_FIELD,-4.722595,-13.038635,-40.473938
GYROSCOPE,0.00970459,-0.016647339,0.046539307
ORIENTATION,70,339,2
ACCELEROMETER,-0.36601257,3.501587,9.115387
MAGNETIC_FIELD,-5.316162,-13.647461,-39.87732
GYROSCOPE,0.098480225,-0.019760132,0.07002258
ORIENTATION,74,339,1
ACCELEROMETER,-0.2157898,3.4483337,8.763748
MAGNETIC_FIELD,-3.7139893,-13.560486,-41.456604
GYROSCOPE,-0.027893066,0.0024261475,-0.06100464
ORIENTATION,70,339,3
ACCELEROMETER,-0.542984,3.487442,8.927155
MAGNETIC_FIELD,-3.956604,-13.117981,-41.078186
GYROSCOPE,-0.044921875,0.026306152,0.05305481
ORIENTATION,69,339,3
ACCELEROMETER,-0.40220642,3.4006805,8.9785
MAGNETIC_FIELD,-4.034424,-13.194275,-42.333984
GYROSCOPE,-0.0040740967,-0.010345459,0.044509888
ORIENTATION,62,339,2
ACCELEROMETER,-0.26264954,3.4277039,8.941483
MAGNETIC_FIELD,-5.154419,-12.913513,-40.196228
GYROSCOPE,-0.025314331,-0.026885986,0.0033874512
ORIENTATION,72,339,2
ACCELEROMETER,-0.2714386,3.4277954,9.085419
MAGNETIC_FIELD,-4.055786,-12.7960205,-40.660095
GYROSCOPE,0.07241821,-0.033477783,-0.062698364
ORIENTATION,66,339,3
ACCELEROMETER,-0.42105103,3.4620361,8.961853
MAGNETIC_FIELD,-5.154419,-13.630676,-40.577698
GYROSCOPE,0.07369995,-0.10127258,0.06350708
ORIENTATION,62,338,0
ACCELEROMETER,-0.06227112,3.6209412,8.762543
MAGNETIC_FIELD,-6.613159,-14.387512,-40.159607
GYROSCOPE,0.10430908,-0.17546082,0.067108154
