ORIENTATION,134,332,10
ACCELEROMETER,-1.4568787,4.601593,8.566605
MAGNETIC_FIELD,-5.2261353,-24.653625,-35.30426
GYROSCOPE,0.21128845,-0.052352905,0.06732178
ORIENTATION,128,332,9
ACCELEROMETER,-1.2369385,4.4617767,8.160217
MAGNETIC_FIELD,-5.8776855,-26.150513,-34.954834
GYROSCOPE,-0.13137817,0.04727173,0.13667297
ORIENTATION,128,333,6
ACCELEROMETER,-0.9639282,4.4849396,8.598785
MAGNETIC_FIELD,-6.8328857,-25.416565,-34.04541
GYROSCOPE,0.06840515,0.12606812,0.11476135
ORIENTATION,125,333,7
ACCELEROMETER,-1.0253906,4.3240967,8.420593
MAGNETIC_FIELD,-6.303406,-25.778198,-34.048462
GYROSCOPE,0.05836487,-0.10046387,-0.004058838
ORIENTATION,122,331,7
ACCELEROMETER,-1.0234375,4.5783234,8.2061
MAGNETIC_FIELD,-7.373047,-25.772095,-35.06012
GYROSCOPE,-0.1928711,-0.0050354004,0.12025452
ORIENTATION,130,334,4
ACCELEROMETER,-0.6662445,4.2505646,8.796661
MAGNETIC_FIELD,-8.145142,-24.978638,-34.318542
GYROSCOPE,0.0025787354,-0.03945923,-0.012680054
ORIENTATION,124,334,6
ACCELEROMETER,-0.84521484,4.281433,8.613831
MAGNETIC_FIELD,-8.306885,-25.170898,-33.976746
GYROSCOPE,0.07342529,0.0021514893,-0.06588745
ORIENTATION,121,332,6
ACCELEROMETER,-0.95269775,4.4158173,8.419144
MAGNETIC_FIELD,-7.182312,-25.712585,-33.555603
GYROSCOPE,0.04824829,0.02305603,-0.01260376
ORIENTATION,126,332,5
ACCELEROMETER,-0.80558777,4.506897,8.526901
MAGNETIC_FIELD,-7.255554,-26.731873,-33.325195
GYROSCOPE,0.07783508,-0.043045044,-0.030944824
ORIENTATION,128,332,6
ACCELEROMETER,-0.8473358,4.4933624,8.411713
MAGNETIC_FIELD,-7.1640015,-25.924683,-34.031677
GYROSCOPE,-0.020904541,-0.0020446777,-0.010437012
ORIENTATION,125,332,6
ACCELEROMETER,-0.88938904,4.4928436,8.451904
MAGNETIC_FIELD,-7.1517944,-26.07727,-34.022522
GYROSCOPE,-0.0030670166,0.02407837,-1.373291E-4
ORIENTATION,126,332,6
ACCELEROMETER,-0.85899353,4.5177155,8.500717
MAGNETIC_FIELD,-7.2402954,-25.6073,-33.21228
GYROSCOPE,0.016204834,-0.003616333,-0.027267456
ORIENTATION,124,332,6
ACCELEROMETER,-0.946167,4.5499268,8.4040985
MAGNETIC_FIELD,-6.855774,-26.106262,-33.88672
GYROSCOPE,-0.008224487,0.020614624,-0.013153076
ORIENTATION,125,332,7
ACCELEROMETER,-0.9999695,4.519226,8.433334
MAGNETIC_FIELD,-5.055237,-25.508118,-33.802795
GYROSCOPE,-0.02267456,0.027526855,0.008407593
ORIENTATION,129,332,7
ACCELEROMETER,-1.0033722,4.4675903,8.446548
MAGNETIC_FIELD,-6.2576294,-24.124146,-34.298706
GYROSCOPE,-0.12452698,-0.098236084,0.059921265
ORIENTATION,126,334,5
ACCELEROMETER,-0.7030792,4.304901,8.640671
MAGNETIC_FIELD,-7.2891235,-25.688171,-33.976746
GYROSCOPE,0.058151245,0.024414063,-0.039413452
ORIENTATION,125,333,6
ACCELEROMETER,-0.87309265,4.419586,8.457062
MAGNETIC_FIELD,-6.663513,-25.271606,-35.069275
GYROSCOPE,0.041046143,-0.014541626,-0.01777649
ORIENTATION,123,333,6
ACCELEROMETER,-0.8811798,4.444702,8.501389
MAGNETIC_FIELD,-7.7209473,-25.924683,-34.08203
GYROSCOPE,0.014038086,-2.89917E-4,0.014175415
ORIENTATION,124,332,6
ACCELEROMETER,-0.850235,4.4648285,8.454361
MAGNETIC_FIELD,-7.548523,-26.457214,-33.71582
GYROSCOPE,0.016815186,-0.010879517,-0.0067749023
ORIENTATION,128,332,5
ACCELEROMETER,-0.81152344,4.513443,8.606888
MAGNETIC_FIELD,-7.923889,-26.779175,-33.865356
GYROSCOPE,0.1116333,-0.058181763,-0.0017547607
ORIENTATION,123,331,5
ACCELEROMETER,-0.77542114,4.648056,8.200439
MAGNETIC_FIELD,-7.5424194,-25.775146,-34.225464
GYROSCOPE,-0.0103302,0.006225586,0.011657715
ORIENTATION,122,331,5
ACCELEROMETER,-0.75131226,4.644943,8.425461
MAGNETIC_FIELD,-6.703186,-25.933838,-33.195496
GYROSCOPE,3.2043457E-4,-0.024856567,0.020492554
ORIENTATION,128,331,4
ACCELEROMETER,-0.6515045,4.6169586,8.432343
MAGNETIC_FIELD,-7.096863,-26.18103,-32.478333
GYROSCOPE,0.046554565,-0.026351929,-0.03543091
ORIENTATION,127,331,5
ACCELEROMETER,-0.68159485,4.7212524,8.350159
MAGNETIC_FIELD,-7.63855,-26.00708,-32.829285
GYROSCOPE,0.014846802,-0.017318726,-0.028564453
ORIENTATION,124,331,5
ACCELEROMETER,-0.707901,4.7143097,8.3259735
MAGNETIC_FIELD,-8.049011,-26.248169,-32.885742
GYROSCOPE,-0.0052948,-0.015213013,0.010101318
ORIENTATION,124,331,4
ACCELEROMETER,-0.6159363,4.715439,8.395889
MAGNETIC_FIELD,-6.6864014,-26.686096,-33.247375
GYROSCOPE,-0.009246826,-0.011276245,-0.007858276
ORIENTATION,128,331,4
ACCELEROMETER,-0.64849854,4.7052765,8.36525
MAGNETIC_FIELD,-8.068848,-27.519226,-32.292175
GYROSCOPE,0.07797241,-0.059753418,-0.06086731
ORIENTATION,126,329,5
ACCELEROMETER,-0.64982605,4.846298,8.179825
MAGNETIC_FIELD,-7.536316,-27.305603,-32.71637
GYROSCOPE,-0.03378296,0.032348633,0.003112793
ORIENTATION,128,330,5
ACCELEROMETER,-0.6771393,4.7816772,8.342682
MAGNETIC_FIELD,-6.930542,-26.86615,-31.965637
GYROSCOPE,-0.014053345,-0.054992676,-0.0027770996
ORIENTATION,130,330,4
ACCELEROMETER,-0.6446533,4.763199,8.329224
MAGNETIC_FIELD,-8.3984375,-26.255798,-32.070923
GYROSCOPE,-0.024230957,-0.044403076,0.018249512
ORIENTATION,126,331,3
ACCELEROMETER,-0.46691895,4.6967926,8.361801
MAGNETIC_FIELD,-8.044434,-26.443481,-33.241272
GYROSCOPE,-0.02029419,-0.030838013,-0.024017334
ORIENTATION,125,331,4
ACCELEROMETER,-0.5606079,4.710083,8.374207
MAGNETIC_FIELD,-8.389282,-26.300049,-32.600403
GYROSCOPE,-0.043014526,0.031204224,0.037719727
ORIENTATION,128,332,3
ACCELEROMETER,-0.5098114,4.609848,8.524399
MAGNETIC_FIELD,-7.333374,-26.127625,-33.532715
GYROSCOPE,-0.036102295,0.0066986084,0.017913818
ORIENTATION,126,331,4
ACCELEROMETER,-0.5534668,4.665436,8.399368
MAGNETIC_FIELD,-7.991028,-25.364685,-31.497192
GYROSCOPE,0.008483887,0.02949524,-0.011184692
ORIENTATION,127,332,4
ACCELEROMETER,-0.5817566,4.5804596,8.4166565
MAGNETIC_FIELD,-7.267761,-26.168823,-32.97882
GYROSCOPE,0.014175415,-0.0031433105,-0.03907776
ORIENTATION,128,332,4
ACCELEROMETER,-0.58128357,4.607849,8.479187
MAGNETIC_FIELD,-7.398987,-26.826477,-33.403015
GYROSCOPE,0.01411438,-0.010879517,-0.040237427
ORIENTATION,130,332,4
ACCELEROMETER,-0.59059143,4.499405,8.334259
MAGNETIC_FIELD,-7.5531006,-26.426697,-33.241272
GYROSCOPE,-0.062286377,0.020004272,-0.030456543
ORIENTATION,128,332,4
ACCELEROMETER,-0.63619995,4.565384,8.480438
MAGNETIC_FIELD,-7.8796387,-26.107788,-34.553528
GYROSCOPE,-0.08509827,0.0076446533,-0.0022277832
ORIENTATION,128,333,5
ACCELEROMETER,-0.7126007,4.360779,8.68718
MAGNETIC_FIELD,-7.785034,-26.771545,-34.303284
GYROSCOPE,0.026809692,-0.13087463,-0.011184692
ORIENTATION,130,333,3
ACCELEROMETER,-0.51501465,4.419449,8.543076
MAGNETIC_FIELD,-7.0373535,-27.31018,-33.23822
GYROSCOPE,0.04512024,0.05683899,-0.085372925
ORIENTATION,134,333,4
ACCELEROMETER,-0.5419464,4.451065,8.59407
MAGNETIC_FIELD,-7.247925,-27.03247,-32.96814
GYROSCOPE,-0.03779602,0.09423828,0.0027008057
ORIENTATION,132,332,4
ACCELEROMETER,-0.53775024,4.5138702,8.6375885
MAGNETIC_FIELD,-6.8222046,-27.096558,-33.53882
GYROSCOPE,-0.029586792,-0.01637268,-0.0022277832
ORIENTATION,132,333,5
ACCELEROMETER,-0.80181885,4.5180054,8.66275
MAGNETIC_FIELD,-6.8893433,-27.359009,-33.34961
GYROSCOPE,0.04777527,-0.016784668,0.007797241
ORIENTATION,130,332,5
ACCELEROMETER,-0.7525177,4.560425,8.504395
MAGNETIC_FIELD,-5.4626465,-26.942444,-32.896423
GYROSCOPE,-0.016906738,0.04508972,0.03100586
ORIENTATION,133,332,5
ACCELEROMETER,-0.76104736,4.4646454,8.423264
MAGNETIC_FIELD,-5.911255,-26.535034,-34.47113
GYROSCOPE,-0.023223877,-0.0118255615,0.006439209
ORIENTATION,132,333,5
ACCELEROMETER,-0.7480316,4.417679,8.497711
MAGNETIC_FIELD,-6.3430786,-27.497864,-33.880615
GYROSCOPE,0.0023651123,-0.031570435,0.05870056
ORIENTATION,134,333,5
ACCELEROMETER,-0.7326355,4.4035797,8.446686
MAGNETIC_FIELD,-6.954956,-26.217651,-33.444214
GYROSCOPE,0.017837524,-0.016921997,0.004196167
ORIENTATION,133,333,5
ACCELEROMETER,-0.67323303,4.373474,8.438522
MAGNETIC_FIELD,-6.4331055,-26.512146,-33.44574
GYROSCOPE,-0.1116333,0.0101623535,-0.029647827
ORIENTATION,134,334,4
ACCELEROMETER,-0.67884827,4.2323456,8.727341
MAGNETIC_FIELD,-7.711792,-25.248718,-34.091187
GYROSCOPE,0.03765869,0.059753418,0.0026397705
ORIENTATION,133,333,5
ACCELEROMETER,-0.80085754,4.357361,8.57486
MAGNETIC_FIELD,-5.140686,-26.791382,-33.218384
GYROSCOPE,0.032974243,-0.05696106,-0.10913086
ORIENTATION,134,332,7
ACCELEROMETER,-1.0072479,4.385376,8.300812
MAGNETIC_FIELD,-5.038452,-27.20337,-32.78351
GYROSCOPE,0.017974854,-0.02784729,0.020339966
ORIENTATION,133,333,5
ACCELEROMETER,-0.79408264,4.351883,8.407074
MAGNETIC_FIELD,-6.5109253,-26.449585,-34.05304
GYROSCOPE,0.0061035156,-0.008087158,0.039001465
ORIENTATION,130,332,5
ACCELEROMETER,-0.71987915,4.5027466,8.541031
MAGNETIC_FIELD,-7.1014404,-27.589417,-34.161377
GYROSCOPE,0.035354614,-0.036468506,0.07620239
ORIENTATION,134,332,3
ACCELEROMETER,-0.5035858,4.528488,8.556152
MAGNETIC_FIELD,-7.559204,-27.293396,-32.904053
GYROSCOPE,0.036026,-0.012359619,-0.012741089
ORIENTATION,138,332,4
ACCELEROMETER,-0.61642456,4.558075,8.405716
MAGNETIC_FIELD,-6.4819336,-27.47345,-33.09326
GYROSCOPE,0.014709473,0.044815063,-0.020492554
ORIENTATION,134,331,5
ACCELEROMETER,-0.67878723,4.6641846,8.393295
MAGNETIC_FIELD,-5.569458,-27.71759,-32.792664
GYROSCOPE,0.016143799,0.009613037,-0.11177063
ORIENTATION,136,331,6
ACCELEROMETER,-0.90130615,4.5297394,8.247269
MAGNETIC_FIELD,-5.984497,-26.94397,-32.894897
GYROSCOPE,-0.028167725,0.028686523,0.11238098
ORIENTATION,131,331,4
ACCELEROMETER,-0.64904785,4.634659,8.408997
MAGNETIC_FIELD,-6.7581177,-28.074646,-32.94983
GYROSCOPE,0.042266846,-8.239746E-4,0.04118347
ORIENTATION,128,330,5
ACCELEROMETER,-0.7391052,4.6689606,8.045212
MAGNETIC_FIELD,-8.218384,-26.470947,-32.56073
GYROSCOPE,-0.018051147,0.015930176,0.081085205
ORIENTATION,125,331,3
ACCELEROMETER,-0.4028473,4.651016,8.288025
MAGNETIC_FIELD,-7.4691772,-27.56195,-33.57544
GYROSCOPE,-0.020706177,0.018234253,-0.09072876
ORIENTATION,129,332,7
ACCELEROMETER,-0.9913635,4.682312,8.569
MAGNETIC_FIELD,-6.742859,-26.641846,-32.807922
GYROSCOPE,0.00881958,-0.03694153,-0.05027771
ORIENTATION,133,332,6
ACCELEROMETER,-0.82592773,4.494705,8.356903
MAGNETIC_FIELD,-5.6427,-27.28424,-32.704163
GYROSCOPE,-0.008148193,-0.029876709,0.031951904
ORIENTATION,134,332,5
ACCELEROMETER,-0.7448883,4.5977936,8.443649
MAGNETIC_FIELD,-7.1411133,-27.903748,-33.276367
GYROSCOPE,-0.013717651,0.05744934,-0.007385254
ORIENTATION,131,331,5
ACCELEROMETER,-0.7081146,4.5611725,8.301392
MAGNETIC_FIELD,-6.3705444,-27.47345,-34.240723
GYROSCOPE,-0.04647827,-0.031097412,0.017089844
ORIENTATION,129,332,6
ACCELEROMETER,-0.8410797,4.589096,8.477066
MAGNETIC_FIELD,-6.3690186,-26.934814,-33.268738
GYROSCOPE,0.05354309,0.0066375732,-0.007659912
ORIENTATION,130,331,7
ACCELEROMETER,-0.98890686,4.734726,8.441772
MAGNETIC_FIELD,-6.767273,-27.20337,-32.640076
GYROSCOPE,0.052597046,0.037841797,0.019607544
ORIENTATION,141,332,5
ACCELEROMETER,-0.6849823,4.6646423,8.571793
MAGNETIC_FIELD,-4.949951,-27.130127,-33.57086
GYROSCOPE,-0.03807068,-0.028381348,-0.014450073
ORIENTATION,143,333,5
ACCELEROMETER,-0.6788025,4.368042,8.5849
MAGNETIC_FIELD,-5.911255,-26.705933,-34.135437
GYROSCOPE,-0.03643799,0.020141602,0.017974854
ORIENTATION,127,332,6
ACCELEROMETER,-0.8213043,4.55896,8.405243
MAGNETIC_FIELD,-6.326294,-26.29242,-32.911682
GYROSCOPE,0.004196167,0.023330688,0.05340576
ORIENTATION,127,331,7
ACCELEROMETER,-0.97494507,4.6295776,8.457428
MAGNETIC_FIELD,-7.054138,-26.591492,-33.906555
GYROSCOPE,-0.002105713,-0.080444336,-0.014587402
ORIENTATION,129,332,5
ACCELEROMETER,-0.6999054,4.505493,8.440247
MAGNETIC_FIELD,-6.767273,-25.680542,-32.632446
GYROSCOPE,0.015258789,-0.016098022,-0.13661194
ORIENTATION,126,332,7
ACCELEROMETER,-0.9777374,4.558563,8.391739
MAGNETIC_FIELD,-5.569458,-27.558899,-33.31604
GYROSCOPE,0.0017547607,0.07284546,-0.051635742
ORIENTATION,137,333,6
ACCELEROMETER,-0.9231262,4.441971,8.593994
MAGNETIC_FIELD,-5.6030273,-27.554321,-33.95233
GYROSCOPE,0.030258179,-0.041900635,0.041793823
ORIENTATION,134,332,6
ACCELEROMETER,-0.82733154,4.460678,8.318008
MAGNETIC_FIELD,-5.82428,-27.830505,-32.229614
GYROSCOPE,-0.0073394775,-0.0012359619,0.01776123
ORIENTATION,136,332,6
ACCELEROMETER,-0.8948517,4.5746613,8.476135
MAGNETIC_FIELD,-5.316162,-26.79596,-33.865356
GYROSCOPE,0.0050201416,0.005218506,0.035217285
ORIENTATION,132,332,6
ACCELEROMETER,-0.8831787,4.5270844,8.401688
MAGNETIC_FIELD,-5.999756,-26.443481,-33.044434
GYROSCOPE,8.087158E-4,-0.0053710938,0.033309937
ORIENTATION,130,331,5
ACCELEROMETER,-0.7572632,4.6479034,8.442703
MAGNETIC_FIELD,-4.5425415,-28.074646,-33.493042
GYROSCOPE,0.023132324,0.0056152344,-0.00793457
ORIENTATION,140,332,6
ACCELEROMETER,-0.826004,4.549988,8.443329
MAGNETIC_FIELD,-5.895996,-27.742004,-32.60956
GYROSCOPE,0.033859253,-0.019897461,-0.0025634766
ORIENTATION,136,332,6
ACCELEROMETER,-0.855896,4.551285,8.438461
MAGNETIC_FIELD,-6.536865,-27.391052,-32.299805
GYROSCOPE,0.0019683838,-0.01473999,0.061203003
ORIENTATION,134,331,4
ACCELEROMETER,-0.64720154,4.7928467,8.704575
MAGNETIC_FIELD,-6.3323975,-28.50647,-31.690979
GYROSCOPE,0.12800598,-0.0868988,0.02748108
ORIENTATION,132,329,5
ACCELEROMETER,-0.7132416,4.714157,7.7135468
MAGNETIC_FIELD,-6.176758,-28.186035,-32.00836
GYROSCOPE,-0.06188965,0.039398193,0.040512085
ORIENTATION,136,330,4
ACCELEROMETER,-0.5863037,4.883957,8.479797
MAGNETIC_FIELD,-6.5216064,-27.624512,-31.88324
GYROSCOPE,0.048858643,0.035614014,0.025772095
ORIENTATION,133,330,4
ACCELEROMETER,-0.6039429,4.8302765,8.266907
MAGNETIC_FIELD,-6.4987183,-27.832031,-32.53784
GYROSCOPE,0.007522583,-0.028121948,0.049194336
ORIENTATION,132,330,4
ACCELEROMETER,-0.58218384,4.866974,8.271164
MAGNETIC_FIELD,-7.333374,-27.496338,-32.118225
GYROSCOPE,0.025985718,0.022583008,0.012542725
ORIENTATION,129,329,4
ACCELEROMETER,-0.55236816,4.872299,8.215454
MAGNETIC_FIELD,-7.9818726,-28.042603,-32.458496
GYROSCOPE,-0.015823364,0.02293396,-0.010574341
ORIENTATION,127,329,4
ACCELEROMETER,-0.6140442,4.9175262,8.2561035
MAGNETIC_FIELD,-7.284546,-27.722168,-32.450867
GYROSCOPE,-0.015548706,0.0035095215,-0.002166748
ORIENTATION,129,330,4
ACCELEROMETER,-0.62887573,4.890503,8.279556
MAGNETIC_FIELD,-7.3654175,-27.819824,-31.881714
GYROSCOPE,-0.008285522,0.0037231445,0.004333496
ORIENTATION,130,329,4
ACCELEROMETER,-0.6193085,4.8880615,8.244873
MAGNETIC_FIELD,-6.713867,-28.245544,-33.314514
GYROSCOPE,-0.020767212,0.039657593,0.0073242188
ORIENTATION,132,331,5
ACCELEROMETER,-0.7309265,4.747406,8.416733
MAGNETIC_FIELD,-6.8832397,-26.942444,-32.562256
GYROSCOPE,-0.0036010742,0.025436401,-0.016143799
ORIENTATION,127,329,5
ACCELEROMETER,-0.64486694,4.839752,8.189194
MAGNETIC_FIELD,-5.836487,-27.474976,-31.88324
GYROSCOPE,-0.01826477,-0.024795532,-0.030319214
ORIENTATION,133,330,5
ACCELEROMETER,-0.7732849,4.7997894,8.33049
MAGNETIC_FIELD,-6.352234,-27.31018,-32.0282
GYROSCOPE,0.010848999,-0.017929077,-0.0035858154
ORIENTATION,132,330,5
ACCELEROMETER,-0.7331238,4.7543335,8.313309
MAGNETIC_FIELD,-6.7749023,-27.061462,-32.791138
GYROSCOPE,-0.0093688965,3.2043457E-4,0.022384644
ORIENTATION,129,330,5
ACCELEROMETER,-0.6665344,4.7441406,8.283188
MAGNETIC_FIELD,-6.604004,-28.76892,-32.974243
GYROSCOPE,-0.033584595,-0.011962891,0.02319336
ORIENTATION,135,331,5
ACCELEROMETER,-0.68743896,4.7207184,8.409119
MAGNETIC_FIELD,-7.7926636,-27.426147,-32.977295
GYROSCOPE,-0.032562256,-0.012176514,0.028015137
ORIENTATION,128,331,5
ACCELEROMETER,-0.6631012,4.659317,8.286026
MAGNETIC_FIELD,-8.392334,-25.93689,-32.884216
GYROSCOPE,-0.055099487,-0.07237244,0.0440979
ORIENTATION,126,332,3
ACCELEROMETER,-0.47879028,4.6086426,8.486725
MAGNETIC_FIELD,-8.903503,-26.785278,-33.38623
GYROSCOPE,0.030059814,-0.038360596,0.039276123
ORIENTATION,127,331,2
ACCELEROMETER,-0.35429382,4.554962,8.309082
MAGNETIC_FIELD,-6.5475464,-25.697327,-32.585144
GYROSCOPE,-0.016082764,0.18592834,0.028839111
ORIENTATION,128,331,5
ACCELEROMETER,-0.70858765,4.7144775,8.60054
MAGNETIC_FIELD,-8.544922,-27.445984,-32.57904
GYROSCOPE,0.20483398,-0.047729492,0.1697998
ORIENTATION,124,329,3
ACCELEROMETER,-0.40844727,4.9989166,8.219299
MAGNETIC_FIELD,-10.102844,-28.33252,-32.382202
GYROSCOPE,0.024230957,0.0011291504,0.23631287
