ORIENTATION,95,331,3
ACCELEROMETER,-0.4000244,4.655197,8.43718
MAGNETIC_FIELD,-17.779541,-20.722961,-35.258484
GYROSCOPE,-0.10954285,-0.21910095,0.12934875
ORIENTATION,92,332,358
ACCELEROMETER,0.24273682,4.516983,8.497437
MAGNETIC_FIELD,-19.158936,-18.847656,-34.570313
GYROSCOPE,-0.033737183,0.088012695,0.037521362
ORIENTATION,91,332,359
ACCELEROMETER,0.11054993,4.5451202,8.493408
MAGNETIC_FIELD,-19.781494,-19.117737,-35.012817
GYROSCOPE,-0.109817505,-0.10574341,-0.12562561
ORIENTATION,95,334,359
ACCELEROMETER,0.090789795,4.227295,8.713364
MAGNETIC_FIELD,-19.662476,-19.685364,-34.55963
GYROSCOPE,-0.047454834,0.093429565,-0.0018920898
ORIENTATION,97,334,360
ACCELEROMETER,0.046844482,4.285141,8.668945
MAGNETIC_FIELD,-19.58313,-17.234802,-35.847473
GYROSCOPE,-0.04576111,-0.020370483,-0.090667725
ORIENTATION,93,336,0
ACCELEROMETER,-0.07487488,4.015045,8.834839
MAGNETIC_FIELD,-19.136047,-17.58728,-36.149597
GYROSCOPE,-0.031845093,0.0034637451,-0.008956909
ORIENTATION,92,335,1
ACCELEROMETER,-0.098098755,4.1110687,8.710968
MAGNETIC_FIELD,-19.075012,-17.401123,-35.98175
GYROSCOPE,0.0440979,0.029647827,-0.009841919
ORIENTATION,91,335,1
ACCELEROMETER,-0.17469788,4.160919,8.799194
MAGNETIC_FIELD,-19.259644,-18.650818,-35.308838
GYROSCOPE,0.0012664795,-0.027145386,-0.0029144287
ORIENTATION,95,334,1
ACCELEROMETER,-0.1599884,4.269806,8.692841
MAGNETIC_FIELD,-19.302368,-19.195557,-35.256958
GYROSCOPE,0.03967285,-0.013916016,0.040374756
ORIENTATION,92,334,360
ACCELEROMETER,0.07485962,4.285736,8.701141
MAGNETIC_FIELD,-19.520569,-19.422913,-34.075928
GYROSCOPE,0.11793518,-0.03366089,-0.06535339
ORIENTATION,97,331,359
ACCELEROMETER,0.16807556,4.7745514,8.494629
MAGNETIC_FIELD,-19.845581,-23.13385,-31.254578
GYROSCOPE,0.28816223,0.023269653,-0.057281494
ORIENTATION,105,325,1
ACCELEROMETER,-0.19509888,5.4575195,7.840454
MAGNETIC_FIELD,-18.986511,-25.688171,-29.444885
GYROSCOPE,-0.3445282,-0.13452148,-0.10499573
ORIENTATION,102,327,1
ACCELEROMETER,-0.13150024,5.269943,8.263412
MAGNETIC_FIELD,-19.41681,-24.227905,-31.996155
GYROSCOPE,0.027053833,-0.029052734,-0.009353638
ORIENTATION,101,329,1
ACCELEROMETER,-0.12667847,5.0981903,8.326462
MAGNETIC_FIELD,-19.422913,-23.2193,-32.676697
GYROSCOPE,-0.13764954,-0.09257507,0.02041626
ORIENTATION,99,330,359
ACCELEROMETER,0.122024536,4.807541,8.471252
MAGNETIC_FIELD,-20.088196,-22.84851,-33.869934
GYROSCOPE,0.029632568,0.012619019,-0.076828
ORIENTATION,103,331,0
ACCELEROMETER,-0.056243896,4.602707,8.385544
MAGNETIC_FIELD,-21.047974,-22.28241,-31.921387
GYROSCOPE,-0.080093384,0.050354004,0.025436401
ORIENTATION,97,330,0
ACCELEROMETER,-0.06770325,4.6662903,8.147446
MAGNETIC_FIELD,-14.878845,-16.841125,-39.048767
GYROSCOPE,0.3918152,0.5370636,-0.07737732
ORIENTATION,108,334,8
ACCELEROMETER,-1.2140808,4.2714996,8.703812
MAGNETIC_FIELD,-17.764282,-19.361877,-36.595154
GYROSCOPE,0.061676025,-0.3006134,-0.03147888
ORIENTATION,111,333,2
ACCELEROMETER,-0.24861145,4.364685,8.44632
MAGNETIC_FIELD,-21.221924,-22.961426,-31.575012
GYROSCOPE,0.3611908,-0.034347534,0.08842468
ORIENTATION,100,325,357
ACCELEROMETER,0.3801117,5.329895,7.606964
MAGNETIC_FIELD,-20.41626,-22.669983,-33.146667
GYROSCOPE,-0.12461853,0.02659607,-0.08326721
ORIENTATION,103,330,1
ACCELEROMETER,-0.15660095,4.8922424,8.381897
MAGNETIC_FIELD,-20.625305,-24.949646,-32.032776
GYROSCOPE,-0.0700531,-0.05517578,0.019729614
ORIENTATION,97,328,359
ACCELEROMETER,0.1711731,5.1789703,8.231705
MAGNETIC_FIELD,-21.116638,-23.231506,-32.173157
GYROSCOPE,0.04069519,-0.007675171,0.036636353
ORIENTATION,93,327,358
ACCELEROMETER,0.27268982,5.303711,8.294678
MAGNETIC_FIELD,-20.513916,-24.024963,-31.27594
GYROSCOPE,-0.041412354,0.05760193,-0.009841919
ORIENTATION,98,327,1
ACCELEROMETER,-0.11277771,5.2477875,8.163254
MAGNETIC_FIELD,-20.33844,-23.632813,-32.24182
GYROSCOPE,0.076934814,0.10517883,0.060256958
ORIENTATION,96,327,0
ACCELEROMETER,-0.043701172,5.189026,8.066406
MAGNETIC_FIELD,-19.670105,-23.309326,-33.2489
GYROSCOPE,-0.0015869141,0.024017334,0.024902344
ORIENTATION,96,327,1
ACCELEROMETER,-0.13356018,5.396164,8.178452
MAGNETIC_FIELD,-19.337463,-24.835205,-31.39801
GYROSCOPE,0.11256409,-0.08042908,-0.08224487
ORIENTATION,100,325,360
ACCELEROMETER,0.064697266,5.451477,7.7137756
MAGNETIC_FIELD,-19.432068,-25.942993,-31.99768
GYROSCOPE,0.010223389,-0.044052124,-0.067855835
ORIENTATION,100,325,0
ACCELEROMETER,-0.050964355,5.5261383,7.8632813
MAGNETIC_FIELD,-20.237732,-25.408936,-31.077576
GYROSCOPE,-0.030761719,-0.0014190674,-0.024429321
ORIENTATION,99,326,360
ACCELEROMETER,0.015090942,5.477936,7.9724884
MAGNETIC_FIELD,-20.373535,-26.530457,-31.41632
GYROSCOPE,-0.0051116943,-0.006378174,0.014511108
ORIENTATION,100,325,360
ACCELEROMETER,0.011169434,5.4762115,7.9651184
MAGNETIC_FIELD,-20.611572,-25.790405,-30.343628
GYROSCOPE,-0.005996704,-0.007598877,0.0032653809
ORIENTATION,100,325,0
ACCELEROMETER,-0.01260376,5.480255,7.957062
MAGNETIC_FIELD,-18.85376,-26.062012,-31.129456
GYROSCOPE,-0.0015258789,-0.004547119,0.009155273
ORIENTATION,99,326,360
ACCELEROMETER,0.006866455,5.4725647,8.013931
MAGNETIC_FIELD,-20.291138,-24.562073,-31.32019
GYROSCOPE,-0.0075531006,-0.017166138,-0.0023651123
ORIENTATION,98,326,360
ACCELEROMETER,0.015853882,5.4483643,7.9441223
MAGNETIC_FIELD,-19.845581,-26.049805,-31.262207
GYROSCOPE,0.008117676,0.0012969971,0.004547119
ORIENTATION,97,326,359
ACCELEROMETER,0.084198,5.4026337,7.954727
MAGNETIC_FIELD,-20.173645,-25.144958,-30.238342
GYROSCOPE,-0.09223938,0.0058288574,-0.036972046
ORIENTATION,102,327,360
ACCELEROMETER,0.046035767,5.249298,8.106888
MAGNETIC_FIELD,-20.01648,-25.349426,-32.09381
GYROSCOPE,-0.01651001,-0.019546509,-0.016418457
ORIENTATION,102,327,360
ACCELEROMETER,0.018417358,5.254074,8.152954
MAGNETIC_FIELD,-19.88678,-25.1297,-31.661987
GYROSCOPE,0.019454956,-0.012481689,0.0052337646
ORIENTATION,99,327,360
ACCELEROMETER,0.055923462,5.246567,8.135651
MAGNETIC_FIELD,-18.80188,-25.708008,-31.922913
GYROSCOPE,-3.0517578E-4,0.0040740967,0.002319336
ORIENTATION,100,327,360
ACCELEROMETER,0.010116577,5.225525,8.064682
MAGNETIC_FIELD,-19.33899,-25.326538,-31.427002
GYROSCOPE,-0.0013885498,0.0028533936,0.013153076
ORIENTATION,101,327,360
ACCELEROMETER,0.033050537,5.2220917,8.132065
MAGNETIC_FIELD,-20.417786,-26.145935,-31.530762
GYROSCOPE,0.0074310303,0.0061035156,0.022445679
ORIENTATION,98,327,360
ACCELEROMETER,0.069625854,5.201645,8.126221
MAGNETIC_FIELD,-19.984436,-24.725342,-31.266785
GYROSCOPE,0.023452759,-9.460449E-4,0.014175415
ORIENTATION,99,327,360
ACCELEROMETER,0.014907837,5.1949615,8.072525
MAGNETIC_FIELD,-19.493103,-24.664307,-31.417847
GYROSCOPE,0.02331543,-0.0029144287,-0.004135132
ORIENTATION,100,327,360
ACCELEROMETER,7.4768066E-4,5.2433167,8.150391
MAGNETIC_FIELD,-19.487,-24.861145,-32.61261
GYROSCOPE,-0.0015258789,-0.004272461,-0.013763428
ORIENTATION,99,327,360
ACCELEROMETER,0.064971924,5.293808,8.019333
MAGNETIC_FIELD,-19.386292,-25.85907,-32.235718
GYROSCOPE,-0.013534546,0.007873535,0.0018310547
ORIENTATION,103,327,0
ACCELEROMETER,-0.0016937256,5.2847595,8.127823
MAGNETIC_FIELD,-19.683838,-24.650574,-32.269287
GYROSCOPE,9.918213E-4,0.005569458,0.008621216
ORIENTATION,100,328,0
ACCELEROMETER,-0.013427734,5.203003,8.169632
MAGNETIC_FIELD,-19.929504,-26.472473,-31.83899
GYROSCOPE,-6.4086914E-4,-0.017990112,-0.007659912
ORIENTATION,103,327,360
ACCELEROMETER,0.019866943,5.2365723,8.146805
MAGNETIC_FIELD,-20.184326,-25.02594,-31.74591
GYROSCOPE,0.007171631,-0.029327393,0.012542725
ORIENTATION,101,327,0
ACCELEROMETER,-6.1035156E-5,5.236618,8.117737
MAGNETIC_FIELD,-20.376587,-25.314331,-31.79779
GYROSCOPE,0.011779785,-0.004272461,0.018997192
ORIENTATION,98,327,360
ACCELEROMETER,0.054733276,5.0921783,7.8788147
MAGNETIC_FIELD,-17.414856,-22.54486,-35.502625
GYROSCOPE,-0.17607117,0.36756897,-4.7302246E-4
ORIENTATION,91,326,5
ACCELEROMETER,-0.6329956,5.3243713,7.8683167
MAGNETIC_FIELD,-13.853455,-23.994446,-37.094116
GYROSCOPE,-0.058380127,0.5276184,-0.079055786
