ORIENTATION,132,338,360
ACCELEROMETER,0.006790161,3.59021,9.089645
MAGNETIC_FIELD,-20.497131,-28.614807,-20.349121
GYROSCOPE,-0.049621582,0.04019165,0.18580627
ORIENTATION,131,339,2
ACCELEROMETER,-0.3866577,3.4565277,8.988281
MAGNETIC_FIELD,-22.76764,-27.088928,-21.82312
GYROSCOPE,0.22802734,0.3055725,0.39648438
ORIENTATION,130,342,359
ACCELEROMETER,0.081466675,2.9517517,9.079285
MAGNETIC_FIELD,-20.362854,-27.59552,-22.827148
GYROSCOPE,0.011917114,-0.10890198,-0.36428833
ORIENTATION,129,338,4
ACCELEROMETER,-0.61820984,3.502182,8.859467
MAGNETIC_FIELD,-20.051575,-29.650879,-20.81604
GYROSCOPE,0.0362854,-0.12838745,-0.064819336
ORIENTATION,133,338,3
ACCELEROMETER,-0.53793335,3.6533203,8.907593
MAGNETIC_FIELD,-20.89386,-28.523254,-21.052551
GYROSCOPE,0.02935791,0.055664063,-0.08239746
ORIENTATION,131,338,4
ACCELEROMETER,-0.5450897,3.5710297,8.802261
MAGNETIC_FIELD,-19.726563,-29.179382,-20.78247
GYROSCOPE,-0.12774658,0.09841919,-0.08328247
ORIENTATION,133,339,5
ACCELEROMETER,-0.84339905,3.4272614,8.917938
MAGNETIC_FIELD,-18.969727,-27.44751,-23.051453
GYROSCOPE,-0.14457703,0.028320313,0.021621704
ORIENTATION,134,342,5
ACCELEROMETER,-0.87498474,2.9836426,9.300278
MAGNETIC_FIELD,-19.859314,-28.285217,-21.98944
GYROSCOPE,0.0035705566,-0.085494995,-0.0052337646
ORIENTATION,132,341,4
ACCELEROMETER,-0.661911,3.153366,9.147949
MAGNETIC_FIELD,-19.430542,-29.873657,-20.932007
GYROSCOPE,0.050125122,-0.0016021729,0.05921936
ORIENTATION,137,339,4
ACCELEROMETER,-0.66659546,3.4988556,9.052246
MAGNETIC_FIELD,-19.26117,-31.793213,-20.73822
GYROSCOPE,-0.14341736,-0.26026917,-0.04032898
ORIENTATION,133,338,3
ACCELEROMETER,-0.41716003,3.5913086,8.956696
MAGNETIC_FIELD,-19.41681,-29.568481,-19.766235
GYROSCOPE,-0.0055236816,0.030014038,0.07157898
ORIENTATION,134,338,2
ACCELEROMETER,-0.3892212,3.5792236,8.960098
MAGNETIC_FIELD,-19.345093,-29.483032,-19.985962
GYROSCOPE,-0.05607605,0.02684021,-0.019210815
ORIENTATION,133,339,4
ACCELEROMETER,-0.5835266,3.4999237,8.972931
MAGNETIC_FIELD,-19.064331,-28.388977,-20.954895
GYROSCOPE,-0.01991272,0.0068206787,0.014968872
ORIENTATION,134,339,5
ACCELEROMETER,-0.69744873,3.473816,8.856293
MAGNETIC_FIELD,-20.37201,-29.312134,-21.322632
GYROSCOPE,-0.029266357,-0.020126343,0.011230469
ORIENTATION,132,339,4
ACCELEROMETER,-0.65618896,3.3967133,8.740067
MAGNETIC_FIELD,-20.718384,-26.586914,-23.602295
GYROSCOPE,-0.52568054,-0.18322754,0.24736023
ORIENTATION,131,341,359
ACCELEROMETER,0.1156311,3.2591248,9.225204
MAGNETIC_FIELD,-15.992737,-27.378845,-26.83258
GYROSCOPE,0.2207489,0.038009644,-0.1459961
ORIENTATION,134,343,5
ACCELEROMETER,-0.8711548,3.1272583,9.974106
MAGNETIC_FIELD,-12.857056,-27.784729,-30.052185
GYROSCOPE,0.0284729,-0.06323242,0.20751953
ORIENTATION,137,336,5
ACCELEROMETER,-0.76005554,3.6201477,8.148331
MAGNETIC_FIELD,-7.8826904,-32.90558,-31.007385
GYROSCOPE,0.07904053,0.08694458,0.019927979
ORIENTATION,168,342,358
ACCELEROMETER,0.31045532,2.8950043,8.748428
MAGNETIC_FIELD,-1.9134521,-36.479187,-28.179932
GYROSCOPE,0.36050415,0.027786255,-0.17607117
ORIENTATION,163,333,5
ACCELEROMETER,-0.93333435,5.249939,10.211044
MAGNETIC_FIELD,-7.1395874,-35.942078,-28.359985
GYROSCOPE,-0.1351471,0.08804321,0.3405609
ORIENTATION,157,339,5
ACCELEROMETER,-0.72621155,2.9361877,7.5808563
MAGNETIC_FIELD,-6.678772,-35.401917,-29.43573
GYROSCOPE,-0.026473999,0.26402283,0.19639587
ORIENTATION,158,339,5
ACCELEROMETER,-0.8725281,3.9766998,10.218979
MAGNETIC_FIELD,-3.3569336,-38.11493,-30.096436
GYROSCOPE,-0.09422302,0.025680542,-4.8828125E-4
ORIENTATION,170,339,2
ACCELEROMETER,-0.25491333,3.4493103,9.065994
MAGNETIC_FIELD,3.0471802,-41.31775,-29.50592
GYROSCOPE,0.3352661,-0.116378784,-0.36108398
ORIENTATION,180,341,6
ACCELEROMETER,-0.8838196,3.0090332,8.61145
MAGNETIC_FIELD,7.1731567,-40.43274,-31.175232
GYROSCOPE,-0.057296753,-0.18737793,-0.20423889
ORIENTATION,189,343,5
ACCELEROMETER,-0.7941742,3.0521698,9.695602
MAGNETIC_FIELD,7.0785522,-39.744568,-35.47516
GYROSCOPE,-0.23661804,0.13853455,0.27920532
ORIENTATION,189,335,6
ACCELEROMETER,-0.7584839,3.4649963,7.288849
MAGNETIC_FIELD,8.375549,-38.687134,-34.822083
GYROSCOPE,-0.10949707,0.048675537,0.21084595
ORIENTATION,194,342,3
ACCELEROMETER,-0.62979126,3.4561157,10.715469
MAGNETIC_FIELD,13.156128,-39.572144,-35.04181
GYROSCOPE,0.14324951,0.11483765,-0.3400421
ORIENTATION,201,342,5
ACCELEROMETER,-0.7246399,2.8235016,8.538071
MAGNETIC_FIELD,17.52472,-37.268066,-37.43744
GYROSCOPE,-0.024124146,-0.10131836,-0.26620483
ORIENTATION,219,336,3
ACCELEROMETER,-0.47938538,3.638382,8.247223
MAGNETIC_FIELD,17.733765,-36.59668,-38.642883
GYROSCOPE,0.020935059,-0.23678589,-0.0017700195
ORIENTATION,209,345,6
ACCELEROMETER,-1.1517944,2.976532,10.805252
MAGNETIC_FIELD,19.812012,-35.29663,-40.179443
GYROSCOPE,-0.10827637,0.30278015,0.23466492
ORIENTATION,220,340,6
ACCELEROMETER,-0.8043213,2.9022064,7.984543
MAGNETIC_FIELD,21.70105,-34.45587,-39.868164
GYROSCOPE,0.05026245,0.11721802,0.1953125
ORIENTATION,226,339,6
ACCELEROMETER,-0.9975891,3.674286,9.471298
MAGNETIC_FIELD,21.118164,-36.24115,-38.606262
GYROSCOPE,0.4953766,-0.17359924,-0.18128967
ORIENTATION,223,338,5
ACCELEROMETER,-0.7878418,3.7362213,9.399399
MAGNETIC_FIELD,22.692871,-38.24768,-36.245728
GYROSCOPE,0.24465942,-0.022583008,-0.169693
ORIENTATION,232,331,5
ACCELEROMETER,-0.5888519,3.89003,7.128128
MAGNETIC_FIELD,22.976685,-37.283325,-35.93445
GYROSCOPE,0.075653076,-0.20828247,-0.070129395
ORIENTATION,237,330,4
ACCELEROMETER,-0.55000305,5.199295,8.895187
MAGNETIC_FIELD,21.931458,-37.347412,-36.294556
GYROSCOPE,0.18214417,0.032196045,0.025894165
ORIENTATION,225,335,7
ACCELEROMETER,-1.1141052,4.402588,9.223358
MAGNETIC_FIELD,24.797058,-35.643005,-33.847046
GYROSCOPE,-0.037750244,0.19900513,-0.06048584
ORIENTATION,241,328,8
ACCELEROMETER,-0.94584656,4.2192993,6.760849
MAGNETIC_FIELD,22.195435,-36.39984,-34.599304
GYROSCOPE,-0.07182312,0.0042877197,0.22346497
ORIENTATION,234,330,7
ACCELEROMETER,-1.1222076,5.5429688,9.480774
MAGNETIC_FIELD,23.675537,-34.710693,-34.7229
GYROSCOPE,-0.12347412,-0.02053833,0.056243896
ORIENTATION,233,336,2
ACCELEROMETER,-0.2552948,4.027054,9.030518
MAGNETIC_FIELD,23.684692,-32.666016,-33.763123
GYROSCOPE,0.08732605,-0.007385254,-0.17158508
ORIENTATION,248,328,1
ACCELEROMETER,-0.13339233,4.484146,7.05011
MAGNETIC_FIELD,21.45996,-31.44989,-34.931946
GYROSCOPE,-0.06652832,-0.16571045,-0.0619812
ORIENTATION,233,336,4
ACCELEROMETER,-0.7785797,4.5708313,10.457184
MAGNETIC_FIELD,21.299744,-29.73938,-34.753418
GYROSCOPE,0.07041931,0.016845703,0.07951355
ORIENTATION,240,333,9
ACCELEROMETER,-1.2300262,3.9785461,7.591263
MAGNETIC_FIELD,20.152283,-30.691528,-34.858704
GYROSCOPE,0.1253357,0.11782837,0.1025238
ORIENTATION,246,329,4
ACCELEROMETER,-0.5681,4.6140137,7.5170593
MAGNETIC_FIELD,15.855408,-27.627563,-35.206604
GYROSCOPE,-0.097473145,-0.20854187,-0.023773193
ORIENTATION,241,332,3
ACCELEROMETER,-0.36325073,4.084564,7.7694855
MAGNETIC_FIELD,17.4057,-26.9516,-34.085083
GYROSCOPE,-0.0030822754,-0.028411865,-0.1521759
ORIENTATION,250,330,1
ACCELEROMETER,-0.2049408,4.6020813,7.869766
MAGNETIC_FIELD,15.634155,-26.142883,-33.450317
GYROSCOPE,0.086639404,0.0209198,0.08834839
ORIENTATION,254,327,7
ACCELEROMETER,-0.8624573,4.3449097,6.750412
MAGNETIC_FIELD,15.252686,-27.185059,-32.90558
GYROSCOPE,0.055480957,0.04296875,0.013076782
ORIENTATION,247,330,1
ACCELEROMETER,-0.22457886,5.443939,9.528961
MAGNETIC_FIELD,15.393066,-25.250244,-33.555603
GYROSCOPE,-0.08641052,-0.005203247,-0.28840637
ORIENTATION,254,329,3
ACCELEROMETER,-0.5341034,5.345764,8.816818
MAGNETIC_FIELD,15.261841,-24.855042,-33.2489
GYROSCOPE,-0.054992676,0.06523132,0.048706055
ORIENTATION,270,326,9
ACCELEROMETER,-1.0017395,4.3200226,6.3887177
MAGNETIC_FIELD,13.668823,-24.685669,-33.013916
GYROSCOPE,-0.057495117,0.07501221,-0.018341064
ORIENTATION,239,332,6
ACCELEROMETER,-0.9752197,5.238678,9.710144
MAGNETIC_FIELD,9.913635,-25.567627,-31.030273
GYROSCOPE,0.041778564,-0.34117126,0.0034484863
ORIENTATION,239,325,6
ACCELEROMETER,-0.780365,5.1061554,7.2959595
MAGNETIC_FIELD,10.322571,-27.189636,-26.42212
GYROSCOPE,0.02230835,0.3766327,0.12696838
ORIENTATION,224,325,5
ACCELEROMETER,-0.6915283,5.458267,7.7914124
MAGNETIC_FIELD,10.693359,-28.897095,-22.315979
GYROSCOPE,0.42382813,-0.32243347,-0.6768341
ORIENTATION,231,332,356
ACCELEROMETER,0.5656891,4.825409,9.090668
MAGNETIC_FIELD,15.985107,-23.590088,-23.747253
GYROSCOPE,0.15539551,-0.76734924,-1.1062012
ORIENTATION,254,326,6
ACCELEROMETER,-0.8977356,5.454056,7.969345
MAGNETIC_FIELD,19.82727,-19.88678,-24.33014
GYROSCOPE,-0.10949707,-0.31993103,-0.569397
ORIENTATION,280,325,7
ACCELEROMETER,-0.9505768,5.241623,7.4553223
MAGNETIC_FIELD,22.935486,-10.00061,-30.69458
GYROSCOPE,0.24064636,-0.43286133,-0.5315857
ORIENTATION,315,330,4
ACCELEROMETER,-0.6140137,5.05217,8.711609
MAGNETIC_FIELD,9.733582,-7.5897217,-37.075806
GYROSCOPE,0.11351013,-0.39364624,-0.38484192
ORIENTATION,336,327,5
ACCELEROMETER,-0.8036957,5.4286194,8.420319
MAGNETIC_FIELD,7.357788,-11.138916,-35.862732
GYROSCOPE,0.038253784,-0.18214417,-0.060897827
ORIENTATION,345,330,8
ACCELEROMETER,-1.1690063,4.952545,8.462112
MAGNETIC_FIELD,8.273315,-12.104797,-34.751892
GYROSCOPE,-0.14614868,0.17857361,0.034713745
ORIENTATION,341,323,7
ACCELEROMETER,-0.86976624,5.4248047,7.1389008
MAGNETIC_FIELD,6.3415527,-16.893005,-32.86743
GYROSCOPE,0.21253967,-0.030929565,0.060043335
ORIENTATION,322,325,4
ACCELEROMETER,-0.6385193,5.9797974,8.600128
MAGNETIC_FIELD,8.110046,-19.320679,-27.597046
GYROSCOPE,0.14025879,-0.02659607,-0.026885986
ORIENTATION,264,327,6
ACCELEROMETER,-0.8169403,5.0716705,7.662277
MAGNETIC_FIELD,9.82666,-19.831848,-24.433899
GYROSCOPE,-0.06625366,0.063186646,-0.22113037
ORIENTATION,264,323,9
ACCELEROMETER,-1.1987305,5.6186523,7.451584
MAGNETIC_FIELD,13.505554,-21.08612,-21.824646
GYROSCOPE,0.014083862,-0.13748169,-0.06930542
ORIENTATION,246,327,7
ACCELEROMETER,-0.9668579,5.634506,8.485825
MAGNETIC_FIELD,14.804077,-19.78302,-21.238708
GYROSCOPE,0.040222168,0.025878906,0.199646
ORIENTATION,253,326,8
ACCELEROMETER,-1.0411377,5.1338806,7.6316833
MAGNETIC_FIELD,15.629578,-17.486572,-20.378113
GYROSCOPE,-0.030151367,0.24256897,0.03526306
ORIENTATION,274,321,9
ACCELEROMETER,-1.074585,5.8640137,7.0333405
MAGNETIC_FIELD,13.793945,-16.925049,-20.277405
GYROSCOPE,0.16612244,-0.07232666,6.1035156E-5
ORIENTATION,265,324,6
ACCELEROMETER,-0.924469,6.198578,8.4952545
MAGNETIC_FIELD,12.04071,-17.066956,-20.231628
GYROSCOPE,0.09614563,-0.21125793,-0.06706238
ORIENTATION,259,325,5
ACCELEROMETER,-0.64764404,5.311096,7.654236
MAGNETIC_FIELD,11.520386,-16.845703,-18.885803
GYROSCOPE,-0.016311646,-0.0066223145,-0.115997314
ORIENTATION,274,319,9
ACCELEROMETER,-1.1449738,5.98822,6.848755
MAGNETIC_FIELD,10.786438,-18.908691,-18.1427
GYROSCOPE,0.008255005,0.061904907,-0.10507202
ORIENTATION,249,322,9
ACCELEROMETER,-1.2778625,6.116867,7.8415527
MAGNETIC_FIELD,12.986755,-22.309875,-15.322876
GYROSCOPE,0.029220581,0.18440247,0.21749878
ORIENTATION,232,323,12
ACCELEROMETER,-1.6044006,5.6862335,7.501953
MAGNETIC_FIELD,17.782593,-25.189209,-12.974548
GYROSCOPE,-0.11022949,0.30039978,0.31700134
ORIENTATION,240,319,9
ACCELEROMETER,-1.1625977,6.3249817,7.291809
MAGNETIC_FIELD,26.44806,-27.610779,-13.6657715
GYROSCOPE,0.044418335,0.15686035,0.3766632
ORIENTATION,244,321,1
ACCELEROMETER,-0.10142517,6.2449493,7.804016
MAGNETIC_FIELD,30.13153,-24.725342,-19.633484
GYROSCOPE,0.24472046,0.04751587,0.076660156
ORIENTATION,258,321,0
ACCELEROMETER,-0.021316528,5.6443787,6.8485413
MAGNETIC_FIELD,29.975891,-18.89801,-24.456787
GYROSCOPE,-0.012451172,-0.4002838,-0.017105103
ORIENTATION,267,323,355
ACCELEROMETER,0.707016,5.8367157,7.616577
MAGNETIC_FIELD,19.929504,-11.035156,-28.652954
GYROSCOPE,-0.22459412,-0.39689636,-0.22669983
ORIENTATION,294,326,5
ACCELEROMETER,-0.7682495,5.601639,8.345718
MAGNETIC_FIELD,10.339355,-11.604309,-29.922485
GYROSCOPE,0.0037078857,-0.14013672,-0.6340027
ORIENTATION,13,324,11
ACCELEROMETER,-1.5416565,5.863693,7.790161
MAGNETIC_FIELD,2.3269653,-23.191833,-30.226135
GYROSCOPE,0.09384155,-0.17243958,0.047348022
ORIENTATION,197,327,3
ACCELEROMETER,-0.41357422,5.6192474,8.539017
MAGNETIC_FIELD,5.8792114,-29.878235,-26.15509
GYROSCOPE,-0.023513794,0.20191956,0.035751343
ORIENTATION,197,322,8
ACCELEROMETER,-0.9879761,5.4858246,6.900833
MAGNETIC_FIELD,10.707092,-30.433655,-26.205444
GYROSCOPE,-0.0063476563,0.057022095,0.29460144
ORIENTATION,231,323,1
ACCELEROMETER,-0.15596008,5.48378,7.235611
MAGNETIC_FIELD,11.53717,-31.793213,-26.38855
GYROSCOPE,-0.19610596,0.123931885,0.038726807
ORIENTATION,220,324,7
ACCELEROMETER,-0.96850586,5.919388,8.222595
MAGNETIC_FIELD,13.320923,-28.787231,-30.085754
GYROSCOPE,-0.28996277,0.25276184,0.41500854
ORIENTATION,247,325,7
ACCELEROMETER,-0.9001007,5.128296,7.367676
MAGNETIC_FIELD,8.370972,-26.745605,-32.009888
GYROSCOPE,0.04801941,-0.19633484,-0.03149414
ORIENTATION,176,329,3
ACCELEROMETER,-0.49172974,5.453247,8.9767
MAGNETIC_FIELD,2.4597168,-37.968445,-29.0802
GYROSCOPE,0.022842407,0.047592163,-0.17762756
ORIENTATION,197,326,6
ACCELEROMETER,-0.83306885,5.424515,7.9294434
MAGNETIC_FIELD,14.581299,-45.480347,-28.886414
GYROSCOPE,-0.16867065,0.090270996,0.16958618
ORIENTATION,204,330,9
ACCELEROMETER,-1.1285248,4.374237,7.504959
MAGNETIC_FIELD,18.504333,-52.020264,-35.6369
GYROSCOPE,-0.11383057,-0.12982178,-0.09109497
ORIENTATION,221,335,2
ACCELEROMETER,-0.30299377,4.3139496,9.166718
MAGNETIC_FIELD,34.4635,-48.902893,-45.45288
GYROSCOPE,0.10923767,0.16601563,-0.031433105
ORIENTATION,244,332,8
ACCELEROMETER,-1.3139343,4.869812,9.21608
MAGNETIC_FIELD,40.14435,-42.996216,-47.216797
GYROSCOPE,-0.04786682,-0.16796875,0.19129944
ORIENTATION,256,330,8
ACCELEROMETER,-1.0336151,4.3857117,7.5428925
MAGNETIC_FIELD,42.256165,-35.56671,-52.223206
GYROSCOPE,0.0667572,0.030899048,-0.2025299
ORIENTATION,275,335,4
ACCELEROMETER,-0.5974884,3.9368744,8.3810425
MAGNETIC_FIELD,41.781616,-15.890503,-54.447937
GYROSCOPE,0.15010071,0.08328247,-0.04473877
ORIENTATION,300,334,8
ACCELEROMETER,-1.3028717,4.6680145,9.568665
MAGNETIC_FIELD,27.44751,-9.7213745,-49.794006
GYROSCOPE,-0.117630005,0.02520752,0.05834961
ORIENTATION,316,329,8
ACCELEROMETER,-1.0087585,4.651474,7.6388855
MAGNETIC_FIELD,14.712524,-21.772766,-46.192932
GYROSCOPE,-0.05444336,0.05281067,-0.12272644
ORIENTATION,247,336,2
ACCELEROMETER,-0.36842346,3.797226,8.7061
MAGNETIC_FIELD,25.04425,-31.956482,-46.244812
GYROSCOPE,0.23399353,0.05505371,-0.08036804
ORIENTATION,249,333,9
ACCELEROMETER,-1.4460449,4.8546295,9.270599
MAGNETIC_FIELD,33.724976,-37.335205,-45.526123
GYROSCOPE,0.008590698,-0.24967957,-0.27815247
ORIENTATION,258,328,359
ACCELEROMETER,0.13526917,4.947693,7.8176575
MAGNETIC_FIELD,36.08551,-33.250427,-48.55652
GYROSCOPE,0.3940277,-0.5756073,-1.1461792
ORIENTATION,260,331,358
ACCELEROMETER,0.3421173,5.0270844,9.18483
MAGNETIC_FIELD,33.351135,-20.41626,-50.878906
GYROSCOPE,0.10958862,-0.6793213,-1.4911804
ORIENTATION,268,338,353
ACCELEROMETER,1.0493317,3.6131592,8.915207
MAGNETIC_FIELD,23.825073,-9.73053,-53.793335
GYROSCOPE,0.23121643,-0.9672394,-1.5685577
ORIENTATION,301,336,3
ACCELEROMETER,-0.39483643,3.8833008,8.868698
MAGNETIC_FIELD,13.969421,-11.061096,-53.96118
GYROSCOPE,0.40394592,-0.6623535,-1.3865204
ORIENTATION,333,333,7
ACCELEROMETER,-1.0124512,4.4102173,8.707779
MAGNETIC_FIELD,6.842041,-10.780334,-54.35486
GYROSCOPE,0.12004089,-0.7925415,-1.2935333
ORIENTATION,331,334,359
ACCELEROMETER,0.15783691,4.065933,8.231812
MAGNETIC_FIELD,0.55999756,-11.853027,-52.607727
GYROSCOPE,0.07279968,-0.8728943,-1.7118378
ORIENTATION,21,339,4
ACCELEROMETER,-0.6558075,3.7758179,9.744125
MAGNETIC_FIELD,-2.6641846,-16.064453,-51.30005
GYROSCOPE,0.5693512,-0.9205475,-1.7894897
ORIENTATION,51,336,5
ACCELEROMETER,-0.7866211,3.9313507,8.900162
MAGNETIC_FIELD,-4.4570923,-21.258545,-50.082397
GYROSCOPE,0.20976257,-0.81411743,-1.2406006
ORIENTATION,55,331,4
ACCELEROMETER,-0.5391388,4.4919586,8.077011
MAGNETIC_FIELD,-8.44574,-22.476196,-48.854065
GYROSCOPE,0.2692871,-0.63648987,-0.84902954
ORIENTATION,75,330,8
ACCELEROMETER,-1.1616058,4.8999786,8.453232
MAGNETIC_FIELD,-8.995056,-25.462341,-47.790527
GYROSCOPE,-0.066329956,-0.4129181,-0.39787292
ORIENTATION,106,336,7
ACCELEROMETER,-1.1965027,4.1361847,9.153107
MAGNETIC_FIELD,-10.55603,-25.920105,-46.498108
GYROSCOPE,0.050460815,-0.16856384,-0.22297668
ORIENTATION,85,328,9
ACCELEROMETER,-1.1579285,4.8612366,7.6746674
MAGNETIC_FIELD,-13.598633,-26.77002,-46.948242
GYROSCOPE,0.28123474,-0.040298462,0.1834259
ORIENTATION,79,326,4
ACCELEROMETER,-0.54234314,5.656906,8.502472
MAGNETIC_FIELD,-13.240051,-29.237366,-44.711304
GYROSCOPE,0.0789032,0.0021972656,-0.14050293
ORIENTATION,104,331,2
ACCELEROMETER,-0.30415344,4.656418,8.227905
MAGNETIC_FIELD,-13.870239,-29.483032,-44.86847
GYROSCOPE,-0.12992859,-0.14888,-0.21122742
ORIENTATION,103,330,2
ACCELEROMETER,-0.3079834,4.5232086,7.896515
MAGNETIC_FIELD,-13.873291,-29.318237,-46.87805
GYROSCOPE,0.24009705,0.030975342,-0.17817688
ORIENTATION,98,330,8
ACCELEROMETER,-1.249588,5.283203,8.93158
MAGNETIC_FIELD,-15.641785,-30.441284,-47.958374
GYROSCOPE,-0.11967468,0.055603027,0.09451294
ORIENTATION,100,330,8
ACCELEROMETER,-1.161377,4.559021,7.9421387
MAGNETIC_FIELD,-14.031982,-27.95105,-52.05078
GYROSCOPE,-0.12686157,0.09013367,0.08874512
ORIENTATION,79,327,6
ACCELEROMETER,-0.8052521,4.92601,7.57576
MAGNETIC_FIELD,-17.036438,-26.660156,-51.965332
GYROSCOPE,0.14303589,-0.15444946,0.027664185
ORIENTATION,87,332,360
ACCELEROMETER,0.054260254,4.9791718,9.41214
MAGNETIC_FIELD,-16.273499,-25.050354,-54.058838
GYROSCOPE,-0.13006592,-0.050476074,-0.32525635
ORIENTATION,84,332,5
ACCELEROMETER,-0.76956177,4.2970886,8.140869
MAGNETIC_FIELD,-16.433716,-22.98584,-54.72412
GYROSCOPE,0.027862549,-0.11148071,-0.15164185
ORIENTATION,70,329,6
ACCELEROMETER,-0.7931366,4.9854126,8.142395
MAGNETIC_FIELD,-14.321899,-25.288391,-55.62744
GYROSCOPE,0.19462585,0.14212036,0.047546387
ORIENTATION,87,333,8
ACCELEROMETER,-1.3307037,4.568329,9.011307
MAGNETIC_FIELD,-11.561584,-22.554016,-56.474304
GYROSCOPE,-0.14485168,0.28778076,0.03553772
ORIENTATION,67,327,12
ACCELEROMETER,-1.4358215,4.6376343,7.0297546
MAGNETIC_FIELD,-10.063171,-19.699097,-56.73065
GYROSCOPE,0.00390625,-0.11529541,0.12445068
ORIENTATION,63,329,6
ACCELEROMETER,-0.90052795,5.349106,9.007553
MAGNETIC_FIELD,-8.886719,-19.734192,-53.85437
GYROSCOPE,-0.08139038,0.06414795,-0.1269989
ORIENTATION,50,330,4
ACCELEROMETER,-0.52641296,4.512512,7.6565247
MAGNETIC_FIELD,-8.299255,-16.906738,-51.0849
GYROSCOPE,-0.16392517,0.07330322,0.1782074
ORIENTATION,58,335,4
ACCELEROMETER,-0.61828613,3.8634338,8.369034
MAGNETIC_FIELD,-3.3569336,-21.524048,-49.42169
GYROSCOPE,0.35168457,0.35159302,-0.10520935
ORIENTATION,76,333,7
ACCELEROMETER,-1.1424713,4.936859,9.533798
MAGNETIC_FIELD,-6.5994263,-19.316101,-47.85309
GYROSCOPE,-0.081466675,-0.16041565,-0.11932373
ORIENTATION,77,330,7
ACCELEROMETER,-0.9927521,4.7296753,8.259369
MAGNETIC_FIELD,-7.0999146,-21.018982,-45.448303
GYROSCOPE,-0.12319946,0.25608826,0.18940735
ORIENTATION,88,334,5
ACCELEROMETER,-0.68573,3.7767181,7.572998
MAGNETIC_FIELD,-10.122681,-21.356201,-42.825317
GYROSCOPE,0.009613037,-0.08496094,-0.04168701
ORIENTATION,119,337,0
ACCELEROMETER,-0.04736328,3.879776,8.939911
MAGNETIC_FIELD,-5.4901123,-23.139954,-38.694763
GYROSCOPE,0.34428406,-0.012527466,-0.13969421
ORIENTATION,118,337,5
ACCELEROMETER,-0.89045715,4.1359863,9.864731
MAGNETIC_FIELD,-5.909729,-20.153809,-39.450073
GYROSCOPE,-0.11355591,0.024459839,0.031463623
ORIENTATION,81,330,6
ACCELEROMETER,-0.83461,4.7136993,8.165848
MAGNETIC_FIELD,-7.458496,-22.721863,-40.429688
GYROSCOPE,-0.07080078,0.0013885498,-0.16038513
ORIENTATION,107,334,3
ACCELEROMETER,-0.4590149,3.7400208,7.6377106
MAGNETIC_FIELD,-6.919861,-24.269104,-37.93335
GYROSCOPE,-0.08119202,0.04914856,0.20895386
ORIENTATION,128,338,8
ACCELEROMETER,-1.3009186,3.8217316,9.375809
MAGNETIC_FIELD,-8.230591,-23.64502,-35.002136
GYROSCOPE,-0.023376465,-0.21907043,0.003112793
ORIENTATION,134,338,359
ACCELEROMETER,0.0942688,4.2701874,10.7148285
MAGNETIC_FIELD,-8.206177,-23.660278,-33.36487
GYROSCOPE,0.046539307,0.01625061,-0.2901001
ORIENTATION,138,333,4
ACCELEROMETER,-0.6134186,4.002182,7.800293
MAGNETIC_FIELD,-9.432983,-25.460815,-34.428406
GYROSCOPE,-0.23703003,0.041610718,0.15811157
ORIENTATION,120,333,9
ACCELEROMETER,-1.2007599,4.0336304,7.9789734
MAGNETIC_FIELD,-10.27832,-25.376892,-32.510376
GYROSCOPE,0.11325073,-0.031066895,0.3486328
ORIENTATION,129,333,3
ACCELEROMETER,-0.3743286,4.3337097,8.392914
MAGNETIC_FIELD,-13.874817,-27.940369,-31.982422
GYROSCOPE,-0.18252563,0.3404541,0.65989685
ORIENTATION,129,338,8
ACCELEROMETER,-1.1055908,3.4388733,8.243439
MAGNETIC_FIELD,-16.706848,-26.31836,-31.777954
GYROSCOPE,0.3804016,0.361969,1.3344269
ORIENTATION,127,341,6
ACCELEROMETER,-1.0218964,3.130844,9.0963745
MAGNETIC_FIELD,-13.682556,-25.360107,-33.096313
GYROSCOPE,0.22558594,1.3709717,1.70224
ORIENTATION,124,339,10
ACCELEROMETER,-1.6366272,3.5505676,9.32048
MAGNETIC_FIELD,-13.601685,-19.15741,-37.47406
GYROSCOPE,-0.24041748,1.1602936,2.1354675
ORIENTATION,97,335,2
ACCELEROMETER,-0.32852173,3.8884735,8.422089
MAGNETIC_FIELD,-13.092041,-17.52472,-40.60211
GYROSCOPE,0.23832703,0.8080292,1.4544983
ORIENTATION,88,335,7
ACCELEROMETER,-1.2148895,4.414978,9.2686
MAGNETIC_FIELD,-11.566162,-14.894104,-42.622375
GYROSCOPE,3.8146973E-4,0.50639343,1.3748169
ORIENTATION,83,339,360
ACCELEROMETER,0.019958496,3.3125305,8.668213
MAGNETIC_FIELD,-5.9143066,-12.458801,-46.455383
GYROSCOPE,-0.17098999,1.1764526,1.4481201
ORIENTATION,31,330,2
ACCELEROMETER,-0.2638855,4.377304,7.487625
MAGNETIC_FIELD,-1.6235352,-12.586975,-47.424316
GYROSCOPE,-0.05621338,0.40351868,0.9975128
ORIENTATION,25,335,3
ACCELEROMETER,-0.5117645,4.5641174,9.656631
MAGNETIC_FIELD,-1.5136719,-13.447571,-47.608948
GYROSCOPE,0.1953125,0.43411255,1.4871368
ORIENTATION,11,333,0
ACCELEROMETER,-0.053619385,4.455414,8.906799
MAGNETIC_FIELD,3.8497925,-14.198303,-47.616577
GYROSCOPE,-0.10664368,0.79330444,0.8594513
ORIENTATION,3,326,6
ACCELEROMETER,-0.7505188,5.2240295,7.641861
MAGNETIC_FIELD,8.276367,-17.053223,-46.07849
GYROSCOPE,0.13842773,0.6368561,0.36235046
ORIENTATION,314,334,4
ACCELEROMETER,-0.6834259,4.797882,9.925858
MAGNETIC_FIELD,10.218811,-16.50238,-46.31195
GYROSCOPE,0.032409668,-0.13999939,-0.30992126
ORIENTATION,326,329,5
ACCELEROMETER,-0.6216736,4.5852356,7.7185364
MAGNETIC_FIELD,10.069275,-17.176819,-45.55664
GYROSCOPE,0.011917114,0.007019043,-0.23104858
ORIENTATION,336,330,8
ACCELEROMETER,-1.0791931,4.339905,7.5476227
MAGNETIC_FIELD,10.9313965,-19.386292,-46.022034
GYROSCOPE,0.18037415,-0.04423523,0.20277405
ORIENTATION,278,336,5
ACCELEROMETER,-0.9055786,4.2868958,9.790649
MAGNETIC_FIELD,10.081482,-19.560242,-47.87445
GYROSCOPE,-0.12197876,0.12944031,0.12561035
ORIENTATION,343,331,9
ACCELEROMETER,-1.224823,4.2335815,7.4322815
MAGNETIC_FIELD,9.413147,-22.189331,-47.244263
GYROSCOPE,-0.03741455,0.104599,0.13565063
ORIENTATION,325,328,6
ACCELEROMETER,-0.9186859,5.3675537,8.701157
MAGNETIC_FIELD,6.8496704,-26.065063,-47.883606
GYROSCOPE,0.24716187,-0.19212341,-0.014602661
ORIENTATION,262,332,3
ACCELEROMETER,-0.45230103,4.6247406,8.770401
MAGNETIC_FIELD,5.2703857,-28.712463,-46.64612
GYROSCOPE,0.059570313,-4.5776367E-4,-0.20484924
ORIENTATION,227,330,4
ACCELEROMETER,-0.560791,4.283249,7.4801636
MAGNETIC_FIELD,6.17218,-29.354858,-45.695496
GYROSCOPE,-0.013946533,-0.0030975342,-0.14654541
ORIENTATION,186,329,7
ACCELEROMETER,-1.1372681,5.2016754,8.643021
MAGNETIC_FIELD,5.6655884,-29.344177,-44.66858
GYROSCOPE,-0.09577942,0.13764954,0.32894897
ORIENTATION,181,337,7
ACCELEROMETER,-1.1205902,3.9253235,9.129074
MAGNETIC_FIELD,7.0144653,-27.566528,-45.02411
GYROSCOPE,-0.114715576,0.13323975,0.06892395
ORIENTATION,350,326,6
ACCELEROMETER,-0.77853394,4.8513947,7.2683563
MAGNETIC_FIELD,1.7211914,-26.0849,-46.333313
GYROSCOPE,-0.039855957,-0.25035095,0.043624878
ORIENTATION,276,333,359
ACCELEROMETER,0.20626831,4.0259857,7.9060364
MAGNETIC_FIELD,3.8146973,-24.591064,-46.606445
GYROSCOPE,0.17263794,-0.03289795,-0.13806152
ORIENTATION,201,334,4
ACCELEROMETER,-0.69451904,4.685028,9.430603
MAGNETIC_FIELD,3.9474487,-27.250671,-47.047424
GYROSCOPE,-0.045074463,-0.02923584,0.06506348
ORIENTATION,91,328,4
ACCELEROMETER,-0.53862,5.1734467,8.2460785
MAGNETIC_FIELD,3.2684326,-30.171204,-49.380493
GYROSCOPE,-0.12747192,0.02357483,-0.12605286
ORIENTATION,228,332,1
ACCELEROMETER,-0.08503723,4.03743,7.5281677
MAGNETIC_FIELD,7.865906,-33.410645,-46.195984
GYROSCOPE,0.13775635,0.06794739,-0.0138549805
ORIENTATION,189,336,8
ACCELEROMETER,-1.1886444,3.96698,8.963623
MAGNETIC_FIELD,7.2113037,-32.566833,-46.357727
GYROSCOPE,0.03981018,-0.11807251,0.24261475
ORIENTATION,222,336,357
ACCELEROMETER,0.510376,4.539215,10.076263
MAGNETIC_FIELD,8.918762,-32.10144,-49.32556
GYROSCOPE,0.02508545,0.061019897,-0.3071289
ORIENTATION,256,328,0
ACCELEROMETER,-0.039108276,4.7154694,7.6408386
MAGNETIC_FIELD,12.588501,-35.02655,-50.987244
GYROSCOPE,-0.10398865,0.16548157,0.09880066
ORIENTATION,214,330,9
ACCELEROMETER,-1.1594543,4.3071136,7.443817
MAGNETIC_FIELD,11.878967,-39.149475,-47.624207
GYROSCOPE,0.17758179,-0.111083984,0.050460815
ORIENTATION,222,336,359
ACCELEROMETER,0.15834045,4.2906036,9.785767
MAGNETIC_FIELD,12.626648,-33.09784,-48.545837
GYROSCOPE,-0.0206604,0.015975952,-0.27835083
ORIENTATION,226,331,7
ACCELEROMETER,-1.165268,4.8972473,8.901535
MAGNETIC_FIELD,13.478088,-30.809021,-49.450684
GYROSCOPE,-0.19955444,0.19432068,0.29603577
ORIENTATION,267,328,5
ACCELEROMETER,-0.6659546,4.437546,7.1674957
MAGNETIC_FIELD,13.079834,-31.082153,-48.127747
GYROSCOPE,0.07136536,-0.07254028,-0.05845642
ORIENTATION,243,333,2
ACCELEROMETER,-0.2999115,4.175934,8.245392
MAGNETIC_FIELD,15.167236,-29.8172,-46.362305
GYROSCOPE,-0.017196655,-0.0027618408,-0.3140564
ORIENTATION,267,328,4
ACCELEROMETER,-0.5688019,4.645462,7.5211334
MAGNETIC_FIELD,14.274597,-28.02887,-45.45288
GYROSCOPE,0.05215454,-0.11909485,-0.05206299
ORIENTATION,237,338,4
ACCELEROMETER,-0.6287689,4.144348,10.029404
MAGNETIC_FIELD,13.94043,-24.290466,-45.45288
GYROSCOPE,-0.031173706,0.09312439,0.07476807
ORIENTATION,283,329,3
ACCELEROMETER,-0.3640747,4.9434204,8.297272
MAGNETIC_FIELD,11.288452,-26.741028,-43.71643
GYROSCOPE,0.13136292,-0.12580872,0.04789734
ORIENTATION,239,337,358
ACCELEROMETER,0.35289,4.1428223,9.754349
MAGNETIC_FIELD,10.91156,-23.640442,-43.373108
GYROSCOPE,-0.045288086,-0.2575531,-0.23770142
ORIENTATION,250,336,359
ACCELEROMETER,0.11325073,3.7889404,8.551056
MAGNETIC_FIELD,12.0224,-21.72699,-43.08777
GYROSCOPE,-0.05166626,0.059387207,-0.3018341
ORIENTATION,278,331,358
ACCELEROMETER,0.30000305,4.421356,7.9098053
MAGNETIC_FIELD,13.670349,-19.94934,-43.185425
GYROSCOPE,0.10598755,0.08932495,-0.15089417
ORIENTATION,280,331,357
ACCELEROMETER,0.5652313,5.3051453,9.665283
MAGNETIC_FIELD,13.703918,-19.438171,-43.76526
GYROSCOPE,0.28964233,-0.0440979,-0.38226318
ORIENTATION,259,339,360
ACCELEROMETER,0.03437805,3.2281494,8.5655365
MAGNETIC_FIELD,13.589478,-15.213013,-45.95337
GYROSCOPE,0.3225708,-0.49443054,-1.1820221
ORIENTATION,284,338,1
ACCELEROMETER,-0.1535492,3.2833405,8.106171
MAGNETIC_FIELD,8.273315,-11.595154,-47.966003
GYROSCOPE,0.07992554,-0.83047485,-1.6251068
ORIENTATION,306,340,1
ACCELEROMETER,-0.20162964,3.420395,9.564682
MAGNETIC_FIELD,0.43029785,-10.928345,-48.66333
GYROSCOPE,-0.004714966,-1.1234131,-1.659317
ORIENTATION,8,338,350
ACCELEROMETER,1.4540253,3.3724976,8.232498
MAGNETIC_FIELD,-9.542847,-10.30426,-45.75348
GYROSCOPE,0.06309509,-1.0587921,-1.4561615
ORIENTATION,33,338,355
ACCELEROMETER,0.8808899,3.7645874,9.281952
MAGNETIC_FIELD,-14.126587,-12.156677,-42.614746
GYROSCOPE,0.44766235,-0.11407471,-1.7053986
ORIENTATION,86,341,8
ACCELEROMETER,-1.4061432,3.4522858,10.0
MAGNETIC_FIELD,-8.473206,-18.336487,-41.96167
GYROSCOPE,-0.029266357,-0.56840515,-0.8131256
ORIENTATION,92,336,8
ACCELEROMETER,-1.2336884,3.6929626,8.326477
MAGNETIC_FIELD,-10.797119,-19.430542,-42.655945
GYROSCOPE,0.22761536,-0.3788452,-0.5323334
ORIENTATION,73,328,8
ACCELEROMETER,-1.03508,4.8061066,7.726364
MAGNETIC_FIELD,-10.107422,-19.902039,-42.697144
GYROSCOPE,0.1382904,0.04446411,-0.5267029
ORIENTATION,72,331,359
ACCELEROMETER,0.1156311,4.9029694,8.957489
MAGNETIC_FIELD,-7.121277,-22.039795,-42.959595
GYROSCOPE,-0.2746277,-0.34674072,-0.27116394
ORIENTATION,88,332,6
ACCELEROMETER,-0.87620544,4.6256104,8.595764
MAGNETIC_FIELD,-12.129211,-19.743347,-45.54901
GYROSCOPE,0.17861938,-0.13381958,-0.3364563
ORIENTATION,86,334,9
ACCELEROMETER,-1.499054,4.578293,9.220245
MAGNETIC_FIELD,-11.306763,-20.24231,-46.858215
GYROSCOPE,-0.28541565,0.41212463,0.4925995
ORIENTATION,105,341,8
ACCELEROMETER,-1.2609406,3.2237396,9.427353
MAGNETIC_FIELD,-7.9086304,-18.04657,-51.171875
GYROSCOPE,-0.011978149,-0.15309143,0.30648804
ORIENTATION,57,331,6
ACCELEROMETER,-0.76937866,4.126587,7.3935547
MAGNETIC_FIELD,-10.720825,-18.356323,-53.390503
GYROSCOPE,0.13348389,-0.16294861,-0.090545654
ORIENTATION,76,338,3
ACCELEROMETER,-0.45118713,4.209137,10.220001
MAGNETIC_FIELD,-10.176086,-21.484375,-54.66156
GYROSCOPE,-0.05885315,0.016235352,-0.27067566
ORIENTATION,76,335,2
ACCELEROMETER,-0.283432,3.682846,8.04277
MAGNETIC_FIELD,-9.130859,-22.554016,-52.12097
GYROSCOPE,0.16870117,0.0016479492,-0.2094574
ORIENTATION,72,333,2
ACCELEROMETER,-0.28720093,4.108185,8.018814
MAGNETIC_FIELD,-7.2753906,-18.948364,-54.483032
GYROSCOPE,0.027328491,0.11260986,0.10612488
ORIENTATION,67,334,7
ACCELEROMETER,-0.96699524,3.66745,7.4819794
MAGNETIC_FIELD,-9.518433,-18.843079,-55.43976
GYROSCOPE,0.21356201,0.12902832,-0.16113281
ORIENTATION,62,337,2
ACCELEROMETER,-0.33885193,4.1429596,9.558258
MAGNETIC_FIELD,-4.1656494,-21.514893,-55.421448
GYROSCOPE,0.28930664,0.15808105,0.0024261475
ORIENTATION,83,334,7
ACCELEROMETER,-1.1227264,4.5230865,9.195343
MAGNETIC_FIELD,-0.4272461,-24.620056,-55.967712
GYROSCOPE,-0.16093445,0.0728302,0.31767273
ORIENTATION,54,330,4
ACCELEROMETER,-0.5068054,4.3954315,7.6481476
MAGNETIC_FIELD,-3.8711548,-23.571777,-55.810547
GYROSCOPE,-0.099243164,-0.08699036,-0.16725159
ORIENTATION,93,335,3
ACCELEROMETER,-0.39567566,3.8581848,8.405685
MAGNETIC_FIELD,-0.95825195,-29.907227,-51.312256
GYROSCOPE,-0.011764526,0.0634613,0.08175659
ORIENTATION,142,336,10
ACCELEROMETER,-1.5472565,4.1122894,9.060059
MAGNETIC_FIELD,-1.0864258,-30.252075,-48.76709
GYROSCOPE,0.4030609,-0.36213684,0.015106201
ORIENTATION,118,327,3
ACCELEROMETER,-0.41441345,5.661133,8.649048
MAGNETIC_FIELD,-0.12359619,-32.302856,-46.115112
GYROSCOPE,-0.16841125,0.20837402,-0.15766907
ORIENTATION,137,328,6
ACCELEROMETER,-0.8444519,4.7317047,7.526291
MAGNETIC_FIELD,1.3580322,-30.337524,-42.707825
GYROSCOPE,-0.39326477,0.2399292,0.17108154
ORIENTATION,95,330,10
ACCELEROMETER,-1.3390961,4.451523,7.467407
MAGNETIC_FIELD,-0.08239746,-28.189087,-44.284058
GYROSCOPE,0.07740784,0.003479004,-0.22506714
ORIENTATION,95,328,7
ACCELEROMETER,-1.0997009,5.5079193,8.855148
MAGNETIC_FIELD,-0.95825195,-29.93164,-49.79706
GYROSCOPE,0.32318115,0.05545044,-0.09786987
ORIENTATION,95,327,11
ACCELEROMETER,-1.677185,5.449829,8.363129
MAGNETIC_FIELD,1.600647,-30.630493,-50.63324
GYROSCOPE,-0.105285645,0.053619385,0.34558105
ORIENTATION,22,325,4
ACCELEROMETER,-0.4520111,5.0671844,7.227997
MAGNETIC_FIELD,-1.4663696,-34.701538,-49.12567
GYROSCOPE,0.2509613,0.014480591,-0.116485596
ORIENTATION,175,330,7
ACCELEROMETER,-1.2441101,5.7475433,9.778198
MAGNETIC_FIELD,2.8335571,-37.431335,-41.482544
GYROSCOPE,0.10021973,-0.22979736,-0.20233154
ORIENTATION,126,325,17
ACCELEROMETER,-2.2597656,5.428604,7.280258
MAGNETIC_FIELD,2.960205,-39.40735,-38.397217
GYROSCOPE,-1.6784668E-4,0.17829895,0.45614624
ORIENTATION,162,328,11
ACCELEROMETER,-1.6693726,5.4196167,8.622269
MAGNETIC_FIELD,0.05493164,-39.390564,-39.575195
GYROSCOPE,-0.39271545,0.23443604,0.3546753
ORIENTATION,134,323,12
ACCELEROMETER,-1.4401093,5.333374,6.856613
MAGNETIC_FIELD,-1.6265869,-39.31427,-39.942932
GYROSCOPE,0.04876709,0.04663086,0.30845642
ORIENTATION,153,323,3
ACCELEROMETER,-0.47795105,6.1029205,8.155212
MAGNETIC_FIELD,-1.0604858,-41.52527,-34.376526
GYROSCOPE,-0.06239319,-0.24404907,-0.21577454
ORIENTATION,171,335,4
ACCELEROMETER,-0.71221924,4.552704,9.734909
MAGNETIC_FIELD,0.016784668,-37.78076,-33.665466
GYROSCOPE,-3.6621094E-4,-0.1782074,-0.31324768
ORIENTATION,152,330,15
ACCELEROMETER,-2.024002,4.479004,7.511734
MAGNETIC_FIELD,-2.6641846,-37.438965,-32.26013
GYROSCOPE,0.13056946,0.1005249,0.7523346
ORIENTATION,153,332,12
ACCELEROMETER,-1.9075165,5.063858,9.218491
MAGNETIC_FIELD,-9.516907,-40.34424,-26.594543
GYROSCOPE,0.47962952,0.88391113,1.7649536
ORIENTATION,154,333,5
ACCELEROMETER,-0.7638092,4.213211,8.086548
MAGNETIC_FIELD,-18.284607,-35.13336,-28.825378
GYROSCOPE,-0.03326416,0.39006042,1.1982117
ORIENTATION,121,324,3
ACCELEROMETER,-0.285614,4.7280426,6.4713135
MAGNETIC_FIELD,-21.481323,-32.476807,-28.733826
GYROSCOPE,0.31394958,0.85214233,1.0614471
ORIENTATION,113,324,4
ACCELEROMETER,-0.5757599,5.7940063,7.8127594
MAGNETIC_FIELD,-20.620728,-26.92566,-33.753967
GYROSCOPE,-0.069244385,1.383194,1.4204865
ORIENTATION,110,332,2
ACCELEROMETER,-0.31452942,5.262909,9.696533
MAGNETIC_FIELD,-18.055725,-19.27185,-40.95459
GYROSCOPE,-0.2848053,1.3940582,2.0006104
ORIENTATION,88,335,353
ACCELEROMETER,0.91981506,3.484375,7.5169525
MAGNETIC_FIELD,-10.598755,-14.414978,-47.201538
GYROSCOPE,0.048980713,1.0939178,1.4491425
ORIENTATION,39,329,359
ACCELEROMETER,0.19641113,5.2265167,8.833405
MAGNETIC_FIELD,-8.857727,-14.144897,-47.798157
GYROSCOPE,0.29631042,0.47280884,1.5378418
ORIENTATION,20,328,355
ACCELEROMETER,0.70666504,5.4983063,8.74382
MAGNETIC_FIELD,-5.9158325,-14.170837,-47.624207
GYROSCOPE,0.0016021729,0.66841125,0.44821167
ORIENTATION,11,324,357
ACCELEROMETER,0.3620758,5.084442,6.8769073
MAGNETIC_FIELD,-2.7435303,-10.827637,-50.71869
GYROSCOPE,-0.2562256,0.31913757,0.2734375
ORIENTATION,17,321,5
ACCELEROMETER,-0.6431732,5.999634,7.490341
MAGNETIC_FIELD,-0.9628296,-13.461304,-50.454712
GYROSCOPE,0.2783203,0.15733337,0.20358276
ORIENTATION,355,327,357
ACCELEROMETER,0.4323883,5.9785614,9.227371
MAGNETIC_FIELD,-4.86145,-18.125916,-50.128174
GYROSCOPE,0.123565674,0.15977478,0.13768005
ORIENTATION,22,330,359
ACCELEROMETER,0.1566925,4.9615173,8.470688
MAGNETIC_FIELD,0.92926025,-19.81659,-49.461365
GYROSCOPE,-0.040130615,0.39169312,0.25434875
ORIENTATION,355,324,360
ACCELEROMETER,0.044784546,5.2556763,7.259018
MAGNETIC_FIELD,3.5079956,-21.369934,-48.754883
GYROSCOPE,0.054397583,0.2581787,0.11616516
ORIENTATION,351,328,5
ACCELEROMETER,-0.78422546,5.6093903,8.845703
MAGNETIC_FIELD,8.131409,-23.25592,-49.13025
GYROSCOPE,-0.1018219,0.22554016,0.27879333
ORIENTATION,335,327,5
ACCELEROMETER,-0.7748871,5.422348,8.337692
MAGNETIC_FIELD,6.4727783,-26.72882,-49.35913
GYROSCOPE,0.08053589,-0.0599823,0.0033874512
ORIENTATION,280,330,3
ACCELEROMETER,-0.46443176,5.1999054,9.02301
MAGNETIC_FIELD,5.6121826,-30.171204,-47.886658
GYROSCOPE,0.22489929,-0.2713318,-0.021392822
ORIENTATION,215,327,4
ACCELEROMETER,-0.5521698,5.1642914,7.988861
MAGNETIC_FIELD,8.714294,-30.33905,-45.368958
GYROSCOPE,-0.11701965,0.4265747,0.24662781
ORIENTATION,235,327,7
ACCELEROMETER,-0.8706207,5.0121765,7.6365204
MAGNETIC_FIELD,10.427856,-31.404114,-41.33911
GYROSCOPE,0.038650513,-0.033172607,-0.08987427
ORIENTATION,265,328,359
ACCELEROMETER,0.1466217,4.82399,7.6320343
MAGNETIC_FIELD,9.825134,-28.883362,-43.281555
GYROSCOPE,0.11073303,-0.21920776,0.26834106
ORIENTATION,232,332,6
ACCELEROMETER,-0.9702759,4.7608795,8.891647
MAGNETIC_FIELD,9.141541,-28.17688,-44.284058
GYROSCOPE,0.028686523,-0.19300842,-0.05519104
ORIENTATION,312,324,3
ACCELEROMETER,-0.5437317,6.461563,8.92218
MAGNETIC_FIELD,4.2648315,-27.087402,-46.53778
GYROSCOPE,-0.012512207,-0.051361084,-0.07432556
ORIENTATION,226,330,360
ACCELEROMETER,0.0016784668,4.408478,7.5443573
MAGNETIC_FIELD,1.8661499,-29.684448,-45.899963
GYROSCOPE,-0.10623169,0.30244446,0.20114136
ORIENTATION,87,325,8
ACCELEROMETER,-0.949173,4.905884,6.9203186
MAGNETIC_FIELD,3.5812378,-31.193542,-45.703125
GYROSCOPE,0.2484436,-0.17468262,-0.19148254
ORIENTATION,220,328,2
ACCELEROMETER,-0.29481506,5.4996033,8.648453
MAGNETIC_FIELD,6.6482544,-33.42285,-46.71631
GYROSCOPE,-0.10406494,-0.03730774,-0.23016357
ORIENTATION,212,327,5
ACCELEROMETER,-0.7469635,5.592163,8.596878
MAGNETIC_FIELD,10.253906,-33.589172,-45.03479
GYROSCOPE,-0.25575256,0.3998413,0.38079834
ORIENTATION,249,326,1
ACCELEROMETER,-0.12219238,4.890579,7.1498413
MAGNETIC_FIELD,8.0078125,-35.32257,-45.022583
GYROSCOPE,-0.14349365,-0.21295166,0.0039978027
ORIENTATION,226,333,1
ACCELEROMETER,-0.13322449,4.174469,8.221436
MAGNETIC_FIELD,10.073853,-30.828857,-45.34607
GYROSCOPE,0.088272095,0.09983826,-0.08091736
ORIENTATION,207,337,6
ACCELEROMETER,-1.107132,4.343277,9.928558
MAGNETIC_FIELD,9.468079,-29.73938,-44.42749
GYROSCOPE,-0.11213684,-0.07157898,0.1211853
ORIENTATION,247,330,3
ACCELEROMETER,-0.4527588,4.953598,8.454178
MAGNETIC_FIELD,7.107544,-30.09491,-45.96405
GYROSCOPE,0.119018555,-0.043685913,-0.1485138
ORIENTATION,224,333,2
ACCELEROMETER,-0.29174805,4.859268,9.557175
MAGNETIC_FIELD,9.858704,-32.63092,-43.382263
GYROSCOPE,0.11399841,0.040115356,-0.546051
ORIENTATION,223,331,4
ACCELEROMETER,-0.56004333,4.185196,7.477707
MAGNETIC_FIELD,10.8932495,-30.833435,-42.034912
GYROSCOPE,0.02420044,-0.15933228,-0.008758545
ORIENTATION,240,329,4
ACCELEROMETER,-0.6324158,5.00119,8.314209
MAGNETIC_FIELD,9.338379,-31.143188,-39.30664
GYROSCOPE,0.015991211,-0.055496216,0.05569458
ORIENTATION,195,333,10
ACCELEROMETER,-1.539093,4.669876,8.923828
MAGNETIC_FIELD,12.663269,-28.62091,-38.832092
GYROSCOPE,-0.15048218,0.087631226,-0.030563354
ORIENTATION,249,328,6
ACCELEROMETER,-0.7133484,4.5612335,7.3647156
MAGNETIC_FIELD,11.53717,-28.02887,-36.434937
GYROSCOPE,0.28401184,-0.02041626,-0.11097717
ORIENTATION,246,328,3
ACCELEROMETER,-0.5078125,5.5679626,8.924713
MAGNETIC_FIELD,13.851929,-27.311707,-34.6756
GYROSCOPE,0.19876099,-0.24499512,-0.1391449
ORIENTATION,238,333,0
ACCELEROMETER,-0.0010681152,4.6725006,9.216949
MAGNETIC_FIELD,10.824585,-25.396729,-35.52704
GYROSCOPE,0.16612244,-0.30065918,-0.0027313232
ORIENTATION,274,323,356
ACCELEROMETER,0.44555664,4.945633,6.4486237
MAGNETIC_FIELD,9.132385,-25.299072,-35.777283
GYROSCOPE,0.18621826,-0.19769287,-0.25961304
ORIENTATION,283,321,358
ACCELEROMETER,0.2613678,6.477661,8.090042
MAGNETIC_FIELD,9.996033,-22.21222,-36.769104
GYROSCOPE,0.025421143,0.00491333,-0.29389954
ORIENTATION,259,331,357
ACCELEROMETER,0.47961426,5.1203766,9.400345
MAGNETIC_FIELD,9.851074,-22.528076,-36.29303
GYROSCOPE,0.33953857,-0.40055847,-0.9656372
ORIENTATION,284,324,357
ACCELEROMETER,0.3622589,5.0092926,6.7944794
MAGNETIC_FIELD,6.591797,-21.322632,-36.401367
GYROSCOPE,0.001876831,-0.963501,-1.2065887
ORIENTATION,268,329,355
ACCELEROMETER,0.80049133,5.006378,8.457901
MAGNETIC_FIELD,4.841614,-21.194458,-34.95636
GYROSCOPE,0.2891693,-1.1299286,-1.7331543
ORIENTATION,242,333,359
ACCELEROMETER,0.085739136,4.5232697,8.754166
MAGNETIC_FIELD,4.43573,-21.099854,-34.513855
GYROSCOPE,0.07008362,-1.1334534,-1.6760101
ORIENTATION,235,334,357
ACCELEROMETER,0.41815186,3.9438171,8.245148
MAGNETIC_FIELD,5.1971436,-17.417908,-36.10077
GYROSCOPE,0.08325195,-0.99072266,-1.6770172
ORIENTATION,328,325,2
ACCELEROMETER,-0.23291016,5.285919,7.550293
MAGNETIC_FIELD,3.175354,-17.926025,-39.212036
GYROSCOPE,0.40577698,-0.9265747,-1.2633362
ORIENTATION,7,332,5
ACCELEROMETER,-0.8447876,5.0075836,9.446091
MAGNETIC_FIELD,-1.8081665,-18.789673,-40.893555
GYROSCOPE,0.21356201,-1.0127869,-1.2397766
ORIENTATION,57,329,8
ACCELEROMETER,-1.0739899,4.7197876,7.728424
MAGNETIC_FIELD,-4.1778564,-18.850708,-42.15393
GYROSCOPE,-0.031234741,-0.70022583,-1.036972
ORIENTATION,54,323,12
ACCELEROMETER,-1.6733246,6.1178894,7.9220886
MAGNETIC_FIELD,-4.2297363,-21.133423,-41.252136
GYROSCOPE,0.1464386,-0.3104248,-0.7546234
ORIENTATION,60,326,6
ACCELEROMETER,-0.942749,5.909561,8.825195
MAGNETIC_FIELD,-2.5360107,-23.554993,-40.316772
GYROSCOPE,0.26922607,-0.24581909,-0.776886
ORIENTATION,80,327,10
ACCELEROMETER,-1.3279266,4.8628235,7.3190765
MAGNETIC_FIELD,-6.604004,-22.039795,-40.751648
GYROSCOPE,-0.12611389,-0.50901794,-0.11981201
ORIENTATION,68,325,6
ACCELEROMETER,-0.88975525,5.7571106,8.279358
MAGNETIC_FIELD,-9.025574,-23.643494,-41.246033
GYROSCOPE,0.14894104,-0.3303833,-0.020233154
ORIENTATION,95,331,12
ACCELEROMETER,-1.6850433,4.72435,8.201569
MAGNETIC_FIELD,-5.6640625,-24.197388,-41.810608
GYROSCOPE,-0.101745605,0.119384766,-0.22821045
ORIENTATION,66,324,6
ACCELEROMETER,-0.78079224,5.381302,7.3895874
MAGNETIC_FIELD,-5.961609,-22.644043,-43.034363
GYROSCOPE,-0.11566162,-0.040634155,0.17073059
ORIENTATION,89,330,6
ACCELEROMETER,-0.9715729,5.6006317,9.486511
MAGNETIC_FIELD,-5.5908203,-26.9516,-46.30432
GYROSCOPE,-0.04664612,0.18467712,-0.009857178
ORIENTATION,91,325,11
ACCELEROMETER,-1.4600372,5.348282,7.4839935
MAGNETIC_FIELD,-5.5007935,-29.615784,-42.893982
GYROSCOPE,-0.10154724,-0.13362122,0.277771
ORIENTATION,79,324,11
ACCELEROMETER,-1.239151,4.864746,6.5062103
MAGNETIC_FIELD,-3.7765503,-27.601624,-43.5318
GYROSCOPE,0.21749878,-0.009689331,-0.08973694
ORIENTATION,82,329,6
ACCELEROMETER,-1.0179291,5.505417,8.991562
MAGNETIC_FIELD,-1.0910034,-29.397583,-46.287537
GYROSCOPE,0.1530304,-0.06933594,-0.19589233
ORIENTATION,88,325,14
ACCELEROMETER,-1.9674988,5.8419037,8.059692
MAGNETIC_FIELD,-0.33721924,-30.88684,-49.142456
GYROSCOPE,-0.33441162,0.36291504,0.1399231
ORIENTATION,93,323,7
ACCELEROMETER,-0.94181824,5.643799,7.426422
MAGNETIC_FIELD,-8.651733,-35.899353,-46.95587
GYROSCOPE,0.007980347,-0.19348145,0.121398926
ORIENTATION,112,326,2
ACCELEROMETER,-0.22909546,4.6728516,6.8367615
MAGNETIC_FIELD,-5.9921265,-35.012817,-46.151733
GYROSCOPE,-0.08370972,-0.13150024,-0.052078247
ORIENTATION,130,332,10
ACCELEROMETER,-1.4358673,4.683914,8.53566
MAGNETIC_FIELD,-5.04303,-33.67462,-43.640137
GYROSCOPE,0.06098938,7.6293945E-4,0.22753906
ORIENTATION,115,325,5
ACCELEROMETER,-0.77085876,6.3256836,9.040878
MAGNETIC_FIELD,-4.4692993,-33.494568,-42.904663
GYROSCOPE,0.029968262,-0.06173706,-0.17715454
ORIENTATION,101,320,12
ACCELEROMETER,-1.3891754,5.762909,6.6079865
MAGNETIC_FIELD,-2.0523071,-30.180359,-42.868042
GYROSCOPE,-0.51638794,0.12509155,0.34339905
ORIENTATION,126,331,9
ACCELEROMETER,-1.4438782,5.3112335,9.534851
MAGNETIC_FIELD,-2.0721436,-30.688477,-42.030334
GYROSCOPE,-0.11152649,0.20233154,0.15289307
ORIENTATION,98,325,10
ACCELEROMETER,-1.2003632,4.960602,6.902237
MAGNETIC_FIELD,-2.4932861,-31.964111,-41.612244
GYROSCOPE,0.29393005,-0.29597473,-0.120010376
ORIENTATION,91,322,10
ACCELEROMETER,-1.3758698,6.352539,7.9995117
MAGNETIC_FIELD,-2.4230957,-31.388855,-40.40222
GYROSCOPE,-0.08294678,-0.058013916,-0.20227051
ORIENTATION,152,332,3
ACCELEROMETER,-0.45985413,4.92041,9.102097
MAGNETIC_FIELD,-0.2685547,-32.32422,-38.98163
GYROSCOPE,0.24336243,-0.24295044,-0.3262024
ORIENTATION,95,321,9
ACCELEROMETER,-1.0010986,5.2298737,6.2887115
MAGNETIC_FIELD,0.3189087,-30.71289,-41.371155
GYROSCOPE,-0.2723236,0.33250427,0.16320801
ORIENTATION,110,327,11
ACCELEROMETER,-1.3970184,4.734024,7.274933
MAGNETIC_FIELD,-0.95214844,-33.650208,-39.440918
GYROSCOPE,0.0362854,-0.11705017,0.05278015
ORIENTATION,146,325,6
ACCELEROMETER,-0.69363403,4.6015625,6.638031
MAGNETIC_FIELD,-3.5079956,-34.736633,-38.601685
GYROSCOPE,-0.009735107,-0.12649536,-0.013381958
ORIENTATION,137,330,11
ACCELEROMETER,-1.8300781,5.220413,9.008942
MAGNETIC_FIELD,-4.5944214,-34.796143,-38.591003
GYROSCOPE,-0.27319336,0.34527588,0.28170776
ORIENTATION,140,332,10
ACCELEROMETER,-1.4032288,4.560486,8.360077
MAGNETIC_FIELD,-6.060791,-33.81653,-40.93933
GYROSCOPE,0.16822815,0.17932129,0.2761383
ORIENTATION,114,325,8
ACCELEROMETER,-0.98420715,5.212967,7.4427185
MAGNETIC_FIELD,-6.466675,-39.419556,-40.35492
GYROSCOPE,0.30960083,-0.053726196,0.0028381348
ORIENTATION,130,326,9
ACCELEROMETER,-1.3779755,6.223572,9.017151
MAGNETIC_FIELD,-9.561157,-44.378662,-37.968445
GYROSCOPE,-0.16195679,-0.02998352,0.20324707
ORIENTATION,140,331,13
ACCELEROMETER,-1.7404785,4.2318115,7.360962
MAGNETIC_FIELD,-11.817932,-45.292664,-34.56421
GYROSCOPE,-0.0476532,0.1895752,1.1496124
ORIENTATION,148,332,7
ACCELEROMETER,-1.0293579,4.7009583,8.873291
MAGNETIC_FIELD,-20.683289,-40.319824,-35.113525
GYROSCOPE,-0.12463379,0.4761963,1.4485931
ORIENTATION,134,336,7
ACCELEROMETER,-1.0947876,3.9636688,8.824844
MAGNETIC_FIELD,-25.834656,-31.703186,-38.97705
GYROSCOPE,0.2046814,0.99617004,1.4464264
ORIENTATION,104,328,7
ACCELEROMETER,-0.8417511,4.55954,7.1385193
MAGNETIC_FIELD,-24.481201,-28.634644,-41.859436
GYROSCOPE,0.5002594,1.2630615,1.1460114
ORIENTATION,92,325,6
ACCELEROMETER,-0.8584137,5.5424957,7.866272
MAGNETIC_FIELD,-17.036438,-28.199768,-45.78705
GYROSCOPE,-0.22705078,1.2608185,1.0139923
ORIENTATION,104,333,6
ACCELEROMETER,-0.9253845,4.7350616,9.3293915
MAGNETIC_FIELD,-13.276672,-20.80841,-51.289368
GYROSCOPE,-0.009185791,1.151474,1.4224548
ORIENTATION,62,327,5
ACCELEROMETER,-0.60443115,4.2813873,6.5800323
MAGNETIC_FIELD,-0.60272217,-22.702026,-51.138306
GYROSCOPE,-0.3033905,1.1934204,1.5004425
ORIENTATION,35,325,8
ACCELEROMETER,-1.210846,6.4759216,9.093338
MAGNETIC_FIELD,2.7114868,-21.447754,-51.731873
GYROSCOPE,-0.3800354,0.5767212,1.3306274
ORIENTATION,13,331,5
ACCELEROMETER,-0.72117615,5.021927,8.995163
MAGNETIC_FIELD,4.0252686,-19.491577,-50.828552
GYROSCOPE,-0.12538147,0.2778015,0.66186523
ORIENTATION,2,320,5
ACCELEROMETER,-0.59165955,5.5964355,6.554474
MAGNETIC_FIELD,5.430603,-21.817017,-48.26355
GYROSCOPE,0.21708679,0.349411,0.26739502
ORIENTATION,353,321,4
ACCELEROMETER,-0.6011658,6.3251495,7.6922607
MAGNETIC_FIELD,6.034851,-26.002502,-42.41333
GYROSCOPE,0.21458435,0.2906952,-0.0501709
ORIENTATION,27,327,9
ACCELEROMETER,-1.3964386,5.686157,8.558655
MAGNETIC_FIELD,8.970642,-25.280762,-41.445923
GYROSCOPE,-0.38478088,0.3241577,0.38656616
ORIENTATION,284,327,3
ACCELEROMETER,-0.3555603,4.925705,7.5110474
MAGNETIC_FIELD,10.9375,-21.783447,-41.360474
GYROSCOPE,-0.09136963,0.20953369,0.20297241
ORIENTATION,315,328,9
ACCELEROMETER,-1.4714966,5.650589,8.950455
MAGNETIC_FIELD,12.062073,-22.712708,-43.13507
GYROSCOPE,-0.03300476,0.47428894,0.14094543
ORIENTATION,323,332,15
ACCELEROMETER,-2.0657501,4.306137,7.8495636
MAGNETIC_FIELD,15.617371,-21.116638,-40.342712
GYROSCOPE,-0.33088684,0.22406006,0.22367859
ORIENTATION,312,327,13
ACCELEROMETER,-1.6837463,5.098221,7.5577087
MAGNETIC_FIELD,12.252808,-21.281433,-42.08069
GYROSCOPE,0.32609558,-0.2855835,0.061401367
ORIENTATION,277,329,7
ACCELEROMETER,-1.1009521,5.6805115,9.206512
MAGNETIC_FIELD,9.840393,-25.19989,-40.878296
GYROSCOPE,-0.03353882,-0.29875183,-0.103302
ORIENTATION,292,327,3
ACCELEROMETER,-0.37542725,4.733261,7.2099
MAGNETIC_FIELD,11.889648,-22.383118,-45.095825
GYROSCOPE,-0.18327332,0.27923584,0.16470337
ORIENTATION,342,328,13
ACCELEROMETER,-1.5879364,4.536621,6.9447937
MAGNETIC_FIELD,9.057617,-27.244568,-44.013977
GYROSCOPE,-0.030563354,-0.20101929,-0.27407837
ORIENTATION,258,332,2
ACCELEROMETER,-0.30070496,5.232788,9.706238
MAGNETIC_FIELD,8.718872,-28.125,-42.54303
GYROSCOPE,0.3327484,-0.036087036,-0.037612915
ORIENTATION,240,328,10
ACCELEROMETER,-1.4496918,5.4004364,8.5603485
MAGNETIC_FIELD,10.3515625,-27.661133,-41.252136
GYROSCOPE,-0.08627319,0.35836792,0.49557495
ORIENTATION,280,324,6
ACCELEROMETER,-0.80667114,5.3593903,7.326523
MAGNETIC_FIELD,5.2886963,-29.85382,-41.363525
GYROSCOPE,-0.12435913,-0.07687378,-0.10032654
ORIENTATION,45,323,12
ACCELEROMETER,-1.3601685,5.034912,6.653351
MAGNETIC_FIELD,2.6138306,-28.213501,-43.289185
GYROSCOPE,-0.15055847,0.19927979,0.30654907
ORIENTATION,143,333,12
ACCELEROMETER,-1.8573761,4.770645,8.99147
MAGNETIC_FIELD,-0.012207031,-29.568481,-44.700623
GYROSCOPE,0.09967041,-0.36947632,0.03668213
ORIENTATION,124,326,2
ACCELEROMETER,-0.32263184,5.8084564,8.645279
MAGNETIC_FIELD,-1.8737793,-31.489563,-41.93268
GYROSCOPE,-0.09156799,-0.06567383,-0.41973877
ORIENTATION,144,325,7
ACCELEROMETER,-0.81433105,4.669235,6.688034
MAGNETIC_FIELD,4.434204,-25.743103,-39.860535
GYROSCOPE,-0.21543884,0.25750732,0.037979126
ORIENTATION,87,329,15
ACCELEROMETER,-1.849762,4.196701,6.756851
MAGNETIC_FIELD,6.312561,-24.03717,-41.256714
GYROSCOPE,0.0063476563,-0.13613892,0.036972046
ORIENTATION,256,334,1
ACCELEROMETER,-0.1376648,4.75235,9.922958
MAGNETIC_FIELD,6.27594,-23.986816,-43.4494
GYROSCOPE,0.31245422,0.030761719,-0.28704834
ORIENTATION,25,330,9
ACCELEROMETER,-1.3401642,5.0045624,8.619247
MAGNETIC_FIELD,5.685425,-25.410461,-43.03131
GYROSCOPE,-0.15408325,0.18225098,0.098526
ORIENTATION,140,337,14
ACCELEROMETER,-2.2020874,3.8545532,8.611649
MAGNETIC_FIELD,11.798096,-27.775574,-41.696167
GYROSCOPE,-0.16012573,0.23118591,0.4441986
ORIENTATION,270,327,3
ACCELEROMETER,-0.42637634,4.854248,7.3730774
MAGNETIC_FIELD,12.994385,-27.580261,-42.033386
GYROSCOPE,0.10870361,-0.04171753,0.33776855
ORIENTATION,246,333,1
ACCELEROMETER,-0.14772034,5.245514,10.35054
MAGNETIC_FIELD,14.637756,-29.319763,-39.738464
GYROSCOPE,0.13035583,0.05558777,-0.247818
ORIENTATION,236,333,6
ACCELEROMETER,-0.75057983,3.983078,7.6212616
MAGNETIC_FIELD,15.470886,-29.911804,-37.60376
GYROSCOPE,0.14888,-0.0035095215,-0.31874084
ORIENTATION,235,328,14
ACCELEROMETER,-1.8560028,4.8727417,7.709839
MAGNETIC_FIELD,17.955017,-32.211304,-33.668518
GYROSCOPE,0.25245667,0.21325684,0.23875427
ORIENTATION,227,331,11
ACCELEROMETER,-1.7015839,5.0302887,8.987747
MAGNETIC_FIELD,14.167786,-32.08008,-30.519104
GYROSCOPE,-0.24707031,0.21408081,0.41549683
ORIENTATION,226,325,12
ACCELEROMETER,-1.3921509,4.5909424,6.296814
MAGNETIC_FIELD,9.646606,-30.451965,-32.25708
GYROSCOPE,-0.103515625,-0.055770874,0.2964325
ORIENTATION,230,326,3
ACCELEROMETER,-0.46925354,6.003723,8.79982
MAGNETIC_FIELD,5.3085327,-30.081177,-31.291199
GYROSCOPE,0.017349243,-0.007446289,0.17019653
ORIENTATION,201,335,360
ACCELEROMETER,0.071746826,4.426819,9.539398
MAGNETIC_FIELD,2.3773193,-29.820251,-30.342102
GYROSCOPE,-0.33421326,-0.6079254,-0.49819946
ORIENTATION,195,335,357
ACCELEROMETER,0.35394287,3.7918854,8.052032
MAGNETIC_FIELD,2.8182983,-28.208923,-29.463196
GYROSCOPE,0.18492126,-0.0957489,-0.2941742
ORIENTATION,218,326,355
ACCELEROMETER,0.7421417,5.382477,7.958374
MAGNETIC_FIELD,6.3415527,-31.362915,-25.648499
GYROSCOPE,0.13102722,0.1030426,-0.009506226
ORIENTATION,202,335,358
ACCELEROMETER,0.27867126,4.541443,9.727341
MAGNETIC_FIELD,8.114624,-30.595398,-21.907043
GYROSCOPE,0.3567047,-0.5327759,-0.6120148
ORIENTATION,215,333,347
ACCELEROMETER,1.821991,4.05809,7.6381226
MAGNETIC_FIELD,12.574768,-27.148438,-22.07489
GYROSCOPE,-0.06611633,-0.8063812,-1.6834717
ORIENTATION,221,337,354
ACCELEROMETER,0.87797546,3.5338745,8.412903
MAGNETIC_FIELD,18.23883,-17.608643,-26.37024
GYROSCOPE,0.25482178,-1.5407715,-2.4512634
ORIENTATION,247,340,0
ACCELEROMETER,-0.071014404,3.422577,9.563171
MAGNETIC_FIELD,17.292786,-4.699707,-33.343506
GYROSCOPE,-0.16880798,-0.87724304,-2.0402222
ORIENTATION,296,336,358
ACCELEROMETER,0.28033447,3.8352814,8.780914
MAGNETIC_FIELD,9.654236,1.0574341,-36.268616
GYROSCOPE,-0.0018615723,-0.7036896,-1.4161835
ORIENTATION,331,332,360
ACCELEROMETER,0.036224365,4.230545,8.002396
MAGNETIC_FIELD,1.600647,-0.14038086,-38.414
GYROSCOPE,0.44841003,-0.8018341,-1.2342224
ORIENTATION,5,329,5
ACCELEROMETER,-0.7937927,5.519989,9.328415
MAGNETIC_FIELD,-3.3828735,-3.8879395,-35.516357
GYROSCOPE,0.3639679,-0.5402527,-1.217514
ORIENTATION,28,334,5
ACCELEROMETER,-0.7412567,4.212021,8.522263
MAGNETIC_FIELD,-4.7058105,-6.4804077,-35.93445
GYROSCOPE,0.045654297,-0.4080963,-1.2587891
ORIENTATION,51,330,15
ACCELEROMETER,-1.9276276,4.242996,7.0850677
MAGNETIC_FIELD,-7.1136475,-8.181763,-35.7666
GYROSCOPE,0.16252136,-0.7732544,-0.9456177
ORIENTATION,49,328,10
ACCELEROMETER,-1.6080627,5.8609924,9.063385
MAGNETIC_FIELD,-5.1742554,-13.50708,-37.347412
GYROSCOPE,0.6853485,-0.3005829,-0.5013275
ORIENTATION,62,331,8
ACCELEROMETER,-1.2134705,4.743271,8.543777
MAGNETIC_FIELD,-7.3501587,-15.675354,-37.683105
GYROSCOPE,-0.42997742,-0.54222107,-0.18855286
ORIENTATION,47,330,360
ACCELEROMETER,0.027496338,4.7866364,8.337875
MAGNETIC_FIELD,-5.4016113,-18.618774,-39.10675
GYROSCOPE,0.19429016,0.030639648,-0.34446716
ORIENTATION,82,330,12
ACCELEROMETER,-1.6904755,4.606369,7.6734924
MAGNETIC_FIELD,-4.10614,-25.697327,-38.861084
GYROSCOPE,0.29934692,-0.16659546,-0.06964111
ORIENTATION,139,328,6
ACCELEROMETER,-0.997879,5.723465,9.103561
MAGNETIC_FIELD,-2.7496338,-28.799438,-33.847046
GYROSCOPE,-0.06694031,-0.24771118,-0.04385376
ORIENTATION,108,328,6
ACCELEROMETER,-0.86431885,5.1251526,8.209503
MAGNETIC_FIELD,-3.138733,-23.884583,-37.74109
GYROSCOPE,0.056228638,0.23756409,-0.1639862
ORIENTATION,89,326,10
ACCELEROMETER,-1.2228699,4.9736633,7.295059
MAGNETIC_FIELD,-4.032898,-25.804138,-37.269592
GYROSCOPE,0.21350098,0.16711426,-0.08280945
ORIENTATION,126,328,1
ACCELEROMETER,-0.09965515,4.470398,7.2451477
MAGNETIC_FIELD,-3.5369873,-25.616455,-35.61554
GYROSCOPE,0.035736084,-0.08706665,-0.009918213
ORIENTATION,120,332,6
ACCELEROMETER,-0.9159088,4.845642,9.1176605
MAGNETIC_FIELD,-2.0645142,-24.008179,-36.853027
GYROSCOPE,0.15974426,-0.19844055,0.2753296
ORIENTATION,115,326,0
ACCELEROMETER,-0.06788635,5.8990784,8.797958
MAGNETIC_FIELD,-2.1499634,-26.54419,-36.587524
GYROSCOPE,-0.15570068,-0.42907715,-0.16365051
ORIENTATION,106,326,2
ACCELEROMETER,-0.30819702,4.7790833,7.150772
MAGNETIC_FIELD,0.4928589,-23.640442,-37.545776
GYROSCOPE,-0.25712585,0.14463806,0.05909729
ORIENTATION,26,323,5
ACCELEROMETER,-0.61828613,5.353882,6.979248
MAGNETIC_FIELD,2.1987915,-25.894165,-36.872864
GYROSCOPE,0.43380737,-0.07286072,0.004058838
ORIENTATION,229,327,1
ACCELEROMETER,-0.1737976,5.7762756,8.775803
MAGNETIC_FIELD,0.1586914,-27.601624,-38.356018
GYROSCOPE,-0.20553589,-0.28762817,0.3297577
ORIENTATION,114,329,360
ACCELEROMETER,0.044784546,5.091675,8.602203
MAGNETIC_FIELD,-6.968689,-24.369812,-40.6662
GYROSCOPE,-0.08546448,-0.040100098,0.2882843
ORIENTATION,43,330,357
ACCELEROMETER,0.3863678,5.0628815,8.828552
MAGNETIC_FIELD,-1.4663696,-27.9953,-41.79535
GYROSCOPE,0.628952,0.32232666,-0.68559265
ORIENTATION,164,336,1
ACCELEROMETER,-0.2223053,3.8625488,8.667084
MAGNETIC_FIELD,1.6921997,-28.001404,-40.53192
GYROSCOPE,-0.402359,0.37283325,-0.23085022
ORIENTATION,124,329,9
ACCELEROMETER,-1.2783203,5.2125854,8.486679
MAGNETIC_FIELD,-0.009155273,-27.597046,-39.361572
GYROSCOPE,0.061462402,0.030227661,-0.039505005
ORIENTATION,68,319,14
ACCELEROMETER,-1.8411102,6.408325,7.1963806
MAGNETIC_FIELD,1.7883301,-27.354431,-36.764526
GYROSCOPE,0.41059875,0.55384827,-0.06021118
ORIENTATION,170,335,5
ACCELEROMETER,-0.8318176,4.2211304,8.873657
MAGNETIC_FIELD,-4.2037964,-24.60785,-38.772583
GYROSCOPE,-0.31466675,-0.17991638,0.5052185
ORIENTATION,56,319,7
ACCELEROMETER,-0.7987213,5.6158752,6.4982147
MAGNETIC_FIELD,-6.690979,-23.7854,-41.700745
GYROSCOPE,-0.09503174,0.18630981,0.28761292
ORIENTATION,98,331,2
ACCELEROMETER,-0.37049866,5.1307526,9.428772
MAGNETIC_FIELD,-8.831787,-23.208618,-44.602966
GYROSCOPE,-0.26464844,0.07521057,0.13279724
ORIENTATION,106,335,359
ACCELEROMETER,0.20716858,4.3509674,9.364014
MAGNETIC_FIELD,-8.390808,-25.697327,-42.037964
GYROSCOPE,0.2138977,-0.2034607,-0.42279053
ORIENTATION,94,329,8
ACCELEROMETER,-1.0191193,4.579727,7.484085
MAGNETIC_FIELD,-8.651733,-29.055786,-36.93695
GYROSCOPE,0.35765076,-0.253479,-0.35966492
ORIENTATION,116,330,10
ACCELEROMETER,-1.4434204,5.048523,8.463364
MAGNETIC_FIELD,-8.627319,-28.948975,-37.194824
GYROSCOPE,-0.08615112,-0.01890564,-0.014465332
ORIENTATION,118,331,11
ACCELEROMETER,-1.6378937,4.672409,8.179138
MAGNETIC_FIELD,-9.606934,-24.534607,-38.39264
GYROSCOPE,-0.17424011,0.14898682,0.16850281
ORIENTATION,83,326,2
ACCELEROMETER,-0.23669434,5.221451,7.6104584
MAGNETIC_FIELD,-13.163757,-27.249146,-36.86676
GYROSCOPE,0.41209412,-0.25701904,0.34239197
ORIENTATION,97,325,6
ACCELEROMETER,-0.9278412,6.2861633,8.883957
MAGNETIC_FIELD,-14.726257,-29.995728,-37.353516
GYROSCOPE,0.28829956,0.26531982,0.32563782
ORIENTATION,123,331,355
ACCELEROMETER,0.6671448,4.335037,7.781616
MAGNETIC_FIELD,-18.051147,-33.068848,-34.552002
GYROSCOPE,0.31835938,-0.09269714,0.17962646
ORIENTATION,108,323,6
ACCELEROMETER,-0.85546875,5.9529114,7.860367
MAGNETIC_FIELD,-20.51239,-31.777954,-33.724976
GYROSCOPE,0.17155457,0.30264282,0.6877289
ORIENTATION,118,331,2
ACCELEROMETER,-0.3501892,4.6971283,8.302109
MAGNETIC_FIELD,-18.734741,-24.005127,-40.325928
GYROSCOPE,-0.43595886,1.0796661,1.067215
ORIENTATION,79,323,5
ACCELEROMETER,-0.61325073,5.7195587,7.4843903
MAGNETIC_FIELD,-20.030212,-18.191528,-44.032288
GYROSCOPE,-0.12998962,0.684021,1.4019623
ORIENTATION,83,328,17
ACCELEROMETER,-2.3748474,5.0682373,7.64917
MAGNETIC_FIELD,-10.928345,-20.17212,-44.80896
GYROSCOPE,0.8928375,1.3811493,1.3292694
ORIENTATION,44,327,355
ACCELEROMETER,0.68518066,5.5497894,8.61319
MAGNETIC_FIELD,0.34179688,-19.410706,-45.222473
GYROSCOPE,-0.04914856,1.732605,1.2537231
ORIENTATION,29,328,6
ACCELEROMETER,-0.76934814,4.7951508,7.6213684
MAGNETIC_FIELD,11.781311,-14.788818,-44.384766
GYROSCOPE,-0.7399597,1.4552155,1.3822021
ORIENTATION,336,325,7
ACCELEROMETER,-0.9967041,5.3101807,7.6539917
MAGNETIC_FIELD,16.583252,-12.5442505,-42.86499
GYROSCOPE,-0.79507446,1.1565552,0.9061432
ORIENTATION,321,330,9
ACCELEROMETER,-1.6670227,5.7863007,9.975479
MAGNETIC_FIELD,13.598633,-23.295593,-39.575195
GYROSCOPE,0.6482239,-0.097579956,1.4306793
ORIENTATION,356,315,18
ACCELEROMETER,-1.7321472,5.6621704,5.434067
MAGNETIC_FIELD,17.485046,-22.465515,-35.687256
GYROSCOPE,0.022232056,1.0614014,0.4011078
ORIENTATION,341,322,16
ACCELEROMETER,-2.1215057,5.985214,7.3772125
MAGNETIC_FIELD,16.960144,-24.111938,-35.11505
GYROSCOPE,0.5658264,0.42651367,0.36071777
ORIENTATION,275,328,5
ACCELEROMETER,-0.773468,5.5330353,8.814636
MAGNETIC_FIELD,15.544128,-21.30127,-39.212036
GYROSCOPE,-0.4780426,0.18270874,0.38949585
ORIENTATION,258,329,4
ACCELEROMETER,-0.6335907,5.056549,8.53125
MAGNETIC_FIELD,14.360046,-27.94342,-38.68866
GYROSCOPE,-0.19610596,0.49499512,0.5441742
ORIENTATION,253,324,9
ACCELEROMETER,-1.0763397,5.0537415,6.9390106
MAGNETIC_FIELD,7.2036743,-33.927917,-34.35974
GYROSCOPE,0.1728363,-0.3975067,-0.1880188
ORIENTATION,209,332,360
ACCELEROMETER,0.045944214,4.86792,9.345001
MAGNETIC_FIELD,6.5322876,-31.117249,-30.531311
GYROSCOPE,0.105651855,-0.15879822,-0.40942383
ORIENTATION,175,328,6
ACCELEROMETER,-0.8540497,5.315216,8.310684
MAGNETIC_FIELD,0.07324219,-25.822449,-31.584167
GYROSCOPE,-0.38145447,0.42285156,-0.17919922
ORIENTATION,115,325,10
ACCELEROMETER,-1.2304077,5.0571136,6.9910126
MAGNETIC_FIELD,-8.395386,-24.349976,-30.674744
GYROSCOPE,-0.17152405,-0.18113708,0.18389893
ORIENTATION,130,334,4
ACCELEROMETER,-0.63487244,4.974594,10.192368
MAGNETIC_FIELD,-7.7941895,-24.963379,-30.575562
GYROSCOPE,0.18572998,-0.055908203,-0.17138672
ORIENTATION,137,334,0
ACCELEROMETER,-0.07269287,4.152405,8.349686
MAGNETIC_FIELD,-7.130432,-25.445557,-25.587463
GYROSCOPE,0.2619629,-0.27235413,-0.1269226
ORIENTATION,128,326,5
ACCELEROMETER,-0.60250854,4.917816,7.2348633
MAGNETIC_FIELD,-4.3792725,-22.904968,-27.911377
GYROSCOPE,-0.24394226,0.3939972,0.35317993
ORIENTATION,112,330,7
ACCELEROMETER,-0.9094391,4.408432,7.505005
MAGNETIC_FIELD,-4.1381836,-20.358276,-29.678345
GYROSCOPE,0.14318848,-0.22320557,0.059158325
ORIENTATION,97,327,359
ACCELEROMETER,0.21217346,5.469986,8.529282
MAGNETIC_FIELD,-3.691101,-21.173096,-32.10144
GYROSCOPE,0.12104797,0.14186096,-0.09577942
ORIENTATION,88,326,3
ACCELEROMETER,-0.37165833,5.3630524,8.019531
MAGNETIC_FIELD,3.5064697,-18.806458,-34.744263
GYROSCOPE,-0.32009888,0.25561523,0.30322266
ORIENTATION,353,326,3
ACCELEROMETER,-0.43115234,5.05719,7.447357
MAGNETIC_FIELD,1.9668579,-23.265076,-35.580444
GYROSCOPE,-0.033203125,-0.15635681,-0.28704834
ORIENTATION,202,334,1
ACCELEROMETER,-0.22877502,4.407425,9.165085
MAGNETIC_FIELD,3.7475586,-21.302795,-33.709717
GYROSCOPE,0.18525696,0.045211792,-0.02708435
ORIENTATION,112,329,9
ACCELEROMETER,-1.2443085,4.681488,7.6377106
MAGNETIC_FIELD,3.9749146,-19.850159,-33.770752
GYROSCOPE,-0.72013855,0.5784149,0.22531128
ORIENTATION,158,342,12
ACCELEROMETER,-2.387024,3.6141357,10.788574
MAGNETIC_FIELD,4.0740967,-15.083313,-34.866333
GYROSCOPE,0.15736389,-0.25564575,0.4868927
ORIENTATION,347,331,5
ACCELEROMETER,-0.68278503,4.0390625,7.379776
MAGNETIC_FIELD,1.9699097,-18.183899,-35.554504
GYROSCOPE,0.52272034,-0.17507935,-0.14274597
ORIENTATION,24,331,4
ACCELEROMETER,-0.6711426,5.0747375,9.033691
MAGNETIC_FIELD,3.4240723,-21.620178,-33.180237
GYROSCOPE,0.28015137,0.1789856,-0.4817047
ORIENTATION,182,331,6
ACCELEROMETER,-0.7884369,4.357132,7.8331604
MAGNETIC_FIELD,8.610535,-21.733093,-32.411194
GYROSCOPE,-0.41783142,-0.28457642,-0.05532837
ORIENTATION,311,325,12
ACCELEROMETER,-1.5775146,5.210373,7.29805
MAGNETIC_FIELD,4.9819946,-17.218018,-34.96399
GYROSCOPE,-0.047317505,-0.072525024,0.08908081
ORIENTATION,169,337,9
ACCELEROMETER,-1.5440369,4.456955,10.150162
MAGNETIC_FIELD,6.5322876,-14.093018,-36.175537
GYROSCOPE,-0.22949219,0.28295898,0.23271179
ORIENTATION,16,337,11
ACCELEROMETER,-1.5053253,3.359848,7.9510956
MAGNETIC_FIELD,8.2473755,-13.314819,-37.937927
GYROSCOPE,0.06539917,-0.037582397,0.43122864
ORIENTATION,315,329,0
ACCELEROMETER,-0.038345337,4.6952972,7.8365173
MAGNETIC_FIELD,8.041382,-14.595032,-38.409424
GYROSCOPE,0.13842773,-0.21452332,-0.15400696
ORIENTATION,298,333,359
ACCELEROMETER,0.13827515,4.9252014,9.582214
MAGNETIC_FIELD,8.877563,-19.05365,-39.367676
GYROSCOPE,-0.119003296,-0.047088623,-0.29606628
ORIENTATION,246,338,3
ACCELEROMETER,-0.43920898,3.6179657,9.139725
MAGNETIC_FIELD,8.456421,-18.618774,-38.272095
GYROSCOPE,0.32650757,-0.3942566,-0.48638916
ORIENTATION,338,329,10
ACCELEROMETER,-1.2661896,4.568695,7.366089
MAGNETIC_FIELD,10.00824,-23.23761,-34.410095
GYROSCOPE,-0.14920044,0.13487244,0.19239807
ORIENTATION,229,337,2
ACCELEROMETER,-0.2949829,3.9729614,9.313736
MAGNETIC_FIELD,11.894226,-21.868896,-34.77173
GYROSCOPE,-0.120895386,0.47416687,-0.20606995
ORIENTATION,273,329,13
ACCELEROMETER,-1.6395416,4.47818,7.2095795
MAGNETIC_FIELD,13.262939,-23.05603,-32.920837
GYROSCOPE,-0.046905518,-0.5667114,0.5231323
ORIENTATION,256,330,358
ACCELEROMETER,0.36465454,4.9798126,8.501724
MAGNETIC_FIELD,11.039734,-24.795532,-30.773926
GYROSCOPE,-0.2518921,-0.3007965,-0.0033416748
ORIENTATION,227,341,352
ACCELEROMETER,1.4408112,3.740265,10.793396
MAGNETIC_FIELD,15.405273,-22.949219,-29.640198
GYROSCOPE,0.41514587,0.0042877197,-0.5328064
ORIENTATION,239,338,356
ACCELEROMETER,0.46679688,3.1019592,7.625305
MAGNETIC_FIELD,16.767883,-19.392395,-28.665161
GYROSCOPE,0.11264038,0.0647583,-0.26219177
ORIENTATION,269,326,360
ACCELEROMETER,0.026123047,4.9867706,7.5218964
MAGNETIC_FIELD,19.522095,-19.177246,-27.67334
GYROSCOPE,-0.008987427,0.4391327,0.2559967
ORIENTATION,254,335,359
ACCELEROMETER,0.14828491,4.902725,10.396606
MAGNETIC_FIELD,19.23523,-17.591858,-24.076843
GYROSCOPE,0.2180481,0.12835693,-0.25012207
ORIENTATION,251,337,354
ACCELEROMETER,0.78552246,3.160141,7.3967285
MAGNETIC_FIELD,19.841003,-12.713623,-23.332214
GYROSCOPE,-0.19317627,-0.35990906,-1.5886536
ORIENTATION,258,340,5
ACCELEROMETER,-0.77220154,3.446518,9.672363
MAGNETIC_FIELD,15.634155,-3.1692505,-25.78888
GYROSCOPE,0.55062866,-1.2483063,-1.9509583
ORIENTATION,319,334,15
ACCELEROMETER,-2.2185822,4.3206024,8.514511
MAGNETIC_FIELD,7.5271606,-0.7080078,-25.549316
GYROSCOPE,0.5660248,-0.24995422,-1.4387817
ORIENTATION,13,338,9
ACCELEROMETER,-1.3367157,3.5472565,8.635086
MAGNETIC_FIELD,-0.8483887,-5.378723,-24.308777
GYROSCOPE,0.057113647,-0.79559326,-0.4161377
ORIENTATION,22,322,7
ACCELEROMETER,-0.776947,5.209549,6.6349792
MAGNETIC_FIELD,1.2130737,-10.1119995,-19.332886
GYROSCOPE,-0.2657318,0.021942139,0.2326355
ORIENTATION,263,333,0
ACCELEROMETER,-0.033706665,4.5769043,8.963852
MAGNETIC_FIELD,2.9647827,-12.989807,-15.5685425
GYROSCOPE,0.26739502,-0.6283417,-0.95980835
ORIENTATION,227,338,351
ACCELEROMETER,1.5533447,4.0489197,9.689484
MAGNETIC_FIELD,5.2749634,-8.453369,-14.807129
GYROSCOPE,0.25109863,-0.41862488,-0.7708435
ORIENTATION,300,332,6
ACCELEROMETER,-0.7933502,4.3350677,7.9896545
MAGNETIC_FIELD,4.4021606,-2.9678345,-12.863159
GYROSCOPE,0.09526062,-0.3031006,-0.49404907
ORIENTATION,354,328,358
ACCELEROMETER,0.22218323,4.60643,7.3236694
MAGNETIC_FIELD,-3.6071777,3.189087,-14.64386
GYROSCOPE,0.37937927,-0.43795776,-1.499466
ORIENTATION,69,334,1
ACCELEROMETER,-0.07965088,4.2423706,8.727463
MAGNETIC_FIELD,-8.898926,-9.989929,-14.164734
GYROSCOPE,0.28048706,-0.6230469,-0.5536499
ORIENTATION,118,330,10
ACCELEROMETER,-1.3590088,4.7663574,8.045425
MAGNETIC_FIELD,-2.911377,-14.942932,-18.492126
GYROSCOPE,-0.13861084,-0.30221558,-0.078811646
ORIENTATION,137,332,7
ACCELEROMETER,-0.93315125,4.1795197,7.7222443
MAGNETIC_FIELD,-0.033569336,-18.960571,-23.458862
GYROSCOPE,0.020462036,-0.07911682,-0.096450806
ORIENTATION,187,341,358
ACCELEROMETER,0.2942505,3.2146912,9.396393
MAGNETIC_FIELD,0.5767822,-24.08142,-28.56903
GYROSCOPE,0.19517517,0.072280884,0.022842407
ORIENTATION,143,337,7
ACCELEROMETER,-1.1670074,4.189789,9.92952
MAGNETIC_FIELD,-3.6117554,-20.92743,-34.01947
GYROSCOPE,-0.16955566,0.19038391,0.6470642
ORIENTATION,126,333,357
ACCELEROMETER,0.45062256,4.4082794,8.687866
MAGNETIC_FIELD,-4.5578003,-24.552917,-33.00171
GYROSCOPE,0.28897095,-0.27363586,-0.4341278
ORIENTATION,141,339,9
ACCELEROMETER,-1.3482208,3.2676697,8.350388
MAGNETIC_FIELD,-4.1015625,-25.021362,-34.022522
GYROSCOPE,0.15953064,0.42869568,0.19102478
ORIENTATION,139,340,11
ACCELEROMETER,-1.9285583,3.7966156,10.022095
MAGNETIC_FIELD,-1.4846802,-25.1297,-35.266113
GYROSCOPE,-0.47288513,0.7744293,1.0748749
ORIENTATION,130,331,8
ACCELEROMETER,-1.0006409,3.952774,7.115204
MAGNETIC_FIELD,0.48675537,-24.394226,-34.318542
GYROSCOPE,-0.22744751,0.4315338,0.75260925
ORIENTATION,186,333,360
ACCELEROMETER,0.055618286,4.9438477,9.714966
MAGNETIC_FIELD,0.5859375,-25.462341,-33.094788
GYROSCOPE,-0.100875854,-0.24113464,0.0546875
ORIENTATION,191,337,357
ACCELEROMETER,0.42175293,3.8707123,9.326126
MAGNETIC_FIELD,3.9382935,-26.582336,-33.00476
GYROSCOPE,0.13761902,-0.111083984,-0.5994568
ORIENTATION,194,341,0
ACCELEROMETER,-0.06341553,2.9354553,8.480301
MAGNETIC_FIELD,8.737183,-26.823425,-29.922485
GYROSCOPE,0.2977295,-0.09010315,-0.46595764
ORIENTATION,183,334,15
ACCELEROMETER,-2.3807983,4.353531,8.669693
MAGNETIC_FIELD,12.701416,-30.413818,-26.133728
GYROSCOPE,-0.103256226,0.16412354,0.2758789
ORIENTATION,203,338,10
ACCELEROMETER,-1.6270752,3.5744476,8.846878
MAGNETIC_FIELD,15.847778,-28.57666,-23.35968
GYROSCOPE,-0.25039673,0.59742737,0.44636536
ORIENTATION,230,329,4
ACCELEROMETER,-0.52926636,4.5794067,7.600815
MAGNETIC_FIELD,18.554688,-29.214478,-19.725037
GYROSCOPE,0.20521545,-0.23052979,-0.09375
ORIENTATION,224,335,5
ACCELEROMETER,-0.856781,4.7568054,10.208435
MAGNETIC_FIELD,23.747253,-26.802063,-16.123962
GYROSCOPE,0.25273132,-0.4019165,-0.6120148
ORIENTATION,232,336,6
ACCELEROMETER,-0.8946533,3.830429,8.464645
MAGNETIC_FIELD,26.583862,-18.974304,-15.910339
GYROSCOPE,0.16096497,-0.15466309,-0.5117035
ORIENTATION,256,329,9
ACCELEROMETER,-1.1996155,4.331711,7.204895
MAGNETIC_FIELD,28.303528,-14.512634,-16.563416
GYROSCOPE,-0.016662598,-0.2765503,-0.12583923
ORIENTATION,258,337,9
ACCELEROMETER,-1.5645599,4.235672,9.980881
MAGNETIC_FIELD,29.522705,-9.631348,-13.346863
GYROSCOPE,-0.26383972,0.29925537,-0.08946228
ORIENTATION,269,336,14
ACCELEROMETER,-1.9347687,3.751007,8.052139
MAGNETIC_FIELD,29.508972,-6.1447144,-13.047791
GYROSCOPE,-0.070877075,-0.10273743,0.54112244
ORIENTATION,273,328,359
ACCELEROMETER,0.07798767,4.879196,7.7250824
MAGNETIC_FIELD,30.68695,-2.5360107,-13.902283
GYROSCOPE,0.23854065,-0.33670044,-0.05682373
ORIENTATION,278,333,1
ACCELEROMETER,-0.17726135,4.6796722,9.323624
MAGNETIC_FIELD,27.363586,4.736328,-17.314148
GYROSCOPE,-0.019165039,-0.03968811,-0.1917572
ORIENTATION,293,337,1
ACCELEROMETER,-0.14231873,3.7306213,8.694733
MAGNETIC_FIELD,22.576904,7.991028,-18.484497
GYROSCOPE,-0.10134888,-0.15011597,-0.118515015
ORIENTATION,312,330,8
ACCELEROMETER,-1.10672,4.438904,7.7379456
MAGNETIC_FIELD,20.077515,11.203003,-21.809387
GYROSCOPE,0.20046997,0.26701355,-0.1531372
ORIENTATION,316,335,3
ACCELEROMETER,-0.49176025,4.7641144,10.069168
MAGNETIC_FIELD,16.17279,14.389038,-22.895813
GYROSCOPE,-0.09022522,0.011428833,0.023864746
ORIENTATION,332,329,7
ACCELEROMETER,-0.8550415,4.4407654,7.4059906
MAGNETIC_FIELD,9.654236,15.086365,-27.919006
GYROSCOPE,0.2749176,-0.24954224,-0.012435913
ORIENTATION,342,330,2
ACCELEROMETER,-0.30029297,4.8753967,8.584015
MAGNETIC_FIELD,3.3248901,10.296631,-34.443665
GYROSCOPE,0.8936615,0.26335144,-0.5467224
ORIENTATION,11,325,14
ACCELEROMETER,-1.9467773,5.5191956,7.606262
MAGNETIC_FIELD,0.64849854,3.2577515,-37.61902
GYROSCOPE,-0.10229492,-0.17462158,-0.80158997
ORIENTATION,18,322,14
ACCELEROMETER,-1.680191,5.523514,6.9552765
MAGNETIC_FIELD,-3.4484863,0.62713623,-36.827087
GYROSCOPE,-0.2605133,-0.46653748,0.32312012
ORIENTATION,29,324,13
ACCELEROMETER,-1.8828125,5.9368744,7.925705
MAGNETIC_FIELD,-3.0059814,-2.192688,-36.434937
GYROSCOPE,0.1355133,0.4519043,1.2960052
ORIENTATION,22,328,4
ACCELEROMETER,-0.6021576,5.672867,9.032608
MAGNETIC_FIELD,-5.1834106,-3.8864136,-34.236145
GYROSCOPE,-0.13961792,-0.06703186,0.3994751
ORIENTATION,7,324,354
ACCELEROMETER,0.8631439,5.9506683,8.061447
MAGNETIC_FIELD,-7.4554443,-4.4174194,-34.599304
GYROSCOPE,-0.28771973,-0.09791565,-0.56640625
ORIENTATION,38,334,356
ACCELEROMETER,0.6580353,4.2539825,8.789413
MAGNETIC_FIELD,-13.890076,-13.146973,-33.987427
GYROSCOPE,0.2851715,-0.44543457,-0.94039917
ORIENTATION,89,332,359
ACCELEROMETER,0.19937134,5.0396576,9.457962
MAGNETIC_FIELD,-9.080505,-28.114319,-31.842041
GYROSCOPE,0.62657166,-0.63072205,-1.7979126
ORIENTATION,140,331,15
ACCELEROMETER,-2.1216736,4.598694,7.858307
MAGNETIC_FIELD,-3.5751343,-36.476135,-25.509644
GYROSCOPE,0.19544983,-0.5895233,-0.71777344
ORIENTATION,154,329,6
ACCELEROMETER,-0.9373627,4.9525604,8.261124
MAGNETIC_FIELD,-10.449219,-36.84082,-23.994446
GYROSCOPE,0.10334778,-0.30906677,0.17759705
ORIENTATION,154,327,2
ACCELEROMETER,-0.2561493,5.1727905,8.042358
MAGNETIC_FIELD,-9.042358,-36.763,-24.24469
GYROSCOPE,-0.09599304,-0.087387085,-0.035980225
