ORIENTATION,0.0,0.0,0.0
ACCELEROMETER,0.89,-6.48,-6.91
MAGNETIC_FIELD,0.00,0.00,0.00
GYROSCOPE,-0.01,0.02,0.04
ORIENTATION,0.0,0.0,0.0
ACCELEROMETER,0.32,-5.52,-8.41
MAGNETIC_FIELD,0.00,0.00,0.00
GYROSCOPE,-0.39,0.14,-0.11
ORIENTATION,0.0,0.0,0.0
ACCELEROMETER,0.65,-5.82,-8.05
MAGNETIC_FIELD,0.00,0.00,0.00
GYROSCOPE,0.10,-0.09,0.07
ORIENTATION,0.0,0.0,0.0
ACCELEROMETER,0.47,-5.75,-8.12
MAGNETIC_FIELD,-18.32,-31.93,-36.35
GYROSCOPE,0.01,-0.03,-0.02
ORIENTATION,0.0,0.0,0.0
ACCELEROMETER,0.33,-5.74,-7.87
MAGNETIC_FIELD,-19.59,-29.35,-37.84
GYROSCOPE,0.06,-0.02,0.01
ORIENTATION,0.0,0.0,0.0
ACCELEROMETER,0.23,-5.87,-8.01
MAGNETIC_FIELD,-19.55,-28.90,-38.20
GYROSCOPE,0.09,-0.00,0.02
ORIENTATION,0.0,0.0,0.0
ACCELEROMETER,0.17,-5.76,-8.06
MAGNETIC_FIELD,-19.81,-28.69,-38.23
GYROSCOPE,0.04,0.01,-0.00
ORIENTATION,0.0,0.0,0.0
ACCELEROMETER,0.17,-5.74,-7.69
MAGNETIC_FIELD,-19.98,-28.67,-38.15
GYROSCOPE,0.05,0.01,0.01
ORIENTATION,0.0,0.0,0.0
ACCELEROMETER,0.33,-5.74,-7.92
MAGNETIC_FIELD,-19.88,-27.91,-38.76
GYROSCOPE,0.06,-0.04,0.07
ORIENTATION,0.0,0.0,0.0
ACCELEROMETER,0.07,-5.83,-7.86
MAGNETIC_FIELD,-16.41,-34.97,-34.51
GYROSCOPE,-0.02,0.05,-0.02
ORIENTATION,0.0,0.0,0.0
ACCELEROMETER,0.26,-5.85,-8.01
MAGNETIC_FIELD,-16.28,-34.90,-34.65
GYROSCOPE,0.03,0.08,0.02
ORIENTATION,0.0,0.0,0.0
ACCELEROMETER,0.47,-5.89,-8.24
MAGNETIC_FIELD,-16.36,-34.88,-34.63
GYROSCOPE,0.06,0.07,0.12
ORIENTATION,0.0,0.0,0.0
ACCELEROMETER,0.15,-5.81,-8.05
MAGNETIC_FIELD,-16.52,-34.71,-34.73
GYROSCOPE,0.04,0.08,0.08
ORIENTATION,0.0,0.0,0.0
ACCELEROMETER,0.12,-5.95,-7.68
MAGNETIC_FIELD,-16.53,-34.59,-34.83
GYROSCOPE,-0.02,-0.01,0.02
ORIENTATION,0.0,0.0,0.0
ACCELEROMETER,0.03,-6.03,-8.09
MAGNETIC_FIELD,-17.32,-34.50,-34.54
GYROSCOPE,0.00,-0.03,-0.02
ORIENTATION,0.0,0.0,0.0
ACCELEROMETER,0.11,-5.92,-7.91
MAGNETIC_FIELD,-17.58,-34.65,-34.26
GYROSCOPE,-0.05,-0.01,-0.06
ORIENTATION,0.0,0.0,0.0
ACCELEROMETER,0.09,-6.00,-7.64
MAGNETIC_FIELD,-17.49,-34.71,-34.25
GYROSCOPE,0.02,0.02,-0.07
ORIENTATION,0.0,0.0,0.0
ACCELEROMETER,-0.03,-5.95,-7.87
MAGNETIC_FIELD,-17.32,-34.76,-34.28
GYROSCOPE,-0.06,-0.05,-0.07
ORIENTATION,0.0,0.0,0.0
ACCELEROMETER,0.26,-5.92,-7.78
MAGNETIC_FIELD,-17.22,-34.93,-34.15
GYROSCOPE,-0.03,0.03,-0.03
ORIENTATION,0.0,0.0,0.0
ACCELEROMETER,0.32,-5.99,-7.79
MAGNETIC_FIELD,-16.78,-34.89,-34.41
GYROSCOPE,0.07,0.03,0.04
ORIENTATION,0.0,0.0,0.0
ACCELEROMETER,0.10,-6.05,-7.62
MAGNETIC_FIELD,-16.56,-34.90,-34.52
GYROSCOPE,0.01,-0.02,-0.07
ORIENTATION,0.0,0.0,0.0
ACCELEROMETER,0.35,-5.79,-7.85
MAGNETIC_FIELD,-16.64,-35.03,-34.34
GYROSCOPE,-0.01,0.02,-0.01
ORIENTATION,0.0,0.0,0.0
ACCELEROMETER,0.25,-5.91,-7.76
MAGNETIC_FIELD,-16.33,-34.94,-34.58
GYROSCOPE,-0.03,0.01,-0.03
ORIENTATION,0.0,0.0,0.0
ACCELEROMETER,0.37,-5.91,-8.07
MAGNETIC_FIELD,-16.03,-34.78,-34.88
GYROSCOPE,0.01,0.01,0.00
ORIENTATION,0.0,0.0,0.0
ACCELEROMETER,0.31,-5.87,-7.77
MAGNETIC_FIELD,-16.04,-34.89,-34.76
GYROSCOPE,0.01,-0.00,-0.02
ORIENTATION,0.0,0.0,0.0
ACCELEROMETER,0.46,-5.95,-7.92
MAGNETIC_FIELD,-15.88,-34.80,-34.93
GYROSCOPE,0.01,-0.00,-0.02
ORIENTATION,0.0,0.0,0.0
ACCELEROMETER,0.39,-5.93,-7.98
MAGNETIC_FIELD,-15.84,-34.88,-34.87
GYROSCOPE,0.03,0.00,-0.01
ORIENTATION,0.0,0.0,0.0
ACCELEROMETER,0.57,-5.77,-7.82
MAGNETIC_FIELD,-16.01,-35.02,-34.66
GYROSCOPE,-0.03,0.02,0.02
ORIENTATION,0.0,0.0,0.0
ACCELEROMETER,0.44,-5.94,-7.93
MAGNETIC_FIELD,-15.99,-34.98,-34.70
GYROSCOPE,-0.05,-0.00,0.02
ORIENTATION,0.0,0.0,0.0
ACCELEROMETER,0.36,-5.90,-7.97
MAGNETIC_FIELD,-16.36,-34.68,-34.83
GYROSCOPE,0.00,-0.03,0.00
ORIENTATION,0.0,0.0,0.0
ACCELEROMETER,0.34,-5.93,-8.15
MAGNETIC_FIELD,-16.67,-34.67,-34.69
GYROSCOPE,0.02,0.01,-0.03
ORIENTATION,0.0,0.0,0.0
ACCELEROMETER,0.39,-5.95,-7.70
MAGNETIC_FIELD,-16.44,-34.86,-34.61
GYROSCOPE,0.05,0.03,-0.02
ORIENTATION,0.0,0.0,0.0
ACCELEROMETER,0.36,-5.87,-7.71
MAGNETIC_FIELD,-16.51,-35.20,-34.23
GYROSCOPE,0.03,-0.02,0.01
ORIENTATION,0.0,0.0,0.0
ACCELEROMETER,0.38,-6.03,-8.08
MAGNETIC_FIELD,-16.80,-35.31,-33.97
GYROSCOPE,0.04,0.00,-0.02
ORIENTATION,0.0,0.0,0.0
ACCELEROMETER,0.09,-6.22,-7.83
MAGNETIC_FIELD,-16.74,-35.48,-33.82
GYROSCOPE,0.02,-0.03,-0.02
ORIENTATION,0.0,0.0,0.0
ACCELEROMETER,0.04,-6.20,-7.49
MAGNETIC_FIELD,-16.75,-35.43,-33.87
GYROSCOPE,-0.02,-0.05,-0.03
ORIENTATION,0.0,0.0,0.0
ACCELEROMETER,0.21,-6.12,-7.73
MAGNETIC_FIELD,-16.84,-35.51,-33.74
GYROSCOPE,-0.05,-0.03,-0.05
ORIENTATION,0.0,0.0,0.0
ACCELEROMETER,0.41,-6.05,-7.90
MAGNETIC_FIELD,-16.66,-35.44,-33.91
GYROSCOPE,-0.04,-0.03,-0.01
ORIENTATION,0.0,0.0,0.0
ACCELEROMETER,0.16,-6.00,-7.94
MAGNETIC_FIELD,-16.72,-35.19,-34.14
GYROSCOPE,-0.05,0.00,-0.05
ORIENTATION,0.0,0.0,0.0
ACCELEROMETER,0.13,-6.02,-7.82
MAGNETIC_FIELD,-16.66,-35.08,-34.29
GYROSCOPE,0.02,-0.03,0.03
ORIENTATION,0.0,0.0,0.0
ACCELEROMETER,0.24,-5.97,-7.88
MAGNETIC_FIELD,-16.77,-34.98,-34.33
GYROSCOPE,0.02,0.00,-0.04
ORIENTATION,0.0,0.0,0.0
ACCELEROMETER,0.15,-6.00,-7.78
MAGNETIC_FIELD,-16.67,-35.10,-34.26
GYROSCOPE,0.06,0.01,0.02
ORIENTATION,0.0,0.0,0.0
ACCELEROMETER,0.16,-6.00,-7.88
MAGNETIC_FIELD,-16.62,-35.16,-34.22
GYROSCOPE,0.07,-0.01,0.02
ORIENTATION,0.0,0.0,0.0
ACCELEROMETER,0.13,-6.06,-7.56
MAGNETIC_FIELD,-16.91,-35.22,-34.01
GYROSCOPE,-0.17,0.02,-0.12
ORIENTATION,0.0,0.0,0.0
ACCELEROMETER,0.51,-5.91,-8.24
MAGNETIC_FIELD,-16.85,-35.07,-34.20
GYROSCOPE,0.02,0.01,0.04
ORIENTATION,0.0,0.0,0.0
ACCELEROMETER,0.17,-5.97,-7.82
MAGNETIC_FIELD,-17.12,-35.02,-34.11
GYROSCOPE,-0.00,0.00,0.02
ORIENTATION,0.0,0.0,0.0
ACCELEROMETER,0.00,-5.96,-7.82
MAGNETIC_FIELD,-17.47,-34.83,-34.13
GYROSCOPE,-0.01,0.03,-0.08
ORIENTATION,0.0,0.0,0.0
ACCELEROMETER,0.30,-5.92,-8.02
MAGNETIC_FIELD,-17.43,-34.80,-34.18
GYROSCOPE,0.06,0.01,0.02
ORIENTATION,0.0,0.0,0.0
ACCELEROMETER,0.12,-5.95,-7.80
MAGNETIC_FIELD,-17.51,-34.92,-34.01
GYROSCOPE,0.04,0.02,0.00
ORIENTATION,0.0,0.0,0.0
ACCELEROMETER,0.04,-6.03,-7.86
MAGNETIC_FIELD,-17.42,-34.95,-34.03
GYROSCOPE,0.00,-0.02,-0.04
ORIENTATION,0.0,0.0,0.0
ACCELEROMETER,0.18,-6.08,-7.79
MAGNETIC_FIELD,-17.47,-34.94,-34.01
GYROSCOPE,0.02,-0.01,-0.03
ORIENTATION,0.0,0.0,0.0
ACCELEROMETER,0.23,-6.01,-7.98
MAGNETIC_FIELD,-17.31,-35.08,-33.96
GYROSCOPE,0.06,-0.00,0.00
ORIENTATION,0.0,0.0,0.0
ACCELEROMETER,0.16,-6.03,-7.65
MAGNETIC_FIELD,-17.29,-35.27,-33.76
GYROSCOPE,-0.04,-0.01,-0.05
ORIENTATION,0.0,0.0,0.0
ACCELEROMETER,0.09,-6.10,-7.89
MAGNETIC_FIELD,-17.23,-35.24,-33.83
GYROSCOPE,0.05,0.13,0.04
ORIENTATION,0.0,0.0,0.0
ACCELEROMETER,0.33,-6.16,-7.75
MAGNETIC_FIELD,-16.40,-35.37,-34.11
GYROSCOPE,0.04,0.00,-0.02
ORIENTATION,0.0,0.0,0.0
ACCELEROMETER,0.39,-6.26,-7.58
MAGNETIC_FIELD,-16.38,-35.68,-33.79
GYROSCOPE,0.02,-0.08,-0.04
ORIENTATION,0.0,0.0,0.0
ACCELEROMETER,0.26,-6.19,-7.77
MAGNETIC_FIELD,-16.60,-35.77,-33.59
GYROSCOPE,0.05,0.29,0.07
ORIENTATION,0.0,0.0,0.0
ACCELEROMETER,0.45,-6.32,-7.59
MAGNETIC_FIELD,-16.12,-35.71,-33.88
GYROSCOPE,0.07,-0.02,0.04
ORIENTATION,0.0,0.0,0.0
ACCELEROMETER,0.39,-6.22,-7.89
MAGNETIC_FIELD,-16.24,-35.73,-33.81
GYROSCOPE,0.13,0.02,0.08
ORIENTATION,0.0,0.0,0.0
ACCELEROMETER,0.29,-6.45,-7.44
MAGNETIC_FIELD,-16.77,-36.12,-33.12
GYROSCOPE,0.10,0.15,0.05
ORIENTATION,0.0,0.0,0.0
ACCELEROMETER,0.32,-6.44,-7.28
MAGNETIC_FIELD,-16.34,-36.36,-33.08
GYROSCOPE,-0.06,0.05,0.04
ORIENTATION,0.0,0.0,0.0
ACCELEROMETER,0.77,-6.46,-7.21
MAGNETIC_FIELD,-16.01,-36.49,-33.10
GYROSCOPE,-0.07,-0.06,0.02