ORIENTATION,0,0,0
ACCELEROMETER,-0.25139117,5.0362034,8.473679
MAGNETIC_FIELD,-16.041,-11.474,-28.941
GYROSCOPE,0.0012217305,0.008552114,-0.025350908
ORIENTATION,69,325,3
ACCELEROMETER,-0.40462008,5.502474,7.793725
MAGNETIC_FIELD,-16.812,-11.135,-28.941
GYROSCOPE,-0.09560041,0.008552114,0.08124508
ORIENTATION,71,327,1
ACCELEROMETER,-0.14724341,5.263054,8.185776
MAGNETIC_FIELD,-16.812,-10.833,-29.454
GYROSCOPE,0.005192355,-0.007941248,-0.046120327
ORIENTATION,70,325,5
ACCELEROMETER,-0.6332663,5.4162827,7.827244
MAGNETIC_FIELD,-17.23,-10.435,-29.454
GYROSCOPE,-0.0036651916,0.113926366,-0.09010262
ORIENTATION,72,328,3
ACCELEROMETER,-0.4997896,5.253477,8.289924
MAGNETIC_FIELD,-17.23,-10.736,-30.053
GYROSCOPE,0.008857546,-0.030543262,-0.028405234
ORIENTATION,71,327,3
ACCELEROMETER,-0.43754035,5.227141,8.177396
MAGNETIC_FIELD,-17.23,-10.736,-30.053
GYROSCOPE,-0.06291912,0.028099801,0.012217305
ORIENTATION,71,327,3
ACCELEROMETER,-0.44711718,5.209783,8.162432
MAGNETIC_FIELD,-17.23,-10.736,-30.053
GYROSCOPE,0.07452556,-0.024740042,0.007941248
ORIENTATION,70,327,4
ACCELEROMETER,-0.50278234,5.333084,8.061875
MAGNETIC_FIELD,-17.605,-10.157,-30.384
GYROSCOPE,0.045814894,0.0076358155,-0.04642576
ORIENTATION,69,327,3
ACCELEROMETER,-0.48841715,5.303157,8.067862
MAGNETIC_FIELD,-17.948,-10.568,-30.384
GYROSCOPE,-0.002443461,-0.022296581,0.020158553
ORIENTATION,69,327,3
ACCELEROMETER,-0.41599256,5.288193,8.037335
MAGNETIC_FIELD,-17.948,-11.358,-30.384
GYROSCOPE,0.018325957,0.005497787,0.002443461
ORIENTATION,71,327,3
ACCELEROMETER,-0.4285621,5.424064,8.194156
MAGNETIC_FIELD,-17.948,-11.358,-30.827
GYROSCOPE,-0.005497787,0.005497787,-0.043982297
ORIENTATION,71,326,4
ACCELEROMETER,-0.5542577,5.3606176,8.006809
MAGNETIC_FIELD,-18.284,-11.036,-30.827
GYROSCOPE,-0.03756821,0.005497787,-0.005192355
ORIENTATION,69,327,2
ACCELEROMETER,-0.31902736,5.3025584,8.06008
MAGNETIC_FIELD,-18.284,-11.036,-30.827
GYROSCOPE,0.03390302,-0.016187929,-0.015577064
ORIENTATION,71,328,2
ACCELEROMETER,-0.30346507,5.17387,8.141483
MAGNETIC_FIELD,-18.284,-11.036,-30.827
GYROSCOPE,-0.07544186,-0.035124753,0.025350908
ORIENTATION,72,329,1
ACCELEROMETER,-0.2136825,5.1840453,8.507197
MAGNETIC_FIELD,-18.96,-11.036,-30.827
GYROSCOPE,-0.08582657,-0.06291912,-0.021991149
ORIENTATION,73,329,1
ACCELEROMETER,-0.12030864,4.9961004,8.409634
MAGNETIC_FIELD,-18.96,-11.036,-30.827
GYROSCOPE,-0.10629055,0.06078109,0.018020526
ORIENTATION,73,328,3
ACCELEROMETER,-0.38187516,5.1840453,8.407239
MAGNETIC_FIELD,-19.375,-11.036,-30.827
GYROSCOPE,0.01282817,-0.0125227375,-0.04886922
ORIENTATION,72,328,2
ACCELEROMETER,-0.21906945,5.1080294,8.230667
MAGNETIC_FIELD,-19.375,-11.854,-30.827
GYROSCOPE,0.0580322,-0.027794369,0.007941248
ORIENTATION,73,327,3
ACCELEROMETER,-0.46806642,5.263054,8.056489
MAGNETIC_FIELD,-19.375,-11.854,-30.827
GYROSCOPE,0.07086037,0.005192355,-0.056505036
ORIENTATION,75,328,4
ACCELEROMETER,-0.56084174,5.1223946,8.07265
MAGNETIC_FIELD,-19.783,-10.829,-31.237
GYROSCOPE,0.0143553335,-0.029626964,-0.03145956
ORIENTATION,74,328,4
ACCELEROMETER,-0.61052144,5.065532,8.1319065
MAGNETIC_FIELD,-19.783,-10.829,-31.237
GYROSCOPE,-0.021685716,0.06505715,0.021685716
ORIENTATION,75,327,8
ACCELEROMETER,-1.163582,5.727529,8.616134
MAGNETIC_FIELD,-19.783,-10.829,-31.237
GYROSCOPE,-0.067500606,0.020463986,-0.008246681
ORIENTATION,74,330,2
ACCELEROMETER,-0.33518824,4.7602715,8.228871
MAGNETIC_FIELD,-19.783,-10.829,-31.237
GYROSCOPE,-0.14630222,0.31673363,0.23090707
ORIENTATION,74,330,3
ACCELEROMETER,-0.42078096,4.9943047,8.512584
MAGNETIC_FIELD,-19.783,-10.829,-31.237
GYROSCOPE,-0.04520403,0.07971791,0.20952678
ORIENTATION,74,327,6
ACCELEROMETER,-0.79008657,5.0667295,7.819463
MAGNETIC_FIELD,-19.783,-10.829,-31.237
GYROSCOPE,0.029321533,0.025045475,0.0870483
ORIENTATION,72,328,2
ACCELEROMETER,-0.33877954,5.127183,8.300697
MAGNETIC_FIELD,-19.783,-10.829,-31.605
GYROSCOPE,0.028710667,0.0852157,0.03756821
ORIENTATION,74,328,5
ACCELEROMETER,-0.7918822,5.121197,8.2354555
MAGNETIC_FIELD,-19.783,-10.829,-31.605
GYROSCOPE,0.042455133,-0.03268129,-0.10781772
ORIENTATION,74,328,5
ACCELEROMETER,-0.7637503,5.12838,8.201937
MAGNETIC_FIELD,-19.783,-10.829,-31.605
GYROSCOPE,0.037873644,-0.05467244,-0.047036625
ORIENTATION,74,327,6
ACCELEROMETER,-0.9020155,5.2905874,8.152257
MAGNETIC_FIELD,-19.783,-10.829,-31.605
GYROSCOPE,0.04153884,-0.008552114,-0.025045475
ORIENTATION,71,326,5
ACCELEROMETER,-0.7236475,5.2965727,7.823054
MAGNETIC_FIELD,-19.386,-10.829,-31.605
GYROSCOPE,0.11911872,-0.03481932,0.007941248
ORIENTATION,72,327,5
ACCELEROMETER,-0.6889315,5.29358,8.075044
MAGNETIC_FIELD,-19.386,-10.829,-31.605
GYROSCOPE,0.08979719,-0.020158553,-0.05375614
ORIENTATION,70,326,4
ACCELEROMETER,-0.6368576,5.5419784,8.097789
MAGNETIC_FIELD,-18.856,-10.829,-31.605
GYROSCOPE,-0.03940081,0.1685988,0.02443461
ORIENTATION,69,325,5
ACCELEROMETER,-0.7236475,5.5497594,7.9343843
MAGNETIC_FIELD,-18.856,-10.829,-31.605
GYROSCOPE,0.055283304,-0.10323623,-0.05131268
ORIENTATION,69,325,4
ACCELEROMETER,-0.58777654,5.424064,7.796119
MAGNETIC_FIELD,-18.856,-10.829,-31.939
GYROSCOPE,-0.0106901415,-0.03481932,-0.02443461
ORIENTATION,70,326,6
ACCELEROMETER,-0.8002619,5.7083755,8.280347
MAGNETIC_FIELD,-18.457,-10.51,-31.939
GYROSCOPE,0.008857546,-0.006414085,-0.07574729
ORIENTATION,66,324,5
ACCELEROMETER,-0.60812724,5.4791307,7.623737
MAGNETIC_FIELD,-18.457,-10.51,-31.939
GYROSCOPE,-0.052534413,0.084910266,0.057726767
ORIENTATION,71,327,6
ACCELEROMETER,-0.91338795,5.4761376,8.423999
MAGNETIC_FIELD,-18.457,-10.51,-31.939
GYROSCOPE,0.064446285,-0.062308256,-0.052534413
ORIENTATION,66,325,3
ACCELEROMETER,-0.44113165,5.703587,8.135497
MAGNETIC_FIELD,-18.457,-10.51,-31.939
GYROSCOPE,-0.050396383,0.050396383,-0.032986723
ORIENTATION,70,326,7
ACCELEROMETER,-0.9636662,5.5383873,8.093
MAGNETIC_FIELD,-18.457,-10.51,-31.939
GYROSCOPE,-0.09132435,0.021991149,-0.02443461
ORIENTATION,68,325,5
ACCELEROMETER,-0.7679402,5.7179523,8.189965
MAGNETIC_FIELD,-18.457,-10.51,-31.939
GYROSCOPE,-0.039095376,0.07269296,0.119729586
ORIENTATION,67,325,4
ACCELEROMETER,-0.56982,5.4091,7.711724
MAGNETIC_FIELD,-18.457,-10.51,-31.939
GYROSCOPE,0.040317107,0.0012217305,0.12950343
ORIENTATION,66,325,3
ACCELEROMETER,-0.39264908,5.567716,8.038532
MAGNETIC_FIELD,-18.072,-10.51,-31.939
GYROSCOPE,-0.08582657,-0.027183503,-0.07574729
ORIENTATION,71,326,7
ACCELEROMETER,-0.9935937,5.2049947,7.797915
MAGNETIC_FIELD,-18.072,-10.51,-31.939
GYROSCOPE,0.10751228,0.039095376,-0.14813483
ORIENTATION,67,326,4
ACCELEROMETER,-0.6183026,5.6736593,8.256405
MAGNETIC_FIELD,-18.072,-10.51,-31.939
GYROSCOPE,-0.14446963,0.056505036,-0.057421334
ORIENTATION,66,325,3
ACCELEROMETER,-0.42197806,5.4659624,7.8954787
MAGNETIC_FIELD,-18.072,-10.51,-31.939
GYROSCOPE,-0.13561209,-0.4718934,0.021991149
ORIENTATION,67,325,4
ACCELEROMETER,-0.56323594,5.4402246,7.860164
MAGNETIC_FIELD,-18.072,-10.51,-31.939
GYROSCOPE,0.22724187,0.008246681,-0.11301007
ORIENTATION,72,326,9
ACCELEROMETER,-1.2868834,5.4803276,7.887099
MAGNETIC_FIELD,-18.072,-10.51,-31.939
GYROSCOPE,0.06811147,6.1086525E-4,-0.122783914
ORIENTATION,73,328,8
ACCELEROMETER,-1.1833342,5.635352,8.97646
MAGNETIC_FIELD,-18.072,-10.862,-31.939
GYROSCOPE,-0.3640757,0.31856623,0.19333886
ORIENTATION,76,327,12
ACCELEROMETER,-1.7357962,5.7143607,8.470686
MAGNETIC_FIELD,-18.072,-10.862,-31.939
GYROSCOPE,-0.20341812,0.09040806,0.12980886
ORIENTATION,68,325,5
ACCELEROMETER,-0.7194576,5.5407815,7.817667
MAGNETIC_FIELD,-17.735,-10.862,-31.939
GYROSCOPE,0.093767814,0.043676864,0.22937989
ORIENTATION,70,323,10
ACCELEROMETER,-1.3395559,5.899313,7.7213006
MAGNETIC_FIELD,-17.735,-10.862,-31.939
GYROSCOPE,0.01282817,0.040011674,-0.13988814
ORIENTATION,68,321,11
ACCELEROMETER,-1.3742718,5.8262897,6.950966
MAGNETIC_FIELD,-16.435,-10.862,-31.939
GYROSCOPE,-0.0067195175,0.19058995,-0.052534413
ORIENTATION,70,325,8
ACCELEROMETER,-1.1402385,5.623381,8.100781
MAGNETIC_FIELD,-16.435,-11.216,-31.939
GYROSCOPE,-0.06291912,-0.17562376,-0.05681047
ORIENTATION,70,323,11
ACCELEROMETER,-1.4449008,5.5856724,7.2783732
MAGNETIC_FIELD,-16.435,-11.216,-31.939
GYROSCOPE,0.07941248,-0.12461651,-0.10720685
ORIENTATION,73,328,8
ACCELEROMETER,-1.1839328,5.705383,8.902241
MAGNETIC_FIELD,-16.435,-11.216,-31.939
GYROSCOPE,-0.0711658,-0.29657507,0.051923547
ORIENTATION,67,322,8
ACCELEROMETER,-1.0881647,5.7478795,7.2909427
MAGNETIC_FIELD,-16.435,-11.216,-31.939
GYROSCOPE,0.076052725,0.08002335,-0.0067195175
ORIENTATION,71,324,10
ACCELEROMETER,-1.42455,5.753267,7.9146323
MAGNETIC_FIELD,-16.052,-11.216,-32.25
GYROSCOPE,-0.0106901415,0.023518313,0.040011674
ORIENTATION,61,323,4
ACCELEROMETER,-0.48961425,5.556942,7.2646065
MAGNETIC_FIELD,-16.467,-11.216,-32.25
GYROSCOPE,0.18509217,-0.040927973,-0.20219639
ORIENTATION,57,324,358
ACCELEROMETER,0.2124854,5.240309,7.241263
MAGNETIC_FIELD,-16.467,-11.216,-32.25
GYROSCOPE,-0.21868975,-0.052534413,0.1572978
ORIENTATION,70,327,6
ACCELEROMETER,-0.84096336,5.204396,7.9870567
MAGNETIC_FIELD,-17.286,-11.216,-32.25
GYROSCOPE,-0.099571034,-0.3368922,-0.09193522
ORIENTATION,77,330,9
ACCELEROMETER,-1.4520833,5.1876364,8.704121
MAGNETIC_FIELD,-16.726,-11.216,-32.25
GYROSCOPE,0.112399206,-0.1685988,-0.024740042
ORIENTATION,67,325,5
ACCELEROMETER,-0.64823014,5.5030727,7.89907
MAGNETIC_FIELD,-16.726,-11.216,-32.25
GYROSCOPE,0.040927973,0.10476339,0.21777347
ORIENTATION,67,328,0
ACCELEROMETER,-0.05207389,4.876989,7.891887
MAGNETIC_FIELD,-16.726,-11.216,-32.25
GYROSCOPE,0.34697145,-0.067500606,-0.20586158
ORIENTATION,68,325,7
ACCELEROMETER,-1.0043676,5.716755,7.972093
MAGNETIC_FIELD,-16.726,-11.216,-32.25
GYROSCOPE,-0.28069258,0.25503623,0.21655174
ORIENTATION,77,333,4
ACCELEROMETER,-0.6631939,4.660912,8.987235
MAGNETIC_FIELD,-17.799,-11.216,-32.25
GYROSCOPE,0.1563815,-0.28160888,-0.008246681
ORIENTATION,77,331,7
ACCELEROMETER,-1.0145429,4.8279076,8.485051
MAGNETIC_FIELD,-17.056,-11.216,-32.25
GYROSCOPE,-0.03359759,0.32650748,-0.06169739
ORIENTATION,74,326,11
ACCELEROMETER,-1.5933412,5.53719,8.109759
MAGNETIC_FIELD,-16.624,-10.809,-32.65
GYROSCOPE,-0.040927973,0.23884831,-0.0983493
ORIENTATION,73,327,10
ACCELEROMETER,-1.3682863,4.991312,7.6614456
MAGNETIC_FIELD,-16.624,-10.809,-32.65
GYROSCOPE,-0.122478485,0.019547688,0.10293079
ORIENTATION,73,330,5
ACCELEROMETER,-0.8379706,5.2020016,8.946533
MAGNETIC_FIELD,-16.624,-10.809,-32.65
GYROSCOPE,0.1386664,-0.23151793,0.023823744
ORIENTATION,65,327,2
ACCELEROMETER,-0.31124622,5.2127757,7.9385743
MAGNETIC_FIELD,-17.025,-10.447,-32.65
GYROSCOPE,0.03390302,-0.12583824,-0.19181168
ORIENTATION,63,327,1
ACCELEROMETER,-0.14185645,4.948815,7.4968443
MAGNETIC_FIELD,-17.449,-10.447,-32.65
GYROSCOPE,-0.08460484,-0.18600847,-0.15149458
ORIENTATION,75,332,5
ACCELEROMETER,-0.7577648,4.7979803,9.087791
MAGNETIC_FIELD,-17.449,-10.447,-32.65
GYROSCOPE,-0.004886922,-0.19211712,-0.2919936
ORIENTATION,73,330,6
ACCELEROMETER,-0.9684546,5.3857565,9.1255
MAGNETIC_FIELD,-17.449,-10.447,-32.336
GYROSCOPE,0.12186762,0.04520403,0.09743301
ORIENTATION,67,322,9
ACCELEROMETER,-1.1168951,5.427057,6.8288617
MAGNETIC_FIELD,-17.449,-10.447,-32.336
GYROSCOPE,0.16218472,0.33750305,0.007941248
ORIENTATION,69,328,4
ACCELEROMETER,-0.5542577,4.7500963,7.5626845
MAGNETIC_FIELD,-17.449,-10.447,-32.336
GYROSCOPE,-3.0543262E-4,-0.22296582,0.14294247
ORIENTATION,72,327,8
ACCELEROMETER,-1.0971429,5.1798553,8.009802
MAGNETIC_FIELD,-17.449,-10.447,-32.336
GYROSCOPE,-0.16890424,0.06414085,-0.036651913
ORIENTATION,76,333,4
ACCELEROMETER,-0.7182605,4.766257,9.205107
MAGNETIC_FIELD,-17.449,-10.049,-32.336
GYROSCOPE,-0.13805555,-0.09987647,0.14202617
ORIENTATION,71,331,2
ACCELEROMETER,-0.25498247,4.359243,7.904457
MAGNETIC_FIELD,-17.449,-10.049,-32.336
GYROSCOPE,0.12522738,-0.09010262,0.12461651
ORIENTATION,72,326,11
ACCELEROMETER,-1.4838065,5.33069,7.700351
MAGNETIC_FIELD,-17.449,-9.1,-32.336
GYROSCOPE,0.19058995,0.1872302,-0.2828306
ORIENTATION,73,334,2
ACCELEROMETER,-0.3429694,4.177882,8.619126
MAGNETIC_FIELD,-17.449,-9.1,-32.336
GYROSCOPE,-0.20189096,-0.13958271,0.46700647
ORIENTATION,66,330,2
ACCELEROMETER,-0.23642741,5.2504845,8.938752
MAGNETIC_FIELD,-17.449,-8.767,-32.336
GYROSCOPE,-0.002443461,0.06566802,0.23762658
ORIENTATION,62,327,3
ACCELEROMETER,-0.3453636,5.0864816,7.72968
MAGNETIC_FIELD,-17.752,-8.131,-32.336
GYROSCOPE,-9.162979E-4,0.25289822,0.03390302
ORIENTATION,65,332,359
ACCELEROMETER,0.22026655,4.722563,8.962095
MAGNETIC_FIELD,-17.752,-8.131,-32.336
GYROSCOPE,-0.047036625,-0.21777347,0.08552113
ORIENTATION,65,332,359
ACCELEROMETER,0.19512744,4.6680946,8.831013
MAGNETIC_FIELD,-17.752,-7.217,-32.336
GYROSCOPE,0.07971791,-0.07544186,0.03023783
ORIENTATION,63,333,359
ACCELEROMETER,0.2100912,4.7860093,9.348161
MAGNETIC_FIELD,-17.752,-7.217,-32.336
GYROSCOPE,-0.44501534,-0.56016344,0.24495697
ORIENTATION,63,335,356
ACCELEROMETER,0.6985083,4.296395,9.209297
MAGNETIC_FIELD,-17.752,-5.03,-32.336
GYROSCOPE,-0.32375857,0.12064589,0.2950479
ORIENTATION,65,339,357
ACCELEROMETER,0.47046062,3.3608606,8.666411
MAGNETIC_FIELD,-19.085,0.028,-32.336
GYROSCOPE,0.28191432,0.49754974,0.13836098
ORIENTATION,57,339,358
ACCELEROMETER,0.2861071,3.5529952,9.185355
MAGNETIC_FIELD,-19.085,1.678,-32.336
GYROSCOPE,0.8597928,0.03359759,-0.3100141
ORIENTATION,36,330,351
ACCELEROMETER,1.3066356,4.7429137,8.073248
MAGNETIC_FIELD,-19.927,-0.619,-32.336
GYROSCOPE,0.68477994,-0.23884831,-0.24465153
ORIENTATION,51,336,354
ACCELEROMETER,1.0342951,4.2425256,9.690532
MAGNETIC_FIELD,-20.237,-3.907,-32.336
GYROSCOPE,-0.5155703,0.053145275,-0.4642576
ORIENTATION,65,333,4
ACCELEROMETER,-0.51595044,3.894169,7.772177
MAGNETIC_FIELD,-20.237,-2.055,-32.336
GYROSCOPE,0.51343226,-0.13561209,0.0143553335
ORIENTATION,60,335,1
ACCELEROMETER,-0.13946225,4.180875,8.777742
MAGNETIC_FIELD,-19.194,-4.57,-32.336
GYROSCOPE,-0.2452624,0.09896017,-0.08460484
ORIENTATION,59,331,0
ACCELEROMETER,-0.020350715,4.607641,8.421604
MAGNETIC_FIELD,-19.194,-3.822,-32.336
GYROSCOPE,0.2098322,0.20341812,0.041233405
ORIENTATION,62,334,2
ACCELEROMETER,-0.29388827,4.3700166,8.831013
MAGNETIC_FIELD,-19.194,-4.132,-32.336
GYROSCOPE,0.19517145,0.09590584,0.006414085
ORIENTATION,57,331,359
ACCELEROMETER,0.08678981,4.8045645,8.74123
MAGNETIC_FIELD,-18.844,-4.132,-32.336
GYROSCOPE,0.112399206,0.16371189,0.14508049
ORIENTATION,55,329,360
ACCELEROMETER,0.03172317,4.7578773,7.8649526
MAGNETIC_FIELD,-18.501,-4.698,-32.336
GYROSCOPE,0.025045475,0.059864793,-0.23151793
ORIENTATION,61,330,3
ACCELEROMETER,-0.5201403,4.9733553,8.6299
MAGNETIC_FIELD,-18.501,-6.042,-32.336
GYROSCOPE,0.025961773,0.093767814,-0.22418754
ORIENTATION,61,325,7
ACCELEROMETER,-0.8996213,5.46297,7.6692266
MAGNETIC_FIELD,-17.709,-6.042,-32.336
GYROSCOPE,-0.17104226,-0.19333886,-0.14202617
ORIENTATION,58,328,1
ACCELEROMETER,-0.20649989,5.360019,8.59279
MAGNETIC_FIELD,-17.709,-8.142,-32.336
GYROSCOPE,0.03756821,-0.16371189,-0.14721853
ORIENTATION,60,325,4
ACCELEROMETER,-0.533907,5.49589,7.740454
MAGNETIC_FIELD,-18.559,-8.744,-32.336
GYROSCOPE,0.17623462,-0.12003502,-0.16065755
ORIENTATION,68,327,7
ACCELEROMETER,-0.9935937,5.3743844,8.093599
MAGNETIC_FIELD,-17.874,-10.203,-32.336
GYROSCOPE,-0.11178834,0.028099801,-0.15302174
ORIENTATION,70,328,6
ACCELEROMETER,-0.908001,5.29777,8.31207
MAGNETIC_FIELD,-17.874,-9.722,-32.336
GYROSCOPE,-0.40561453,0.03176499,-0.03756821
ORIENTATION,65,327,2
ACCELEROMETER,-0.33518824,5.1277814,8.030751
MAGNETIC_FIELD,-17.874,-9.722,-32.336
GYROSCOPE,0.24465153,0.030848695,-0.0711658
ORIENTATION,70,326,8
ACCELEROMETER,-1.1438298,5.193622,7.7410526
MAGNETIC_FIELD,-18.183,-9.722,-32.336
GYROSCOPE,-0.20311269,0.016187929,0.022296581
ORIENTATION,73,328,9
ACCELEROMETER,-1.3862427,5.273229,8.451532
MAGNETIC_FIELD,-17.396,-10.609,-32.336
GYROSCOPE,-0.009468411,-0.15943582,-0.21899518
ORIENTATION,74,329,8
ACCELEROMETER,-1.2276269,5.1020436,8.258201
MAGNETIC_FIELD,-17.396,-10.609,-32.336
GYROSCOPE,-0.15851954,0.21563543,0.015577064
ORIENTATION,71,327,7
ACCELEROMETER,-1.0031705,5.266645,8.066664
MAGNETIC_FIELD,-17.396,-10.241,-32.336
GYROSCOPE,0.09254608,-0.0729984,-0.050701816
ORIENTATION,74,328,10
ACCELEROMETER,-1.4814123,5.191228,8.161834
MAGNETIC_FIELD,-17.396,-10.241,-32.336
GYROSCOPE,0.050701816,0.09437868,-0.08002335
ORIENTATION,74,329,7
ACCELEROMETER,-1.0660183,4.8584337,8.172607
MAGNETIC_FIELD,-17.396,-10.241,-32.336
GYROSCOPE,0.08032878,-0.11636983,-0.03848451
ORIENTATION,72,327,10
ACCELEROMETER,-1.4059949,5.227141,7.854179
MAGNETIC_FIELD,-17.396,-10.241,-32.336
GYROSCOPE,0.16737708,0.15515977,-0.036651913
ORIENTATION,71,326,10
ACCELEROMETER,-1.3030443,5.367202,7.711125
MAGNETIC_FIELD,-17.396,-11.029,-32.336
GYROSCOPE,0.08399397,-0.056505036,0.01160644
ORIENTATION,67,327,3
ACCELEROMETER,-0.41718966,5.3857565,8.27496
MAGNETIC_FIELD,-17.396,-11.029,-32.336
GYROSCOPE,0.14508049,-0.10995574,0.040317107
ORIENTATION,64,324,4
ACCELEROMETER,-0.52732295,5.619191,7.6668324
MAGNETIC_FIELD,-17.396,-11.029,-32.336
GYROSCOPE,0.0888809,-0.17531833,-0.03268129
ORIENTATION,66,327,1
ACCELEROMETER,-0.18136078,5.331289,8.283937
MAGNETIC_FIELD,-17.396,-11.651,-32.029
GYROSCOPE,-0.18875736,-0.19639318,0.1423316
ORIENTATION,69,327,2
ACCELEROMETER,-0.35913026,5.4539914,8.347384
MAGNETIC_FIELD,-17.396,-11.267,-32.029
GYROSCOPE,0.060170226,-0.08277224,-0.016798794
