ORIENTATION,0,0,0
ACCELEROMETER,-0.6075287,5.2606597,8.637681
MAGNETIC_FIELD,-14.321,-21.476,-25.083
GYROSCOPE,0.037873644,-3.0543262E-4,-0.067500606
ORIENTATION,115,332,5
ACCELEROMETER,-0.79248077,4.605247,8.549096
MAGNETIC_FIELD,-16.22,-20.092,-25.495
GYROSCOPE,-0.33567044,-3.0543262E-4,0.062002823
ORIENTATION,112,334,3
ACCELEROMETER,-0.47165772,4.255095,8.647258
MAGNETIC_FIELD,-16.22,-18.19,-26.141
GYROSCOPE,0.022602014,0.10293079,-0.002443461
ORIENTATION,101,330,8
ACCELEROMETER,-1.0217255,4.470573,7.726089
MAGNETIC_FIELD,-16.766,-16.784,-26.905
GYROSCOPE,0.2284636,-0.112704635,0.05681047
ORIENTATION,99,332,4
ACCELEROMETER,-0.61112,4.408922,8.441357
MAGNETIC_FIELD,-16.766,-16.784,-25.341
GYROSCOPE,-0.11301007,-0.0580322,-0.009468411
ORIENTATION,103,333,3
ACCELEROMETER,-0.45429978,4.4005427,8.788516
MAGNETIC_FIELD,-17.193,-16.784,-26.095
GYROSCOPE,-0.07819075,-0.16310102,-0.0125227375
ORIENTATION,102,334,4
ACCELEROMETER,-0.6596026,4.2957964,8.632893
MAGNETIC_FIELD,-17.193,-16.078,-26.095
GYROSCOPE,0.035124753,-0.07513642,-0.03390302
ORIENTATION,100,334,2
ACCELEROMETER,-0.37229836,4.1611223,8.54311
MAGNETIC_FIELD,-17.193,-16.078,-26.095
GYROSCOPE,-0.054061573,0.004276057,0.08460484
ORIENTATION,101,334,5
ACCELEROMETER,-0.6991069,4.1252093,8.56825
MAGNETIC_FIELD,-18.385,-16.078,-25.54
GYROSCOPE,-0.052534413,0.03390302,-0.020158553
ORIENTATION,107,339,359
ACCELEROMETER,0.23044191,3.4680011,8.892664
MAGNETIC_FIELD,-18.385,-14.292,-25.003
GYROSCOPE,-0.07788532,-0.014049901,0.052839845
ORIENTATION,102,338,1
ACCELEROMETER,-0.17058687,3.6421793,9.051279
MAGNETIC_FIELD,-19.749,-12.864,-25.765
GYROSCOPE,0.020463986,-0.16615535,9.162979E-4
ORIENTATION,96,338,360
ACCELEROMETER,0.059855044,3.774459,9.306861
MAGNETIC_FIELD,-19.125,-13.287,-25.419
GYROSCOPE,0.100792766,0.014660766,-0.082161374
ORIENTATION,94,335,2
ACCELEROMETER,-0.32441434,4.11264,8.647857
MAGNETIC_FIELD,-19.125,-13.83,-25.419
GYROSCOPE,0.23609942,0.13469578,-0.071776666
ORIENTATION,94,333,3
ACCELEROMETER,-0.49200845,4.2544966,8.488642
MAGNETIC_FIELD,-18.548,-14.947,-25.08
GYROSCOPE,0.17623462,-0.008552114,-0.042760566
ORIENTATION,97,333,3
ACCELEROMETER,-0.47524905,4.299388,8.3629465
MAGNETIC_FIELD,-18.548,-16.56,-25.08
GYROSCOPE,0.036651913,-0.021380283,-0.07391469
ORIENTATION,103,335,2
ACCELEROMETER,-0.2657564,4.280833,8.992621
MAGNETIC_FIELD,-18.893,-16.56,-24.67
GYROSCOPE,-0.029626964,-0.025045475,-0.04184427
ORIENTATION,103,335,2
ACCELEROMETER,-0.35314476,4.135385,8.672996
MAGNETIC_FIELD,-18.893,-16.908,-25.375
GYROSCOPE,0.061086524,-0.011911872,-0.0076358155
ORIENTATION,102,334,2
ACCELEROMETER,-0.3172317,4.267066,8.737639
MAGNETIC_FIELD,-19.342,-17.666,-24.844
GYROSCOPE,-0.008246681,-0.028099801,-0.01740966
ORIENTATION,104,333,2
ACCELEROMETER,-0.36870706,4.336498,8.541913
MAGNETIC_FIELD,-18.977,-17.666,-24.844
GYROSCOPE,0.038179077,-0.018020526,0.004276057
ORIENTATION,105,334,3
ACCELEROMETER,-0.39145198,4.3167458,8.705916
MAGNETIC_FIELD,-18.977,-17.14,-25.265
GYROSCOPE,-0.027183503,0.030848695,9.162979E-4
ORIENTATION,102,333,3
ACCELEROMETER,-0.41000703,4.4963107,8.784326
MAGNETIC_FIELD,-18.977,-16.68,-25.265
GYROSCOPE,-0.032375857,-0.009773844,-0.012217305
ORIENTATION,100,333,3
ACCELEROMETER,-0.44472298,4.4699745,8.595184
MAGNETIC_FIELD,-18.977,-17.311,-25.265
GYROSCOPE,0.06719518,0.014966198,-0.01740966
ORIENTATION,101,332,2
ACCELEROMETER,-0.23822308,4.51307,8.646061
MAGNETIC_FIELD,-18.977,-17.311,-25.265
GYROSCOPE,0.0729984,-0.014049901,-0.016187929
ORIENTATION,101,332,3
ACCELEROMETER,-0.3854665,4.585495,8.674192
MAGNETIC_FIELD,-19.288,-18.281,-25.265
GYROSCOPE,-0.02107485,0.010079277,-0.029321533
ORIENTATION,102,332,2
ACCELEROMETER,-0.3597288,4.6261964,8.564059
MAGNETIC_FIELD,-19.288,-18.598,-25.265
GYROSCOPE,-0.053145275,0.02687807,-0.0015271631
ORIENTATION,103,332,3
ACCELEROMETER,-0.41299978,4.5543704,8.389283
MAGNETIC_FIELD,-19.288,-19.096,-25.265
GYROSCOPE,0.09590584,-0.008552114,-0.01282817
ORIENTATION,102,330,4
ACCELEROMETER,-0.5117606,4.709395,8.026561
MAGNETIC_FIELD,-19.685,-19.096,-25.265
GYROSCOPE,0.022907447,0.0729984,0.002443461
ORIENTATION,105,333,3
ACCELEROMETER,-0.47884035,4.5795093,8.810063
MAGNETIC_FIELD,-19.685,-18.417,-25.265
GYROSCOPE,-0.14049901,-0.01863139,0.064751714
ORIENTATION,104,333,3
ACCELEROMETER,-0.44651863,4.453215,8.615535
MAGNETIC_FIELD,-19.685,-18.417,-25.265
GYROSCOPE,-0.005497787,-0.06352998,0.0125227375
ORIENTATION,103,331,4
ACCELEROMETER,-0.6344634,4.712986,8.627506
MAGNETIC_FIELD,-19.685,-18.008,-25.265
GYROSCOPE,0.0012217305,0.08735373,-0.035124753
ORIENTATION,102,332,3
ACCELEROMETER,-0.5129577,4.5962687,8.565256
MAGNETIC_FIELD,-19.685,-18.008,-25.265
GYROSCOPE,0.04184427,0.13041973,0.016798794
ORIENTATION,101,331,4
ACCELEROMETER,-0.59256494,4.6501384,8.297106
MAGNETIC_FIELD,-19.685,-18.008,-25.265
GYROSCOPE,0.058643065,-0.020158553,0.022296581
ORIENTATION,101,331,4
ACCELEROMETER,-0.6254852,4.7267528,8.459313
MAGNETIC_FIELD,-19.685,-18.008,-25.265
GYROSCOPE,0.025045475,-0.0076358155,0.040011674
ORIENTATION,101,331,3
ACCELEROMETER,-0.39564183,4.7668557,8.619126
MAGNETIC_FIELD,-19.685,-18.008,-25.265
GYROSCOPE,0.03726278,0.005192355,0.063224554
ORIENTATION,100,331,2
ACCELEROMETER,-0.34955344,4.783615,8.497022
MAGNETIC_FIELD,-19.685,-18.36,-25.265
GYROSCOPE,0.058337633,0.027794369,0.017104227
ORIENTATION,99,329,3
ACCELEROMETER,-0.39624038,5.0266266,8.319252
MAGNETIC_FIELD,-19.685,-18.36,-25.265
GYROSCOPE,-0.03145956,-0.027488936,-0.048258353
ORIENTATION,100,330,3
ACCELEROMETER,-0.4297592,4.841076,8.249821
MAGNETIC_FIELD,-19.685,-18.36,-25.265
GYROSCOPE,0.016187929,0.01863139,-0.02565634
ORIENTATION,100,330,3
ACCELEROMETER,-0.37948096,4.847061,8.36175
MAGNETIC_FIELD,-19.685,-18.36,-25.265
GYROSCOPE,-0.013133603,0.014049901,-0.031154128
ORIENTATION,99,328,5
ACCELEROMETER,-0.79846627,5.185242,8.379706
MAGNETIC_FIELD,-19.685,-18.36,-25.265
GYROSCOPE,0.065973446,-0.007941248,-0.018325957
ORIENTATION,99,329,3
ACCELEROMETER,-0.4237737,4.739322,7.9475527
MAGNETIC_FIELD,-19.685,-18.36,-24.931
GYROSCOPE,0.009468411,-0.012217305,0.05009095
ORIENTATION,103,332,2
ACCELEROMETER,-0.25737667,4.76506,8.886678
MAGNETIC_FIELD,-19.685,-18.36,-24.931
GYROSCOPE,-0.13805555,0.029626964,-0.055283304
ORIENTATION,101,330,6
ACCELEROMETER,-0.82599956,4.980538,8.5700445
MAGNETIC_FIELD,-19.685,-18.36,-24.931
GYROSCOPE,-0.028405234,-0.024740042,-0.06658431
ORIENTATION,103,331,4
ACCELEROMETER,-0.6194997,4.5675383,8.248624
MAGNETIC_FIELD,-19.685,-18.36,-24.931
GYROSCOPE,-0.05467244,0.032375857,0.029626964
ORIENTATION,103,331,5
ACCELEROMETER,-0.7086837,4.7177744,8.598776
MAGNETIC_FIELD,-19.685,-18.36,-24.931
GYROSCOPE,-0.02076942,0.052534413,6.1086525E-4
ORIENTATION,103,331,5
ACCELEROMETER,-0.6847417,4.5801077,8.315661
MAGNETIC_FIELD,-19.685,-18.36,-24.931
GYROSCOPE,0.01985312,9.162979E-4,0.0070249503
ORIENTATION,103,332,4
ACCELEROMETER,-0.5446809,4.585495,8.552687
MAGNETIC_FIELD,-19.294,-17.953,-24.931
GYROSCOPE,-0.043676864,0.003970624,0.03634648
ORIENTATION,102,331,4
ACCELEROMETER,-0.6488287,4.71957,8.534731
MAGNETIC_FIELD,-19.294,-17.953,-24.931
GYROSCOPE,0.006414085,0.013133603,-0.021991149
ORIENTATION,102,331,4
ACCELEROMETER,-0.6584055,4.718373,8.519767
MAGNETIC_FIELD,-19.294,-17.637,-24.931
GYROSCOPE,0.07544186,-0.044593163,-0.032070424
ORIENTATION,101,331,4
ACCELEROMETER,-0.5518635,4.608838,8.422802
MAGNETIC_FIELD,-19.294,-17.637,-24.62
GYROSCOPE,0.025350908,-0.007330383,-0.017715093
ORIENTATION,102,332,4
ACCELEROMETER,-0.60812724,4.577115,8.450933
MAGNETIC_FIELD,-19.294,-17.637,-24.62
GYROSCOPE,-0.016798794,0.0061086523,-0.044593163
ORIENTATION,104,333,3
ACCELEROMETER,-0.51475334,4.450821,8.747814
MAGNETIC_FIELD,-19.294,-17.637,-24.62
GYROSCOPE,-0.31429017,0.02687807,0.08277224
ORIENTATION,106,334,6
ACCELEROMETER,-0.85413146,4.2221746,8.732252
MAGNETIC_FIELD,-18.96,-17.26,-24.62
GYROSCOPE,0.058337633,-0.025045475,-0.089186326
ORIENTATION,103,332,7
ACCELEROMETER,-1.1324574,4.6920366,8.847773
MAGNETIC_FIELD,-18.96,-17.26,-24.62
GYROSCOPE,0.0070249503,0.03756821,-0.089186326
ORIENTATION,102,333,3
ACCELEROMETER,-0.5105635,4.4047327,8.448539
MAGNETIC_FIELD,-18.96,-17.26,-24.62
GYROSCOPE,0.06047566,0.07513642,0.11362094
ORIENTATION,103,333,5
ACCELEROMETER,-0.7326257,4.450821,8.525154
MAGNETIC_FIELD,-18.96,-17.26,-24.62
GYROSCOPE,-0.03970624,-0.030543262,0.004581489
ORIENTATION,102,331,7
ACCELEROMETER,-0.95349085,4.449624,8.1319065
MAGNETIC_FIELD,-18.96,-16.954,-24.62
GYROSCOPE,0.10293079,0.09315695,0.009468411
ORIENTATION,103,333,5
ACCELEROMETER,-0.7152678,4.482544,8.756194
MAGNETIC_FIELD,-18.96,-16.954,-24.951
GYROSCOPE,0.11362094,-0.051923547,-0.035124753
ORIENTATION,100,331,6
ACCELEROMETER,-0.8206126,4.57113,8.238448
MAGNETIC_FIELD,-18.96,-16.954,-24.951
GYROSCOPE,0.045814894,-0.030543262,0.040011674
ORIENTATION,99,331,4
ACCELEROMETER,-0.6063316,4.783615,8.5778265
MAGNETIC_FIELD,-18.647,-16.954,-24.951
GYROSCOPE,0.0015271631,-0.031154128,0.11301007
ORIENTATION,99,331,3
ACCELEROMETER,-0.41000703,4.631583,8.322844
MAGNETIC_FIELD,-18.647,-16.632,-24.951
GYROSCOPE,0.0125227375,-0.087964594,-0.0125227375
ORIENTATION,99,331,3
ACCELEROMETER,-0.45130703,4.648941,8.468291
MAGNETIC_FIELD,-18.647,-16.632,-25.279
GYROSCOPE,-0.01740966,-0.048563786,0.03573562
ORIENTATION,99,331,5
ACCELEROMETER,-0.7230489,4.677073,8.546701
MAGNETIC_FIELD,-18.647,-16.632,-25.279
GYROSCOPE,0.017104227,0.040317107,-0.041233405
ORIENTATION,100,332,4
ACCELEROMETER,-0.5267244,4.5603557,8.6095495
MAGNETIC_FIELD,-18.647,-16.632,-25.279
GYROSCOPE,-0.01740966,-0.028405234,-0.0076358155
ORIENTATION,100,332,3
ACCELEROMETER,-0.39264908,4.5435963,8.611345
MAGNETIC_FIELD,-18.647,-16.632,-25.279
GYROSCOPE,-0.042760566,0.05467244,0.01038471
ORIENTATION,99,331,5
ACCELEROMETER,-0.6997054,4.6339774,8.495825
MAGNETIC_FIELD,-18.647,-16.632,-25.279
GYROSCOPE,-0.00580322,-0.03176499,-0.015882496
ORIENTATION,100,332,3
ACCELEROMETER,-0.5189432,4.5274353,8.513183
MAGNETIC_FIELD,-18.647,-16.267,-25.279
GYROSCOPE,-0.019242255,-0.03756821,-0.03940081
ORIENTATION,99,332,3
ACCELEROMETER,-0.47465047,4.537611,8.631097
MAGNETIC_FIELD,-18.647,-16.267,-25.621
GYROSCOPE,-0.014966198,-0.0067195175,-0.0076358155
ORIENTATION,97,331,4
ACCELEROMETER,-0.6290765,4.6232033,8.444349
MAGNETIC_FIELD,-18.647,-16.267,-25.621
GYROSCOPE,-0.006414085,-0.0027488936,-0.003970624
ORIENTATION,99,333,2
ACCELEROMETER,-0.35314476,4.496909,8.660426
MAGNETIC_FIELD,-18.647,-16.267,-25.621
GYROSCOPE,-0.0030543262,0.033292156,0.008246681
ORIENTATION,98,332,4
ACCELEROMETER,-0.6159084,4.573524,8.527548
MAGNETIC_FIELD,-18.647,-16.267,-25.621
GYROSCOPE,-0.022296581,-0.013133603,-0.01160644
ORIENTATION,98,332,3
ACCELEROMETER,-0.39504328,4.5382094,8.650849
MAGNETIC_FIELD,-18.647,-16.267,-25.621
GYROSCOPE,0.020463986,-0.0076358155,-0.01038471
ORIENTATION,98,332,4
ACCELEROMETER,-0.65541273,4.6459484,8.552089
MAGNETIC_FIELD,-18.647,-16.267,-25.621
GYROSCOPE,0.035430185,0.017715093,-0.059253927
ORIENTATION,99,332,5
ACCELEROMETER,-0.7200562,4.575918,8.6574335
MAGNETIC_FIELD,-18.984,-15.966,-25.621
GYROSCOPE,0.014049901,0.03726278,-0.07666359
ORIENTATION,97,331,5
ACCELEROMETER,-0.6997054,4.540005,8.225879
MAGNETIC_FIELD,-18.984,-15.966,-25.621
GYROSCOPE,-0.031154128,0.058948494,-0.02687807
ORIENTATION,97,332,5
ACCELEROMETER,-0.7846996,4.6657004,8.616732
MAGNETIC_FIELD,-18.984,-15.966,-25.621
GYROSCOPE,0.0125227375,-0.0076358155,-0.01985312
ORIENTATION,97,332,5
ACCELEROMETER,-0.7158663,4.5675383,8.404845
MAGNETIC_FIELD,-18.984,-15.966,-25.621
GYROSCOPE,0.062308256,0.0033597588,0.0021380284
ORIENTATION,97,332,6
ACCELEROMETER,-0.8834604,4.5926776,8.417415
MAGNETIC_FIELD,-18.984,-15.966,-25.621
GYROSCOPE,0.01038471,0.01160644,-0.013133603
ORIENTATION,98,332,5
ACCELEROMETER,-0.7721301,4.5938745,8.595184
MAGNETIC_FIELD,-18.984,-15.966,-25.621
GYROSCOPE,-0.10140363,-0.007941248,-0.014660766
ORIENTATION,98,332,5
ACCELEROMETER,-0.7715315,4.5459905,8.426991
MAGNETIC_FIELD,-18.984,-15.966,-25.621
GYROSCOPE,0.047647487,-0.057726767,-0.018936822
ORIENTATION,98,332,4
ACCELEROMETER,-0.6757634,4.5418005,8.591593
MAGNETIC_FIELD,-18.984,-15.966,-25.621
GYROSCOPE,0.0021380284,0.038179077,0.023518313
ORIENTATION,98,332,4
ACCELEROMETER,-0.64463884,4.4981065,8.610746
MAGNETIC_FIELD,-18.984,-15.966,-25.621
GYROSCOPE,-0.020158553,0.0076358155,0.0125227375
ORIENTATION,98,332,4
ACCELEROMETER,-0.6596026,4.5220485,8.617331
MAGNETIC_FIELD,-18.984,-15.966,-25.621
GYROSCOPE,-0.03634648,0.0027488936,0.012217305
ORIENTATION,98,332,5
ACCELEROMETER,-0.74998367,4.541202,8.524555
MAGNETIC_FIELD,-18.984,-15.966,-25.621
GYROSCOPE,0.010995574,0.030543262,-0.008246681
ORIENTATION,98,332,4
ACCELEROMETER,-0.6135142,4.5022964,8.532935
MAGNETIC_FIELD,-18.663,-15.966,-25.621
GYROSCOPE,0.053145275,-0.009468411,0.03390302
ORIENTATION,97,332,3
ACCELEROMETER,-0.49919105,4.5561657,8.507795
MAGNETIC_FIELD,-18.663,-15.966,-25.621
GYROSCOPE,-0.0015271631,0.0027488936,0.011301007
ORIENTATION,96,331,3
ACCELEROMETER,-0.4938041,4.648941,8.471883
MAGNETIC_FIELD,-18.663,-15.966,-25.621
GYROSCOPE,0.0125227375,-0.025350908,-0.00580322
ORIENTATION,97,331,4
ACCELEROMETER,-0.61112,4.678869,8.547898
MAGNETIC_FIELD,-18.663,-15.966,-25.621
GYROSCOPE,0.01740966,0.015577064,-0.014966198
ORIENTATION,97,332,2
ACCELEROMETER,-0.35673606,4.5447936,8.486248
MAGNETIC_FIELD,-18.663,-15.966,-25.621
GYROSCOPE,0.084910266,0.0018325958,0.034513887
ORIENTATION,94,330,2
ACCELEROMETER,-0.24001873,4.76925,8.201937
MAGNETIC_FIELD,-18.663,-15.966,-25.621
GYROSCOPE,0.03726278,-0.051923547,-6.1086525E-4
ORIENTATION,94,329,6
ACCELEROMETER,-0.8972271,4.987122,8.264186
MAGNETIC_FIELD,-18.663,-15.966,-25.621
GYROSCOPE,0.13500121,-0.061086524,-0.25900686
ORIENTATION,95,329,6
ACCELEROMETER,-0.8607155,4.818331,8.078635
MAGNETIC_FIELD,-18.663,-15.966,-25.621
GYROSCOPE,0.0143553335,0.24740042,0.014049901
ORIENTATION,93,329,3
ACCELEROMETER,-0.4225766,5.043386,8.335413
MAGNETIC_FIELD,-18.663,-16.357,-25.621
GYROSCOPE,-0.003970624,-0.057421334,-0.024740042
ORIENTATION,97,331,3
ACCELEROMETER,-0.4177882,4.7776294,8.666411
MAGNETIC_FIELD,-18.663,-16.357,-25.621
GYROSCOPE,-0.33108896,0.08277224,0.1600467
ORIENTATION,98,332,3
ACCELEROMETER,-0.4297592,4.663306,8.652645
MAGNETIC_FIELD,-18.663,-16.357,-25.621
GYROSCOPE,0.0571159,-0.0693332,-0.035430185
ORIENTATION,95,329,4
ACCELEROMETER,-0.6183026,4.8003745,8.02297
MAGNETIC_FIELD,-18.663,-16.357,-25.621
GYROSCOPE,0.15027285,0.08093964,-0.087659165
ORIENTATION,97,331,4
ACCELEROMETER,-0.6422446,4.7884035,8.491036
MAGNETIC_FIELD,-18.663,-16.709,-25.3
GYROSCOPE,-0.08093964,-0.071776666,0.07971791
ORIENTATION,98,331,3
ACCELEROMETER,-0.43514615,4.644751,8.334815
MAGNETIC_FIELD,-18.992,-16.709,-25.3
GYROSCOPE,0.01863139,-0.014966198,0.09315695
ORIENTATION,100,332,3
ACCELEROMETER,-0.50278234,4.597466,8.681973
MAGNETIC_FIELD,-18.992,-16.709,-25.3
GYROSCOPE,-0.05681047,9.162979E-4,-0.02565634
ORIENTATION,99,331,4
ACCELEROMETER,-0.55006784,4.672883,8.5383215
MAGNETIC_FIELD,-18.992,-16.709,-25.3
GYROSCOPE,-0.004276057,0.023518313,-0.03848451
ORIENTATION,97,331,3
ACCELEROMETER,-0.492607,4.672883,8.2593975
MAGNETIC_FIELD,-18.992,-16.709,-25.3
GYROSCOPE,0.11301007,0.044593163,-0.01038471
ORIENTATION,97,330,4
ACCELEROMETER,-0.56084174,4.8500543,8.379706
MAGNETIC_FIELD,-18.992,-16.709,-25.3
GYROSCOPE,-0.014660766,0.042455133,-0.029321533
ORIENTATION,96,330,3
ACCELEROMETER,-0.41599256,4.8638206,8.34499
MAGNETIC_FIELD,-18.992,-16.709,-25.3
GYROSCOPE,-0.02565634,-0.0015271631,-0.0027488936
ORIENTATION,97,330,3
ACCELEROMETER,-0.38726214,4.808754,8.377312
MAGNETIC_FIELD,-18.992,-16.709,-24.969
GYROSCOPE,-0.010995574,-0.010079277,0.024129177
ORIENTATION,98,331,2
ACCELEROMETER,-0.3633201,4.7644615,8.56825
MAGNETIC_FIELD,-18.992,-16.709,-24.969
GYROSCOPE,-0.050701816,-0.004886922,0.009773844
ORIENTATION,98,331,2
ACCELEROMETER,-0.3561375,4.7578773,8.505402
MAGNETIC_FIELD,-19.332,-16.709,-24.969
GYROSCOPE,-0.020463986,0.02443461,-3.0543262E-4
ORIENTATION,98,331,2
ACCELEROMETER,-0.32920274,4.684854,8.531737
MAGNETIC_FIELD,-19.332,-17.033,-24.969
GYROSCOPE,-0.004886922,0.009162978,-0.020158553
ORIENTATION,99,331,3
ACCELEROMETER,-0.3866636,4.6782703,8.34918
MAGNETIC_FIELD,-19.332,-17.033,-24.969
GYROSCOPE,0.029932396,0.002443461,-0.036651913
ORIENTATION,98,330,3
ACCELEROMETER,-0.46208093,4.8135424,8.483255
MAGNETIC_FIELD,-19.332,-17.033,-24.969
GYROSCOPE,0.06047566,-0.009468411,-0.009773844
ORIENTATION,95,328,4
ACCELEROMETER,-0.61650693,5.0302176,8.010999
MAGNETIC_FIELD,-19.332,-17.033,-24.639
GYROSCOPE,0.22143865,-0.0571159,-0.020463986
ORIENTATION,97,330,0
ACCELEROMETER,-0.07182605,5.0122614,8.605359
MAGNETIC_FIELD,-19.332,-17.033,-24.639
GYROSCOPE,0.0729984,-0.09132435,0.010079277
ORIENTATION,89,325,358
ACCELEROMETER,0.2825158,5.392939,7.807492
MAGNETIC_FIELD,-19.332,-17.033,-24.639
GYROSCOPE,0.06780604,-0.081855945,0.07422013
