ORIENTATION,0,0,0
ACCELEROMETER,-1.0067618,5.133767,8.149862
MAGNETIC_FIELD,14.268,-16.255,-25.524
GYROSCOPE,-0.065973446,-0.33353242,-0.036957346
ORIENTATION,269,329,7
ACCELEROMETER,-0.97503865,4.9176903,8.268974
MAGNETIC_FIELD,12.089,-16.967,-26.158
GYROSCOPE,-0.12095132,-0.33353242,-0.099265605
ORIENTATION,262,330,4
ACCELEROMETER,-0.59974754,4.7961845,8.394072
MAGNETIC_FIELD,10.844,-17.643,-26.673
GYROSCOPE,-0.0571159,-0.24220806,-0.122478485
ORIENTATION,262,329,0
ACCELEROMETER,-0.02932897,4.900931,8.213309
MAGNETIC_FIELD,9.028,-18.064,-26.673
GYROSCOPE,0.011301007,-0.41172317,-0.048563786
ORIENTATION,266,327,358
ACCELEROMETER,0.31543607,5.429451,8.312668
MAGNETIC_FIELD,7.089,-18.064,-26.673
GYROSCOPE,-0.042760566,-0.11636983,-0.1160644
ORIENTATION,244,332,2
ACCELEROMETER,-0.28790274,4.71957,8.703522
MAGNETIC_FIELD,7.434,-18.064,-26.673
GYROSCOPE,0.106901415,0.024129177,0.02107485
ORIENTATION,256,329,2
ACCELEROMETER,-0.30765492,4.8937483,8.125322
MAGNETIC_FIELD,7.434,-18.376,-26.673
GYROSCOPE,-0.01160644,-0.21013765,0.049480084
ORIENTATION,259,328,360
ACCELEROMETER,0.044292733,5.197213,8.3312235
MAGNETIC_FIELD,7.434,-18.971,-26.324
GYROSCOPE,0.004581489,0.21166481,0.0125227375
ORIENTATION,256,328,359
ACCELEROMETER,0.092176765,5.179257,8.154053
MAGNETIC_FIELD,7.434,-18.971,-25.679
GYROSCOPE,-0.13927728,0.0036651916,-0.029321533
ORIENTATION,248,329,0
ACCELEROMETER,-0.025737667,5.011064,8.284536
MAGNETIC_FIELD,6.48,-18.971,-26.2
GYROSCOPE,0.0036651916,-0.012217305,-0.03604105
ORIENTATION,249,328,0
ACCELEROMETER,-0.061052144,5.1367598,8.363545
MAGNETIC_FIELD,5.923,-19.79,-26.2
GYROSCOPE,0.034208454,0.06719518,-0.07544186
ORIENTATION,242,328,2
ACCELEROMETER,-0.21906945,5.1020436,8.165425
MAGNETIC_FIELD,5.923,-20.553,-25.65
GYROSCOPE,-0.09865474,0.04795292,-0.029626964
ORIENTATION,242,327,359
ACCELEROMETER,0.108337626,5.2768207,8.142081
MAGNETIC_FIELD,6.3,-20.553,-24.984
GYROSCOPE,-0.07269296,0.0571159,0.02565634
ORIENTATION,228,330,1
ACCELEROMETER,-0.11911154,4.973954,8.665813
MAGNETIC_FIELD,6.3,-19.75,-24.984
GYROSCOPE,-0.2171626,0.024129177,-0.06261369
ORIENTATION,232,330,2
ACCELEROMETER,-0.2633622,4.9679685,8.471284
MAGNETIC_FIELD,6.944,-18.891,-25.982
GYROSCOPE,0.0015271631,0.07391469,0.04184427
ORIENTATION,252,328,1
ACCELEROMETER,-0.11731588,5.2008047,8.300697
MAGNETIC_FIELD,6.558,-19.255,-25.263
GYROSCOPE,-0.023823744,-0.04337143,0.002443461
ORIENTATION,244,328,1
ACCELEROMETER,-0.12150574,5.073313,8.218696
MAGNETIC_FIELD,6.558,-19.255,-25.263
GYROSCOPE,-0.05467244,0.12675454,-0.01282817
ORIENTATION,237,330,2
ACCELEROMETER,-0.26635495,5.0559554,8.630499
MAGNETIC_FIELD,6.558,-19.255,-25.758
GYROSCOPE,0.08032878,-0.027488936,0.016187929
ORIENTATION,248,327,2
ACCELEROMETER,-0.26276365,5.005079,7.8517847
MAGNETIC_FIELD,7.533,-19.255,-25.758
GYROSCOPE,-0.050396383,-0.027488936,-0.013439035
ORIENTATION,238,331,2
ACCELEROMETER,-0.26755205,4.793192,8.622119
MAGNETIC_FIELD,7.044,-19.255,-25.758
GYROSCOPE,0.08735373,0.036957346,0.003970624
ORIENTATION,240,330,2
ACCELEROMETER,-0.2837129,4.8775873,8.34918
MAGNETIC_FIELD,7.044,-19.255,-25.758
GYROSCOPE,-0.06994407,-0.08552113,-0.0125227375
ORIENTATION,240,329,3
ACCELEROMETER,-0.4165911,4.907515,8.265982
MAGNETIC_FIELD,6.724,-19.255,-25.758
GYROSCOPE,0.025045475,0.06383542,0.022602014
ORIENTATION,238,330,2
ACCELEROMETER,-0.35314476,4.797382,8.210915
MAGNETIC_FIELD,6.724,-19.255,-25.758
GYROSCOPE,0.040317107,0.11209377,0.011911872
ORIENTATION,242,329,2
ACCELEROMETER,-0.30825347,4.9883194,8.2516165
MAGNETIC_FIELD,6.724,-19.255,-25.758
GYROSCOPE,-0.05681047,-0.055283304,0.004276057
ORIENTATION,238,330,2
ACCELEROMETER,-0.29328972,5.115212,8.852561
MAGNETIC_FIELD,6.724,-19.255,-25.758
GYROSCOPE,0.07360926,-0.043676864,0.019242255
ORIENTATION,232,331,3
ACCELEROMETER,-0.4794389,4.52145,8.0367365
MAGNETIC_FIELD,6.724,-19.255,-25.758
GYROSCOPE,-0.13133603,0.05467244,-0.03268129
ORIENTATION,239,330,2
ACCELEROMETER,-0.2741361,4.933253,8.422802
MAGNETIC_FIELD,6.724,-19.255,-25.758
GYROSCOPE,-0.039095376,0.05100725,-0.04642576
ORIENTATION,245,329,360
ACCELEROMETER,0.011372458,4.9895163,8.243835
MAGNETIC_FIELD,6.724,-19.255,-25.758
GYROSCOPE,0.03848451,-0.079107046,-0.10048734
ORIENTATION,241,330,360
ACCELEROMETER,0.05327099,4.964976,8.635885
MAGNETIC_FIELD,6.724,-19.255,-25.439
GYROSCOPE,0.113926366,-0.13744467,-0.07727446
ORIENTATION,246,329,357
ACCELEROMETER,0.4261679,5.0020857,8.260594
MAGNETIC_FIELD,6.724,-19.255,-25.439
GYROSCOPE,-0.020158553,-0.41263947,-0.038179077
ORIENTATION,246,329,357
ACCELEROMETER,0.3788824,5.0062757,8.326435
MAGNETIC_FIELD,6.724,-18.923,-25.439
GYROSCOPE,0.029932396,-0.03756821,-0.00580322
ORIENTATION,254,327,356
ACCELEROMETER,0.54527944,4.8560395,7.5124063
MAGNETIC_FIELD,6.724,-18.923,-25.439
GYROSCOPE,-0.016493361,0.032070424,-0.016798794
ORIENTATION,256,327,355
ACCELEROMETER,0.6835446,5.380968,8.187572
MAGNETIC_FIELD,6.724,-18.923,-25.439
GYROSCOPE,0.19700404,-0.03604105,-0.020158553
ORIENTATION,244,330,359
ACCELEROMETER,0.19812019,4.8883615,8.374918
MAGNETIC_FIELD,6.724,-18.923,-25.134
GYROSCOPE,-6.1086525E-4,0.08735373,-0.03634648
ORIENTATION,242,330,360
ACCELEROMETER,0.062249243,4.9386396,8.435969
MAGNETIC_FIELD,6.724,-18.923,-25.134
GYROSCOPE,0.004276057,0.05375614,-0.06352998
ORIENTATION,247,329,358
ACCELEROMETER,0.25917232,5.0421886,8.242638
MAGNETIC_FIELD,6.724,-18.621,-25.134
GYROSCOPE,-0.016493361,0.01282817,0.05497787
ORIENTATION,251,328,358
ACCELEROMETER,0.3286042,5.1690817,8.284536
MAGNETIC_FIELD,6.724,-18.621,-25.134
GYROSCOPE,-0.006414085,0.013133603,0.03756821
ORIENTATION,247,329,358
ACCELEROMETER,0.29867667,4.9542017,8.3072815
MAGNETIC_FIELD,6.724,-18.621,-24.78
GYROSCOPE,0.007330383,0.061086524,0.028405234
ORIENTATION,247,329,355
ACCELEROMETER,0.6805518,4.9895163,8.343194
MAGNETIC_FIELD,6.317,-18.621,-24.78
GYROSCOPE,-0.25228736,-0.0012217305,0.059864793
ORIENTATION,224,334,2
ACCELEROMETER,-0.3465607,4.538808,9.156026
MAGNETIC_FIELD,6.317,-18.621,-24.78
GYROSCOPE,-0.08032878,0.03940081,-0.16187929
ORIENTATION,231,332,0
ACCELEROMETER,-0.05746084,4.2778397,8.124723
MAGNETIC_FIELD,6.317,-18.621,-24.78
GYROSCOPE,0.014660766,0.043066,-0.14446963
ORIENTATION,238,331,359
ACCELEROMETER,0.18914193,4.8757915,8.799889
MAGNETIC_FIELD,6.317,-18.621,-24.435
GYROSCOPE,-0.0290161,0.07819075,-0.005192355
ORIENTATION,242,330,356
ACCELEROMETER,0.5129577,4.821324,8.338406
MAGNETIC_FIELD,5.967,-18.621,-24.435
GYROSCOPE,0.04734206,-0.06566802,0.0571159
ORIENTATION,237,331,358
ACCELEROMETER,0.27593175,4.7518916,8.465299
MAGNETIC_FIELD,5.967,-18.621,-24.435
GYROSCOPE,-0.04337143,0.014049901,0.003970624
ORIENTATION,237,331,358
ACCELEROMETER,0.37708676,4.8380833,8.759786
MAGNETIC_FIELD,5.967,-18.621,-24.13
GYROSCOPE,0.02107485,-0.025350908,0.032986723
ORIENTATION,235,331,358
ACCELEROMETER,0.338181,4.6273932,8.399458
MAGNETIC_FIELD,5.661,-18.621,-24.13
GYROSCOPE,-0.016798794,0.0143553335,-0.020158553
ORIENTATION,239,330,357
ACCELEROMETER,0.4902128,4.9278655,8.531139
MAGNETIC_FIELD,5.661,-18.621,-24.13
GYROSCOPE,-0.01282817,0.028405234,-0.02443461
ORIENTATION,232,331,359
ACCELEROMETER,0.16938977,4.6375685,8.516175
MAGNETIC_FIELD,5.661,-18.621,-24.13
GYROSCOPE,0.0061086523,-0.0033597588,-0.054061573
ORIENTATION,234,331,358
ACCELEROMETER,0.24001873,4.791396,8.585608
MAGNETIC_FIELD,5.661,-18.621,-24.13
GYROSCOPE,0.010079277,-0.002443461,-0.01985312
ORIENTATION,234,331,359
ACCELEROMETER,0.14903906,4.743512,8.440758
MAGNETIC_FIELD,5.661,-18.299,-23.77
GYROSCOPE,-0.007941248,0.015882496,-0.009773844
ORIENTATION,237,330,358
ACCELEROMETER,0.25438392,4.8285065,8.44375
MAGNETIC_FIELD,5.661,-18.299,-23.77
GYROSCOPE,0.01160644,9.162979E-4,0.02107485
ORIENTATION,235,331,358
ACCELEROMETER,0.25079262,4.706402,8.368334
MAGNETIC_FIELD,5.661,-18.299,-23.77
GYROSCOPE,-0.007941248,0.017104227,-0.02076942
ORIENTATION,233,331,359
ACCELEROMETER,0.1376666,4.6950297,8.525154
MAGNETIC_FIELD,5.661,-18.299,-23.77
GYROSCOPE,-0.0106901415,-0.0015271631,-0.03848451
ORIENTATION,231,332,359
ACCELEROMETER,0.108936176,4.7441106,8.761581
MAGNETIC_FIELD,5.661,-17.991,-23.77
GYROSCOPE,0.018325957,-0.0070249503,0.037873644
ORIENTATION,238,331,358
ACCELEROMETER,0.34476504,4.6896424,8.322844
MAGNETIC_FIELD,5.661,-17.991,-23.77
GYROSCOPE,0.032375857,0.029626964,0.005192355
ORIENTATION,236,331,359
ACCELEROMETER,0.17357962,4.7518916,8.523956
MAGNETIC_FIELD,5.661,-17.991,-23.77
GYROSCOPE,-0.019242255,0.017104227,-0.004581489
ORIENTATION,234,332,359
ACCELEROMETER,0.19632454,4.6980224,8.652645
MAGNETIC_FIELD,5.661,-17.991,-23.77
GYROSCOPE,0.022602014,-0.028099801,0.019242255
ORIENTATION,243,330,357
ACCELEROMETER,0.4854244,4.803367,8.15525
MAGNETIC_FIELD,5.661,-17.991,-23.77
GYROSCOPE,0.01863139,0.013439035,0.03756821
ORIENTATION,236,332,357
ACCELEROMETER,0.47405192,4.6136265,8.558074
MAGNETIC_FIELD,5.661,-17.686,-23.77
GYROSCOPE,0.16340645,0.020463986,-0.060170226
ORIENTATION,240,331,358
ACCELEROMETER,0.38067806,4.9613843,8.792108
MAGNETIC_FIELD,5.661,-17.686,-23.77
GYROSCOPE,0.017104227,-0.05955936,0.10293079
ORIENTATION,238,331,358
ACCELEROMETER,0.35673606,4.76087,8.623915
MAGNETIC_FIELD,5.661,-17.686,-23.77
GYROSCOPE,3.0543262E-4,0.03848451,0.028405234
ORIENTATION,238,331,358
ACCELEROMETER,0.25558102,4.8428717,8.686164
MAGNETIC_FIELD,5.661,-17.686,-23.77
GYROSCOPE,-0.040011674,0.030543262,-0.03940081
ORIENTATION,234,332,359
ACCELEROMETER,0.12270284,4.5777135,8.467693
MAGNETIC_FIELD,5.661,-17.686,-23.77
GYROSCOPE,0.020158553,-0.03756821,-0.04886922
ORIENTATION,237,331,359
ACCELEROMETER,0.14185645,4.7141833,8.482059
MAGNETIC_FIELD,5.661,-17.686,-23.77
GYROSCOPE,-0.014966198,-0.003970624,-0.013133603
ORIENTATION,237,331,359
ACCELEROMETER,0.18914193,4.7070007,8.485649
MAGNETIC_FIELD,5.661,-17.686,-23.77
GYROSCOPE,-0.0015271631,-0.016493361,3.0543262E-4
ORIENTATION,237,331,358
ACCELEROMETER,0.29209262,4.753089,8.672996
MAGNETIC_FIELD,5.661,-17.686,-23.455
GYROSCOPE,-0.016798794,0.016493361,-0.017715093
ORIENTATION,236,331,359
ACCELEROMETER,0.18016368,4.687248,8.465898
MAGNETIC_FIELD,5.661,-17.686,-23.455
GYROSCOPE,0.035430185,0.010079277,-0.03848451
ORIENTATION,235,331,360
ACCELEROMETER,0.065242,4.693234,8.487445
MAGNETIC_FIELD,5.661,-17.686,-23.455
GYROSCOPE,-6.1086525E-4,0.0018325958,-0.022602014
ORIENTATION,239,331,358
ACCELEROMETER,0.30107087,4.8859673,8.641871
MAGNETIC_FIELD,5.661,-17.686,-23.455
GYROSCOPE,0.07391469,0.013439035,0.029321533
ORIENTATION,244,329,358
ACCELEROMETER,0.25438392,4.88058,8.1079645
MAGNETIC_FIELD,5.661,-17.686,-23.455
GYROSCOPE,0.04795292,0.029932396,0.043676864
ORIENTATION,241,330,359
ACCELEROMETER,0.20649989,4.8189297,8.25401
MAGNETIC_FIELD,5.661,-17.686,-23.455
GYROSCOPE,0.034208454,-0.040927973,0.026572637
ORIENTATION,245,329,357
ACCELEROMETER,0.4854244,4.981735,8.304289
MAGNETIC_FIELD,5.661,-17.686,-23.455
GYROSCOPE,-0.004886922,0.0036651916,0.01740966
ORIENTATION,259,325,356
ACCELEROMETER,0.6194997,5.5407815,7.9942393
MAGNETIC_FIELD,5.661,-17.686,-23.455
GYROSCOPE,-0.05497787,-0.018020526,-0.013133603
ORIENTATION,235,332,358
ACCELEROMETER,0.23882163,4.549582,8.403049
MAGNETIC_FIELD,5.661,-17.686,-23.455
GYROSCOPE,-6.1086525E-4,-0.02321288,0.004886922
ORIENTATION,238,331,357
ACCELEROMETER,0.43035775,4.758476,8.615535
MAGNETIC_FIELD,5.661,-17.686,-23.455
GYROSCOPE,0.003970624,-6.1086525E-4,-0.01038471
ORIENTATION,240,331,357
ACCELEROMETER,0.44472298,4.735132,8.389283
MAGNETIC_FIELD,5.661,-17.686,-23.455
GYROSCOPE,0.014660766,-0.0033597588,-0.014660766
ORIENTATION,238,331,358
ACCELEROMETER,0.3645172,4.7141833,8.453327
MAGNETIC_FIELD,5.661,-17.686,-23.455
GYROSCOPE,9.162979E-4,-0.0018325958,-0.018020526
ORIENTATION,239,331,357
ACCELEROMETER,0.41240123,4.8985367,8.670003
MAGNETIC_FIELD,5.661,-17.686,-23.455
GYROSCOPE,-0.0018325958,0.019547688,0.021991149
ORIENTATION,238,331,358
ACCELEROMETER,0.25797522,4.644751,8.21271
MAGNETIC_FIELD,5.661,-17.686,-23.455
GYROSCOPE,0.029626964,0.0012217305,-0.011301007
ORIENTATION,236,331,358
ACCELEROMETER,0.2777274,4.781221,8.686164
MAGNETIC_FIELD,5.661,-17.686,-23.455
GYROSCOPE,-0.06536258,0.028405234,-0.030848695
ORIENTATION,239,330,358
ACCELEROMETER,0.30346507,4.7668557,8.411429
MAGNETIC_FIELD,5.661,-17.686,-23.455
GYROSCOPE,-0.0036651916,0.025350908,-0.03390302
ORIENTATION,236,331,359
ACCELEROMETER,0.1436521,4.763264,8.534731
MAGNETIC_FIELD,5.661,-17.686,-23.455
GYROSCOPE,-0.010995574,0.01038471,-0.024740042
ORIENTATION,238,331,358
ACCELEROMETER,0.25019407,4.7746367,8.467094
MAGNETIC_FIELD,5.661,-17.686,-23.455
GYROSCOPE,-0.013439035,0.016493361,-0.0125227375
ORIENTATION,242,330,358
ACCELEROMETER,0.28072014,4.687847,7.9786773
MAGNETIC_FIELD,5.661,-17.686,-23.455
GYROSCOPE,0.05497787,0.0061086523,-0.008246681
ORIENTATION,241,330,357
ACCELEROMETER,0.4333505,4.823718,8.38629
MAGNETIC_FIELD,5.973,-17.686,-23.455
GYROSCOPE,0.04337143,0.039095376,0.028405234
ORIENTATION,245,329,356
ACCELEROMETER,0.5374983,4.9158945,8.254609
MAGNETIC_FIELD,5.973,-17.686,-23.455
GYROSCOPE,0.05100725,0.01863139,0.056199603
ORIENTATION,238,331,359
ACCELEROMETER,0.19692309,4.71957,8.486847
MAGNETIC_FIELD,5.973,-17.686,-23.455
GYROSCOPE,0.013133603,0.0070249503,0.009162978
ORIENTATION,245,329,357
ACCELEROMETER,0.42437226,4.947618,8.307879
MAGNETIC_FIELD,5.973,-17.686,-23.455
GYROSCOPE,0.025961773,0.014049901,0.059253927
ORIENTATION,243,330,358
ACCELEROMETER,0.34835634,4.8877625,8.336611
MAGNETIC_FIELD,5.973,-17.686,-23.455
GYROSCOPE,0.009468411,0.018020526,0.005192355
ORIENTATION,239,330,359
ACCELEROMETER,0.17417817,4.759673,8.394072
MAGNETIC_FIELD,5.973,-17.686,-23.455
GYROSCOPE,0.013439035,0.017715093,-0.062308256
ORIENTATION,245,329,357
ACCELEROMETER,0.45729253,4.8458643,8.122928
MAGNETIC_FIELD,5.973,-17.686,-23.455
GYROSCOPE,0.006414085,0.019242255,-0.011911872
ORIENTATION,241,330,358
ACCELEROMETER,0.22924481,4.994903,8.595184
MAGNETIC_FIELD,5.973,-17.686,-23.455
GYROSCOPE,0.0030543262,0.011301007,0.004581489
ORIENTATION,236,331,359
ACCELEROMETER,0.17118542,4.6363716,8.486248
MAGNETIC_FIELD,5.973,-17.686,-23.455
GYROSCOPE,0.0067195175,0.007330383,-0.018325957
ORIENTATION,240,330,359
ACCELEROMETER,0.16879122,4.8883615,8.511387
MAGNETIC_FIELD,5.973,-17.686,-23.455
GYROSCOPE,-0.022907447,0.015882496,-0.03268129
ORIENTATION,238,331,359
ACCELEROMETER,0.1352724,4.7429137,8.422802
MAGNETIC_FIELD,5.973,-17.686,-23.455
GYROSCOPE,-0.022907447,0.005497787,-0.093767814
ORIENTATION,244,329,358
ACCELEROMETER,0.33039984,4.8901567,8.2593975
MAGNETIC_FIELD,5.973,-17.686,-23.455
GYROSCOPE,0.018325957,-0.04795292,0.014049901
ORIENTATION,237,331,360
ACCELEROMETER,0.0712275,4.7830167,8.497621
MAGNETIC_FIELD,5.973,-17.686,-23.455
GYROSCOPE,0.0030543262,-0.0021380284,-0.07238753
ORIENTATION,246,329,357
ACCELEROMETER,0.37828386,4.8219223,7.9768815
MAGNETIC_FIELD,5.973,-17.686,-23.455
GYROSCOPE,0.034208454,-0.03145956,0.042760566
ORIENTATION,243,330,357
ACCELEROMETER,0.4213795,4.907515,8.450933
MAGNETIC_FIELD,5.973,-17.686,-23.455
GYROSCOPE,0.039095376,0.044898596,-0.013133603
ORIENTATION,242,330,358
ACCELEROMETER,0.320823,4.9242744,8.500014
MAGNETIC_FIELD,5.973,-18.005,-23.455
GYROSCOPE,0.03848451,0.017715093,0.027183503
ORIENTATION,239,330,358
ACCELEROMETER,0.2717419,4.7758336,8.27077
MAGNETIC_FIELD,5.973,-18.005,-23.455
GYROSCOPE,-0.004276057,0.034513887,0.055283304
ORIENTATION,237,330,359
ACCELEROMETER,0.2088941,4.863222,8.582016
MAGNETIC_FIELD,5.973,-18.005,-23.455
GYROSCOPE,-0.0290161,0.01038471,0.0076358155
ORIENTATION,238,331,358
ACCELEROMETER,0.2645593,4.784812,8.477868
MAGNETIC_FIELD,5.973,-18.005,-23.455
GYROSCOPE,0.014660766,-0.007941248,0.03726278
ORIENTATION,238,331,358
ACCELEROMETER,0.30346507,4.8159366,8.525154
MAGNETIC_FIELD,5.973,-18.005,-23.455
GYROSCOPE,0.019547688,-0.0030543262,0.029932396
ORIENTATION,240,330,358
ACCELEROMETER,0.3633201,4.882974,8.430583
MAGNETIC_FIELD,5.973,-18.005,-23.455
GYROSCOPE,0.003970624,0.016187929,0.04337143
ORIENTATION,241,330,357
ACCELEROMETER,0.3657143,4.8057613,8.239047
MAGNETIC_FIELD,5.973,-18.005,-23.455
GYROSCOPE,0.011911872,0.0021380284,-0.0061086523
ORIENTATION,240,330,357
ACCELEROMETER,0.45848963,4.84766,8.440758
MAGNETIC_FIELD,5.973,-18.005,-23.455
GYROSCOPE,-0.026572637,0.016798794,-0.03970624
ORIENTATION,235,331,359
ACCELEROMETER,0.2148796,4.76087,8.671799
MAGNETIC_FIELD,5.973,-18.005,-23.455
GYROSCOPE,-0.030848695,-6.1086525E-4,-0.04734206
ORIENTATION,240,330,358
ACCELEROMETER,0.32321724,4.808754,8.32045
MAGNETIC_FIELD,5.973,-18.005,-23.455
GYROSCOPE,0.0070249503,-0.0033597588,-0.036957346
ORIENTATION,241,330,357
ACCELEROMETER,0.39324763,4.939238,8.450933
MAGNETIC_FIELD,5.973,-18.005,-23.455
GYROSCOPE,-0.020463986,0.027794369,-0.003970624
ORIENTATION,241,330,357
ACCELEROMETER,0.41240123,4.8464627,8.357559
MAGNETIC_FIELD,5.973,-18.005,-23.455
GYROSCOPE,0.01740966,0.0027488936,-0.022907447
ORIENTATION,238,331,358
ACCELEROMETER,0.2777274,4.8099513,8.521563
MAGNETIC_FIELD,5.973,-18.005,-23.455
GYROSCOPE,-0.038789943,-0.007941248,-0.03726278
ORIENTATION,238,330,358
ACCELEROMETER,0.24061728,4.791396,8.415619
MAGNETIC_FIELD,5.973,-18.005,-23.455
GYROSCOPE,0.02107485,-0.007330383,-0.05467244
ORIENTATION,237,331,359
ACCELEROMETER,0.20470424,4.811747,8.507197
MAGNETIC_FIELD,5.973,-18.005,-23.455
GYROSCOPE,-0.008552114,0.015271631,-0.04428773
ORIENTATION,239,330,358
ACCELEROMETER,0.3333926,4.83928,8.500613
MAGNETIC_FIELD,5.973,-18.005,-23.455
GYROSCOPE,-0.005497787,0.01863139,9.162979E-4
ORIENTATION,234,331,360
ACCELEROMETER,0.073621705,4.7309427,8.631696
MAGNETIC_FIELD,5.973,-18.005,-23.455
GYROSCOPE,-0.030848695,-0.0061086523,-0.042760566
ORIENTATION,238,330,358
ACCELEROMETER,0.26156655,4.815338,8.487445
MAGNETIC_FIELD,5.973,-18.005,-23.455
GYROSCOPE,-0.010079277,0.009468411,-0.008857546
ORIENTATION,237,331,359
ACCELEROMETER,0.19273324,4.7961845,8.526949
MAGNETIC_FIELD,5.973,-18.005,-23.139
GYROSCOPE,0.027794369,-0.005192355,-0.032070424
ORIENTATION,236,330,359
ACCELEROMETER,0.11252748,4.9548006,8.707113
MAGNETIC_FIELD,5.973,-18.005,-23.139
GYROSCOPE,0.021991149,-0.004276057,-0.01038471
ORIENTATION,239,330,359
ACCELEROMETER,0.14724341,4.823718,8.209119
MAGNETIC_FIELD,5.973,-18.005,-23.139
GYROSCOPE,0.063224554,0.010079277,0.06169739
ORIENTATION,237,330,359
ACCELEROMETER,0.13946225,4.88058,8.487445
MAGNETIC_FIELD,5.973,-18.005,-23.139
GYROSCOPE,-0.021991149,0.017104227,0.015577064
ORIENTATION,239,330,359
ACCELEROMETER,0.1945289,4.9045224,8.371326
MAGNETIC_FIELD,5.973,-18.005,-23.139
GYROSCOPE,-0.01740966,-0.015271631,0.032375857
ORIENTATION,241,329,358
ACCELEROMETER,0.23822308,4.899135,8.209119
MAGNETIC_FIELD,5.973,-18.005,-23.139
GYROSCOPE,0.0143553335,-9.162979E-4,0.016798794
ORIENTATION,241,329,358
ACCELEROMETER,0.3333926,4.9176903,8.319851
MAGNETIC_FIELD,5.973,-18.005,-23.139
GYROSCOPE,0.0143553335,-9.162979E-4,0.03756821
ORIENTATION,239,330,358
ACCELEROMETER,0.26994625,4.8518496,8.36175
MAGNETIC_FIELD,5.973,-18.005,-23.139
GYROSCOPE,0.02107485,-0.004886922,0.013744468
ORIENTATION,236,331,358
ACCELEROMETER,0.25617957,4.7746367,8.527548
MAGNETIC_FIELD,5.973,-18.005,-23.139
GYROSCOPE,-0.0290161,0.008857546,0.00580322
ORIENTATION,235,331,358
ACCELEROMETER,0.23403321,4.7070007,8.509591
MAGNETIC_FIELD,5.973,-18.005,-23.139
GYROSCOPE,-0.040317107,0.02076942,-0.04550946
ORIENTATION,240,330,357
ACCELEROMETER,0.3800795,4.936844,8.5060005
MAGNETIC_FIELD,5.973,-18.005,-23.139
GYROSCOPE,-0.026267206,-0.013439035,-0.010995574
ORIENTATION,235,331,358
ACCELEROMETER,0.2789245,4.644751,8.4664955
MAGNETIC_FIELD,5.973,-18.005,-23.139
GYROSCOPE,-0.011911872,-0.018936822,-0.018020526
ORIENTATION,235,331,358
ACCELEROMETER,0.27952304,4.7165775,8.566454
MAGNETIC_FIELD,5.973,-18.005,-23.139
GYROSCOPE,0.0027488936,-0.0067195175,-0.038789943
ORIENTATION,240,330,356
ACCELEROMETER,0.54527944,4.824915,8.4347725
MAGNETIC_FIELD,5.973,-18.005,-23.139
GYROSCOPE,0.0067195175,0.006414085,0.023823744
ORIENTATION,235,331,358
ACCELEROMETER,0.3489549,4.681263,8.567052
MAGNETIC_FIELD,5.973,-18.005,-23.139
GYROSCOPE,-0.017715093,0.017715093,-0.045814894
ORIENTATION,234,331,358
ACCELEROMETER,0.25198972,4.6884456,8.607754
MAGNETIC_FIELD,5.973,-18.005,-23.139
GYROSCOPE,0.007330383,-0.0012217305,-0.052534413
ORIENTATION,236,331,359
ACCELEROMETER,0.19093758,4.6980224,8.327632
MAGNETIC_FIELD,5.973,-18.005,-23.139
GYROSCOPE,0.008552114,0.007941248,-0.042760566
ORIENTATION,234,331,359
ACCELEROMETER,0.14844051,4.658518,8.451532
MAGNETIC_FIELD,5.973,-18.005,-23.139
GYROSCOPE,0.0106901415,0.017104227,-0.042760566
ORIENTATION,235,331,359
ACCELEROMETER,0.22385786,4.7524905,8.582615
MAGNETIC_FIELD,5.973,-18.005,-23.139
GYROSCOPE,-0.00580322,-9.162979E-4,0.009468411
ORIENTATION,233,331,359
ACCELEROMETER,0.10594343,4.6441526,8.53054
MAGNETIC_FIELD,5.973,-18.005,-23.139
GYROSCOPE,0.0027488936,0.0125227375,-0.007941248
ORIENTATION,238,330,358
ACCELEROMETER,0.32321724,4.8147397,8.389283
MAGNETIC_FIELD,5.973,-18.005,-23.139
GYROSCOPE,0.0143553335,0.0106901415,-0.011911872
ORIENTATION,237,330,358
ACCELEROMETER,0.26036942,4.7500963,8.368932
MAGNETIC_FIELD,5.973,-18.005,-23.139
GYROSCOPE,0.022296581,0.0143553335,0.0015271631
ORIENTATION,234,331,359
ACCELEROMETER,0.11731588,4.746505,8.508394
MAGNETIC_FIELD,5.973,-18.005,-23.139
GYROSCOPE,-3.0543262E-4,0.011911872,-0.01740966
ORIENTATION,237,330,358
ACCELEROMETER,0.27593175,4.7656584,8.410232
MAGNETIC_FIELD,5.973,-18.005,-23.139
GYROSCOPE,0.024740042,-0.00580322,0.05100725
ORIENTATION,238,330,359
ACCELEROMETER,0.20470424,4.832696,8.376115
MAGNETIC_FIELD,5.586,-18.005,-23.139
GYROSCOPE,0.014049901,-0.01038471,0.03023783
ORIENTATION,236,330,358
ACCELEROMETER,0.32202014,4.8428717,8.516774
MAGNETIC_FIELD,5.586,-18.005,-23.139
GYROSCOPE,0.013744468,0.0,0.017715093
ORIENTATION,236,330,358
ACCELEROMETER,0.31064767,4.7860093,8.430583
MAGNETIC_FIELD,5.586,-18.005,-23.139
GYROSCOPE,0.0143553335,0.016187929,0.007330383
ORIENTATION,235,331,358
ACCELEROMETER,0.26635495,4.770447,8.455123
MAGNETIC_FIELD,5.586,-18.005,-23.139
GYROSCOPE,0.0070249503,-0.008857546,-0.0033597588
ORIENTATION,237,330,358
ACCELEROMETER,0.31423897,4.7818193,8.269572
MAGNETIC_FIELD,5.586,-18.005,-23.139
GYROSCOPE,0.005497787,0.008857546,-0.009773844
ORIENTATION,235,331,358
ACCELEROMETER,0.25797522,4.783615,8.4647
MAGNETIC_FIELD,5.586,-18.005,-23.139
GYROSCOPE,-0.014966198,0.007330383,-0.03573562
ORIENTATION,236,330,358
ACCELEROMETER,0.3333926,4.805163,8.461109
MAGNETIC_FIELD,5.586,-18.35,-23.463
GYROSCOPE,-9.162979E-4,-3.0543262E-4,-0.016187929
ORIENTATION,233,331,358
ACCELEROMETER,0.23762453,4.744709,8.509591
MAGNETIC_FIELD,5.586,-18.35,-23.463
GYROSCOPE,0.0067195175,-0.004581489,-0.02687807
ORIENTATION,234,330,358
ACCELEROMETER,0.22385786,4.80636,8.488044
MAGNETIC_FIELD,5.586,-18.35,-23.463
GYROSCOPE,0.0021380284,-0.0018325958,-0.0070249503
ORIENTATION,236,330,358
ACCELEROMETER,0.32142156,4.8219223,8.393473
MAGNETIC_FIELD,5.586,-18.35,-23.463
GYROSCOPE,0.017715093,0.01863139,-0.007330383
ORIENTATION,234,330,359
ACCELEROMETER,0.20949265,4.8338933,8.504205
MAGNETIC_FIELD,5.586,-18.35,-23.463
GYROSCOPE,-0.01985312,0.03268129,-0.025961773
ORIENTATION,234,330,359
ACCELEROMETER,0.2112883,4.777031,8.431181
MAGNETIC_FIELD,5.586,-18.35,-23.463
GYROSCOPE,0.004581489,-3.0543262E-4,-0.01038471
ORIENTATION,234,330,359
ACCELEROMETER,0.21308395,4.795586,8.449737
MAGNETIC_FIELD,5.586,-18.35,-23.463
GYROSCOPE,-0.014660766,0.0033597588,-0.0125227375
ORIENTATION,233,331,358
ACCELEROMETER,0.22445641,4.733337,8.45213
MAGNETIC_FIELD,5.586,-18.35,-23.463
GYROSCOPE,-0.0067195175,0.0076358155,-0.015577064
ORIENTATION,232,331,359
ACCELEROMETER,0.20649989,4.697424,8.523358
MAGNETIC_FIELD,5.586,-18.35,-23.463
GYROSCOPE,-0.016798794,0.008857546,-0.027794369
ORIENTATION,232,331,359
ACCELEROMETER,0.1328782,4.735731,8.487445
MAGNETIC_FIELD,5.586,-18.35,-23.463
GYROSCOPE,0.01160644,-0.002443461,-0.027794369
ORIENTATION,233,331,358
ACCELEROMETER,0.25737667,4.644751,8.3868885
MAGNETIC_FIELD,5.586,-18.35,-23.463
GYROSCOPE,0.023823744,0.0018325958,-0.015882496
ORIENTATION,230,332,359
ACCELEROMETER,0.109534726,4.465186,8.231864
MAGNETIC_FIELD,5.586,-18.35,-23.463
GYROSCOPE,0.058643065,-0.030543262,0.03970624
ORIENTATION,221,333,2
ACCELEROMETER,-0.23223756,4.437054,8.731055
MAGNETIC_FIELD,5.586,-18.35,-23.463
GYROSCOPE,-0.18112154,-0.028710667,-0.19761491
ORIENTATION,200,336,7
ACCELEROMETER,-1.2294226,4.39755,10.022128
MAGNETIC_FIELD,5.586,-18.35,-23.463
GYROSCOPE,-0.11942416,0.49449542,-0.09682214
ORIENTATION,224,333,1
ACCELEROMETER,-0.08140286,4.607043,8.977059
MAGNETIC_FIELD,5.902,-17.996,-23.463
GYROSCOPE,-0.110872045,-0.1600467,0.040927973
ORIENTATION,231,331,1
ACCELEROMETER,-0.1400608,4.6261964,8.49343
MAGNETIC_FIELD,5.902,-17.996,-23.463
GYROSCOPE,0.0842994,-0.2938262,0.051618114
ORIENTATION,195,334,11
ACCELEROMETER,-1.6130934,4.3538556,8.624513
MAGNETIC_FIELD,5.902,-17.996,-23.463
GYROSCOPE,-0.6795876,-0.012217305,-0.39706242
ORIENTATION,208,346,359
ACCELEROMETER,0.16280572,2.3014264,9.514558
MAGNETIC_FIELD,6.338,-17.651,-23.463
GYROSCOPE,-0.36682457,-0.046731193,-0.5170974
ORIENTATION,211,341,2
ACCELEROMETER,-0.29688102,2.9861681,8.872911
MAGNETIC_FIELD,6.338,-13.327,-23.463
GYROSCOPE,0.36041048,-0.1600467,0.17287487
ORIENTATION,228,339,5
ACCELEROMETER,-0.7104794,3.3506854,8.768764
MAGNETIC_FIELD,6.716,-13.327,-25.325
GYROSCOPE,0.1572978,0.22021692,0.04428773
ORIENTATION,237,339,4
ACCELEROMETER,-0.57400984,3.3602622,8.72507
MAGNETIC_FIELD,7.559,-13.327,-26.252
GYROSCOPE,0.10567969,0.14538592,0.13439035
ORIENTATION,238,340,4
ACCELEROMETER,-0.6512229,3.3010056,9.205107
MAGNETIC_FIELD,8.512,-13.327,-26.585
GYROSCOPE,0.016798794,0.02107485,0.022296581
ORIENTATION,227,346,4
ACCELEROMETER,-0.59974754,2.3588872,9.278131
MAGNETIC_FIELD,8.512,-13.327,-26.585
GYROSCOPE,0.41416663,-0.0027488936,0.6826419
ORIENTATION,344,325,15
ACCELEROMETER,-1.9303252,5.357026,7.3268557
MAGNETIC_FIELD,8.92,-14.796,-26.585
GYROSCOPE,0.6478226,0.10445796,0.1554652
ORIENTATION,316,321,7
ACCELEROMETER,-0.943914,5.985504,7.3699512
MAGNETIC_FIELD,10.496,-19.583,-23.6
GYROSCOPE,0.17440203,-0.23640485,0.17898351
ORIENTATION,238,327,15
ACCELEROMETER,-2.1098902,5.315128,7.941567
MAGNETIC_FIELD,10.496,-20.96,-22.845
GYROSCOPE,0.024740042,0.29016098,-0.24404067
