ORIENTATION,0,0,0
ACCELEROMETER,-0.75716627,4.836886,8.209119
MAGNETIC_FIELD,19.735,-21.925,-38.983
GYROSCOPE,-0.04795292,-0.061391957,-0.049785517
ORIENTATION,261,335,360
ACCELEROMETER,0.05746084,4.5274353,9.552266
MAGNETIC_FIELD,20.307,-21.925,-39.317
GYROSCOPE,0.09712757,-0.061391957,-0.23823744
ORIENTATION,266,332,359
ACCELEROMETER,0.15502456,4.507085,8.617929
MAGNETIC_FIELD,18.695,-21.925,-39.317
GYROSCOPE,-0.3827071,-0.68233645,-0.13408493
ORIENTATION,277,328,0
ACCELEROMETER,-0.020350715,4.6902413,7.506421
MAGNETIC_FIELD,15.228,-21.925,-39.317
GYROSCOPE,0.14935656,-0.47678033,-0.08979719
ORIENTATION,248,338,1
ACCELEROMETER,-0.19871874,3.5978866,9.039907
MAGNETIC_FIELD,14.913,-21.925,-38.681
GYROSCOPE,1.0152581,-0.021991149,-0.015882496
ORIENTATION,266,330,350
ACCELEROMETER,1.4287399,4.745308,8.25401
MAGNETIC_FIELD,14.588,-21.624,-39.945
GYROSCOPE,0.16890424,-0.15607607,0.15577064
ORIENTATION,267,332,356
ACCELEROMETER,0.54288524,4.7177744,8.871116
MAGNETIC_FIELD,12.077,-21.624,-39.945
GYROSCOPE,-0.21105394,-0.19181168,-0.28863382
ORIENTATION,273,330,354
ACCELEROMETER,0.8678981,5.0403934,8.561666
MAGNETIC_FIELD,12.432,-21.624,-38.81
GYROSCOPE,-0.05375614,0.1142318,-0.026572637
ORIENTATION,253,337,354
ACCELEROMETER,1.0510546,4.034828,9.309854
MAGNETIC_FIELD,11.676,-21.624,-38.81
GYROSCOPE,-0.7816021,0.01160644,-0.33628133
ORIENTATION,245,339,358
ACCELEROMETER,0.32561144,3.8744168,9.880272
MAGNETIC_FIELD,11.676,-21.624,-39.573
GYROSCOPE,0.024740042,-0.027794369,0.13103059
ORIENTATION,279,330,4
ACCELEROMETER,-0.44472298,3.9857473,6.849811
MAGNETIC_FIELD,11.676,-20.848,-39.573
GYROSCOPE,1.0574077,0.040011674,-0.1432479
ORIENTATION,240,341,359
ACCELEROMETER,0.15263036,3.7235823,10.946889
MAGNETIC_FIELD,13.919,-21.327,-37.953
GYROSCOPE,-0.88422745,0.795652,-0.5537493
ORIENTATION,254,337,355
ACCELEROMETER,0.7966706,3.9318779,9.027337
MAGNETIC_FIELD,14.955,-18.006,-39.433
GYROSCOPE,-0.015882496,-0.36774087,0.09865474
ORIENTATION,250,342,2
ACCELEROMETER,-0.3393781,2.932897,9.018359
MAGNETIC_FIELD,13.764,-19.122,-38.52
GYROSCOPE,0.6246097,0.24862215,0.094989546
ORIENTATION,281,328,355
ACCELEROMETER,0.7637503,4.9865236,7.949947
MAGNETIC_FIELD,14.501,-17.648,-39.453
GYROSCOPE,0.6441574,-0.47647488,0.07880162
ORIENTATION,287,327,353
ACCELEROMETER,0.9983821,5.4486046,8.1797905
MAGNETIC_FIELD,12.698,-20.88,-37.736
GYROSCOPE,-0.08979719,-0.27397305,0.06566802
ORIENTATION,273,330,2
ACCELEROMETER,-0.19273324,4.1491513,7.316082
MAGNETIC_FIELD,10.644,-22.293,-37.736
GYROSCOPE,0.32436943,-0.07696902,0.0870483
ORIENTATION,279,325,351
ACCELEROMETER,1.1300632,5.3636103,7.4507556
MAGNETIC_FIELD,14.535,-22.293,-36.944
GYROSCOPE,0.16462818,1.1432343,0.11728613
ORIENTATION,265,330,357
ACCELEROMETER,0.41718966,5.270835,9.273342
MAGNETIC_FIELD,13.694,-23.207,-36.944
GYROSCOPE,-0.25473082,0.06719518,-0.03145956
ORIENTATION,269,329,5
ACCELEROMETER,-0.7248446,4.732738,7.807492
MAGNETIC_FIELD,14.755,-22.724,-38.04
GYROSCOPE,0.103847094,0.024740042,0.035430185
ORIENTATION,263,332,0
ACCELEROMETER,-0.05626374,4.936844,9.127894
MAGNETIC_FIELD,15.824,-22.724,-38.04
GYROSCOPE,-0.3295618,0.33078352,0.22418754
ORIENTATION,259,333,359
ACCELEROMETER,0.11432313,4.7201686,9.384672
MAGNETIC_FIELD,15.824,-21.813,-37.489
GYROSCOPE,-0.4841107,-0.032375857,0.019547688
ORIENTATION,267,331,3
ACCELEROMETER,-0.3728969,4.7081976,8.5060005
MAGNETIC_FIELD,14.95,-20.941,-37.489
GYROSCOPE,0.07238753,-0.081855945,-0.006414085
ORIENTATION,276,329,1
ACCELEROMETER,-0.11731588,4.7961845,7.991845
MAGNETIC_FIELD,15.403,-21.91,-37.045
GYROSCOPE,0.13347405,0.01863139,0.061391957
ORIENTATION,267,330,358
ACCELEROMETER,0.2657564,5.5096564,9.592968
MAGNETIC_FIELD,15.084,-21.91,-37.045
GYROSCOPE,-0.13439035,-0.004886922,0.18570304
ORIENTATION,273,329,2
ACCELEROMETER,-0.2657564,4.781221,7.8876977
MAGNETIC_FIELD,14.537,-21.176,-37.464
GYROSCOPE,0.098043874,-0.24740042,-0.12186762
ORIENTATION,276,329,2
ACCELEROMETER,-0.25139117,5.0960584,8.421604
MAGNETIC_FIELD,15.034,-21.832,-37.104
GYROSCOPE,-0.0036651916,0.05375614,0.073303826
ORIENTATION,270,330,0
ACCELEROMETER,-0.033518825,4.996699,8.552687
MAGNETIC_FIELD,15.034,-21.832,-37.104
GYROSCOPE,0.14355333,-0.09285152,0.018020526
ORIENTATION,266,331,2
ACCELEROMETER,-0.3693056,4.7620673,8.603564
MAGNETIC_FIELD,15.034,-21.832,-37.104
GYROSCOPE,0.040011674,-0.06872234,-0.06261369
ORIENTATION,268,330,2
ACCELEROMETER,-0.29448682,4.8003745,8.426393
MAGNETIC_FIELD,15.37,-21.832,-37.104
GYROSCOPE,0.043066,0.10415252,0.035124753
ORIENTATION,276,328,0
ACCELEROMETER,-0.065242,5.1648917,8.143278
MAGNETIC_FIELD,15.37,-21.832,-36.717
GYROSCOPE,0.059253927,-0.054061573,-0.0290161
ORIENTATION,276,328,2
ACCELEROMETER,-0.23283611,5.1702785,8.167819
MAGNETIC_FIELD,15.37,-21.832,-36.717
GYROSCOPE,0.106901415,-0.12675454,0.040927973
ORIENTATION,274,328,360
ACCELEROMETER,0.07062895,5.1122193,8.123527
MAGNETIC_FIELD,14.991,-22.167,-36.717
GYROSCOPE,0.014049901,-0.03634648,0.020463986
ORIENTATION,273,328,360
ACCELEROMETER,0.0700304,5.1666875,8.193557
MAGNETIC_FIELD,14.991,-22.167,-36.328
GYROSCOPE,0.05222898,0.03573562,-0.013133603
ORIENTATION,271,328,1
ACCELEROMETER,-0.08140286,5.1583076,8.319252
MAGNETIC_FIELD,14.991,-22.167,-36.328
GYROSCOPE,0.024740042,-0.01160644,0.015577064
ORIENTATION,272,328,359
ACCELEROMETER,0.09816227,5.2421045,8.317456
MAGNETIC_FIELD,14.991,-22.167,-36.328
GYROSCOPE,-0.13683382,-0.011301007,0.0
ORIENTATION,270,329,1
ACCELEROMETER,-0.109534726,5.111022,8.447941
MAGNETIC_FIELD,15.435,-22.167,-35.992
GYROSCOPE,-0.044593163,0.08979719,-0.0036651916
ORIENTATION,273,327,0
ACCELEROMETER,-0.021547815,5.2582655,8.157045
MAGNETIC_FIELD,15.435,-22.167,-35.992
GYROSCOPE,-0.026267206,0.03726278,-0.05589417
ORIENTATION,270,328,360
ACCELEROMETER,0.04369418,5.1397524,8.288726
MAGNETIC_FIELD,15.435,-22.167,-35.992
GYROSCOPE,-0.010079277,-0.0061086523,0.030543262
ORIENTATION,276,325,357
ACCELEROMETER,0.40282443,5.5168395,7.9170265
MAGNETIC_FIELD,15.435,-22.167,-35.992
GYROSCOPE,0.04184427,-0.016493361,0.05100725
ORIENTATION,270,328,359
ACCELEROMETER,0.08200141,5.08289,8.248624
MAGNETIC_FIELD,15.435,-22.167,-35.992
GYROSCOPE,0.059864793,-0.056199603,-0.021380283
ORIENTATION,270,328,359
ACCELEROMETER,0.20590134,5.119402,8.2169
MAGNETIC_FIELD,15.435,-22.167,-35.992
GYROSCOPE,0.0070249503,-0.007941248,-0.06627888
ORIENTATION,272,327,358
ACCELEROMETER,0.30466217,5.249287,8.16363
MAGNETIC_FIELD,15.435,-22.167,-35.992
GYROSCOPE,-0.040927973,-0.0571159,-0.046120327
ORIENTATION,270,328,358
ACCELEROMETER,0.28790274,5.1660886,8.301296
MAGNETIC_FIELD,15.435,-22.167,-35.992
GYROSCOPE,-0.01740966,-0.048563786,-0.002443461
ORIENTATION,268,329,358
ACCELEROMETER,0.3184288,5.0625396,8.285733
MAGNETIC_FIELD,15.435,-22.479,-35.992
GYROSCOPE,-0.10323623,-0.04153884,-0.022907447
ORIENTATION,268,329,359
ACCELEROMETER,0.2124854,5.093664,8.358757
MAGNETIC_FIELD,15.435,-22.479,-35.992
GYROSCOPE,-0.036957346,-0.029626964,-0.02321288
ORIENTATION,266,329,358
ACCELEROMETER,0.23702596,4.84347,8.195353
MAGNETIC_FIELD,15.119,-22.479,-35.992
GYROSCOPE,0.004276057,0.02107485,-0.03756821
ORIENTATION,263,330,358
ACCELEROMETER,0.22924481,4.894945,8.56825
MAGNETIC_FIELD,15.119,-22.479,-35.992
GYROSCOPE,-0.031154128,0.03359759,-0.01985312
ORIENTATION,261,331,359
ACCELEROMETER,0.17956513,4.7656584,8.675988
MAGNETIC_FIELD,15.119,-22.479,-35.679
GYROSCOPE,-0.03145956,0.016798794,-0.032375857
ORIENTATION,263,330,358
ACCELEROMETER,0.24959552,4.931457,8.5473
MAGNETIC_FIELD,15.119,-22.479,-35.679
GYROSCOPE,0.003970624,0.0143553335,0.020463986
ORIENTATION,264,330,358
ACCELEROMETER,0.29328972,4.848857,8.26239
MAGNETIC_FIELD,15.119,-22.479,-35.679
GYROSCOPE,0.029321533,-0.0125227375,-0.03390302
ORIENTATION,264,330,359
ACCELEROMETER,0.20111294,4.833295,8.294113
MAGNETIC_FIELD,14.804,-22.479,-35.679
GYROSCOPE,-0.015271631,0.008246681,0.004886922
ORIENTATION,265,329,358
ACCELEROMETER,0.27952304,5.00448,8.450335
MAGNETIC_FIELD,14.804,-22.479,-35.679
GYROSCOPE,-0.0021380284,-0.008857546,-0.054367006
ORIENTATION,259,332,1
ACCELEROMETER,-0.16160862,4.621408,8.53054
MAGNETIC_FIELD,14.804,-22.479,-35.679
GYROSCOPE,-0.039095376,0.0012217305,-0.062308256
ORIENTATION,263,330,359
ACCELEROMETER,0.088585466,4.8297033,8.500014
MAGNETIC_FIELD,14.804,-22.479,-35.679
GYROSCOPE,-0.014660766,-0.01740966,-0.03145956
ORIENTATION,262,330,0
ACCELEROMETER,-0.036511578,4.76925,8.416816
MAGNETIC_FIELD,14.804,-22.479,-35.679
GYROSCOPE,0.029321533,0.06505715,-0.015271631
ORIENTATION,265,329,360
ACCELEROMETER,0.060453594,4.997896,8.453327
MAGNETIC_FIELD,14.804,-22.479,-35.679
GYROSCOPE,-0.00580322,0.0076358155,-0.005192355
ORIENTATION,265,329,359
ACCELEROMETER,0.14065935,4.9105077,8.313267
MAGNETIC_FIELD,14.804,-22.479,-35.679
GYROSCOPE,-0.0125227375,0.013744468,0.0061086523
ORIENTATION,265,330,360
ACCELEROMETER,0.01436521,4.8267107,8.224682
MAGNETIC_FIELD,14.804,-22.122,-35.679
GYROSCOPE,-0.021991149,0.0070249503,-0.01740966
ORIENTATION,262,331,360
ACCELEROMETER,0.031124622,4.685453,8.416218
MAGNETIC_FIELD,14.804,-22.122,-35.679
GYROSCOPE,-0.04550946,0.03023783,-0.035430185
ORIENTATION,261,331,360
ACCELEROMETER,0.061650693,4.6405616,8.476671
MAGNETIC_FIELD,14.804,-22.122,-35.679
GYROSCOPE,3.0543262E-4,0.0018325958,-0.029321533
ORIENTATION,261,331,0
ACCELEROMETER,-0.013766659,4.6339774,8.485649
MAGNETIC_FIELD,14.804,-22.122,-35.679
GYROSCOPE,-0.040927973,-0.035430185,-0.039095376
ORIENTATION,261,331,360
ACCELEROMETER,0.010175358,4.721366,8.631696
MAGNETIC_FIELD,14.804,-21.726,-35.679
GYROSCOPE,-0.019242255,-0.049480084,-0.004886922
ORIENTATION,261,332,359
ACCELEROMETER,0.08259996,4.502895,8.45213
MAGNETIC_FIELD,14.804,-21.726,-35.679
GYROSCOPE,-0.03268129,-0.002443461,-0.032070424
ORIENTATION,262,331,359
ACCELEROMETER,0.08738836,4.6525326,8.562862
MAGNETIC_FIELD,14.804,-21.726,-35.679
GYROSCOPE,-0.0030543262,0.020158553,-0.003970624
ORIENTATION,258,333,0
ACCELEROMETER,-0.0700304,4.4687777,8.804078
MAGNETIC_FIELD,14.804,-21.334,-35.679
GYROSCOPE,-0.024740042,0.002443461,-0.02565634
ORIENTATION,263,332,359
ACCELEROMETER,0.14784196,4.608838,8.562862
MAGNETIC_FIELD,15.116,-21.334,-35.679
GYROSCOPE,0.06505715,-0.05955936,0.02107485
ORIENTATION,259,333,0
ACCELEROMETER,-5.985504E-4,4.392163,8.696339
MAGNETIC_FIELD,15.116,-21.334,-35.679
GYROSCOPE,-0.016798794,-0.0021380284,0.03390302
ORIENTATION,262,332,360
ACCELEROMETER,0.05267244,4.6459484,8.7125
MAGNETIC_FIELD,15.116,-21.002,-35.679
GYROSCOPE,0.0067195175,0.046731193,-0.02076942
ORIENTATION,261,333,2
ACCELEROMETER,-0.22505496,4.3514614,8.533533
MAGNETIC_FIELD,15.116,-21.002,-35.679
GYROSCOPE,-0.056505036,0.009468411,-0.08674286
ORIENTATION,266,331,359
ACCELEROMETER,0.11671733,4.7788267,8.643666
MAGNETIC_FIELD,15.116,-21.002,-35.679
GYROSCOPE,0.03145956,-0.0067195175,0.02687807
ORIENTATION,263,332,1
ACCELEROMETER,-0.17298107,4.5663414,8.689157
MAGNETIC_FIELD,15.116,-21.002,-35.679
GYROSCOPE,0.0030543262,-0.046731193,-0.038789943
ORIENTATION,265,331,359
ACCELEROMETER,0.11492168,4.691438,8.536526
MAGNETIC_FIELD,15.116,-20.677,-35.679
GYROSCOPE,0.024740042,-0.01038471,0.008246681
ORIENTATION,265,332,360
ACCELEROMETER,0.037110128,4.6393642,8.55987
MAGNETIC_FIELD,15.47,-20.677,-35.679
GYROSCOPE,0.06536258,-0.015882496,0.009773844
ORIENTATION,267,331,359
ACCELEROMETER,0.20949265,4.6980224,8.471284
MAGNETIC_FIELD,15.47,-20.677,-35.679
GYROSCOPE,0.009162978,-0.18295415,-0.018020526
ORIENTATION,267,331,360
ACCELEROMETER,0.07062895,4.6686935,8.46051
MAGNETIC_FIELD,15.47,-20.677,-35.679
GYROSCOPE,0.06047566,0.032375857,-0.070249505
ORIENTATION,270,329,358
ACCELEROMETER,0.36391866,4.957195,8.404845
MAGNETIC_FIELD,15.47,-20.677,-35.679
GYROSCOPE,0.03481932,0.021380283,6.1086525E-4
ORIENTATION,270,330,360
ACCELEROMETER,0.05925649,4.876989,8.400057
MAGNETIC_FIELD,15.47,-20.677,-35.679
GYROSCOPE,0.0067195175,-0.02443461,-0.03023783
ORIENTATION,272,329,359
ACCELEROMETER,0.091578215,4.891354,8.194754
MAGNETIC_FIELD,15.47,-20.677,-35.679
GYROSCOPE,0.02565634,-6.1086525E-4,0.025350908
ORIENTATION,271,329,359
ACCELEROMETER,0.1328782,4.9218802,8.285135
MAGNETIC_FIELD,15.47,-20.677,-35.679
GYROSCOPE,0.012217305,0.05222898,0.005192355
ORIENTATION,270,330,0
ACCELEROMETER,-0.061052144,4.948815,8.503007
MAGNETIC_FIELD,15.47,-20.677,-35.679
GYROSCOPE,-0.011301007,0.025350908,0.049480084
ORIENTATION,268,331,360
ACCELEROMETER,0.016759412,4.8267107,8.550891
MAGNETIC_FIELD,15.47,-20.677,-35.679
GYROSCOPE,0.048258353,0.04520403,0.03268129
ORIENTATION,271,329,359
ACCELEROMETER,0.18914193,4.980538,8.317456
MAGNETIC_FIELD,15.47,-20.677,-35.679
GYROSCOPE,-0.01160644,0.04062254,0.010995574
ORIENTATION,273,329,360
ACCELEROMETER,0.025139118,5.052963,8.268974
MAGNETIC_FIELD,15.47,-20.677,-35.679
GYROSCOPE,-6.1086525E-4,-0.03756821,-0.008246681
ORIENTATION,272,329,359
ACCELEROMETER,0.1945289,5.0182467,8.277354
MAGNETIC_FIELD,15.135,-20.677,-35.679
GYROSCOPE,0.03634648,0.0021380284,0.030543262
ORIENTATION,273,329,359
ACCELEROMETER,0.09995792,5.053561,8.268375
MAGNETIC_FIELD,15.135,-21.089,-35.679
GYROSCOPE,0.01160644,0.027183503,-0.0061086523
ORIENTATION,271,329,359
ACCELEROMETER,0.19572599,5.016451,8.26658
MAGNETIC_FIELD,15.135,-21.089,-35.679
GYROSCOPE,-0.017715093,0.011911872,0.0036651916
ORIENTATION,269,330,359
ACCELEROMETER,0.08559271,4.9559975,8.429984
MAGNETIC_FIELD,15.135,-21.417,-35.679
GYROSCOPE,-0.01160644,0.018325957,-0.0290161
ORIENTATION,270,329,360
ACCELEROMETER,0.06464344,4.969764,8.218696
MAGNETIC_FIELD,15.135,-21.417,-35.679
GYROSCOPE,0.0106901415,-0.010079277,-0.01160644
ORIENTATION,271,328,359
ACCELEROMETER,0.207697,5.0691237,8.236652
MAGNETIC_FIELD,14.793,-21.417,-35.679
GYROSCOPE,0.049480084,0.01282817,-6.1086525E-4
ORIENTATION,270,329,359
ACCELEROMETER,0.110731825,4.9745526,8.230068
MAGNETIC_FIELD,14.793,-21.829,-35.679
GYROSCOPE,0.002443461,-0.013439035,-0.01740966
ORIENTATION,271,328,359
ACCELEROMETER,0.15442601,5.171476,8.322844
MAGNETIC_FIELD,14.793,-21.829,-35.679
GYROSCOPE,0.027794369,-0.0125227375,0.008857546
ORIENTATION,268,329,358
ACCELEROMETER,0.2789245,5.0481744,8.407239
MAGNETIC_FIELD,14.793,-21.829,-35.346
GYROSCOPE,0.023518313,0.0027488936,0.014966198
ORIENTATION,269,329,359
ACCELEROMETER,0.14963761,5.0822916,8.327033
MAGNETIC_FIELD,14.793,-22.164,-35.346
GYROSCOPE,0.01985312,-0.0021380284,-0.02321288
ORIENTATION,269,328,360
ACCELEROMETER,0.034715924,5.0020857,8.130111
MAGNETIC_FIELD,14.793,-22.164,-35.346
GYROSCOPE,-0.020463986,-0.0421497,-0.03390302
ORIENTATION,268,328,359
ACCELEROMETER,0.13826515,5.13257,8.350976
MAGNETIC_FIELD,14.485,-22.164,-35.346
GYROSCOPE,-0.024740042,0.006414085,-0.024129177
ORIENTATION,268,328,358
ACCELEROMETER,0.2124854,5.0320134,8.113351
MAGNETIC_FIELD,14.485,-22.164,-35.346
GYROSCOPE,0.021380283,0.05955936,-0.01038471
ORIENTATION,267,329,360
ACCELEROMETER,0.009576807,5.0463786,8.418612
MAGNETIC_FIELD,14.485,-22.5,-35.346
GYROSCOPE,-0.04520403,0.016798794,-0.02443461
ORIENTATION,265,329,360
ACCELEROMETER,0.032920275,5.094861,8.567052
MAGNETIC_FIELD,14.485,-22.5,-35.346
GYROSCOPE,0.002443461,-0.017715093,0.00580322
ORIENTATION,266,329,359
ACCELEROMETER,0.08559271,4.9996915,8.243835
MAGNETIC_FIELD,14.485,-22.5,-35.346
GYROSCOPE,0.020463986,9.162979E-4,-0.0070249503
ORIENTATION,267,329,360
ACCELEROMETER,0.06404489,5.0451818,8.268375
MAGNETIC_FIELD,14.485,-22.5,-35.346
GYROSCOPE,6.1086525E-4,-0.019547688,-0.004886922
ORIENTATION,265,329,359
ACCELEROMETER,0.079008654,4.953005,8.298902
MAGNETIC_FIELD,14.485,-22.5,-35.346
GYROSCOPE,-0.016187929,0.003970624,-0.016187929
ORIENTATION,266,329,359
ACCELEROMETER,0.17836803,5.064934,8.341997
MAGNETIC_FIELD,14.485,-22.5,-35.346
GYROSCOPE,-0.006414085,0.005497787,-0.016493361
ORIENTATION,266,329,359
ACCELEROMETER,0.10295067,4.9799395,8.258799
MAGNETIC_FIELD,14.485,-22.5,-35.346
GYROSCOPE,-0.016798794,-0.0030543262,-0.03268129
ORIENTATION,264,330,360
ACCELEROMETER,0.023343466,4.9733553,8.50181
MAGNETIC_FIELD,14.485,-22.5,-35.346
GYROSCOPE,0.02687807,-0.013133603,-0.033292156
ORIENTATION,268,328,360
ACCELEROMETER,0.04070143,5.04159,8.148665
MAGNETIC_FIELD,14.485,-22.5,-35.346
GYROSCOPE,-0.011301007,0.0125227375,0.031154128
ORIENTATION,264,329,359
ACCELEROMETER,0.10055647,5.033809,8.501212
MAGNETIC_FIELD,14.485,-22.5,-35.346
GYROSCOPE,0.022907447,0.024740042,0.016493361
ORIENTATION,264,329,359
ACCELEROMETER,0.074818805,4.953005,8.406641
MAGNETIC_FIELD,14.485,-22.5,-35.346
GYROSCOPE,-0.0030543262,0.025961773,-0.019547688
ORIENTATION,266,329,0
ACCELEROMETER,-0.011971008,5.036802,8.366538
MAGNETIC_FIELD,14.485,-22.5,-35.346
GYROSCOPE,-0.0021380284,-0.018325957,-0.02076942
ORIENTATION,265,329,360
ACCELEROMETER,0.05925649,4.9943047,8.340201
MAGNETIC_FIELD,14.485,-22.5,-35.346
GYROSCOPE,0.013439035,-0.009773844,-0.030543262
ORIENTATION,267,328,359
ACCELEROMETER,0.0796072,5.105635,8.303091
MAGNETIC_FIELD,14.802,-22.5,-35.346
GYROSCOPE,0.01863139,0.0076358155,-0.010079277
ORIENTATION,267,329,1
ACCELEROMETER,-0.09935937,5.026028,8.300697
MAGNETIC_FIELD,14.802,-22.5,-35.346
GYROSCOPE,-9.162979E-4,0.0067195175,-0.028405234
ORIENTATION,268,328,359
ACCELEROMETER,0.088585466,5.1122193,8.1756
MAGNETIC_FIELD,14.802,-22.5,-35.346
GYROSCOPE,-0.006414085,9.162979E-4,0.003970624
ORIENTATION,267,328,360
ACCELEROMETER,0.0688333,5.064934,8.262989
MAGNETIC_FIELD,14.802,-22.5,-35.346
GYROSCOPE,-0.014660766,0.0143553335,-0.009468411
ORIENTATION,267,329,360
ACCELEROMETER,0.0664391,5.047576,8.298902
MAGNETIC_FIELD,14.802,-22.5,-35.346
GYROSCOPE,-0.0015271631,0.01160644,-0.010079277
ORIENTATION,266,329,360
ACCELEROMETER,0.06703765,5.017648,8.274361
MAGNETIC_FIELD,14.802,-22.5,-35.346
GYROSCOPE,0.016493361,0.010079277,0.011911872
ORIENTATION,266,329,359
ACCELEROMETER,0.11252748,5.0559554,8.418612
MAGNETIC_FIELD,14.802,-22.5,-35.346
GYROSCOPE,0.02107485,-0.0030543262,0.01740966
ORIENTATION,268,328,358
ACCELEROMETER,0.2220622,5.2127757,8.343793
MAGNETIC_FIELD,14.802,-22.5,-35.346
GYROSCOPE,0.008552114,-0.0036651916,0.051618114
ORIENTATION,269,328,358
ACCELEROMETER,0.22625206,5.1571107,8.175002
MAGNETIC_FIELD,14.802,-22.5,-35.346
GYROSCOPE,0.018325957,-0.013439035,0.057726767
ORIENTATION,267,328,359
ACCELEROMETER,0.18495208,5.088876,8.297705
MAGNETIC_FIELD,14.802,-22.5,-35.346
GYROSCOPE,-0.022602014,0.008857546,6.1086525E-4
ORIENTATION,266,329,358
ACCELEROMETER,0.3465607,4.9506106,8.139089
MAGNETIC_FIELD,14.802,-22.5,-35.346
GYROSCOPE,-0.02443461,0.027183503,0.009773844
ORIENTATION,261,331,359
ACCELEROMETER,0.207697,4.84347,8.659229
MAGNETIC_FIELD,14.802,-22.5,-35.346
GYROSCOPE,-0.011911872,-0.0571159,0.16126843
ORIENTATION,259,331,2
ACCELEROMETER,-0.34356794,4.590882,8.44016
MAGNETIC_FIELD,14.802,-22.5,-35.346
GYROSCOPE,-0.18295415,0.22876903,0.08093964
ORIENTATION,269,329,5
ACCELEROMETER,-0.74998367,4.9057193,7.9912467
MAGNETIC_FIELD,14.802,-22.5,-35.346
GYROSCOPE,0.17867808,0.5766568,0.22937989
ORIENTATION,297,324,11
ACCELEROMETER,-1.3485341,5.139154,6.897695
MAGNETIC_FIELD,14.802,-22.5,-34.97
GYROSCOPE,0.16523905,0.43493605,0.06811147
