ORIENTATION,0,0,0
ACCELEROMETER,-0.7278373,5.303157,8.040926
MAGNETIC_FIELD,20.173,-16.854,-40.661
GYROSCOPE,-0.04550946,-0.020463986,-0.02076942
ORIENTATION,279,334,2
ACCELEROMETER,-0.36631286,4.4837413,9.279925
MAGNETIC_FIELD,19.523,-16.854,-41.079
GYROSCOPE,-0.18570304,-0.020463986,-0.19700404
ORIENTATION,280,334,1
ACCELEROMETER,-0.08259996,3.9749734,7.994838
MAGNETIC_FIELD,16.95,-15.344,-41.63
GYROSCOPE,-0.09132435,-0.6169739,-0.2855795
ORIENTATION,291,332,0
ACCELEROMETER,-0.06404489,4.5723267,8.513183
MAGNETIC_FIELD,15.725,-14.132,-42.373
GYROSCOPE,0.30970868,-0.034208454,-0.06261369
ORIENTATION,294,332,358
ACCELEROMETER,0.2681506,4.59986,8.492233
MAGNETIC_FIELD,15.725,-13.072,-42.373
GYROSCOPE,0.19058995,-0.096516706,0.0015271631
ORIENTATION,295,331,357
ACCELEROMETER,0.40102878,4.643554,8.535928
MAGNETIC_FIELD,14.074,-14.123,-42.373
GYROSCOPE,-0.22999077,-0.15760323,-0.058337633
ORIENTATION,294,333,360
ACCELEROMETER,0.048482586,4.4047327,8.734647
MAGNETIC_FIELD,14.527,-12.731,-42.373
GYROSCOPE,0.096516706,0.10934488,0.0021380284
ORIENTATION,305,329,359
ACCELEROMETER,0.08499416,4.936844,8.36175
MAGNETIC_FIELD,14.527,-13.32,-42.373
GYROSCOPE,0.30085114,0.08246681,0.12858713
ORIENTATION,304,328,358
ACCELEROMETER,0.22744916,4.912902,7.909844
MAGNETIC_FIELD,15.257,-14.75,-41.835
GYROSCOPE,-0.0842994,0.10903945,0.025045475
ORIENTATION,298,329,358
ACCELEROMETER,0.2220622,4.9613843,8.256405
MAGNETIC_FIELD,15.257,-14.75,-41.352
GYROSCOPE,0.18906279,0.06811147,0.002443461
ORIENTATION,299,330,1
ACCELEROMETER,-0.12689269,4.9099092,8.459313
MAGNETIC_FIELD,15.96,-14.75,-41.352
GYROSCOPE,-0.15454891,0.12767084,-0.06688975
ORIENTATION,294,330,359
ACCELEROMETER,0.13227965,4.796783,8.401254
MAGNETIC_FIELD,16.639,-15.145,-41.352
GYROSCOPE,-0.064446285,-0.04642576,-0.03573562
ORIENTATION,297,327,358
ACCELEROMETER,0.31423897,4.9883194,7.7213006
MAGNETIC_FIELD,15.791,-14.299,-41.352
GYROSCOPE,0.20341812,-0.07269296,-0.04886922
ORIENTATION,293,328,354
ACCELEROMETER,0.8475474,5.077503,8.2276745
MAGNETIC_FIELD,14.909,-14.299,-41.352
GYROSCOPE,-0.103847094,-0.036651913,0.21777347
ORIENTATION,267,342,357
ACCELEROMETER,0.599149,3.4626143,10.424355
MAGNETIC_FIELD,12.835,-12.487,-41.352
GYROSCOPE,0.04886922,0.11728613,0.22052236
ORIENTATION,284,338,357
ACCELEROMETER,0.4770447,3.6116533,8.853159
MAGNETIC_FIELD,11.68,-7.626,-41.352
GYROSCOPE,-1.2162327,-0.1740966,-0.42638394
ORIENTATION,312,337,1
ACCELEROMETER,-0.19692309,3.539827,8.149862
MAGNETIC_FIELD,14.208,-6.483,-41.352
GYROSCOPE,-0.32559118,-0.4343252,-0.13683382
ORIENTATION,293,341,356
ACCELEROMETER,0.5919664,3.0358477,8.628703
MAGNETIC_FIELD,13.748,-6.483,-41.352
GYROSCOPE,0.54428095,-0.41050145,0.09193522
ORIENTATION,296,340,356
ACCELEROMETER,0.60214174,3.4290953,9.21229
MAGNETIC_FIELD,10.272,-7.955,-41.688
GYROSCOPE,-0.03634648,-0.21166481,-0.01863139
ORIENTATION,305,336,356
ACCELEROMETER,0.59017074,3.958214,8.975264
MAGNETIC_FIELD,11.404,-8.412,-41.688
GYROSCOPE,0.10354166,0.15485434,0.053450707
ORIENTATION,312,332,358
ACCELEROMETER,0.30705637,4.495114,8.55987
MAGNETIC_FIELD,12.42,-9.371,-41.688
GYROSCOPE,-0.24587326,0.19394971,0.081855945
ORIENTATION,307,332,357
ACCELEROMETER,0.3842694,4.4364557,8.401254
MAGNETIC_FIELD,13.682,-12.777,-41.688
GYROSCOPE,0.1740966,0.21930063,0.103847094
ORIENTATION,296,332,356
ACCELEROMETER,0.62009823,4.6483426,8.582016
MAGNETIC_FIELD,14.071,-12.777,-41.995
GYROSCOPE,-0.094989546,0.13958271,0.042760566
ORIENTATION,295,333,357
ACCELEROMETER,0.46627077,4.3939586,8.498219
MAGNETIC_FIELD,13.063,-13.105,-41.995
GYROSCOPE,-0.02565634,-0.053145275,0.0027488936
ORIENTATION,295,332,356
ACCELEROMETER,0.54408234,4.5244427,8.642469
MAGNETIC_FIELD,13.063,-13.105,-41.995
GYROSCOPE,-0.09254608,0.06383542,0.017104227
ORIENTATION,295,332,356
ACCELEROMETER,0.5674258,4.457405,8.526351
MAGNETIC_FIELD,13.063,-13.105,-41.995
GYROSCOPE,-0.1282817,0.098043874,-0.077579886
ORIENTATION,293,334,357
ACCELEROMETER,0.415394,4.270657,8.700529
MAGNETIC_FIELD,13.406,-12.757,-41.995
GYROSCOPE,-0.045814894,0.052839845,-0.054367006
ORIENTATION,298,332,358
ACCELEROMETER,0.3357868,4.4274774,8.4826565
MAGNETIC_FIELD,13.406,-12.757,-41.995
GYROSCOPE,0.027183503,-0.01282817,0.025961773
ORIENTATION,296,333,357
ACCELEROMETER,0.4321534,4.4358573,8.6299
MAGNETIC_FIELD,13.406,-12.757,-41.995
GYROSCOPE,0.08368854,0.08155051,0.018936822
ORIENTATION,296,335,0
ACCELEROMETER,-0.037110128,4.0857053,8.673594
MAGNETIC_FIELD,13.406,-12.757,-41.995
GYROSCOPE,-0.111177474,0.03573562,-0.03848451
ORIENTATION,293,334,358
ACCELEROMETER,0.33758244,4.220978,8.804677
MAGNETIC_FIELD,13.406,-12.098,-41.995
GYROSCOPE,0.015882496,-0.018936822,-0.046731193
ORIENTATION,300,332,358
ACCELEROMETER,0.338181,4.3999443,8.337209
MAGNETIC_FIELD,12.956,-12.496,-41.995
GYROSCOPE,-0.12064589,-0.07238753,-0.044593163
ORIENTATION,291,337,360
ACCELEROMETER,0.078410104,3.9725792,9.235633
MAGNETIC_FIELD,12.956,-11.967,-41.671
GYROSCOPE,-0.025045475,0.07574729,-0.0106901415
ORIENTATION,292,336,357
ACCELEROMETER,0.41000703,4.027047,8.874108
MAGNETIC_FIELD,12.956,-11.378,-41.671
GYROSCOPE,-0.13591751,0.019547688,-0.1414153
ORIENTATION,296,335,357
ACCELEROMETER,0.39085343,4.1695023,8.792706
MAGNETIC_FIELD,12.956,-11.378,-41.671
GYROSCOPE,0.07513642,-0.18753563,0.034513887
ORIENTATION,299,334,358
ACCELEROMETER,0.23582886,4.134786,8.546103
MAGNETIC_FIELD,12.956,-11.378,-41.671
GYROSCOPE,0.07086037,0.024129177,0.013439035
ORIENTATION,299,335,359
ACCELEROMETER,0.108936176,4.1940427,8.79929
MAGNETIC_FIELD,12.956,-11.828,-41.671
GYROSCOPE,-0.0021380284,0.043982297,-0.020463986
ORIENTATION,300,333,358
ACCELEROMETER,0.25318682,4.39755,8.69155
MAGNETIC_FIELD,12.956,-11.828,-41.671
GYROSCOPE,0.0033597588,0.04428773,0.03848451
ORIENTATION,300,333,359
ACCELEROMETER,0.21188685,4.355053,8.656835
MAGNETIC_FIELD,12.956,-12.313,-41.671
GYROSCOPE,0.04428773,0.02443461,0.011301007
ORIENTATION,302,331,358
ACCELEROMETER,0.2825158,4.647744,8.5538845
MAGNETIC_FIELD,12.956,-12.313,-41.671
GYROSCOPE,0.01985312,-0.032070424,-0.014966198
ORIENTATION,300,332,357
ACCELEROMETER,0.4309563,4.6363716,8.528745
MAGNETIC_FIELD,12.956,-12.657,-41.671
GYROSCOPE,0.03756821,-0.04184427,0.021380283
ORIENTATION,299,332,357
ACCELEROMETER,0.43035775,4.642357,8.543709
MAGNETIC_FIELD,12.956,-12.657,-41.671
GYROSCOPE,-0.013133603,-0.0076358155,-0.015271631
ORIENTATION,299,332,358
ACCELEROMETER,0.2765303,4.5459905,8.652046
MAGNETIC_FIELD,12.956,-12.657,-41.671
GYROSCOPE,-0.030848695,-0.0015271631,-0.008857546
ORIENTATION,298,332,358
ACCELEROMETER,0.34596214,4.5633483,8.719084
MAGNETIC_FIELD,12.956,-12.657,-41.671
GYROSCOPE,-0.05009095,0.036957346,-0.02565634
ORIENTATION,298,333,358
ACCELEROMETER,0.29388827,4.489128,8.71669
MAGNETIC_FIELD,12.956,-12.657,-41.349
GYROSCOPE,-0.039095376,0.003970624,-0.02565634
ORIENTATION,299,332,358
ACCELEROMETER,0.2837129,4.522647,8.525154
MAGNETIC_FIELD,12.956,-12.657,-41.349
GYROSCOPE,-0.005192355,0.018325957,0.007330383
ORIENTATION,300,331,358
ACCELEROMETER,0.3597288,4.687248,8.46889
MAGNETIC_FIELD,12.956,-12.657,-41.349
GYROSCOPE,0.09468412,-0.008552114,-0.043066
ORIENTATION,300,332,359
ACCELEROMETER,0.2100912,4.4753613,8.402451
MAGNETIC_FIELD,12.956,-12.989,-41.349
GYROSCOPE,0.094989546,0.003970624,-0.014049901
ORIENTATION,305,330,360
ACCELEROMETER,0.05686229,4.701015,8.204929
MAGNETIC_FIELD,12.956,-12.989,-41.349
GYROSCOPE,-0.0870483,0.06261369,-0.0143553335
ORIENTATION,300,331,358
ACCELEROMETER,0.2645593,4.7818193,8.746617
MAGNETIC_FIELD,12.956,-12.989,-41.349
GYROSCOPE,0.03176499,0.05375614,0.04917465
ORIENTATION,299,333,360
ACCELEROMETER,0.05746084,4.337695,8.415619
MAGNETIC_FIELD,12.956,-12.989,-41.349
GYROSCOPE,0.007941248,0.0015271631,-0.048258353
ORIENTATION,303,331,359
ACCELEROMETER,0.14844051,4.8255134,8.599374
MAGNETIC_FIELD,12.956,-13.371,-41.349
GYROSCOPE,-0.022296581,-0.01740966,-0.017104227
ORIENTATION,300,332,359
ACCELEROMETER,0.14185645,4.5040917,8.35337
MAGNETIC_FIELD,12.956,-13.371,-41.349
GYROSCOPE,0.02565634,0.032070424,-0.018020526
ORIENTATION,300,332,359
ACCELEROMETER,0.110133275,4.744709,8.764574
MAGNETIC_FIELD,12.956,-13.371,-41.349
GYROSCOPE,0.019242255,0.03848451,-0.049785517
ORIENTATION,303,331,0
ACCELEROMETER,-0.07062895,4.6178164,8.412027
MAGNETIC_FIELD,13.32,-13.76,-41.349
GYROSCOPE,-0.019242255,-0.04642576,-0.03573562
ORIENTATION,299,331,359
ACCELEROMETER,0.12509704,4.590882,8.42759
MAGNETIC_FIELD,13.32,-13.76,-41.349
GYROSCOPE,0.016493361,0.0125227375,0.03573562
ORIENTATION,298,331,359
ACCELEROMETER,0.15322891,4.6806645,8.605958
MAGNETIC_FIELD,13.32,-13.76,-41.349
GYROSCOPE,-0.042455133,0.002443461,0.060170226
ORIENTATION,298,331,358
ACCELEROMETER,0.2633622,4.696825,8.430583
MAGNETIC_FIELD,13.32,-14.125,-41.349
GYROSCOPE,-0.0067195175,-0.02107485,0.0012217305
ORIENTATION,296,332,359
ACCELEROMETER,0.17178397,4.5753193,8.514978
MAGNETIC_FIELD,13.32,-14.125,-41.349
GYROSCOPE,-0.009468411,-0.019242255,0.0036651916
ORIENTATION,294,332,359
ACCELEROMETER,0.21188685,4.4999022,8.607754
MAGNETIC_FIELD,13.32,-14.125,-41.349
GYROSCOPE,-0.0015271631,-0.020158553,-0.028405234
ORIENTATION,298,331,358
ACCELEROMETER,0.26874915,4.76925,8.441956
MAGNETIC_FIELD,13.32,-14.125,-41.349
GYROSCOPE,0.02076942,0.0018325958,0.014660766
ORIENTATION,297,332,359
ACCELEROMETER,0.19692309,4.541202,8.368932
MAGNETIC_FIELD,13.32,-14.125,-41.349
GYROSCOPE,0.021991149,0.004276057,0.0125227375
ORIENTATION,297,331,359
ACCELEROMETER,0.21787235,4.701015,8.636484
MAGNETIC_FIELD,13.32,-14.125,-41.349
GYROSCOPE,-0.02443461,0.022907447,0.011911872
ORIENTATION,297,331,358
ACCELEROMETER,0.29747957,4.590882,8.253412
MAGNETIC_FIELD,13.32,-14.125,-41.349
GYROSCOPE,0.006414085,0.023823744,-0.0076358155
ORIENTATION,296,332,359
ACCELEROMETER,0.10654198,4.547188,8.567052
MAGNETIC_FIELD,13.32,-14.125,-41.349
GYROSCOPE,-0.024129177,0.038179077,-0.044898596
ORIENTATION,294,333,359
ACCELEROMETER,0.11731588,4.4184995,8.614936
MAGNETIC_FIELD,13.63,-14.125,-41.349
GYROSCOPE,-0.0015271631,0.011301007,-0.039095376
ORIENTATION,294,333,359
ACCELEROMETER,0.110133275,4.4777555,8.656835
MAGNETIC_FIELD,13.63,-14.125,-41.349
GYROSCOPE,-0.025961773,0.013439035,0.0067195175
ORIENTATION,294,333,359
ACCELEROMETER,0.13227965,4.4759603,8.676587
MAGNETIC_FIELD,13.63,-14.125,-41.349
GYROSCOPE,-0.019242255,0.025045475,-0.007941248
ORIENTATION,293,333,359
ACCELEROMETER,0.11731588,4.3879733,8.6257105
MAGNETIC_FIELD,13.63,-14.125,-41.349
GYROSCOPE,0.018936822,-0.004276057,-0.0061086523
ORIENTATION,292,333,359
ACCELEROMETER,0.14425065,4.383185,8.7053175
MAGNETIC_FIELD,13.63,-14.125,-41.349
GYROSCOPE,-0.0061086523,-0.015577064,-0.029932396
ORIENTATION,294,332,359
ACCELEROMETER,0.18734628,4.5160627,8.667608
MAGNETIC_FIELD,13.63,-14.125,-41.349
GYROSCOPE,0.014049901,-0.011301007,-0.011911872
ORIENTATION,294,333,359
ACCELEROMETER,0.19692309,4.4544125,8.577228
MAGNETIC_FIELD,13.63,-14.125,-41.656
GYROSCOPE,0.03268129,-0.005192355,-0.015271631
ORIENTATION,295,332,359
ACCELEROMETER,0.15382746,4.5280337,8.635885
MAGNETIC_FIELD,13.63,-14.125,-41.656
GYROSCOPE,-0.01740966,-0.0030543262,-0.024740042
ORIENTATION,291,334,359
ACCELEROMETER,0.15382746,4.256891,8.686164
MAGNETIC_FIELD,13.63,-14.125,-41.656
GYROSCOPE,-0.3136793,-0.013439035,-0.0842994
ORIENTATION,289,335,359
ACCELEROMETER,0.08259996,4.173094,8.953716
MAGNETIC_FIELD,13.63,-14.125,-41.656
GYROSCOPE,-0.0012217305,0.056199603,-0.02687807
ORIENTATION,290,335,360
ACCELEROMETER,0.034117375,4.1491513,8.774749
MAGNETIC_FIELD,13.63,-14.125,-41.656
GYROSCOPE,0.0143553335,-0.010995574,-0.013439035
ORIENTATION,291,334,360
ACCELEROMETER,0.06943185,4.203021,8.729858
MAGNETIC_FIELD,13.63,-13.819,-41.656
GYROSCOPE,0.023518313,0.002443461,0.0030543262
ORIENTATION,292,334,359
ACCELEROMETER,0.11252748,4.2700586,8.828619
MAGNETIC_FIELD,13.63,-13.819,-41.656
GYROSCOPE,0.008552114,0.002443461,-0.0076358155
ORIENTATION,292,334,359
ACCELEROMETER,0.11671733,4.27365,8.741829
MAGNETIC_FIELD,13.63,-13.819,-41.656
GYROSCOPE,0.044898596,-0.014966198,-0.003970624
ORIENTATION,293,334,360
ACCELEROMETER,0.04369418,4.268862,8.664018
MAGNETIC_FIELD,13.63,-13.819,-41.656
GYROSCOPE,-0.012217305,0.004276057,-0.02321288
ORIENTATION,293,334,360
ACCELEROMETER,0.044891283,4.3406878,8.810063
MAGNETIC_FIELD,13.63,-13.49,-41.656
GYROSCOPE,0.036651913,-0.018325957,-0.0125227375
ORIENTATION,296,333,360
ACCELEROMETER,0.05805939,4.3903675,8.703522
MAGNETIC_FIELD,13.63,-13.49,-41.656
GYROSCOPE,-0.06627888,-0.014049901,-0.040927973
ORIENTATION,309,330,3
ACCELEROMETER,-0.4405331,5.2648497,9.086594
MAGNETIC_FIELD,13.63,-13.49,-41.656
GYROSCOPE,-0.46181414,0.13500121,0.26450464
ORIENTATION,323,335,12
ACCELEROMETER,-1.8177977,3.9576154,8.428787
MAGNETIC_FIELD,14.062,-13.101,-41.656
GYROSCOPE,0.15241088,0.42241332,-0.026267206
