ORIENTATION,0,0,0
ACCELEROMETER,-0.7769185,4.208408,8.722076
MAGNETIC_FIELD,21.896,-10.903,-36.747
GYROSCOPE,-0.20738874,-0.21868975,-0.027183503
ORIENTATION,283,337,3
ACCELEROMETER,-0.5758055,4.1120415,9.853337
MAGNETIC_FIELD,21.115,-8.816,-38.999
GYROSCOPE,-0.46731192,-0.21868975,-0.15943582
ORIENTATION,291,333,356
ACCELEROMETER,0.50158525,4.1437645,8.112753
MAGNETIC_FIELD,20.23,-6.251,-40.544
GYROSCOPE,0.2574797,-0.40439278,0.015271631
ORIENTATION,300,333,358
ACCELEROMETER,0.2789245,4.537012,8.974067
MAGNETIC_FIELD,18.278,-9.468,-39.816
GYROSCOPE,-0.06383542,-0.32711834,0.007941248
ORIENTATION,290,335,357
ACCELEROMETER,0.5153519,4.132392,8.91481
MAGNETIC_FIELD,17.242,-9.468,-40.434
GYROSCOPE,-0.44837508,0.030543262,-0.087964594
ORIENTATION,292,336,358
ACCELEROMETER,0.3728969,3.980959,8.811859
MAGNETIC_FIELD,16.854,-7.179,-40.434
GYROSCOPE,-0.04062254,-0.032986723,-0.030848695
ORIENTATION,301,335,359
ACCELEROMETER,0.13946225,4.0563765,8.764574
MAGNETIC_FIELD,16.854,-6.361,-39.866
GYROSCOPE,0.056505036,0.18875736,0.019242255
ORIENTATION,304,334,359
ACCELEROMETER,0.093373865,4.1557355,8.552687
MAGNETIC_FIELD,17.875,-6.811,-39.866
GYROSCOPE,0.04184427,0.110872045,0.03848451
ORIENTATION,301,334,359
ACCELEROMETER,0.1340753,4.234744,8.854955
MAGNETIC_FIELD,18.363,-7.11,-39.866
GYROSCOPE,-0.0061086523,0.09865474,0.0030543262
ORIENTATION,302,333,360
ACCELEROMETER,0.011971008,4.26946,8.550891
MAGNETIC_FIELD,18.363,-7.11,-40.441
GYROSCOPE,0.051618114,0.0076358155,0.04184427
ORIENTATION,302,334,360
ACCELEROMETER,0.011971008,4.2598834,8.718486
MAGNETIC_FIELD,18.363,-7.765,-40.441
GYROSCOPE,0.011911872,0.027488936,0.04886922
ORIENTATION,301,334,0
ACCELEROMETER,-0.06284779,4.222773,8.630499
MAGNETIC_FIELD,18.669,-7.765,-40.441
GYROSCOPE,-0.048258353,0.016187929,-0.014049901
ORIENTATION,300,333,358
ACCELEROMETER,0.22744916,4.350863,8.470087
MAGNETIC_FIELD,18.669,-7.765,-40.441
GYROSCOPE,0.027183503,0.018325957,0.050396383
ORIENTATION,298,335,359
ACCELEROMETER,0.11192893,4.1557355,8.809465
MAGNETIC_FIELD,19.012,-7.765,-40.441
GYROSCOPE,-0.076052725,0.028099801,-0.015271631
ORIENTATION,296,335,359
ACCELEROMETER,0.11552023,4.0186677,8.7771435
MAGNETIC_FIELD,19.012,-7.395,-40.441
GYROSCOPE,-0.08674286,-0.09315695,-0.03726278
ORIENTATION,298,335,360
ACCELEROMETER,0.04129998,4.049194,8.740033
MAGNETIC_FIELD,18.318,-7.395,-41.232
GYROSCOPE,-0.025045475,0.005497787,-0.037873644
ORIENTATION,298,336,359
ACCELEROMETER,0.10534488,3.9671922,8.74123
MAGNETIC_FIELD,18.318,-6.986,-40.765
GYROSCOPE,0.038179077,6.1086525E-4,0.009773844
ORIENTATION,298,335,359
ACCELEROMETER,0.19093758,4.0701427,8.909423
MAGNETIC_FIELD,18.318,-6.986,-40.336
GYROSCOPE,0.025350908,0.007330383,0.014966198
ORIENTATION,299,335,359
ACCELEROMETER,0.18195933,4.1042604,8.74123
MAGNETIC_FIELD,18.318,-6.986,-40.336
GYROSCOPE,0.033292156,-0.022907447,-0.0027488936
ORIENTATION,298,336,359
ACCELEROMETER,0.22325931,4.007295,8.813056
MAGNETIC_FIELD,18.318,-6.986,-40.664
GYROSCOPE,0.0033597588,-0.007941248,-0.0076358155
ORIENTATION,297,336,359
ACCELEROMETER,0.16699557,3.9851487,9.071032
MAGNETIC_FIELD,18.318,-6.986,-40.664
GYROSCOPE,-0.090713486,-0.016798794,0.0015271631
ORIENTATION,294,337,357
ACCELEROMETER,0.45250413,3.876811,9.14585
MAGNETIC_FIELD,18.318,-6.986,-40.664
GYROSCOPE,-0.013744468,-0.002443461,0.0067195175
ORIENTATION,296,337,359
ACCELEROMETER,0.09756372,3.7822402,8.930971
MAGNETIC_FIELD,17.878,-6.986,-40.664
GYROSCOPE,-0.02076942,-0.067500606,-0.08124508
ORIENTATION,299,335,359
ACCELEROMETER,0.2136825,4.0306387,8.631696
MAGNETIC_FIELD,17.878,-6.986,-40.664
GYROSCOPE,0.013744468,0.05955936,0.01282817
ORIENTATION,299,336,360
ACCELEROMETER,0.026934769,3.7493198,8.5383215
MAGNETIC_FIELD,17.878,-6.986,-40.664
GYROSCOPE,9.162979E-4,0.027794369,0.04062254
ORIENTATION,295,337,357
ACCELEROMETER,0.40282443,3.8815994,9.087791
MAGNETIC_FIELD,17.878,-6.986,-40.664
GYROSCOPE,0.032375857,-0.008857546,0.014966198
ORIENTATION,297,336,358
ACCELEROMETER,0.30945057,3.9306808,8.843582
MAGNETIC_FIELD,17.878,-6.986,-40.664
GYROSCOPE,0.061086524,0.008857546,-0.008246681
ORIENTATION,297,336,359
ACCELEROMETER,0.18255788,3.8594532,8.831612
MAGNETIC_FIELD,17.878,-6.986,-40.664
GYROSCOPE,0.021380283,-0.021685716,0.007941248
ORIENTATION,297,336,359
ACCELEROMETER,0.2220622,3.870227,8.860342
MAGNETIC_FIELD,17.878,-6.986,-40.664
GYROSCOPE,0.006414085,6.1086525E-4,-0.035124753
ORIENTATION,297,337,359
ACCELEROMETER,0.15801731,3.8600516,8.885481
MAGNETIC_FIELD,17.878,-6.986,-40.664
GYROSCOPE,0.0027488936,-0.00580322,-0.027488936
ORIENTATION,298,336,358
ACCELEROMETER,0.2645593,3.9845502,8.907029
MAGNETIC_FIELD,17.878,-6.986,-40.664
GYROSCOPE,0.022907447,0.016493361,0.01038471
ORIENTATION,298,337,359
ACCELEROMETER,0.090381116,3.8456864,8.959103
MAGNETIC_FIELD,17.878,-6.986,-40.664
GYROSCOPE,-0.0106901415,0.004886922,-9.162979E-4
ORIENTATION,297,336,358
ACCELEROMETER,0.29987377,3.9618053,8.866926
MAGNETIC_FIELD,17.878,-6.986,-40.664
GYROSCOPE,0.016493361,-0.019547688,0.040927973
ORIENTATION,297,336,357
ACCELEROMETER,0.41838676,4.0264487,8.939949
MAGNETIC_FIELD,17.878,-6.986,-40.664
GYROSCOPE,0.03604105,-0.013439035,0.014660766
ORIENTATION,300,335,359
ACCELEROMETER,0.18914193,4.0462008,8.659229
MAGNETIC_FIELD,17.878,-6.986,-40.664
GYROSCOPE,0.05955936,0.017104227,0.002443461
ORIENTATION,299,336,360
ACCELEROMETER,0.06703765,4.0198646,8.979453
MAGNETIC_FIELD,17.878,-6.986,-40.664
GYROSCOPE,0.032375857,0.04550946,0.007330383
ORIENTATION,300,335,359
ACCELEROMETER,0.1604115,3.928885,8.410232
MAGNETIC_FIELD,17.878,-6.986,-40.664
GYROSCOPE,0.040317107,-0.0067195175,-0.0143553335
ORIENTATION,299,335,358
ACCELEROMETER,0.24420857,4.168904,8.932168
MAGNETIC_FIELD,17.878,-6.986,-40.664
GYROSCOPE,-0.015577064,0.048563786,-0.057421334
ORIENTATION,301,335,0
ACCELEROMETER,-0.006584055,4.056975,8.778939
MAGNETIC_FIELD,17.878,-6.986,-40.664
GYROSCOPE,0.004276057,-0.012217305,-0.07727446
ORIENTATION,301,335,359
ACCELEROMETER,0.08080431,4.1599255,8.75799
MAGNETIC_FIELD,18.234,-6.986,-40.664
GYROSCOPE,-0.018325957,-0.0015271631,-0.028710667
ORIENTATION,301,334,359
ACCELEROMETER,0.12270284,4.173692,8.680777
MAGNETIC_FIELD,18.234,-6.986,-40.664
GYROSCOPE,0.018325957,-0.015577064,-0.023518313
ORIENTATION,300,335,359
ACCELEROMETER,0.107739076,4.143166,8.789114
MAGNETIC_FIELD,18.234,-6.986,-40.664
GYROSCOPE,-0.005497787,-3.0543262E-4,-0.008246681
ORIENTATION,300,335,359
ACCELEROMETER,0.10654198,4.1359835,8.799889
MAGNETIC_FIELD,18.234,-6.986,-40.664
GYROSCOPE,-0.043982297,0.013133603,-0.02107485
ORIENTATION,300,335,359
ACCELEROMETER,0.17657238,4.140772,8.741829
MAGNETIC_FIELD,18.234,-6.986,-40.664
GYROSCOPE,-0.016187929,0.013744468,-0.025961773
ORIENTATION,300,335,359
ACCELEROMETER,0.1316811,4.0880995,8.776545
MAGNETIC_FIELD,18.234,-6.986,-40.664
GYROSCOPE,-0.016187929,-0.004886922,-0.026572637
ORIENTATION,300,335,359
ACCELEROMETER,0.19033903,4.1575313,8.737639
MAGNETIC_FIELD,18.572,-6.986,-40.664
GYROSCOPE,0.002443461,0.005192355,-0.04153884
ORIENTATION,298,336,360
ACCELEROMETER,0.04189853,3.9839516,8.928576
MAGNETIC_FIELD,18.572,-6.986,-40.664
GYROSCOPE,-0.006414085,-0.010079277,-0.062002823
ORIENTATION,299,335,359
ACCELEROMETER,0.11133038,4.083311,8.746018
MAGNETIC_FIELD,18.572,-6.986,-40.336
GYROSCOPE,-0.015882496,-0.030848695,-0.008246681
ORIENTATION,299,335,359
ACCELEROMETER,0.091578215,4.033033,8.628104
MAGNETIC_FIELD,18.572,-6.986,-40.336
GYROSCOPE,-0.005192355,0.022296581,0.0030543262
ORIENTATION,297,336,359
ACCELEROMETER,0.19033903,3.9977183,8.862736
MAGNETIC_FIELD,18.572,-6.986,-40.336
GYROSCOPE,-0.03634648,0.033292156,-0.0015271631
ORIENTATION,297,337,359
ACCELEROMETER,0.094570965,3.86903,8.973468
MAGNETIC_FIELD,18.572,-6.986,-40.336
GYROSCOPE,-0.07086037,-0.009468411,-0.023823744
ORIENTATION,296,336,359
ACCELEROMETER,0.18195933,3.8552632,8.795698
MAGNETIC_FIELD,18.572,-6.986,-40.336
GYROSCOPE,-0.0027488936,-0.029932396,0.023518313
ORIENTATION,295,337,359
ACCELEROMETER,0.20709845,3.7984009,8.92319
MAGNETIC_FIELD,18.572,-6.986,-40.336
GYROSCOPE,-0.005497787,-0.002443461,0.026572637
ORIENTATION,295,337,358
ACCELEROMETER,0.28491,3.787627,8.924985
MAGNETIC_FIELD,18.572,-6.986,-40.336
GYROSCOPE,-0.03940081,-0.03145956,-0.022296581
ORIENTATION,295,337,358
ACCELEROMETER,0.23523031,3.7840357,8.890269
MAGNETIC_FIELD,18.572,-6.986,-40.008
GYROSCOPE,0.015271631,-0.0036651916,-0.010995574
ORIENTATION,295,337,359
ACCELEROMETER,0.18734628,3.7684734,8.980651
MAGNETIC_FIELD,18.572,-6.986,-40.008
GYROSCOPE,0.009468411,0.014966198,-0.0143553335
ORIENTATION,295,337,359
ACCELEROMETER,0.18375498,3.714604,8.803479
MAGNETIC_FIELD,18.572,-6.986,-40.008
GYROSCOPE,0.007941248,0.006414085,-0.019242255
ORIENTATION,296,337,359
ACCELEROMETER,0.12150574,3.845088,8.898649
MAGNETIC_FIELD,18.572,-6.605,-40.008
GYROSCOPE,-0.03023783,-0.0067195175,0.019242255
ORIENTATION,293,339,359
ACCELEROMETER,0.11492168,3.4919431,9.085397
MAGNETIC_FIELD,18.572,-6.605,-40.008
GYROSCOPE,0.04184427,0.019242255,0.009162978
ORIENTATION,296,336,358
ACCELEROMETER,0.28431144,3.8534677,8.69993
MAGNETIC_FIELD,18.223,-6.605,-40.008
GYROSCOPE,-0.02076942,-0.059864793,-0.03359759
ORIENTATION,296,337,358
ACCELEROMETER,0.2705448,3.7804444,8.9124155
MAGNETIC_FIELD,18.223,-6.605,-39.64
GYROSCOPE,0.0067195175,0.056199603,9.162979E-4
ORIENTATION,295,337,359
ACCELEROMETER,0.22026655,3.7445314,8.999206
MAGNETIC_FIELD,18.223,-6.202,-39.64
GYROSCOPE,-0.025350908,6.1086525E-4,-0.027794369
ORIENTATION,296,337,358
ACCELEROMETER,0.23702596,3.7816415,8.972271
MAGNETIC_FIELD,18.223,-6.202,-39.64
GYROSCOPE,-0.006414085,-0.0036651916,-0.016798794
ORIENTATION,296,337,359
ACCELEROMETER,0.1921347,3.7547069,8.953117
MAGNETIC_FIELD,18.223,-6.202,-39.64
GYROSCOPE,-0.003970624,-0.003970624,-0.01160644
ORIENTATION,296,338,359
ACCELEROMETER,0.17058687,3.7523127,9.178771
MAGNETIC_FIELD,18.223,-6.202,-39.64
GYROSCOPE,-0.019547688,0.0061086523,-0.005192355
ORIENTATION,295,338,359
ACCELEROMETER,0.20051439,3.655946,9.111135
MAGNETIC_FIELD,18.223,-5.888,-39.64
GYROSCOPE,0.045814894,-0.021380283,-0.005497787
ORIENTATION,298,337,358
ACCELEROMETER,0.26635495,3.8115692,8.80767
MAGNETIC_FIELD,18.223,-5.888,-39.64
GYROSCOPE,3.0543262E-4,-0.04428773,0.021380283
ORIENTATION,296,338,358
ACCELEROMETER,0.24241292,3.731962,9.016563
MAGNETIC_FIELD,18.223,-5.888,-39.64
GYROSCOPE,-6.1086525E-4,0.0036651916,0.03268129
ORIENTATION,296,337,358
ACCELEROMETER,0.37469256,3.7594953,8.966884
MAGNETIC_FIELD,18.223,-5.888,-39.64
GYROSCOPE,0.019242255,-0.028099801,0.03940081
ORIENTATION,296,337,358
ACCELEROMETER,0.35913026,3.769072,9.063251
MAGNETIC_FIELD,18.223,-5.888,-39.64
GYROSCOPE,-0.027794369,0.008857546,0.01038471
ORIENTATION,296,336,357
ACCELEROMETER,0.4950012,3.8792052,8.802282
MAGNETIC_FIELD,17.9,-5.583,-39.64
GYROSCOPE,0.06780604,-0.015271631,0.015271631
ORIENTATION,298,337,358
ACCELEROMETER,0.2669535,3.8181531,9.0476885
MAGNETIC_FIELD,17.9,-5.583,-39.64
GYROSCOPE,-6.1086525E-4,0.0076358155,-0.04886922
ORIENTATION,298,336,358
ACCELEROMETER,0.3405752,3.7924154,8.665813
MAGNETIC_FIELD,17.9,-5.583,-39.64
GYROSCOPE,0.024129177,-0.019242255,-0.021685716
ORIENTATION,297,337,358
ACCELEROMETER,0.36032736,3.8708255,9.09617
MAGNETIC_FIELD,17.9,-5.583,-39.64
GYROSCOPE,-0.027488936,0.01282817,-0.025045475
ORIENTATION,298,337,358
ACCELEROMETER,0.2741361,3.7618895,8.71669
MAGNETIC_FIELD,17.9,-5.583,-39.64
GYROSCOPE,0.04153884,-0.029626964,-0.040317107
ORIENTATION,299,336,358
ACCELEROMETER,0.26515785,3.9833531,8.992621
MAGNETIC_FIELD,17.9,-5.583,-39.64
GYROSCOPE,0.02565634,0.011301007,-0.016187929
ORIENTATION,301,336,360
ACCELEROMETER,0.06703765,3.9725792,8.999206
MAGNETIC_FIELD,17.504,-5.978,-39.97
GYROSCOPE,-0.19120082,0.035430185,0.03481932
ORIENTATION,300,335,357
ACCELEROMETER,0.41299978,3.9905357,8.393473
MAGNETIC_FIELD,17.504,-5.978,-39.97
GYROSCOPE,0.049785517,0.18600847,0.03604105
ORIENTATION,297,337,357
ACCELEROMETER,0.4997896,3.9211037,9.015367
MAGNETIC_FIELD,17.504,-6.553,-39.97
GYROSCOPE,-0.23915374,-0.12003502,0.03940081
ORIENTATION,301,335,359
ACCELEROMETER,0.08319851,3.846285,8.246828
MAGNETIC_FIELD,17.102,-6.956,-39.97
GYROSCOPE,0.8323039,-0.006414085,-0.16982053
ORIENTATION,302,334,359
ACCELEROMETER,0.16400282,4.2413282,8.55149
MAGNETIC_FIELD,17.102,-7.525,-39.97
GYROSCOPE,0.16615535,-0.10262536,-0.0421497
ORIENTATION,300,333,358
ACCELEROMETER,0.30705637,4.321534,8.617331
MAGNETIC_FIELD,16.798,-8.068,-39.97
GYROSCOPE,0.076358154,0.011911872,-0.022296581
ORIENTATION,301,333,359
ACCELEROMETER,0.11492168,4.3544545,8.716091
MAGNETIC_FIELD,16.798,-8.798,-39.97
GYROSCOPE,0.04337143,0.0018325958,-0.03848451
ORIENTATION,301,332,359
ACCELEROMETER,0.22445641,4.5441947,8.682572
MAGNETIC_FIELD,16.798,-8.798,-39.97
GYROSCOPE,6.1086525E-4,-0.04550946,0.00580322
ORIENTATION,301,332,359
ACCELEROMETER,0.18375498,4.453215,8.467693
MAGNETIC_FIELD,16.487,-8.798,-39.97
GYROSCOPE,-0.0015271631,0.013439035,0.013133603
ORIENTATION,301,331,357
ACCELEROMETER,0.37948096,4.7016134,8.6334915
MAGNETIC_FIELD,16.487,-8.798,-39.97
GYROSCOPE,0.024129177,0.02107485,0.016493361
ORIENTATION,300,333,359
ACCELEROMETER,0.2112883,4.446631,8.66701
MAGNETIC_FIELD,16.487,-8.798,-39.97
GYROSCOPE,-0.020158553,0.008246681,0.013133603
ORIENTATION,301,332,358
ACCELEROMETER,0.2621651,4.5046906,8.613739
MAGNETIC_FIELD,16.487,-8.436,-39.97
GYROSCOPE,0.0070249503,-0.009468411,-0.007330383
ORIENTATION,302,333,359
ACCELEROMETER,0.20649989,4.4879313,8.626308
MAGNETIC_FIELD,16.487,-8.436,-39.97
GYROSCOPE,0.0143553335,0.019242255,0.013133603
ORIENTATION,301,332,358
ACCELEROMETER,0.2693477,4.5154643,8.598776
MAGNETIC_FIELD,16.487,-8.436,-39.654
GYROSCOPE,-0.03023783,0.010079277,-0.016493361
ORIENTATION,301,333,359
ACCELEROMETER,0.20829555,4.4364557,8.667608
MAGNETIC_FIELD,16.487,-8.436,-39.654
GYROSCOPE,0.017104227,0.008552114,-0.01282817
ORIENTATION,301,332,358
ACCELEROMETER,0.23104046,4.461595,8.553286
MAGNETIC_FIELD,16.487,-8.436,-39.654
GYROSCOPE,-0.01038471,-0.006414085,-0.003970624
ORIENTATION,301,333,358
ACCELEROMETER,0.23223756,4.398747,8.552687
MAGNETIC_FIELD,16.487,-8.799,-39.654
GYROSCOPE,0.013439035,0.034513887,-0.022602014
ORIENTATION,299,334,359
ACCELEROMETER,0.107140526,4.3239284,8.762179
MAGNETIC_FIELD,16.487,-8.799,-39.279
GYROSCOPE,-0.0033597588,-0.013744468,-0.031154128
ORIENTATION,300,333,359
ACCELEROMETER,0.19752164,4.4394484,8.619126
MAGNETIC_FIELD,16.487,-8.799,-39.279
GYROSCOPE,-0.0018325958,-0.027183503,-0.015882496
ORIENTATION,299,334,360
ACCELEROMETER,0.073023155,4.219182,8.666411
MAGNETIC_FIELD,16.487,-8.799,-39.279
GYROSCOPE,-0.0018325958,0.0027488936,-0.012217305
ORIENTATION,307,323,354
ACCELEROMETER,0.83976626,6.1303535,8.076839
MAGNETIC_FIELD,16.871,-8.799,-38.955
GYROSCOPE,0.20677789,0.017715093,0.59498274
ORIENTATION,303,335,5
ACCELEROMETER,-0.7505822,4.210802,9.097368
MAGNETIC_FIELD,16.871,-8.799,-38.955
GYROSCOPE,-0.029626964,-0.074830994,-0.2003638
