ORIENTATION,0,0,0
ACCELEROMETER,-0.86610246,5.1780596,8.789713
MAGNETIC_FIELD,15.327,-15.988,-27.003
GYROSCOPE,-0.22418754,-0.30482176,-0.09682214
ORIENTATION,273,330,9
ACCELEROMETER,-1.2838906,4.672883,8.079233
MAGNETIC_FIELD,12.742,-15.086,-27.915
GYROSCOPE,-0.25473082,-0.30482176,-0.18692477
ORIENTATION,256,337,8
ACCELEROMETER,-1.2078748,3.7989995,8.710705
MAGNETIC_FIELD,10.646,-13.958,-27.915
GYROSCOPE,-0.076358154,-0.15821409,-0.14477506
ORIENTATION,278,332,4
ACCELEROMETER,-0.623091,4.497508,8.34918
MAGNETIC_FIELD,8.85,-12.644,-27.915
GYROSCOPE,0.18112154,-0.10415252,-0.08582657
ORIENTATION,272,335,357
ACCELEROMETER,0.5117606,4.413711,9.296685
MAGNETIC_FIELD,10.997,-11.988,-27.915
GYROSCOPE,-0.19028452,-0.03634648,-0.2837469
ORIENTATION,279,333,360
ACCELEROMETER,0.078410104,4.545392,9.0554695
MAGNETIC_FIELD,8.729,-10.723,-28.674
GYROSCOPE,-0.105068825,-0.68539083,0.13255776
ORIENTATION,280,336,358
ACCELEROMETER,0.28072014,4.085107,9.269152
MAGNETIC_FIELD,7.781,-9.913,-29.481
GYROSCOPE,0.72143185,0.1685988,0.34605515
ORIENTATION,312,328,359
ACCELEROMETER,0.095768064,4.944625,7.8475947
MAGNETIC_FIELD,7.781,-11.145,-28.808
GYROSCOPE,-0.16401732,0.03940081,0.006414085
ORIENTATION,284,335,360
ACCELEROMETER,0.050278235,4.099472,8.882488
MAGNETIC_FIELD,8.845,-11.613,-29.368
GYROSCOPE,-0.060170226,0.10323623,-0.025350908
ORIENTATION,299,329,360
ACCELEROMETER,0.051475335,4.883573,8.224083
MAGNETIC_FIELD,8.845,-10.911,-29.849
GYROSCOPE,-0.06841691,0.0033597588,-0.0711658
ORIENTATION,290,333,359
ACCELEROMETER,0.2112883,4.264672,8.531737
MAGNETIC_FIELD,8.845,-10.911,-29.849
GYROSCOPE,0.0421497,0.109650314,-0.004581489
ORIENTATION,283,335,357
ACCELEROMETER,0.5434838,4.243124,9.135675
MAGNETIC_FIELD,7.937,-10.502,-29.849
GYROSCOPE,-0.13103059,-0.06658431,-0.11026118
ORIENTATION,289,337,2
ACCELEROMETER,-0.39444473,3.98874,9.272743
MAGNETIC_FIELD,6.698,-9.844,-29.849
GYROSCOPE,-0.027488936,-0.034208454,-0.106595986
ORIENTATION,325,331,4
ACCELEROMETER,-0.6147113,4.5513773,8.025963
MAGNETIC_FIELD,7.476,-9.844,-28.799
GYROSCOPE,0.23548855,0.022907447,-0.1994475
ORIENTATION,308,333,4
ACCELEROMETER,-0.5955577,4.238934,8.4425535
MAGNETIC_FIELD,8.12,-10.279,-28.799
GYROSCOPE,-0.27977628,0.032986723,-0.15668693
ORIENTATION,298,333,2
ACCELEROMETER,-0.28311434,4.420295,8.76637
MAGNETIC_FIELD,8.668,-10.279,-29.388
GYROSCOPE,0.047036625,0.022602014,0.07452556
ORIENTATION,307,332,4
ACCELEROMETER,-0.581791,4.3299136,8.14268
MAGNETIC_FIELD,8.668,-9.561,-28.948
GYROSCOPE,0.059253927,0.07147124,0.057421334
ORIENTATION,303,334,5
ACCELEROMETER,-0.736217,4.481347,9.294291
MAGNETIC_FIELD,7.659,-9.921,-28.596
GYROSCOPE,0.02321288,0.03359759,0.036651913
ORIENTATION,303,332,1
ACCELEROMETER,-0.17717093,4.234744,8.067263
MAGNETIC_FIELD,7.659,-9.921,-29.078
GYROSCOPE,0.17989981,0.18600847,0.16584991
ORIENTATION,305,334,4
ACCELEROMETER,-0.60693014,4.2940006,8.841188
MAGNETIC_FIELD,8.312,-10.235,-28.657
GYROSCOPE,0.03634648,0.00580322,0.061391957
ORIENTATION,305,333,5
ACCELEROMETER,-0.6865373,4.377199,8.496424
MAGNETIC_FIELD,8.312,-10.235,-28.657
GYROSCOPE,-0.063224554,-0.06078109,0.006414085
ORIENTATION,293,335,3
ACCELEROMETER,-0.49200845,4.0539823,8.809465
MAGNETIC_FIELD,8.312,-9.91,-28.657
GYROSCOPE,0.03268129,0.0033597588,0.019547688
ORIENTATION,299,334,3
ACCELEROMETER,-0.40402153,4.2862196,8.7125
MAGNETIC_FIELD,8.312,-9.91,-28.657
GYROSCOPE,-0.0033597588,-0.0720821,0.015882496
ORIENTATION,304,333,4
ACCELEROMETER,-0.55006784,4.3041763,8.437167
MAGNETIC_FIELD,7.998,-9.91,-28.996
GYROSCOPE,0.04734206,0.0018325958,-0.011301007
ORIENTATION,298,334,2
ACCELEROMETER,-0.2669535,4.2676644,8.857349
MAGNETIC_FIELD,7.998,-9.91,-28.996
GYROSCOPE,-0.017104227,-0.013744468,0.05497787
ORIENTATION,298,334,2
ACCELEROMETER,-0.32920274,4.171298,8.680777
MAGNETIC_FIELD,7.998,-9.91,-28.996
GYROSCOPE,3.0543262E-4,6.1086525E-4,0.0021380284
ORIENTATION,302,333,2
ACCELEROMETER,-0.27234045,4.3897686,8.645462
MAGNETIC_FIELD,7.998,-9.91,-28.996
GYROSCOPE,0.062308256,0.015577064,-0.046120327
ORIENTATION,301,334,3
ACCELEROMETER,-0.40222588,4.256891,8.659229
MAGNETIC_FIELD,7.998,-9.91,-28.996
GYROSCOPE,6.1086525E-4,0.046120327,0.12522738
ORIENTATION,302,335,5
ACCELEROMETER,-0.7422025,4.0940847,8.7609825
MAGNETIC_FIELD,7.998,-9.91,-28.996
GYROSCOPE,0.002443461,0.022907447,-0.12492194
ORIENTATION,305,332,2
ACCELEROMETER,-0.3172317,4.4699745,8.519767
MAGNETIC_FIELD,7.998,-9.91,-28.996
GYROSCOPE,0.053450707,0.043676864,0.055588737
ORIENTATION,301,334,3
ACCELEROMETER,-0.48003745,4.225766,8.719683
MAGNETIC_FIELD,7.998,-9.91,-28.996
GYROSCOPE,-0.008857546,0.016798794,0.012217305
ORIENTATION,304,333,3
ACCELEROMETER,-0.48482585,4.2676644,8.543709
MAGNETIC_FIELD,7.698,-9.91,-28.996
GYROSCOPE,0.04153884,-0.004581489,-0.024740042
ORIENTATION,305,333,3
ACCELEROMETER,-0.3812766,4.426879,8.650849
MAGNETIC_FIELD,7.698,-9.91,-28.996
GYROSCOPE,0.019547688,0.016187929,-0.03268129
ORIENTATION,307,333,3
ACCELEROMETER,-0.51714754,4.373608,8.5862055
MAGNETIC_FIELD,7.698,-9.91,-28.996
GYROSCOPE,0.003970624,0.0033597588,-0.004581489
ORIENTATION,308,333,4
ACCELEROMETER,-0.59735334,4.371214,8.622718
MAGNETIC_FIELD,7.698,-9.91,-28.996
GYROSCOPE,-0.022602014,0.020158553,0.008857546
ORIENTATION,301,335,3
ACCELEROMETER,-0.5129577,4.253299,9.000402
MAGNETIC_FIELD,7.698,-9.91,-28.996
GYROSCOPE,-0.036957346,0.0061086523,0.076052725
ORIENTATION,306,330,360
ACCELEROMETER,0.0712275,4.768651,8.337808
MAGNETIC_FIELD,7.698,-9.91,-28.996
GYROSCOPE,0.06414085,-0.008246681,0.09773844
ORIENTATION,297,337,5
ACCELEROMETER,-0.7553706,3.9354692,9.069835
MAGNETIC_FIELD,7.698,-9.91,-28.996
GYROSCOPE,-0.049480084,-0.0018325958,-0.12492194
ORIENTATION,305,332,1
ACCELEROMETER,-0.22864626,4.6902413,8.870518
MAGNETIC_FIELD,7.698,-9.91,-28.996
GYROSCOPE,-0.036651913,-0.03634648,0.065973446
ORIENTATION,309,334,5
ACCELEROMETER,-0.7763199,4.0863037,8.381501
MAGNETIC_FIELD,7.698,-9.91,-28.996
GYROSCOPE,0.05131268,-0.0720821,-0.09285152
ORIENTATION,299,334,1
ACCELEROMETER,-0.17357962,4.4783545,9.061455
MAGNETIC_FIELD,7.698,-9.91,-28.996
GYROSCOPE,-0.087659165,0.04184427,0.093767814
ORIENTATION,308,331,1
ACCELEROMETER,-0.09696517,4.597466,8.130709
MAGNETIC_FIELD,7.698,-9.91,-28.996
GYROSCOPE,0.06566802,-0.10629055,0.023823744
ORIENTATION,302,333,2
ACCELEROMETER,-0.26396075,4.355053,8.710705
MAGNETIC_FIELD,7.698,-9.91,-28.996
GYROSCOPE,-0.027794369,0.04428773,-0.12767084
ORIENTATION,300,334,2
ACCELEROMETER,-0.30526072,4.378995,9.0429
MAGNETIC_FIELD,7.698,-9.91,-28.996
GYROSCOPE,0.04428773,-0.025045475,-0.049480084
ORIENTATION,305,333,2
ACCELEROMETER,-0.3585317,4.3718123,8.576031
MAGNETIC_FIELD,7.698,-9.91,-28.996
GYROSCOPE,0.038179077,-0.03176499,-0.071776666
ORIENTATION,300,335,3
ACCELEROMETER,-0.5189432,4.1144357,8.7849245
MAGNETIC_FIELD,7.698,-9.91,-28.996
GYROSCOPE,-0.01160644,-0.041233405,-0.04428773
ORIENTATION,302,333,2
ACCELEROMETER,-0.23104046,4.4220905,8.694544
MAGNETIC_FIELD,7.698,-9.91,-28.996
GYROSCOPE,-0.053450707,-0.022907447,0.032070424
ORIENTATION,302,333,0
ACCELEROMETER,-0.073023155,4.5005007,8.650849
MAGNETIC_FIELD,7.698,-9.91,-28.996
GYROSCOPE,0.025045475,0.019547688,0.082161374
ORIENTATION,301,333,1
ACCELEROMETER,-0.130484,4.3981485,8.6017685
MAGNETIC_FIELD,7.698,-10.24,-28.996
GYROSCOPE,0.027488936,0.03145956,0.07574729
ORIENTATION,304,331,1
ACCELEROMETER,-0.10115502,4.547188,8.372523
MAGNETIC_FIELD,7.698,-10.24,-28.996
GYROSCOPE,0.027488936,0.008552114,0.036651913
ORIENTATION,301,332,0
ACCELEROMETER,-0.02932897,4.5196543,8.457518
MAGNETIC_FIELD,7.698,-10.24,-28.996
GYROSCOPE,0.041233405,0.004276057,0.06383542
ORIENTATION,301,333,1
ACCELEROMETER,-0.11492168,4.453215,8.581417
MAGNETIC_FIELD,7.698,-10.24,-28.996
GYROSCOPE,0.05222898,0.015577064,0.01038471
ORIENTATION,302,332,1
ACCELEROMETER,-0.21547815,4.4119153,8.446145
MAGNETIC_FIELD,7.357,-10.24,-28.996
GYROSCOPE,-0.03023783,0.016493361,-0.028710667
ORIENTATION,296,334,1
ACCELEROMETER,-0.130484,4.2981906,8.902241
MAGNETIC_FIELD,7.357,-10.24,-28.996
GYROSCOPE,0.047647487,0.04062254,-0.10354166
ORIENTATION,310,332,3
ACCELEROMETER,-0.46208093,4.520851,8.457518
MAGNETIC_FIELD,7.357,-10.24,-28.996
GYROSCOPE,-0.047036625,-0.03176499,-0.050396383
ORIENTATION,306,331,1
ACCELEROMETER,-0.15263036,4.5914803,8.3821
MAGNETIC_FIELD,7.357,-10.24,-29.299
GYROSCOPE,0.054367006,0.040927973,0.040011674
ORIENTATION,308,331,1
ACCELEROMETER,-0.18016368,4.6255975,8.425795
MAGNETIC_FIELD,7.357,-10.24,-29.299
GYROSCOPE,0.01863139,0.048258353,0.13591751
ORIENTATION,304,334,3
ACCELEROMETER,-0.46567222,4.0186677,8.182783
MAGNETIC_FIELD,7.357,-10.24,-29.299
GYROSCOPE,0.039095376,0.03573562,-0.17562376
ORIENTATION,308,332,2
ACCELEROMETER,-0.29149407,4.59986,8.516774
MAGNETIC_FIELD,7.357,-10.24,-29.299
GYROSCOPE,-0.008857546,-0.0018325958,0.00580322
ORIENTATION,310,333,4
ACCELEROMETER,-0.5638345,4.396951,8.5143795
MAGNETIC_FIELD,7.357,-10.24,-29.299
GYROSCOPE,-0.028710667,0.06536258,-0.014049901
ORIENTATION,298,337,5
ACCELEROMETER,-0.8295909,3.9815574,9.16261
MAGNETIC_FIELD,7.357,-10.24,-29.299
GYROSCOPE,-0.064751714,0.027794369,-0.004886922
ORIENTATION,304,333,2
ACCELEROMETER,-0.2908955,4.3903675,8.634089
MAGNETIC_FIELD,7.357,-10.24,-29.299
GYROSCOPE,0.086437434,0.0027488936,-0.04337143
ORIENTATION,302,334,3
ACCELEROMETER,-0.4177882,4.5046906,9.257181
MAGNETIC_FIELD,7.357,-10.24,-29.299
GYROSCOPE,-0.13347405,0.02443461,-0.13958271
ORIENTATION,313,332,4
ACCELEROMETER,-0.5614403,4.2598834,8.033145
MAGNETIC_FIELD,7.357,-10.24,-29.299
GYROSCOPE,0.23060162,-0.0693332,-0.038789943
ORIENTATION,308,332,3
ACCELEROMETER,-0.4261679,4.494515,8.610746
MAGNETIC_FIELD,7.74,-10.24,-29.299
GYROSCOPE,-0.03359759,-0.1133155,-0.03390302
ORIENTATION,300,335,4
ACCELEROMETER,-0.6147113,4.220978,9.040505
MAGNETIC_FIELD,7.74,-10.24,-29.299
GYROSCOPE,-0.13439035,-0.057726767,0.011301007
ORIENTATION,299,334,2
ACCELEROMETER,-0.2681506,4.4316673,9.035119
MAGNETIC_FIELD,7.74,-10.24,-28.984
GYROSCOPE,-0.03604105,-0.05131268,-0.101098195
ORIENTATION,294,336,4
ACCELEROMETER,-0.65541273,3.927688,8.9279785
MAGNETIC_FIELD,7.74,-10.24,-28.984
GYROSCOPE,0.15577064,-0.015577064,-0.3726278
ORIENTATION,319,328,3
ACCELEROMETER,-0.39145198,4.6160207,7.311892
MAGNETIC_FIELD,7.74,-10.24,-28.984
GYROSCOPE,0.43401974,0.06627888,0.122783914
ORIENTATION,304,329,358
ACCELEROMETER,0.23762453,4.8775873,8.198345
MAGNETIC_FIELD,7.74,-10.24,-28.645
GYROSCOPE,-0.21288654,-0.31887165,0.106595986
ORIENTATION,298,333,360
ACCELEROMETER,0.044292733,4.4645877,8.582615
MAGNETIC_FIELD,7.74,-10.24,-28.645
GYROSCOPE,-0.18936823,0.07574729,-0.0852157
ORIENTATION,297,332,359
ACCELEROMETER,0.18375498,4.505289,8.558673
MAGNETIC_FIELD,7.74,-10.24,-28.645
GYROSCOPE,-0.053145275,0.03145956,0.032375857
ORIENTATION,291,334,359
ACCELEROMETER,0.11372458,4.322731,9.049484
MAGNETIC_FIELD,7.74,-10.24,-28.259
GYROSCOPE,-0.09773844,-0.009162978,0.054367006
ORIENTATION,281,337,0
ACCELEROMETER,-0.02813187,3.731962,8.856153
MAGNETIC_FIELD,7.74,-10.24,-28.259
GYROSCOPE,-0.20189096,0.05467244,-0.044898596
ORIENTATION,291,335,0
ACCELEROMETER,-0.01436521,4.109049,8.651448
MAGNETIC_FIELD,7.74,-10.24,-28.259
GYROSCOPE,0.16065755,0.23426682,0.017104227
ORIENTATION,286,336,1
ACCELEROMETER,-0.089184016,3.8367083,8.674192
MAGNETIC_FIELD,7.74,-10.24,-28.259
GYROSCOPE,-0.01985312,-0.027183503,0.01282817
ORIENTATION,291,335,1
ACCELEROMETER,-0.2100912,3.9713821,8.5299425
MAGNETIC_FIELD,7.74,-10.24,-28.259
GYROSCOPE,-0.113926366,0.0070249503,0.04550946
ORIENTATION,282,336,358
ACCELEROMETER,0.35673606,3.900753,8.892065
MAGNETIC_FIELD,7.74,-10.24,-28.259
GYROSCOPE,0.09162979,-0.0018325958,0.032375857
ORIENTATION,283,337,1
ACCELEROMETER,-0.094570965,3.8606503,9.0315275
MAGNETIC_FIELD,7.74,-10.24,-27.955
GYROSCOPE,-0.022602014,-0.04917465,9.162979E-4
ORIENTATION,282,337,360
ACCELEROMETER,0.05626374,3.8043866,8.842385
MAGNETIC_FIELD,7.299,-10.24,-27.955
GYROSCOPE,0.06536258,-0.018325957,0.056199603
ORIENTATION,279,337,360
ACCELEROMETER,0.060453594,3.7989995,9.169194
MAGNETIC_FIELD,6.8,-10.24,-27.955
GYROSCOPE,0.043982297,0.008246681,0.008857546
ORIENTATION,293,334,359
ACCELEROMETER,0.16460137,4.1258082,8.352771
MAGNETIC_FIELD,6.8,-10.24,-27.955
GYROSCOPE,0.12614368,-0.029321533,0.0030543262
ORIENTATION,285,336,359
ACCELEROMETER,0.19752164,4.0503907,9.107543
MAGNETIC_FIELD,6.8,-10.24,-27.955
GYROSCOPE,-0.20219639,-0.03726278,-0.026267206
ORIENTATION,286,335,358
ACCELEROMETER,0.35075054,4.0779243,8.819042
MAGNETIC_FIELD,6.5,-10.24,-27.955
GYROSCOPE,0.015271631,-0.040011674,-0.014049901
ORIENTATION,295,333,359
ACCELEROMETER,0.1592144,4.1395745,8.275558
MAGNETIC_FIELD,6.5,-10.24,-27.955
GYROSCOPE,0.048258353,0.01740966,-0.06841691
ORIENTATION,290,334,357
ACCELEROMETER,0.40521863,4.289212,8.84059
MAGNETIC_FIELD,6.5,-10.24,-27.955
GYROSCOPE,0.064446285,0.06383542,-0.027488936
ORIENTATION,293,334,360
ACCELEROMETER,0.05925649,4.1491513,8.661025
MAGNETIC_FIELD,6.5,-10.24,-27.955
GYROSCOPE,-0.032070424,-0.013133603,0.01985312
ORIENTATION,292,335,360
ACCELEROMETER,0.04309563,4.111443,8.655039
MAGNETIC_FIELD,6.5,-10.24,-27.955
GYROSCOPE,-0.060170226,0.0012217305,0.02076942
ORIENTATION,285,336,359
ACCELEROMETER,0.10414778,4.0252514,9.136872
MAGNETIC_FIELD,6.129,-10.24,-27.955
GYROSCOPE,-0.1337795,0.019242255,0.0421497
ORIENTATION,286,336,358
ACCELEROMETER,0.3405752,3.9989154,8.822035
MAGNETIC_FIELD,6.129,-10.24,-28.361
GYROSCOPE,-0.0033597588,-0.008246681,0.023518313
ORIENTATION,287,336,359
ACCELEROMETER,0.1352724,3.930082,8.916606
MAGNETIC_FIELD,6.129,-10.24,-28.361
GYROSCOPE,0.032986723,0.018325957,-0.0070249503
ORIENTATION,292,335,358
ACCELEROMETER,0.23463176,4.1479545,8.789114
MAGNETIC_FIELD,6.129,-10.24,-28.361
GYROSCOPE,0.047036625,0.008552114,-0.028099801
ORIENTATION,291,335,359
ACCELEROMETER,0.12689269,4.0497923,8.781932
MAGNETIC_FIELD,6.129,-10.24,-28.361
GYROSCOPE,0.04153884,-0.020463986,-0.0027488936
ORIENTATION,291,335,359
ACCELEROMETER,0.2172738,4.0701427,8.772954
MAGNETIC_FIELD,6.129,-10.24,-28.675
GYROSCOPE,-0.017104227,0.018020526,-0.02443461
ORIENTATION,294,335,360
ACCELEROMETER,0.021547815,4.0743327,8.774749
MAGNETIC_FIELD,6.129,-10.24,-28.675
GYROSCOPE,0.026572637,0.007941248,-0.069027774
ORIENTATION,294,335,359
ACCELEROMETER,0.19153613,4.2155905,8.843582
MAGNETIC_FIELD,6.129,-10.24,-28.675
GYROSCOPE,-0.01038471,-0.0018325958,-0.016493361
ORIENTATION,295,334,359
ACCELEROMETER,0.18974048,4.192846,8.67539
MAGNETIC_FIELD,6.129,-10.24,-28.675
GYROSCOPE,0.014966198,0.008857546,-0.011911872
ORIENTATION,293,335,360
ACCELEROMETER,0.061650693,4.1180267,8.948329
MAGNETIC_FIELD,6.129,-10.24,-28.675
GYROSCOPE,0.009162978,0.009468411,-0.018020526
ORIENTATION,295,335,360
ACCELEROMETER,0.065242,4.097078,8.724471
MAGNETIC_FIELD,6.129,-10.24,-28.675
GYROSCOPE,-0.0030543262,-0.021380283,-0.035124753
ORIENTATION,295,335,360
ACCELEROMETER,0.060453594,4.0677485,8.639477
MAGNETIC_FIELD,6.129,-10.24,-28.675
GYROSCOPE,9.162979E-4,-0.008246681,-0.02321288
ORIENTATION,293,335,359
ACCELEROMETER,0.21068975,4.1838675,8.859145
MAGNETIC_FIELD,6.129,-10.24,-28.675
GYROSCOPE,-0.004276057,-0.0018325958,0.008552114
ORIENTATION,294,335,359
ACCELEROMETER,0.11192893,4.150947,8.79929
MAGNETIC_FIELD,6.129,-10.24,-28.675
GYROSCOPE,0.0036651916,0.0036651916,0.07544186
ORIENTATION,293,335,359
ACCELEROMETER,0.16998832,4.1222167,8.769362
MAGNETIC_FIELD,6.129,-10.24,-28.675
GYROSCOPE,0.013133603,0.0125227375,0.019242255
ORIENTATION,293,335,359
ACCELEROMETER,0.12509704,4.174889,8.956709
MAGNETIC_FIELD,6.129,-10.24,-28.675
GYROSCOPE,0.05100725,-0.0067195175,0.007941248
ORIENTATION,291,335,358
ACCELEROMETER,0.3645172,4.0803185,8.642469
MAGNETIC_FIELD,6.129,-10.24,-28.675
GYROSCOPE,0.030848695,0.0027488936,0.03756821
ORIENTATION,296,334,359
ACCELEROMETER,0.16400282,4.232949,8.686164
MAGNETIC_FIELD,6.46,-10.24,-28.675
GYROSCOPE,-0.027794369,0.017715093,-0.032375857
ORIENTATION,290,336,359
ACCELEROMETER,0.17836803,4.1174283,9.044097
MAGNETIC_FIELD,6.46,-9.938,-28.675
GYROSCOPE,-0.01863139,0.0067195175,-0.018936822
ORIENTATION,293,335,359
ACCELEROMETER,0.19692309,4.088698,8.842984
MAGNETIC_FIELD,6.46,-9.938,-28.675
GYROSCOPE,-0.032070424,0.0061086523,0.016798794
ORIENTATION,299,332,358
ACCELEROMETER,0.31603462,3.9725792,7.60997
MAGNETIC_FIELD,6.46,-9.938,-28.675
GYROSCOPE,0.14172074,-0.018020526,0.025350908
ORIENTATION,287,338,1
ACCELEROMETER,-0.17776948,4.0617633,9.845556
MAGNETIC_FIELD,6.46,-9.938,-28.675
GYROSCOPE,-0.12492194,0.0693332,-0.029932396
ORIENTATION,295,334,359
ACCELEROMETER,0.2112883,4.1078515,8.60117
MAGNETIC_FIELD,6.46,-9.938,-28.675
GYROSCOPE,0.01985312,-0.04917465,-0.047036625
ORIENTATION,296,334,359
ACCELEROMETER,0.16759412,4.238934,8.841787
MAGNETIC_FIELD,6.46,-9.938,-28.675
GYROSCOPE,0.026572637,0.004276057,0.002443461
ORIENTATION,296,335,360
ACCELEROMETER,0.045489833,4.1395745,8.768166
MAGNETIC_FIELD,6.46,-9.938,-28.675
GYROSCOPE,0.058643065,0.028710667,-0.018936822
ORIENTATION,298,333,359
ACCELEROMETER,0.21068975,4.3065705,8.610746
MAGNETIC_FIELD,6.46,-9.938,-28.675
GYROSCOPE,0.0030543262,0.018020526,-0.030543262
ORIENTATION,299,334,360
ACCELEROMETER,0.014963761,4.2503066,8.690353
MAGNETIC_FIELD,6.46,-9.938,-28.675
GYROSCOPE,-0.009468411,0.007941248,-0.030543262
ORIENTATION,296,334,358
ACCELEROMETER,0.25857377,4.346673,8.934562
MAGNETIC_FIELD,6.46,-9.938,-28.675
GYROSCOPE,-0.034208454,-0.007941248,0.042455133
ORIENTATION,298,334,359
ACCELEROMETER,0.08798691,4.197634,8.653842
MAGNETIC_FIELD,6.46,-9.938,-28.675
GYROSCOPE,-0.007941248,-0.0036651916,0.010995574
ORIENTATION,297,334,358
ACCELEROMETER,0.23044191,4.3077674,8.796896
MAGNETIC_FIELD,6.46,-9.938,-28.675
GYROSCOPE,0.050396383,-0.0061086523,0.06291912
ORIENTATION,298,333,358
ACCELEROMETER,0.2837129,4.220379,8.301296
MAGNETIC_FIELD,6.46,-9.938,-28.675
GYROSCOPE,0.04795292,0.0125227375,-0.0012217305
ORIENTATION,292,336,0
ACCELEROMETER,-0.019752163,4.1024647,9.176975
MAGNETIC_FIELD,6.46,-9.938,-28.675
GYROSCOPE,-0.086132,0.03390302,-0.076052725
ORIENTATION,299,333,358
ACCELEROMETER,0.35254622,4.4645877,8.604162
MAGNETIC_FIELD,6.46,-9.938,-28.675
GYROSCOPE,-0.017104227,0.0290161,-0.048258353
ORIENTATION,303,333,0
ACCELEROMETER,-0.044292733,4.268862,8.3821
MAGNETIC_FIELD,6.46,-9.938,-28.675
GYROSCOPE,0.058337633,0.0033597588,-0.021991149
ORIENTATION,285,337,358
ACCELEROMETER,0.30406362,3.9264908,9.225458
MAGNETIC_FIELD,6.46,-9.938,-28.675
GYROSCOPE,-0.02076942,-0.038179077,0.043676864
ORIENTATION,297,333,357
ACCELEROMETER,0.3800795,4.3873744,8.660426
MAGNETIC_FIELD,6.46,-9.938,-28.675
GYROSCOPE,-0.07147124,-0.029321533,-0.037873644
ORIENTATION,294,335,359
ACCELEROMETER,0.13826515,4.1018662,8.775348
MAGNETIC_FIELD,6.46,-9.938,-28.675
GYROSCOPE,0.030543262,0.058337633,-0.090713486
ORIENTATION,297,334,359
ACCELEROMETER,0.13108255,4.2078094,8.643068
MAGNETIC_FIELD,6.46,-9.938,-28.675
GYROSCOPE,0.05681047,0.00580322,-0.03176499
ORIENTATION,296,334,359
ACCELEROMETER,0.14963761,4.1718965,8.639477
MAGNETIC_FIELD,6.46,-9.938,-28.346
GYROSCOPE,0.0021380284,-0.03176499,-0.003970624
ORIENTATION,297,334,359
ACCELEROMETER,0.2172738,4.2862196,8.607155
MAGNETIC_FIELD,6.46,-9.938,-28.346
GYROSCOPE,-0.050701816,-0.036651913,0.03970624
ORIENTATION,295,334,359
ACCELEROMETER,0.13227965,4.1718965,8.695142
MAGNETIC_FIELD,6.793,-9.938,-28.346
GYROSCOPE,-0.045814894,0.05100725,-0.030848695
ORIENTATION,286,337,0
ACCELEROMETER,-0.023942016,3.8205473,9.029133
MAGNETIC_FIELD,6.793,-9.938,-28.346
GYROSCOPE,-0.15577064,-0.058948494,-0.22235495
ORIENTATION,298,329,353
ACCELEROMETER,1.1737574,5.73531,9.528923
MAGNETIC_FIELD,6.793,-9.938,-28.346
GYROSCOPE,0.098043874,-0.042455133,0.24953845
ORIENTATION,299,335,2
ACCELEROMETER,-0.33518824,4.0096893,8.50181
MAGNETIC_FIELD,6.793,-9.603,-28.346
GYROSCOPE,-0.013133603,-0.8405506,-0.024129177
ORIENTATION,293,336,359
ACCELEROMETER,0.11492168,4.03004,8.850166
MAGNETIC_FIELD,6.793,-9.603,-28.346
GYROSCOPE,0.004276057,0.15027285,0.06536258
ORIENTATION,294,336,2
ACCELEROMETER,-0.2633622,3.9552212,8.980651
MAGNETIC_FIELD,6.793,-9.603,-28.346
GYROSCOPE,-0.01160644,0.09712757,0.015271631
ORIENTATION,286,339,4
ACCELEROMETER,-0.6135142,3.5751417,9.199121
MAGNETIC_FIELD,6.793,-9.603,-28.016
GYROSCOPE,-0.32284227,0.112704635,0.027183503
ORIENTATION,298,336,2
ACCELEROMETER,-0.3609259,3.86903,8.510789
MAGNETIC_FIELD,6.793,-9.216,-28.016
GYROSCOPE,0.043982297,0.37048978,0.006414085
ORIENTATION,297,338,5
ACCELEROMETER,-0.736217,3.7134068,9.051279
MAGNETIC_FIELD,7.093,-9.216,-28.016
GYROSCOPE,-0.22052236,-0.019242255,-0.0143553335
ORIENTATION,280,340,4
ACCELEROMETER,-0.6548142,3.393781,9.44333
MAGNETIC_FIELD,7.093,-9.216,-28.016
GYROSCOPE,0.01282817,0.14446963,9.162979E-4
ORIENTATION,289,338,3
ACCELEROMETER,-0.41718966,3.5972881,8.921992
MAGNETIC_FIELD,7.093,-8.915,-28.016
GYROSCOPE,0.03756821,-0.06566802,0.03848451
ORIENTATION,299,337,4
ACCELEROMETER,-0.587178,3.6002808,8.528745
MAGNETIC_FIELD,7.426,-8.915,-28.016
GYROSCOPE,0.065973446,-0.047036625,-0.03940081
ORIENTATION,294,337,3
ACCELEROMETER,-0.40402153,3.8349125,9.086594
MAGNETIC_FIELD,7.426,-8.915,-28.016
GYROSCOPE,0.057726767,-0.013133603,0.070249505
ORIENTATION,295,336,1
ACCELEROMETER,-0.20590134,3.7594953,8.606557
MAGNETIC_FIELD,7.426,-8.915,-28.016
GYROSCOPE,0.05009095,-0.025350908,0.0021380284
ORIENTATION,292,338,3
ACCELEROMETER,-0.5009867,3.755904,9.290101
MAGNETIC_FIELD,7.426,-8.584,-28.016
GYROSCOPE,-0.019242255,0.0,-0.018936822
ORIENTATION,297,338,4
ACCELEROMETER,-0.59615624,3.6445735,8.918402
MAGNETIC_FIELD,7.778,-8.584,-28.016
GYROSCOPE,0.0033597588,-0.010079277,-0.0106901415
ORIENTATION,296,337,2
ACCELEROMETER,-0.36032736,4.0066967,9.388862
MAGNETIC_FIELD,7.778,-8.584,-27.697
GYROSCOPE,-0.045814894,-0.015577064,-0.018020526
ORIENTATION,297,336,2
ACCELEROMETER,-0.33997664,3.78643,8.651448
MAGNETIC_FIELD,7.778,-8.584,-27.697
GYROSCOPE,0.030543262,-0.0070249503,-0.025350908
ORIENTATION,295,337,3
ACCELEROMETER,-0.44352585,3.8367083,9.045294
MAGNETIC_FIELD,7.778,-8.584,-27.697
GYROSCOPE,-0.015271631,-0.021380283,-0.058337633
ORIENTATION,293,337,1
ACCELEROMETER,-0.19033903,3.7786489,8.802881
MAGNETIC_FIELD,8.106,-8.584,-27.697
GYROSCOPE,0.09407325,-0.11484267,0.03756821
ORIENTATION,294,336,360
ACCELEROMETER,0.054468088,3.9959226,8.778939
MAGNETIC_FIELD,8.106,-8.584,-27.697
GYROSCOPE,0.01282817,-0.0852157,0.056199603
ORIENTATION,286,339,2
ACCELEROMETER,-0.28491,3.5847185,9.252991
MAGNETIC_FIELD,8.106,-8.584,-27.697
GYROSCOPE,-0.045814894,0.016187929,-0.09193522
ORIENTATION,293,337,1
ACCELEROMETER,-0.14544775,3.8600516,8.910022
MAGNETIC_FIELD,8.106,-8.584,-27.697
GYROSCOPE,0.0018325958,-0.05589417,-0.024740042
ORIENTATION,307,327,355
ACCELEROMETER,0.6087258,5.079299,7.700351
MAGNETIC_FIELD,8.106,-8.584,-27.697
GYROSCOPE,0.65057147,0.012217305,0.6927212
ORIENTATION,296,335,360
ACCELEROMETER,0.040102877,4.2521024,9.045893
MAGNETIC_FIELD,8.106,-8.584,-27.697
GYROSCOPE,-0.12370021,0.103847094,-0.22327125
ORIENTATION,321,332,7
ACCELEROMETER,-0.99060094,4.647744,8.520964
MAGNETIC_FIELD,8.106,-8.584,-27.697
GYROSCOPE,-0.16157386,0.28038713,0.0693332
