ORIENTATION,0,0,0
ACCELEROMETER,-1.4131776,4.744709,8.596381
MAGNETIC_FIELD,11.332,-13.945,-28.712
GYROSCOPE,-0.03023783,-0.0106901415,-0.0290161
ORIENTATION,268,335,2
ACCELEROMETER,-0.3681085,4.192846,8.969278
MAGNETIC_FIELD,11.332,-13.945,-29.67
GYROSCOPE,-0.39767328,-0.0106901415,-0.6560693
ORIENTATION,253,341,359
ACCELEROMETER,0.25258827,3.3716345,9.966463
MAGNETIC_FIELD,10.597,-13.945,-29.67
GYROSCOPE,-0.09712757,-1.2950343,-0.07086037
ORIENTATION,275,333,359
ACCELEROMETER,0.11552023,4.3305125,8.546701
MAGNETIC_FIELD,8.847,-12.652,-30.845
GYROSCOPE,0.043676864,-0.23426682,0.093462385
ORIENTATION,280,335,359
ACCELEROMETER,0.11611878,4.1533413,8.791509
MAGNETIC_FIELD,9.266,-12.652,-31.793
GYROSCOPE,-0.011911872,0.052839845,-0.020463986
ORIENTATION,283,335,0
ACCELEROMETER,-0.073621705,4.045004,8.655638
MAGNETIC_FIELD,8.949,-12.35,-31.044
GYROSCOPE,0.029932396,0.053145275,-0.0106901415
ORIENTATION,286,334,0
ACCELEROMETER,-0.06404489,4.292804,8.866926
MAGNETIC_FIELD,8.949,-12.35,-31.044
GYROSCOPE,0.08582657,0.07360926,-0.09987647
ORIENTATION,282,334,358
ACCELEROMETER,0.2908955,3.904943,8.1756
MAGNETIC_FIELD,8.949,-12.35,-31.044
GYROSCOPE,0.24556783,-0.01985312,0.09896017
ORIENTATION,285,333,357
ACCELEROMETER,0.4441244,4.606444,9.019556
MAGNETIC_FIELD,9.288,-12.35,-31.561
GYROSCOPE,-0.39461896,0.4175264,-0.07849618
ORIENTATION,275,337,0
ACCELEROMETER,-0.05267244,3.8325183,9.180567
MAGNETIC_FIELD,9.288,-12.66,-32.441
GYROSCOPE,-0.2134974,0.14569137,-0.19181168
ORIENTATION,297,328,355
ACCELEROMETER,0.6254852,4.923676,7.825448
MAGNETIC_FIELD,8.564,-12.66,-30.77
GYROSCOPE,0.54458636,-0.093462385,-0.08460484
ORIENTATION,285,333,357
ACCELEROMETER,0.4429273,4.7656584,9.164406
MAGNETIC_FIELD,7.695,-13.276,-29.911
GYROSCOPE,0.1459968,-0.25228736,0.07727446
ORIENTATION,281,333,359
ACCELEROMETER,0.1376666,4.5555673,8.999206
MAGNETIC_FIELD,7.147,-12.974,-29.911
GYROSCOPE,-0.112399206,-0.09101892,-0.011911872
ORIENTATION,292,331,358
ACCELEROMETER,0.22445641,4.4765587,8.012196
MAGNETIC_FIELD,7.499,-12.974,-29.911
GYROSCOPE,0.040927973,0.032986723,0.09254608
ORIENTATION,303,326,357
ACCELEROMETER,0.40342298,5.0745106,7.467515
MAGNETIC_FIELD,7.499,-12.974,-30.31
GYROSCOPE,0.042760566,0.16218472,0.028710667
ORIENTATION,285,333,358
ACCELEROMETER,0.27114335,4.755483,9.1751795
MAGNETIC_FIELD,7.499,-12.974,-29.994
GYROSCOPE,0.17287487,0.12767084,-0.015271631
ORIENTATION,287,332,358
ACCELEROMETER,0.28431144,3.894169,7.2304893
MAGNETIC_FIELD,7.499,-12.974,-29.595
GYROSCOPE,0.07574729,-0.051923547,0.12003502
ORIENTATION,288,329,354
ACCELEROMETER,1.0247183,5.4964886,9.231443
MAGNETIC_FIELD,7.499,-13.475,-29.595
GYROSCOPE,-0.27763826,0.038789943,-0.05222898
ORIENTATION,278,334,2
ACCELEROMETER,-0.2669535,4.325125,8.919599
MAGNETIC_FIELD,7.499,-12.774,-30.065
GYROSCOPE,-0.026267206,0.27550024,0.10476339
ORIENTATION,283,334,0
ACCELEROMETER,-0.0676362,4.096479,8.421006
MAGNETIC_FIELD,7.878,-12.774,-30.065
GYROSCOPE,-0.01038471,-0.024740042,-0.062308256
ORIENTATION,282,334,359
ACCELEROMETER,0.23044191,4.3807907,8.854955
MAGNETIC_FIELD,7.878,-12.774,-30.065
GYROSCOPE,-0.06658431,0.021991149,0.10445796
ORIENTATION,277,335,359
ACCELEROMETER,0.077213004,4.0533834,8.740033
MAGNETIC_FIELD,7.501,-12.774,-30.065
GYROSCOPE,-0.09743301,-0.031154128,-0.031154128
ORIENTATION,284,333,357
ACCELEROMETER,0.374094,4.385579,8.516774
MAGNETIC_FIELD,7.501,-12.774,-30.065
GYROSCOPE,0.032986723,0.0067195175,0.0870483
ORIENTATION,268,337,1
ACCELEROMETER,-0.077213004,3.66253,8.783129
MAGNETIC_FIELD,7.501,-12.774,-30.065
GYROSCOPE,-0.0842994,-0.061086524,-0.05009095
ORIENTATION,277,335,359
ACCELEROMETER,0.14065935,4.156933,8.994417
MAGNETIC_FIELD,7.501,-12.774,-30.065
GYROSCOPE,-0.057726767,-0.06383542,-0.079107046
ORIENTATION,281,334,357
ACCELEROMETER,0.45370123,4.484938,8.990826
MAGNETIC_FIELD,7.501,-12.774,-30.065
GYROSCOPE,0.08735373,0.110872045,-0.012217305
ORIENTATION,278,335,1
ACCELEROMETER,-0.14784196,3.8804023,8.422203
MAGNETIC_FIELD,7.501,-12.774,-30.065
GYROSCOPE,0.1740966,-0.03573562,-0.0067195175
ORIENTATION,271,337,0
ACCELEROMETER,-0.01616086,3.8361096,8.934562
MAGNETIC_FIELD,7.501,-12.774,-30.065
GYROSCOPE,-0.10781772,0.19792034,-0.043676864
ORIENTATION,277,335,359
ACCELEROMETER,0.18495208,4.042011,8.665215
MAGNETIC_FIELD,7.501,-12.44,-30.065
GYROSCOPE,0.24678956,9.162979E-4,0.06841691
ORIENTATION,279,335,358
ACCELEROMETER,0.33279404,3.9719806,8.407838
MAGNETIC_FIELD,7.501,-12.44,-30.065
GYROSCOPE,0.04184427,-0.16035213,-0.06566802
ORIENTATION,278,336,360
ACCELEROMETER,0.012569559,4.004901,8.820239
MAGNETIC_FIELD,7.501,-12.44,-30.065
GYROSCOPE,0.3200934,-0.03176499,0.12156218
ORIENTATION,280,334,357
ACCELEROMETER,0.52971715,4.2054152,8.74542
MAGNETIC_FIELD,7.501,-12.44,-30.065
GYROSCOPE,-0.23579398,-0.21991149,-0.08124508
ORIENTATION,282,335,1
ACCELEROMETER,-0.09876082,4.1683054,8.892664
MAGNETIC_FIELD,7.501,-12.44,-30.065
GYROSCOPE,-0.053450707,-0.023823744,-0.019242255
ORIENTATION,282,334,359
ACCELEROMETER,0.16879122,4.0623617,8.486248
MAGNETIC_FIELD,7.501,-12.118,-30.065
GYROSCOPE,0.017104227,0.14874569,-0.019547688
ORIENTATION,278,336,0
ACCELEROMETER,-0.073023155,3.879804,8.798691
MAGNETIC_FIELD,7.501,-12.118,-30.065
GYROSCOPE,-0.07971791,0.02565634,-0.015271631
ORIENTATION,275,337,360
ACCELEROMETER,0.01316811,3.8145618,8.945934
MAGNETIC_FIELD,7.501,-12.118,-30.065
GYROSCOPE,-0.005497787,0.0143553335,-0.08735373
ORIENTATION,279,336,360
ACCELEROMETER,0.032920275,4.0557775,9.039907
MAGNETIC_FIELD,7.501,-11.813,-30.065
GYROSCOPE,-0.023823744,-0.0076358155,0.025350908
ORIENTATION,282,335,359
ACCELEROMETER,0.1436521,4.010886,8.772954
MAGNETIC_FIELD,7.501,-11.813,-30.065
GYROSCOPE,0.007941248,6.1086525E-4,3.0543262E-4
ORIENTATION,278,337,1
ACCELEROMETER,-0.17058687,3.9103298,9.20391
MAGNETIC_FIELD,7.501,-11.813,-30.065
GYROSCOPE,-0.08246681,-0.011301007,-0.015271631
ORIENTATION,279,337,1
ACCELEROMETER,-0.17896658,3.9378633,9.119514
MAGNETIC_FIELD,7.501,-11.451,-30.065
GYROSCOPE,-0.040011674,-0.027794369,-0.007941248
ORIENTATION,297,330,356
ACCELEROMETER,0.62488663,4.815338,8.161834
MAGNETIC_FIELD,7.501,-11.451,-30.065
GYROSCOPE,0.19211712,0.048258353,0.07238753
ORIENTATION,286,335,360
ACCELEROMETER,0.024540568,3.7152026,8.0367365
MAGNETIC_FIELD,7.823,-11.451,-30.065
GYROSCOPE,0.04184427,-0.105374254,0.1469131
ORIENTATION,272,339,1
ACCELEROMETER,-0.2136825,3.651756,9.422979
MAGNETIC_FIELD,7.823,-11.451,-30.065
GYROSCOPE,-0.2406809,0.048563786,-0.099265605
ORIENTATION,288,334,359
ACCELEROMETER,0.11791443,4.1036615,8.546103
MAGNETIC_FIELD,7.823,-11.451,-30.065
GYROSCOPE,-0.13805555,-0.015577064,-0.2012801
ORIENTATION,276,338,0
ACCELEROMETER,-0.006584055,3.9881415,9.689933
MAGNETIC_FIELD,7.823,-11.451,-30.065
GYROSCOPE,0.025961773,0.12797627,0.098043874
ORIENTATION,267,340,3
ACCELEROMETER,-0.45908818,3.2872388,8.968679
MAGNETIC_FIELD,7.823,-11.451,-30.065
GYROSCOPE,-0.099571034,-0.106901415,-0.087964594
ORIENTATION,248,343,4
ACCELEROMETER,-0.688333,2.8921957,9.734824
MAGNETIC_FIELD,7.823,-11.022,-30.065
GYROSCOPE,0.19608775,0.19028452,-0.14477506
ORIENTATION,280,338,4
ACCELEROMETER,-0.63206923,3.1950622,8.06427
MAGNETIC_FIELD,7.823,-11.022,-30.065
GYROSCOPE,0.13836098,-0.48441613,-0.11484267
ORIENTATION,267,341,358
ACCELEROMETER,0.26396075,3.3746274,9.5385
MAGNETIC_FIELD,7.823,-11.022,-30.065
GYROSCOPE,0.22235495,-0.06566802,0.44837508
ORIENTATION,269,340,360
ACCELEROMETER,0.05566519,3.430891,9.520543
MAGNETIC_FIELD,7.823,-11.022,-30.065
GYROSCOPE,-0.119729586,-0.43768495,-0.3173445
ORIENTATION,292,335,1
ACCELEROMETER,-0.10354923,4.0144777,8.462905
MAGNETIC_FIELD,7.823,-11.022,-30.065
GYROSCOPE,0.06627888,0.40194935,-0.1740966
ORIENTATION,228,346,8
ACCELEROMETER,-1.4508862,2.5851393,10.08318
MAGNETIC_FIELD,7.823,-11.022,-30.065
GYROSCOPE,-0.14996742,0.057421334,-0.310625
ORIENTATION,286,337,2
ACCELEROMETER,-0.34715924,3.6942532,8.541913
MAGNETIC_FIELD,7.823,-11.022,-30.065
GYROSCOPE,0.37415496,-0.10323623,-0.07086037
ORIENTATION,272,340,7
ACCELEROMETER,-1.0672154,3.3734303,9.201516
MAGNETIC_FIELD,7.823,-11.022,-30.065
GYROSCOPE,-0.06658431,-0.121256754,-0.15821409
ORIENTATION,300,331,359
ACCELEROMETER,0.12330139,4.3783965,7.9008656
MAGNETIC_FIELD,7.823,-11.022,-30.065
GYROSCOPE,0.13744467,-0.0036651916,0.01985312
ORIENTATION,293,335,2
ACCELEROMETER,-0.3752911,4.1371803,8.948928
MAGNETIC_FIELD,7.823,-11.022,-30.065
GYROSCOPE,0.10323623,-0.0580322,0.093462385
ORIENTATION,294,334,1
ACCELEROMETER,-0.18136078,4.1982327,8.70831
MAGNETIC_FIELD,7.476,-11.022,-30.065
GYROSCOPE,0.053450707,-0.01740966,-0.084910266
ORIENTATION,301,335,4
ACCELEROMETER,-0.6488287,4.0695443,8.579621
MAGNETIC_FIELD,7.476,-11.402,-30.065
GYROSCOPE,-0.0036651916,0.010079277,-0.03726278
ORIENTATION,283,337,2
ACCELEROMETER,-0.3429694,3.9749734,9.263765
MAGNETIC_FIELD,7.476,-11.851,-30.065
GYROSCOPE,0.0421497,0.027794369,-0.10476339
ORIENTATION,293,335,5
ACCELEROMETER,-0.78290397,4.132991,8.933964
MAGNETIC_FIELD,7.476,-11.851,-30.065
GYROSCOPE,-0.015271631,-0.055588737,-0.05222898
ORIENTATION,294,335,5
ACCELEROMETER,-0.7230489,4.0479965,8.641273
MAGNETIC_FIELD,7.476,-11.851,-30.065
GYROSCOPE,0.003970624,-0.064751714,0.01740966
ORIENTATION,298,332,2
ACCELEROMETER,-0.25977087,4.26527,8.152257
MAGNETIC_FIELD,7.476,-11.851,-30.065
GYROSCOPE,0.024129177,-0.0036651916,-0.019547688
ORIENTATION,291,334,2
ACCELEROMETER,-0.3250129,4.2945995,8.923788
MAGNETIC_FIELD,7.476,-11.851,-30.065
GYROSCOPE,-0.018936822,0.021380283,-0.039095376
ORIENTATION,289,335,4
ACCELEROMETER,-0.587178,3.9917328,8.731055
MAGNETIC_FIELD,7.476,-11.851,-30.065
GYROSCOPE,-0.059864793,-0.008857546,-0.06047566
ORIENTATION,287,335,3
ACCELEROMETER,-0.39085343,4.0695443,8.9040365
MAGNETIC_FIELD,7.476,-11.851,-30.065
GYROSCOPE,0.0030543262,-0.04062254,0.014966198
ORIENTATION,287,335,0
ACCELEROMETER,-0.04129998,4.201824,8.862138
MAGNETIC_FIELD,7.476,-11.851,-30.065
GYROSCOPE,0.06811147,-0.00580322,0.04428773
ORIENTATION,285,335,2
ACCELEROMETER,-0.2741361,4.107253,8.982447
MAGNETIC_FIELD,7.476,-11.851,-30.065
GYROSCOPE,0.06780604,-0.20708331,-0.050701816
ORIENTATION,289,335,3
ACCELEROMETER,-0.46028528,3.888782,8.38629
MAGNETIC_FIELD,7.476,-12.231,-30.065
GYROSCOPE,-0.0061086523,0.084910266,-0.027794369
ORIENTATION,277,337,3
ACCELEROMETER,-0.52492875,3.9390604,9.179369
MAGNETIC_FIELD,7.476,-12.231,-30.065
GYROSCOPE,-0.06566802,0.014966198,-0.016187929
ORIENTATION,271,338,3
ACCELEROMETER,-0.50158525,3.663727,9.058462
MAGNETIC_FIELD,7.476,-12.231,-30.065
GYROSCOPE,-0.06688975,-0.048563786,-0.022296581
ORIENTATION,271,338,0
ACCELEROMETER,-0.04070143,3.876811,9.457695
MAGNETIC_FIELD,7.476,-12.231,-30.065
GYROSCOPE,-0.05222898,-0.0036651916,0.023823744
ORIENTATION,270,338,0
ACCELEROMETER,-0.07182605,3.775656,9.306861
MAGNETIC_FIELD,7.476,-12.231,-30.065
GYROSCOPE,-0.024129177,-0.03726278,-0.092240654
ORIENTATION,285,335,1
ACCELEROMETER,-0.18136078,4.1174283,8.72507
MAGNETIC_FIELD,7.476,-12.231,-30.065
GYROSCOPE,0.1600467,-0.04642576,-0.0018325958
ORIENTATION,280,336,0
ACCELEROMETER,-0.039504327,4.1258082,9.13388
MAGNETIC_FIELD,7.476,-12.231,-30.065
GYROSCOPE,-0.016493361,-0.04520403,0.027488936
ORIENTATION,300,333,4
ACCELEROMETER,-0.5823896,4.127005,7.9930425
MAGNETIC_FIELD,7.78,-12.231,-30.065
GYROSCOPE,0.121256754,0.055283304,0.038789943
ORIENTATION,293,332,0
ACCELEROMETER,-5.985504E-4,4.547786,8.612542
MAGNETIC_FIELD,7.78,-12.231,-30.065
GYROSCOPE,0.1459968,0.16493362,0.064446285
ORIENTATION,282,336,5
ACCELEROMETER,-0.7517793,3.8851907,8.847773
MAGNETIC_FIELD,7.78,-12.231,-29.759
GYROSCOPE,-0.025350908,0.1572978,-0.09682214
ORIENTATION,293,333,2
ACCELEROMETER,-0.32800564,4.3993454,8.54311
MAGNETIC_FIELD,8.103,-12.231,-29.759
GYROSCOPE,0.050396383,-0.008857546,-0.058643065
ORIENTATION,293,334,4
ACCELEROMETER,-0.6314707,4.624999,9.271546
MAGNETIC_FIELD,8.103,-12.231,-29.759
GYROSCOPE,-0.018936822,-0.05467244,-0.095294975
ORIENTATION,296,334,5
ACCELEROMETER,-0.82599956,4.357447,8.741829
MAGNETIC_FIELD,8.103,-11.871,-29.759
GYROSCOPE,0.05100725,0.013744468,-0.023518313
ORIENTATION,298,331,1
ACCELEROMETER,-0.17657238,4.4753613,8.200739
MAGNETIC_FIELD,8.464,-11.871,-29.759
GYROSCOPE,0.025045475,-0.03359759,0.014660766
ORIENTATION,308,330,4
ACCELEROMETER,-0.54887074,4.581305,7.8344264
MAGNETIC_FIELD,8.464,-11.871,-29.759
GYROSCOPE,-0.018325957,0.022602014,0.008552114
ORIENTATION,293,334,5
ACCELEROMETER,-0.81343,4.283227,8.889671
MAGNETIC_FIELD,8.464,-11.871,-29.759
GYROSCOPE,-0.15607607,0.010079277,-0.038179077
ORIENTATION,291,334,3
ACCELEROMETER,-0.42796355,4.4077253,8.901642
MAGNETIC_FIELD,8.464,-11.871,-29.759
GYROSCOPE,-0.062308256,-0.058337633,0.077579886
ORIENTATION,286,335,4
ACCELEROMETER,-0.60932434,3.9947255,8.731055
MAGNETIC_FIELD,8.781,-11.871,-29.759
GYROSCOPE,0.07971791,0.008246681,0.056505036
ORIENTATION,289,335,4
ACCELEROMETER,-0.6703765,4.152743,8.740033
MAGNETIC_FIELD,8.781,-11.871,-29.391
GYROSCOPE,0.021991149,0.051923547,0.1142318
ORIENTATION,281,336,3
ACCELEROMETER,-0.45429978,4.128801,9.105149
MAGNETIC_FIELD,8.781,-11.567,-29.391
GYROSCOPE,0.067500606,0.08002335,0.09682214
ORIENTATION,299,330,1
ACCELEROMETER,-0.1328782,4.410718,7.778163
MAGNETIC_FIELD,9.202,-11.567,-29.391
GYROSCOPE,0.15332718,0.026572637,0.09773844
ORIENTATION,294,332,2
ACCELEROMETER,-0.31124622,4.497508,8.555679
MAGNETIC_FIELD,9.202,-11.567,-29.391
GYROSCOPE,-0.038179077,-0.13469578,-0.08246681
ORIENTATION,291,332,0
ACCELEROMETER,-0.074220255,4.5058875,8.546701
MAGNETIC_FIELD,9.202,-11.567,-29.391
GYROSCOPE,-0.027794369,-0.05375614,-0.019242255
ORIENTATION,291,333,1
ACCELEROMETER,-0.13227965,4.407127,8.49343
MAGNETIC_FIELD,9.202,-11.567,-29.391
GYROSCOPE,-0.06291912,-0.16432275,-0.039095376
ORIENTATION,286,335,2
ACCELEROMETER,-0.3393781,4.179079,8.824429
MAGNETIC_FIELD,9.202,-11.567,-29.391
GYROSCOPE,-0.06566802,0.031154128,-0.08155051
ORIENTATION,288,332,359
ACCELEROMETER,0.19153613,4.453215,8.53054
MAGNETIC_FIELD,9.202,-11.567,-29.391
GYROSCOPE,-0.0125227375,-0.008246681,0.073303826
ORIENTATION,286,335,2
ACCELEROMETER,-0.31603462,4.198831,8.798093
MAGNETIC_FIELD,9.202,-11.567,-29.391
GYROSCOPE,-0.007330383,-0.01282817,-0.029321533
ORIENTATION,282,335,1
ACCELEROMETER,-0.12749124,4.0360255,8.732851
MAGNETIC_FIELD,9.202,-11.889,-29.072
GYROSCOPE,0.008552114,-0.0015271631,-0.008857546
ORIENTATION,280,335,1
ACCELEROMETER,-0.08259996,4.1802764,8.920197
MAGNETIC_FIELD,9.202,-11.889,-29.072
GYROSCOPE,0.014966198,0.022296581,-0.008857546
ORIENTATION,283,334,1
ACCELEROMETER,-0.15502456,4.201824,8.649054
MAGNETIC_FIELD,9.202,-11.889,-29.072
GYROSCOPE,0.06352998,0.0018325958,-0.037873644
ORIENTATION,287,333,2
ACCELEROMETER,-0.27353755,4.3329067,8.647857
MAGNETIC_FIELD,9.202,-11.889,-29.072
GYROSCOPE,0.013133603,0.12003502,-0.01863139
ORIENTATION,290,332,2
ACCELEROMETER,-0.29927522,4.5238442,8.670003
MAGNETIC_FIELD,9.202,-11.889,-29.072
GYROSCOPE,-0.034208454,0.0015271631,0.049785517
ORIENTATION,284,335,3
ACCELEROMETER,-0.46686932,4.1635165,8.752603
MAGNETIC_FIELD,9.202,-11.889,-29.072
GYROSCOPE,-0.004276057,0.028405234,0.03176499
ORIENTATION,288,333,2
ACCELEROMETER,-0.23523031,4.38498,8.604162
MAGNETIC_FIELD,9.202,-11.889,-29.072
GYROSCOPE,-0.03359759,0.023823744,-0.01038471
ORIENTATION,282,335,2
ACCELEROMETER,-0.2717419,4.1641154,8.819042
MAGNETIC_FIELD,9.202,-11.889,-29.072
GYROSCOPE,0.04153884,0.0076358155,-0.049480084
ORIENTATION,287,333,1
ACCELEROMETER,-0.19153613,4.4568067,8.842385
MAGNETIC_FIELD,9.202,-11.889,-29.072
GYROSCOPE,0.040011674,0.035430185,-0.0421497
ORIENTATION,285,334,2
ACCELEROMETER,-0.3196259,4.2658687,8.768166
MAGNETIC_FIELD,9.202,-11.889,-29.072
GYROSCOPE,-0.0018325958,-0.01985312,-0.04337143
ORIENTATION,293,332,3
ACCELEROMETER,-0.3681085,4.3646297,8.212111
MAGNETIC_FIELD,9.202,-11.889,-29.072
GYROSCOPE,0.030848695,-0.027488936,0.0106901415
ORIENTATION,287,333,1
ACCELEROMETER,-0.20350714,4.3861775,8.720282
MAGNETIC_FIELD,9.202,-12.202,-29.072
GYROSCOPE,-0.021380283,0.032070424,0.052534413
ORIENTATION,281,335,2
ACCELEROMETER,-0.31304187,4.174889,8.757391
MAGNETIC_FIELD,8.889,-12.202,-29.072
GYROSCOPE,0.07819075,0.02565634,0.011301007
ORIENTATION,285,334,2
ACCELEROMETER,-0.33877954,4.296395,8.689157
MAGNETIC_FIELD,8.889,-12.202,-29.072
GYROSCOPE,0.004581489,-0.026572637,-0.034513887
ORIENTATION,284,334,2
ACCELEROMETER,-0.25857377,4.313753,8.730456
MAGNETIC_FIELD,8.889,-12.202,-29.072
GYROSCOPE,-0.025350908,-0.025961773,-0.008552114
ORIENTATION,283,334,2
ACCELEROMETER,-0.3286042,4.235343,8.775348
MAGNETIC_FIELD,8.889,-12.202,-29.42
GYROSCOPE,-0.028099801,0.014660766,-0.006414085
ORIENTATION,283,335,2
ACCELEROMETER,-0.32441434,4.196437,8.805275
MAGNETIC_FIELD,8.889,-12.202,-29.42
GYROSCOPE,0.005192355,-0.017715093,-0.009162978
ORIENTATION,287,333,1
ACCELEROMETER,-0.11252748,4.3544545,8.549096
MAGNETIC_FIELD,8.889,-12.202,-29.42
GYROSCOPE,-0.0036651916,6.1086525E-4,-0.00580322
ORIENTATION,285,334,1
ACCELEROMETER,-0.17357962,4.3275194,8.748413
MAGNETIC_FIELD,8.889,-12.202,-29.42
GYROSCOPE,0.009773844,0.026267206,-0.012217305
ORIENTATION,282,335,3
ACCELEROMETER,-0.40342298,4.232949,8.980651
MAGNETIC_FIELD,8.889,-12.202,-29.42
GYROSCOPE,-0.03390302,0.014049901,-0.052839845
ORIENTATION,288,333,2
ACCELEROMETER,-0.36391866,4.2658687,8.51019
MAGNETIC_FIELD,8.889,-12.202,-29.42
GYROSCOPE,0.024740042,0.03970624,-0.016798794
ORIENTATION,284,334,2
ACCELEROMETER,-0.35673606,4.235343,8.765172
MAGNETIC_FIELD,8.889,-12.202,-29.42
GYROSCOPE,-0.007941248,0.0,-0.007941248
ORIENTATION,284,334,1
ACCELEROMETER,-0.17477672,4.234744,8.645462
MAGNETIC_FIELD,8.889,-12.202,-29.42
GYROSCOPE,0.017715093,0.018936822,0.0036651916
ORIENTATION,290,333,2
ACCELEROMETER,-0.29448682,4.3568487,8.421604
MAGNETIC_FIELD,8.889,-12.202,-29.42
GYROSCOPE,-0.12217305,0.01740966,-0.060170226
ORIENTATION,279,336,3
ACCELEROMETER,-0.41838676,4.0695443,8.9519205
MAGNETIC_FIELD,8.889,-12.202,-29.42
GYROSCOPE,0.0061086523,0.002443461,-0.009162978
ORIENTATION,283,334,2
ACCELEROMETER,-0.27114335,4.2634745,8.828619
MAGNETIC_FIELD,8.889,-12.202,-29.42
GYROSCOPE,0.009162978,-0.017104227,-0.032375857
ORIENTATION,283,334,2
ACCELEROMETER,-0.2801216,4.1814733,8.740033
MAGNETIC_FIELD,8.889,-12.202,-29.42
GYROSCOPE,0.050396383,-0.024740042,-0.0021380284
ORIENTATION,283,334,2
ACCELEROMETER,-0.28670564,4.2251673,8.806473
MAGNETIC_FIELD,8.889,-12.202,-29.42
GYROSCOPE,-0.0012217305,-0.030543262,0.01038471
ORIENTATION,285,334,1
ACCELEROMETER,-0.22266077,4.2503066,8.632893
MAGNETIC_FIELD,8.563,-12.202,-29.42
GYROSCOPE,0.046731193,-0.031154128,0.01160644
ORIENTATION,290,332,360
ACCELEROMETER,0.049679685,4.4304705,8.260594
MAGNETIC_FIELD,8.563,-12.202,-29.42
GYROSCOPE,0.029626964,0.0033597588,0.044898596
ORIENTATION,282,335,1
ACCELEROMETER,-0.17058687,4.4556093,9.369708
MAGNETIC_FIELD,8.563,-12.202,-29.42
GYROSCOPE,0.061086524,0.0076358155,-0.07788532
ORIENTATION,295,331,2
ACCELEROMETER,-0.2765303,4.6806645,8.593389
MAGNETIC_FIELD,8.563,-12.202,-29.42
GYROSCOPE,-0.105374254,-0.0015271631,0.0061086523
ORIENTATION,282,336,4
ACCELEROMETER,-0.6488287,4.0019083,8.776545
MAGNETIC_FIELD,8.563,-12.202,-29.42
GYROSCOPE,-0.14752395,-0.049785517,-0.06383542
ORIENTATION,283,334,1
ACCELEROMETER,-0.17896658,4.483143,9.355942
MAGNETIC_FIELD,8.215,-12.202,-29.42
GYROSCOPE,-0.08460484,-0.04184427,-0.018936822
ORIENTATION,287,334,2
ACCELEROMETER,-0.35913026,4.185663,8.516175
MAGNETIC_FIELD,8.215,-12.202,-29.42
GYROSCOPE,0.13164146,-0.043982297,0.0
ORIENTATION,296,331,2
ACCELEROMETER,-0.29328972,4.510676,8.249222
MAGNETIC_FIELD,8.215,-12.202,-29.42
GYROSCOPE,0.015577064,0.04734206,-0.006414085
ORIENTATION,290,333,2
ACCELEROMETER,-0.30166942,4.3981485,8.665215
MAGNETIC_FIELD,8.215,-12.202,-29.42
GYROSCOPE,0.01160644,0.023518313,0.020158553
ORIENTATION,291,332,1
ACCELEROMETER,-0.079008654,4.485537,8.403648
MAGNETIC_FIELD,8.215,-12.202,-29.42
GYROSCOPE,0.044593163,0.012217305,0.026267206
ORIENTATION,280,335,1
ACCELEROMETER,-0.19572599,4.301183,9.285912
MAGNETIC_FIELD,8.215,-12.202,-29.42
GYROSCOPE,-0.11301007,-0.0061086523,-0.027488936
ORIENTATION,291,332,0
ACCELEROMETER,-0.007182605,4.481347,8.319851
MAGNETIC_FIELD,8.215,-12.202,-29.42
GYROSCOPE,0.04153884,-0.10903945,-0.010995574
ORIENTATION,286,333,360
ACCELEROMETER,0.0035913025,4.2293572,8.414422
MAGNETIC_FIELD,8.215,-12.202,-29.42
GYROSCOPE,-0.028710667,0.013744468,0.04520403
ORIENTATION,281,335,360
ACCELEROMETER,0.012569559,4.277241,9.025542
MAGNETIC_FIELD,8.215,-12.202,-29.42
GYROSCOPE,-0.022907447,-0.09132435,0.0021380284
ORIENTATION,281,334,359
ACCELEROMETER,0.21547815,4.231153,8.762179
MAGNETIC_FIELD,8.215,-12.202,-29.42
GYROSCOPE,0.012217305,-0.03848451,0.041233405
ORIENTATION,281,334,359
ACCELEROMETER,0.1400608,4.1545386,8.653842
MAGNETIC_FIELD,7.902,-12.202,-29.42
GYROSCOPE,-0.016798794,-0.03634648,-0.005497787
ORIENTATION,280,334,358
ACCELEROMETER,0.25019407,4.259285,8.904634
MAGNETIC_FIELD,7.902,-12.202,-29.42
GYROSCOPE,-0.05589417,-0.006414085,0.01863139
ORIENTATION,281,334,358
ACCELEROMETER,0.33039984,4.1802764,8.628104
MAGNETIC_FIELD,7.902,-12.545,-29.42
GYROSCOPE,0.021380283,-0.03481932,0.013439035
ORIENTATION,278,334,358
ACCELEROMETER,0.32920274,4.237737,8.874707
MAGNETIC_FIELD,7.902,-12.545,-29.743
GYROSCOPE,0.037873644,0.013133603,0.0012217305
ORIENTATION,279,334,358
ACCELEROMETER,0.25617957,4.19105,8.77834
MAGNETIC_FIELD,7.55,-12.545,-29.743
GYROSCOPE,0.035430185,-0.012217305,-0.016187929
ORIENTATION,284,333,358
ACCELEROMETER,0.31663316,4.368221,8.565855
MAGNETIC_FIELD,7.55,-12.545,-29.743
GYROSCOPE,0.010079277,0.009468411,0.026267206
ORIENTATION,277,335,359
ACCELEROMETER,0.12509704,4.085107,8.9279785
MAGNETIC_FIELD,7.55,-12.545,-29.743
GYROSCOPE,-0.07422013,-0.002443461,-0.033292156
ORIENTATION,280,334,357
ACCELEROMETER,0.43514615,4.2820296,8.763975
MAGNETIC_FIELD,7.55,-12.545,-29.743
GYROSCOPE,0.013439035,-0.013439035,0.0021380284
ORIENTATION,282,334,359
ACCELEROMETER,0.20171149,4.2060137,8.595184
MAGNETIC_FIELD,7.55,-12.545,-29.743
GYROSCOPE,0.008552114,-0.042455133,-0.0030543262
ORIENTATION,283,333,358
ACCELEROMETER,0.38307226,4.507085,8.955511
MAGNETIC_FIELD,7.55,-12.545,-29.743
GYROSCOPE,0.0015271631,0.020158553,0.008246681
ORIENTATION,273,337,3
ACCELEROMETER,-0.4309563,3.863643,9.000402
MAGNETIC_FIELD,7.55,-12.545,-29.743
GYROSCOPE,-0.24831672,-0.0106901415,-0.11636983
ORIENTATION,279,335,359
ACCELEROMETER,0.095768064,3.9354692,8.351574
MAGNETIC_FIELD,7.55,-12.545,-29.743
GYROSCOPE,0.14966199,0.010995574,0.008857546
ORIENTATION,281,334,359
ACCELEROMETER,0.14425065,4.1515455,8.623316
MAGNETIC_FIELD,7.55,-12.545,-29.743
GYROSCOPE,0.015882496,0.047647487,-0.014966198
ORIENTATION,279,334,358
ACCELEROMETER,0.31543607,4.173692,8.701726
MAGNETIC_FIELD,7.55,-12.545,-29.743
GYROSCOPE,0.017104227,-0.011301007,-0.0018325958
ORIENTATION,281,334,358
ACCELEROMETER,0.33638534,4.3275194,8.776545
MAGNETIC_FIELD,7.55,-12.188,-29.743
GYROSCOPE,0.004276057,0.029321533,-0.026267206
ORIENTATION,286,333,359
ACCELEROMETER,0.20530279,4.313753,8.634089
MAGNETIC_FIELD,7.55,-12.188,-29.743
GYROSCOPE,0.016493361,9.162979E-4,-0.033292156
ORIENTATION,283,334,359
ACCELEROMETER,0.18495208,4.160524,8.65863
MAGNETIC_FIELD,7.55,-12.188,-29.743
GYROSCOPE,0.023823744,-0.004581489,-0.009468411
ORIENTATION,284,334,358
ACCELEROMETER,0.25438392,4.3317094,8.834005
MAGNETIC_FIELD,7.55,-12.188,-29.743
GYROSCOPE,0.02321288,-0.007330383,0.0021380284
ORIENTATION,284,334,359
ACCELEROMETER,0.15143326,4.1940427,8.60117
MAGNETIC_FIELD,7.55,-12.188,-29.743
GYROSCOPE,-0.004581489,-0.019547688,0.023823744
ORIENTATION,285,333,357
ACCELEROMETER,0.3800795,4.3718123,8.610147
MAGNETIC_FIELD,7.55,-12.188,-29.743
GYROSCOPE,0.01038471,0.0070249503,0.03176499
ORIENTATION,284,333,357
ACCELEROMETER,0.41359833,4.276643,8.503007
MAGNETIC_FIELD,7.55,-12.188,-29.743
GYROSCOPE,0.024740042,0.005192355,0.0033597588
ORIENTATION,286,333,358
ACCELEROMETER,0.34117374,4.4687777,8.743625
MAGNETIC_FIELD,7.55,-12.188,-30.044
GYROSCOPE,0.026267206,-0.02321288,0.005497787
ORIENTATION,287,333,359
ACCELEROMETER,0.16400282,4.2299557,8.455722
MAGNETIC_FIELD,7.55,-12.188,-30.044
GYROSCOPE,-0.006414085,-0.005192355,-0.0143553335
ORIENTATION,288,333,357
ACCELEROMETER,0.3842694,4.4298716,8.555081
MAGNETIC_FIELD,7.55,-12.188,-30.044
GYROSCOPE,-0.01740966,0.013744468,0.016798794
ORIENTATION,284,334,358
ACCELEROMETER,0.35913026,4.3065705,8.732851
MAGNETIC_FIELD,7.55,-12.188,-30.044
GYROSCOPE,0.008552114,0.035124753,0.0027488936
ORIENTATION,281,335,359
ACCELEROMETER,0.19033903,4.1383777,8.899248
MAGNETIC_FIELD,7.55,-12.188,-30.044
GYROSCOPE,-0.0061086523,-0.010995574,-0.022602014
ORIENTATION,282,334,358
ACCELEROMETER,0.272939,4.235343,8.866327
MAGNETIC_FIELD,7.55,-12.188,-30.044
GYROSCOPE,0.019242255,-0.01038471,0.021991149
ORIENTATION,289,332,358
ACCELEROMETER,0.25977087,4.2874165,8.223484
MAGNETIC_FIELD,7.55,-12.188,-30.044
GYROSCOPE,0.05467244,0.0125227375,-0.06627888
ORIENTATION,284,334,358
ACCELEROMETER,0.34715924,4.371214,8.875904
MAGNETIC_FIELD,7.55,-12.188,-30.044
GYROSCOPE,-0.03940081,0.05131268,0.02107485
ORIENTATION,283,334,358
ACCELEROMETER,0.28431144,4.224569,8.74542
MAGNETIC_FIELD,7.55,-12.188,-30.044
GYROSCOPE,-0.014966198,0.022907447,0.014660766
ORIENTATION,283,334,358
ACCELEROMETER,0.27952304,4.2060137,8.704719
MAGNETIC_FIELD,7.55,-12.188,-30.044
GYROSCOPE,0.0033597588,-0.008246681,-0.005192355
ORIENTATION,282,335,358
ACCELEROMETER,0.30406362,4.1623197,8.722675
MAGNETIC_FIELD,7.55,-12.188,-30.044
GYROSCOPE,-0.015271631,6.1086525E-4,-0.020158553
ORIENTATION,283,334,358
ACCELEROMETER,0.23343466,4.1940427,8.769362
MAGNETIC_FIELD,7.55,-12.188,-30.044
GYROSCOPE,-0.016187929,0.020463986,-0.02321288
ORIENTATION,282,334,356
ACCELEROMETER,0.57041854,4.2969937,8.751406
MAGNETIC_FIELD,7.55,-12.188,-30.044
GYROSCOPE,0.014660766,0.016493361,-0.027183503
ORIENTATION,275,337,0
ACCELEROMETER,-0.074818805,3.8893807,9.102157
MAGNETIC_FIELD,7.238,-12.188,-30.044
GYROSCOPE,-0.29077184,0.05955936,-0.08277224
ORIENTATION,296,334,4
ACCELEROMETER,-0.5823896,4.214992,8.544906
MAGNETIC_FIELD,7.238,-12.188,-30.044
GYROSCOPE,0.21624629,0.22907446,0.15027285
ORIENTATION,296,337,10
ACCELEROMETER,-1.62686,3.8187518,8.853159
MAGNETIC_FIELD,7.238,-12.188,-30.044
GYROSCOPE,-0.10598512,0.6957755,-0.12675454
