ORIENTATION,0,0,0
ACCELEROMETER,-1.965041,5.005079,8.310873
MAGNETIC_FIELD,20.114,-11.314,-33.772
GYROSCOPE,0.571159,0.10140363,0.31215215
ORIENTATION,300,330,10
ACCELEROMETER,-1.3335704,4.5423994,7.8745294
MAGNETIC_FIELD,21.49,-11.314,-33.772
GYROSCOPE,0.04642576,0.10140363,-0.13225232
ORIENTATION,293,328,2
ACCELEROMETER,-0.33758244,4.7985787,7.790134
MAGNETIC_FIELD,19.047,-11.314,-34.548
GYROSCOPE,-0.04520403,-0.27885997,-0.06658431
ORIENTATION,292,330,1
ACCELEROMETER,-0.20530279,4.8003745,8.447941
MAGNETIC_FIELD,17.488,-11.314,-34.178
GYROSCOPE,0.06811147,-0.1731803,0.014660766
ORIENTATION,291,332,2
ACCELEROMETER,-0.28790274,4.5914803,8.700529
MAGNETIC_FIELD,17.06,-11.314,-35.131
GYROSCOPE,0.014049901,-0.16707164,0.03573562
ORIENTATION,295,329,359
ACCELEROMETER,0.19273324,5.0481744,8.412626
MAGNETIC_FIELD,15.943,-11.314,-35.131
GYROSCOPE,0.020463986,-0.14263703,0.0067195175
ORIENTATION,297,328,358
ACCELEROMETER,0.219668,5.097854,8.287529
MAGNETIC_FIELD,15.075,-11.314,-36.279
GYROSCOPE,0.14385876,-0.07147124,-0.009773844
ORIENTATION,299,329,359
ACCELEROMETER,0.16759412,4.9601874,8.318055
MAGNETIC_FIELD,15.075,-11.314,-36.279
GYROSCOPE,-0.19394971,0.008552114,-0.13805555
ORIENTATION,299,330,0
ACCELEROMETER,-0.050278235,4.987122,8.739435
MAGNETIC_FIELD,14.498,-11.314,-36.787
GYROSCOPE,-0.027794369,-0.11148291,0.009468411
ORIENTATION,302,329,359
ACCELEROMETER,0.095169514,4.959589,8.093
MAGNETIC_FIELD,14.498,-11.314,-36.387
GYROSCOPE,0.036651913,0.024129177,0.016493361
ORIENTATION,301,329,0
ACCELEROMETER,-0.02633622,5.003283,8.485649
MAGNETIC_FIELD,14.805,-11.314,-35.612
GYROSCOPE,-0.029932396,0.03268129,-0.032375857
ORIENTATION,298,330,359
ACCELEROMETER,0.10115502,4.8997335,8.39467
MAGNETIC_FIELD,14.442,-11.645,-35.612
GYROSCOPE,-0.015882496,-0.024129177,-3.0543262E-4
ORIENTATION,301,330,1
ACCELEROMETER,-0.18674773,4.8614264,8.291121
MAGNETIC_FIELD,14.442,-11.645,-35.241
GYROSCOPE,-0.105374254,0.025350908,-0.06383542
ORIENTATION,298,330,0
ACCELEROMETER,-0.018555064,4.8799815,8.396465
MAGNETIC_FIELD,14.442,-11.645,-35.241
GYROSCOPE,0.049785517,0.034513887,-0.0067195175
ORIENTATION,299,330,1
ACCELEROMETER,-0.10295067,4.805163,8.279149
MAGNETIC_FIELD,14.924,-11.645,-34.303
GYROSCOPE,0.025961773,0.0076358155,-0.023823744
ORIENTATION,298,329,1
ACCELEROMETER,-0.19093758,4.9536033,8.360553
MAGNETIC_FIELD,14.924,-11.645,-34.765
GYROSCOPE,-0.027183503,-0.0015271631,-0.032986723
ORIENTATION,297,331,2
ACCELEROMETER,-0.23882163,4.8135424,8.504803
MAGNETIC_FIELD,14.924,-11.645,-34.321
GYROSCOPE,-0.09162979,0.02076942,-0.079107046
ORIENTATION,297,330,2
ACCELEROMETER,-0.23942018,4.754286,8.322245
MAGNETIC_FIELD,14.924,-11.645,-34.321
GYROSCOPE,0.04642576,0.027794369,0.007330383
ORIENTATION,297,330,0
ACCELEROMETER,-0.044292733,4.891354,8.328231
MAGNETIC_FIELD,15.226,-11.645,-34.321
GYROSCOPE,0.04337143,-0.040317107,0.014966198
ORIENTATION,295,330,1
ACCELEROMETER,-0.12090719,4.753089,8.334815
MAGNETIC_FIELD,15.226,-11.645,-34.321
GYROSCOPE,0.01038471,0.02443461,-0.0070249503
ORIENTATION,296,330,1
ACCELEROMETER,-0.16639702,4.819528,8.412027
MAGNETIC_FIELD,15.953,-11.645,-34.716
GYROSCOPE,-0.03940081,0.03023783,-3.0543262E-4
ORIENTATION,292,332,1
ACCELEROMETER,-0.1400608,4.672883,8.811261
MAGNETIC_FIELD,15.585,-11.25,-34.716
GYROSCOPE,-0.004886922,-0.009162978,-0.014049901
ORIENTATION,298,330,1
ACCELEROMETER,-0.19991584,4.8165355,8.3821
MAGNETIC_FIELD,15.585,-11.25,-34.716
GYROSCOPE,-0.02076942,-0.06383542,0.016187929
ORIENTATION,295,331,1
ACCELEROMETER,-0.1933318,4.669292,8.491036
MAGNETIC_FIELD,15.217,-11.25,-34.716
GYROSCOPE,0.029626964,0.027183503,0.004581489
ORIENTATION,297,330,1
ACCELEROMETER,-0.074818805,4.856638,8.393473
MAGNETIC_FIELD,15.217,-11.25,-34.716
GYROSCOPE,0.019547688,0.049785517,0.0
ORIENTATION,296,331,2
ACCELEROMETER,-0.25378537,4.6926355,8.614338
MAGNETIC_FIELD,15.217,-11.25,-34.716
GYROSCOPE,0.018936822,-0.0021380284,0.0
ORIENTATION,299,329,0
ACCELEROMETER,-0.0688333,4.8279076,8.08881
MAGNETIC_FIELD,15.217,-11.25,-34.716
GYROSCOPE,0.03176499,-0.0076358155,-0.03023783
ORIENTATION,299,330,1
ACCELEROMETER,-0.18974048,4.8781857,8.405443
MAGNETIC_FIELD,15.217,-11.25,-34.716
GYROSCOPE,0.028405234,0.008857546,0.015271631
ORIENTATION,298,330,1
ACCELEROMETER,-0.1448492,4.7746367,8.286332
MAGNETIC_FIELD,15.217,-11.25,-34.716
GYROSCOPE,0.043676864,0.022907447,0.0021380284
ORIENTATION,300,329,1
ACCELEROMETER,-0.19153613,4.9518075,8.366538
MAGNETIC_FIELD,15.217,-10.903,-34.716
GYROSCOPE,0.01160644,-0.024129177,0.009162978
ORIENTATION,299,330,1
ACCELEROMETER,-0.12629414,4.851251,8.388085
MAGNETIC_FIELD,15.217,-10.903,-34.414
GYROSCOPE,0.0061086523,0.019242255,-3.0543262E-4
ORIENTATION,298,331,2
ACCELEROMETER,-0.30406362,4.8069587,8.565256
MAGNETIC_FIELD,15.217,-10.903,-34.414
GYROSCOPE,-0.040317107,-0.021685716,-0.05681047
ORIENTATION,300,330,2
ACCELEROMETER,-0.23343466,4.8386817,8.315661
MAGNETIC_FIELD,15.528,-10.591,-34.414
GYROSCOPE,0.0036651916,-0.016798794,0.0012217305
ORIENTATION,300,330,1
ACCELEROMETER,-0.20590134,4.8458643,8.301894
MAGNETIC_FIELD,15.528,-10.591,-34.414
GYROSCOPE,0.028405234,-0.0012217305,0.005192355
ORIENTATION,300,330,1
ACCELEROMETER,-0.21188685,4.875193,8.376713
MAGNETIC_FIELD,15.528,-10.591,-34.414
GYROSCOPE,0.006414085,0.033292156,-0.011301007
ORIENTATION,299,331,2
ACCELEROMETER,-0.33997664,4.707599,8.416816
MAGNETIC_FIELD,15.528,-10.591,-34.414
GYROSCOPE,-0.03023783,0.02076942,-0.04062254
ORIENTATION,299,331,3
ACCELEROMETER,-0.38486794,4.7949877,8.618527
MAGNETIC_FIELD,15.528,-10.282,-34.414
GYROSCOPE,-0.012217305,-0.011301007,-0.031154128
ORIENTATION,303,330,3
ACCELEROMETER,-0.4782418,4.867412,8.322844
MAGNETIC_FIELD,15.837,-10.282,-34.414
GYROSCOPE,0.052839845,-0.011301007,-0.013744468
ORIENTATION,302,328,1
ACCELEROMETER,-0.10055647,4.993706,7.9750857
MAGNETIC_FIELD,15.837,-10.282,-34.414
GYROSCOPE,0.038789943,0.07086037,0.032986723
ORIENTATION,301,330,2
ACCELEROMETER,-0.3274071,4.912902,8.384495
MAGNETIC_FIELD,15.837,-10.282,-34.414
GYROSCOPE,-0.014049901,0.036651913,-0.06505715
ORIENTATION,301,330,2
ACCELEROMETER,-0.30585927,4.871602,8.298303
MAGNETIC_FIELD,15.837,-10.282,-34.414
GYROSCOPE,0.0033597588,-0.01282817,-0.040927973
ORIENTATION,301,330,3
ACCELEROMETER,-0.44592008,4.847061,8.54311
MAGNETIC_FIELD,15.837,-10.282,-34.414
GYROSCOPE,-0.031154128,-0.025350908,-0.028405234
ORIENTATION,300,329,1
ACCELEROMETER,-0.12270284,5.140351,8.5778265
MAGNETIC_FIELD,15.837,-10.282,-34.414
GYROSCOPE,-0.005497787,-0.01863139,-0.0033597588
ORIENTATION,300,331,3
ACCELEROMETER,-0.4405331,4.6710877,8.370728
MAGNETIC_FIELD,15.837,-10.282,-34.414
GYROSCOPE,0.024129177,-0.013744468,0.018020526
ORIENTATION,302,330,3
ACCELEROMETER,-0.3728969,4.863222,8.282741
MAGNETIC_FIELD,15.837,-10.282,-34.414
GYROSCOPE,0.0015271631,0.028405234,-0.009468411
ORIENTATION,302,329,2
ACCELEROMETER,-0.3633201,4.980538,8.385692
MAGNETIC_FIELD,15.837,-10.282,-34.414
GYROSCOPE,-0.009468411,0.0015271631,0.027488936
ORIENTATION,301,329,1
ACCELEROMETER,-0.17896658,5.0637364,8.367136
MAGNETIC_FIELD,15.837,-10.282,-34.414
GYROSCOPE,0.051923547,0.01863139,0.049480084
ORIENTATION,300,330,1
ACCELEROMETER,-0.18375498,4.909311,8.344392
MAGNETIC_FIELD,15.837,-10.282,-34.414
GYROSCOPE,0.017104227,-0.002443461,0.016187929
ORIENTATION,301,329,2
ACCELEROMETER,-0.22565351,4.932654,8.323442
MAGNETIC_FIELD,16.143,-10.282,-34.414
GYROSCOPE,0.019547688,0.0018325958,-0.01863139
ORIENTATION,301,329,1
ACCELEROMETER,-0.15682021,5.0451818,8.312668
MAGNETIC_FIELD,16.143,-10.282,-34.414
GYROSCOPE,-0.013744468,-0.016798794,-0.01863139
ORIENTATION,301,328,1
ACCELEROMETER,-0.13946225,5.1241903,8.303091
MAGNETIC_FIELD,16.143,-10.282,-34.414
GYROSCOPE,0.03023783,-0.003970624,-0.002443461
ORIENTATION,300,330,2
ACCELEROMETER,-0.27114335,4.955399,8.421604
MAGNETIC_FIELD,16.143,-10.598,-34.414
GYROSCOPE,0.013439035,0.03176499,0.0033597588
ORIENTATION,301,329,2
ACCELEROMETER,-0.2873042,5.060744,8.335413
MAGNETIC_FIELD,16.143,-10.598,-34.414
GYROSCOPE,-0.03940081,0.004276057,-0.01038471
ORIENTATION,301,329,2
ACCELEROMETER,-0.22685061,5.023035,8.246229
MAGNETIC_FIELD,16.143,-10.598,-34.414
GYROSCOPE,0.017104227,-0.012217305,0.004276057
ORIENTATION,301,329,2
ACCELEROMETER,-0.23582886,4.9919105,8.25401
MAGNETIC_FIELD,16.143,-10.598,-34.414
GYROSCOPE,0.018020526,0.0070249503,0.011911872
ORIENTATION,300,329,1
ACCELEROMETER,-0.18076223,4.9883194,8.303091
MAGNETIC_FIELD,16.143,-10.598,-34.414
GYROSCOPE,0.028099801,0.007941248,-3.0543262E-4
ORIENTATION,301,329,2
ACCELEROMETER,-0.31483752,5.0116625,8.343793
MAGNETIC_FIELD,16.143,-10.917,-34.414
GYROSCOPE,-0.011911872,0.017715093,-0.020463986
ORIENTATION,299,329,2
ACCELEROMETER,-0.2705448,4.9278655,8.298303
MAGNETIC_FIELD,16.143,-10.917,-34.414
GYROSCOPE,-0.008246681,0.004581489,-0.023823744
ORIENTATION,301,329,2
ACCELEROMETER,-0.2896984,5.033809,8.252214
MAGNETIC_FIELD,16.143,-10.917,-34.414
GYROSCOPE,-0.015577064,0.003970624,-0.027488936
ORIENTATION,300,329,2
ACCELEROMETER,-0.2208651,4.9781437,8.196549
MAGNETIC_FIELD,15.826,-10.917,-34.414
GYROSCOPE,0.026572637,0.0106901415,-0.008552114
ORIENTATION,301,329,2
ACCELEROMETER,-0.29747957,5.035006,8.258799
MAGNETIC_FIELD,15.826,-10.917,-34.414
GYROSCOPE,0.002443461,-6.1086525E-4,-0.00580322
ORIENTATION,300,329,2
ACCELEROMETER,-0.22325931,5.019444,8.318654
MAGNETIC_FIELD,15.826,-10.917,-34.414
GYROSCOPE,9.162979E-4,0.0106901415,-0.008246681
ORIENTATION,300,330,3
ACCELEROMETER,-0.3890578,4.9374423,8.461109
MAGNETIC_FIELD,15.826,-11.231,-34.414
GYROSCOPE,-0.01740966,0.010079277,-0.026572637
ORIENTATION,300,329,2
ACCELEROMETER,-0.35254622,4.869208,8.203134
MAGNETIC_FIELD,15.826,-11.231,-34.414
GYROSCOPE,0.007330383,0.0027488936,-0.0125227375
ORIENTATION,299,329,2
ACCELEROMETER,-0.2765303,4.9787426,8.391078
MAGNETIC_FIELD,15.826,-11.231,-34.414
GYROSCOPE,-0.026572637,0.007941248,-0.0027488936
ORIENTATION,299,330,2
ACCELEROMETER,-0.29209262,4.8961425,8.336611
MAGNETIC_FIELD,15.826,-11.231,-34.414
GYROSCOPE,-0.01985312,0.00580322,-0.015271631
ORIENTATION,298,331,3
ACCELEROMETER,-0.41359833,4.84347,8.583213
MAGNETIC_FIELD,15.826,-11.231,-34.414
GYROSCOPE,-0.02076942,0.005192355,-0.022296581
ORIENTATION,299,330,2
ACCELEROMETER,-0.31543607,4.9320555,8.37372
MAGNETIC_FIELD,15.826,-11.231,-34.414
GYROSCOPE,-0.013744468,-0.0036651916,-0.02443461
ORIENTATION,299,330,3
ACCELEROMETER,-0.42796355,4.767454,8.322844
MAGNETIC_FIELD,15.826,-11.231,-34.414
GYROSCOPE,0.028099801,0.0018325958,-0.047036625
ORIENTATION,299,330,3
ACCELEROMETER,-0.43514615,4.8255134,8.406641
MAGNETIC_FIELD,15.826,-11.231,-34.414
GYROSCOPE,-0.018936822,-0.004581489,0.0015271631
ORIENTATION,298,330,2
ACCELEROMETER,-0.31663316,4.8907557,8.480263
MAGNETIC_FIELD,15.826,-11.231,-34.414
GYROSCOPE,0.05009095,0.009773844,0.028405234
ORIENTATION,298,330,2
ACCELEROMETER,-0.35553896,4.8775873,8.461707
MAGNETIC_FIELD,15.826,-11.231,-34.414
GYROSCOPE,0.0033597588,-0.009162978,-0.020158553
ORIENTATION,300,329,2
ACCELEROMETER,-0.24839842,5.0547585,8.258201
MAGNETIC_FIELD,15.826,-11.231,-34.414
GYROSCOPE,-0.06047566,-0.024740042,-0.04153884
ORIENTATION,303,329,4
ACCELEROMETER,-0.50038815,4.905121,8.052299
MAGNETIC_FIELD,15.826,-11.231,-34.414
GYROSCOPE,-0.050396383,0.057726767,-0.0290161
ORIENTATION,300,330,3
ACCELEROMETER,-0.47165772,4.919486,8.39048
MAGNETIC_FIELD,15.826,-11.231,-34.414
GYROSCOPE,0.021991149,0.05497787,0.056199603
ORIENTATION,296,332,3
ACCELEROMETER,-0.4902128,4.490924,8.394072
MAGNETIC_FIELD,15.826,-11.231,-34.414
GYROSCOPE,-0.05955936,0.03573562,0.10903945
ORIENTATION,295,331,2
ACCELEROMETER,-0.24660277,4.777031,8.720282
MAGNETIC_FIELD,15.826,-11.231,-34.414
GYROSCOPE,0.10293079,0.065973446,0.03390302
ORIENTATION,299,331,4
ACCELEROMETER,-0.5638345,4.7656584,8.56825
MAGNETIC_FIELD,15.826,-11.231,-34.414
GYROSCOPE,-0.03359759,0.002443461,-0.0067195175
ORIENTATION,298,331,3
ACCELEROMETER,-0.41180268,4.7722425,8.508394
MAGNETIC_FIELD,16.156,-11.231,-34.414
GYROSCOPE,0.050701816,0.0015271631,0.019547688
ORIENTATION,296,331,3
ACCELEROMETER,-0.44891283,4.754286,8.648455
MAGNETIC_FIELD,16.156,-10.891,-34.037
GYROSCOPE,-0.022296581,0.032375857,-0.056199603
ORIENTATION,299,333,7
ACCELEROMETER,-1.0833763,4.6034513,8.930372
MAGNETIC_FIELD,16.156,-10.891,-34.037
GYROSCOPE,-0.07971791,-0.02321288,-0.13500121
ORIENTATION,300,329,3
ACCELEROMETER,-0.43035775,4.7626657,8.048109
MAGNETIC_FIELD,16.156,-10.891,-34.037
GYROSCOPE,0.08155051,-0.035124753,-0.1001819
ORIENTATION,300,332,7
ACCELEROMETER,-0.9828198,4.56694,8.595782
MAGNETIC_FIELD,16.156,-10.891,-33.735
GYROSCOPE,-0.05589417,-0.01740966,-0.122783914
ORIENTATION,292,333,2
ACCELEROMETER,-0.32202014,4.6220064,8.8806925
MAGNETIC_FIELD,16.156,-10.522,-33.735
GYROSCOPE,0.16187929,-0.054367006,0.004886922
ORIENTATION,302,329,3
ACCELEROMETER,-0.4973954,4.941034,8.269572
MAGNETIC_FIELD,16.482,-10.522,-33.322
GYROSCOPE,-0.1020145,-0.12889257,-0.25289822
ORIENTATION,293,334,4
ACCELEROMETER,-0.6871359,4.3754034,8.886678
MAGNETIC_FIELD,16.482,-10.522,-32.739
GYROSCOPE,-0.05955936,-0.06536258,-0.21502456
ORIENTATION,297,330,3
ACCELEROMETER,-0.37469256,4.6297874,7.9595237
MAGNETIC_FIELD,16.482,-10.029,-32.739
GYROSCOPE,0.021991149,0.105374254,0.0983493
ORIENTATION,299,331,4
ACCELEROMETER,-0.5674258,4.759074,8.476072
MAGNETIC_FIELD,16.482,-9.428,-32.049
GYROSCOPE,0.015271631,0.038179077,0.31031954
ORIENTATION,301,331,6
ACCELEROMETER,-0.7942764,4.4113164,7.939771
MAGNETIC_FIELD,16.482,-9.428,-32.049
GYROSCOPE,0.17928895,0.013133603,0.21777347
ORIENTATION,303,331,7
ACCELEROMETER,-0.9768343,4.784812,8.449737
MAGNETIC_FIELD,16.836,-9.428,-31.666
GYROSCOPE,-0.04734206,0.13591751,0.080634214
ORIENTATION,305,330,8
ACCELEROMETER,-1.1252748,4.723161,8.10138
MAGNETIC_FIELD,16.836,-9.428,-31.239
GYROSCOPE,-0.0888809,0.12156218,0.019547688
ORIENTATION,296,332,5
ACCELEROMETER,-0.6943185,4.5202527,8.480861
MAGNETIC_FIELD,16.836,-9.428,-31.239
GYROSCOPE,0.13713925,-0.18234327,-0.05009095
ORIENTATION,288,336,4
ACCELEROMETER,-0.60932434,3.9534256,8.732252
MAGNETIC_FIELD,16.836,-9.428,-31.239
GYROSCOPE,0.0693332,-0.049480084,-0.046120327
ORIENTATION,300,329,5
ACCELEROMETER,-0.6087258,4.584896,7.72968
MAGNETIC_FIELD,17.15,-9.107,-31.239
GYROSCOPE,-0.04428773,0.19333886,-0.07971791
ORIENTATION,297,333,6
ACCELEROMETER,-0.93014735,4.6273932,8.868722
MAGNETIC_FIELD,17.15,-9.107,-31.239
GYROSCOPE,-0.13897185,0.13103059,0.024129177
ORIENTATION,294,332,3
ACCELEROMETER,-0.40641573,4.779425,9.028535
MAGNETIC_FIELD,17.15,-9.107,-31.239
GYROSCOPE,0.14996742,-0.03359759,0.03604105
ORIENTATION,298,329,2
ACCELEROMETER,-0.35194764,4.935048,8.345589
MAGNETIC_FIELD,17.15,-9.107,-31.239
GYROSCOPE,0.054061573,-0.099571034,-0.05009095
ORIENTATION,304,328,5
ACCELEROMETER,-0.6727707,5.0541596,8.02716
MAGNETIC_FIELD,17.15,-9.107,-31.239
GYROSCOPE,0.040317107,0.023823744,0.004276057
ORIENTATION,298,331,5
ACCELEROMETER,-0.8242039,4.8422728,8.829217
MAGNETIC_FIELD,17.15,-9.107,-31.239
GYROSCOPE,0.0076358155,-0.019547688,-0.14844026
ORIENTATION,305,326,4
ACCELEROMETER,-0.53091425,4.9308586,7.4112515
MAGNETIC_FIELD,17.15,-9.107,-30.876
GYROSCOPE,0.04520403,-0.12614368,-0.13897185
ORIENTATION,299,329,3
ACCELEROMETER,-0.4830302,5.177461,8.68796
MAGNETIC_FIELD,17.15,-9.107,-30.876
GYROSCOPE,-0.062308256,0.036957346,-0.02321288
ORIENTATION,295,331,3
ACCELEROMETER,-0.45370123,4.6806645,8.511387
MAGNETIC_FIELD,16.835,-9.107,-30.876
GYROSCOPE,0.07452556,-0.043066,-0.008552114
ORIENTATION,303,328,5
ACCELEROMETER,-0.7368156,4.9440265,8.013393
MAGNETIC_FIELD,16.835,-9.107,-30.876
GYROSCOPE,-0.12492194,-0.029932396,0.019547688
ORIENTATION,299,329,3
ACCELEROMETER,-0.36391866,4.992509,8.315661
MAGNETIC_FIELD,16.835,-9.107,-30.876
GYROSCOPE,0.09407325,0.0018325958,0.035430185
ORIENTATION,299,329,3
ACCELEROMETER,-0.4141969,4.7788267,7.9463553
MAGNETIC_FIELD,16.835,-9.107,-30.876
GYROSCOPE,0.07086037,0.0061086523,0.007330383
ORIENTATION,299,331,5
ACCELEROMETER,-0.74878657,4.8045645,8.471284
MAGNETIC_FIELD,16.835,-9.107,-30.876
GYROSCOPE,-0.1020145,0.02076942,0.046120327
ORIENTATION,297,328,360
ACCELEROMETER,0.019153614,5.133767,8.261193
MAGNETIC_FIELD,16.835,-9.472,-30.876
GYROSCOPE,0.0015271631,0.013133603,-0.032986723
ORIENTATION,295,333,5
ACCELEROMETER,-0.79846627,4.43885,8.590994
MAGNETIC_FIELD,16.531,-9.472,-30.876
GYROSCOPE,0.09743301,-0.062308256,0.055588737
ORIENTATION,299,328,2
ACCELEROMETER,-0.26994625,5.0960584,8.133103
MAGNETIC_FIELD,16.531,-9.472,-30.876
GYROSCOPE,0.024740042,-0.03604105,-0.12614368
ORIENTATION,298,332,6
ACCELEROMETER,-0.83138657,4.561553,8.43178
MAGNETIC_FIELD,16.531,-9.472,-30.876
GYROSCOPE,-0.06872234,-0.014660766,-0.01160644
ORIENTATION,298,332,6
ACCELEROMETER,-0.84814596,4.582502,8.475474
MAGNETIC_FIELD,16.531,-9.472,-30.876
GYROSCOPE,-0.01038471,-0.03481932,-0.028405234
ORIENTATION,298,329,3
ACCELEROMETER,-0.3669114,4.8937483,8.233061
MAGNETIC_FIELD,16.531,-9.472,-30.876
GYROSCOPE,0.06047566,0.0030543262,0.07727446
ORIENTATION,297,330,3
ACCELEROMETER,-0.5033809,4.779425,8.412027
MAGNETIC_FIELD,16.531,-9.472,-30.876
GYROSCOPE,-0.01282817,0.06047566,0.022296581
ORIENTATION,296,331,4
ACCELEROMETER,-0.5859809,4.8159366,8.693346
MAGNETIC_FIELD,16.531,-9.472,-30.876
GYROSCOPE,-0.036651913,0.010079277,0.07788532
ORIENTATION,292,333,3
ACCELEROMETER,-0.4357447,4.5394063,8.8806925
MAGNETIC_FIELD,16.531,-9.472,-30.876
GYROSCOPE,0.04062254,-0.02565634,-0.038789943
ORIENTATION,297,332,5
ACCELEROMETER,-0.8379706,4.7500963,8.89446
MAGNETIC_FIELD,16.531,-9.472,-30.876
GYROSCOPE,-0.21410827,-0.013744468,0.008857546
ORIENTATION,298,329,3
ACCELEROMETER,-0.40940848,4.687248,7.9050555
MAGNETIC_FIELD,16.531,-9.472,-30.876
GYROSCOPE,0.10598512,0.02107485,-0.04886922
ORIENTATION,296,331,4
ACCELEROMETER,-0.5734113,4.755483,8.59279
MAGNETIC_FIELD,16.531,-9.472,-30.876
GYROSCOPE,-0.030543262,-0.055588737,0.12950343
ORIENTATION,293,332,2
ACCELEROMETER,-0.30226797,4.496909,8.429385
MAGNETIC_FIELD,16.531,-9.089,-30.876
GYROSCOPE,0.079107046,0.029626964,0.056199603
ORIENTATION,291,334,3
ACCELEROMETER,-0.47225627,4.5154643,9.232041
MAGNETIC_FIELD,16.531,-9.089,-30.876
GYROSCOPE,-0.10445796,0.07544186,-0.0580322
ORIENTATION,296,332,5
ACCELEROMETER,-0.6901286,4.4436383,8.495825
MAGNETIC_FIELD,16.531,-9.089,-30.876
GYROSCOPE,-0.0067195175,-0.044898596,-0.049785517
ORIENTATION,293,333,4
ACCELEROMETER,-0.54408234,4.4184995,8.678981
MAGNETIC_FIELD,16.531,-8.744,-30.876
GYROSCOPE,0.01985312,-0.10293079,-0.021991149
ORIENTATION,298,331,3
ACCELEROMETER,-0.37349546,4.663905,8.271368
MAGNETIC_FIELD,16.531,-8.744,-30.876
GYROSCOPE,-0.029626964,-0.023518313,-0.024129177
ORIENTATION,296,332,3
ACCELEROMETER,-0.5033809,4.582502,8.655638
MAGNETIC_FIELD,16.531,-8.744,-30.876
GYROSCOPE,-0.01863139,0.04062254,0.018936822
ORIENTATION,296,332,3
ACCELEROMETER,-0.46447513,4.496909,8.392276
MAGNETIC_FIELD,16.531,-8.744,-30.876
GYROSCOPE,0.07513642,0.048563786,0.005192355
ORIENTATION,297,332,4
ACCELEROMETER,-0.55126494,4.5340195,8.400655
MAGNETIC_FIELD,16.531,-8.744,-30.876
GYROSCOPE,0.016493361,0.04153884,-0.008857546
ORIENTATION,297,332,5
ACCELEROMETER,-0.7380127,4.510676,8.624513
MAGNETIC_FIELD,16.531,-8.744,-30.876
GYROSCOPE,-0.043066,-0.0036651916,-0.019242255
ORIENTATION,300,331,5
ACCELEROMETER,-0.7811083,4.5741224,8.285733
MAGNETIC_FIELD,16.531,-8.744,-30.876
GYROSCOPE,0.05131268,0.021991149,-0.087964594
ORIENTATION,300,332,6
ACCELEROMETER,-0.85173726,4.5860934,8.437765
MAGNETIC_FIELD,16.531,-8.744,-30.876
GYROSCOPE,0.01985312,0.07819075,0.01038471
ORIENTATION,297,332,4
ACCELEROMETER,-0.56084174,4.6710877,8.709507
MAGNETIC_FIELD,16.531,-8.744,-30.876
GYROSCOPE,-0.038789943,0.07819075,0.06841691
ORIENTATION,301,330,5
ACCELEROMETER,-0.6823475,4.6405616,8.130111
MAGNETIC_FIELD,16.531,-8.744,-30.876
GYROSCOPE,0.06383542,0.00580322,0.0030543262
ORIENTATION,297,333,5
ACCELEROMETER,-0.85891986,4.6279917,9.109339
MAGNETIC_FIELD,16.531,-8.744,-30.876
GYROSCOPE,-0.051923547,0.015577064,0.06261369
ORIENTATION,296,335,7
ACCELEROMETER,-1.1001357,4.1515455,8.733449
MAGNETIC_FIELD,16.531,-8.744,-30.876
GYROSCOPE,0.09193522,-0.014966198,0.041233405
ORIENTATION,297,329,1
ACCELEROMETER,-0.11791443,4.7985787,8.106169
MAGNETIC_FIELD,16.531,-8.744,-30.876
GYROSCOPE,0.07727446,-0.04184427,-0.08674286
ORIENTATION,302,333,8
ACCELEROMETER,-1.3479356,4.770447,9.081805
MAGNETIC_FIELD,16.531,-8.744,-30.876
GYROSCOPE,0.11148291,0.01740966,-0.015271631
ORIENTATION,300,329,2
ACCELEROMETER,-0.31124622,4.712986,7.8410106
MAGNETIC_FIELD,16.531,-8.744,-30.876
GYROSCOPE,0.04062254,0.1160644,0.029932396
ORIENTATION,305,326,3
ACCELEROMETER,-0.39085343,5.4521956,8.116942
MAGNETIC_FIELD,16.531,-8.744,-30.876
GYROSCOPE,0.15760323,-0.03634648,0.23335053
ORIENTATION,301,331,6
ACCELEROMETER,-0.7954735,4.4526167,8.007407
MAGNETIC_FIELD,16.531,-8.744,-30.876
GYROSCOPE,-0.12736541,0.14049901,-0.14263703
ORIENTATION,310,329,9
ACCELEROMETER,-1.3239936,5.309142,8.608353
MAGNETIC_FIELD,16.531,-9.136,-30.876
GYROSCOPE,-0.032375857,-0.02107485,-0.07880162
ORIENTATION,303,331,8
ACCELEROMETER,-1.0630256,4.489128,8.034941
MAGNETIC_FIELD,16.888,-9.136,-30.876
GYROSCOPE,-0.1518,0.023518313,-0.07391469
ORIENTATION,300,332,8
ACCELEROMETER,-1.1773487,4.7740383,8.89446
MAGNETIC_FIELD,16.888,-9.136,-30.876
GYROSCOPE,0.05100725,-0.047647487,-6.1086525E-4
ORIENTATION,303,330,7
ACCELEROMETER,-0.94810385,4.657321,8.002021
MAGNETIC_FIELD,16.888,-9.136,-30.876
GYROSCOPE,0.07727446,-0.043982297,0.070554934
ORIENTATION,301,328,3
ACCELEROMETER,-0.42556936,4.9583917,7.958925
MAGNETIC_FIELD,16.888,-9.136,-30.876
GYROSCOPE,-0.045814894,0.07452556,0.048563786
ORIENTATION,298,332,6
ACCELEROMETER,-0.9564836,4.4663835,8.416218
MAGNETIC_FIELD,16.888,-9.136,-30.876
GYROSCOPE,-0.17440203,-0.07422013,-0.07086037
ORIENTATION,297,331,4
ACCELEROMETER,-0.6194997,4.6884456,8.512584
MAGNETIC_FIELD,16.888,-9.136,-31.184
GYROSCOPE,0.041233405,0.1020145,0.052534413
ORIENTATION,294,333,5
ACCELEROMETER,-0.712275,4.433463,8.835801
MAGNETIC_FIELD,16.888,-9.136,-31.184
GYROSCOPE,-0.010995574,-0.009162978,0.024740042
ORIENTATION,297,331,3
ACCELEROMETER,-0.4794389,4.8865657,8.631097
MAGNETIC_FIELD,17.21,-9.136,-31.184
GYROSCOPE,0.06505715,-0.03604105,0.01985312
ORIENTATION,293,335,6
ACCELEROMETER,-0.9415198,4.156933,8.726267
MAGNETIC_FIELD,17.21,-9.136,-31.184
GYROSCOPE,-0.058337633,-0.10354166,-0.1563815
ORIENTATION,296,332,5
ACCELEROMETER,-0.6961141,4.4484267,8.354567
MAGNETIC_FIELD,17.21,-9.136,-31.184
GYROSCOPE,0.010079277,-0.12736541,-0.0033597588
ORIENTATION,292,332,1
ACCELEROMETER,-0.092775315,4.50888,8.454525
MAGNETIC_FIELD,17.21,-9.136,-31.184
GYROSCOPE,-0.38973203,-0.079107046,-0.053450707
ORIENTATION,289,335,3
ACCELEROMETER,-0.45130703,4.063559,8.668806
MAGNETIC_FIELD,17.21,-9.136,-31.184
GYROSCOPE,0.040927973,0.025350908,-0.112399206
ORIENTATION,287,335,2
ACCELEROMETER,-0.33638534,4.144363,9.054871
MAGNETIC_FIELD,17.21,-9.136,-31.184
GYROSCOPE,0.00580322,-0.0027488936,-0.034513887
ORIENTATION,286,335,1
ACCELEROMETER,-0.11731588,4.1491513,9.009381
MAGNETIC_FIELD,17.21,-8.81,-31.184
GYROSCOPE,3.0543262E-4,-0.3998113,0.08552113
ORIENTATION,285,336,0
ACCELEROMETER,-0.062249243,3.9474401,8.948329
MAGNETIC_FIELD,17.21,-8.81,-31.184
GYROSCOPE,0.01863139,0.21105394,0.06780604
ORIENTATION,288,333,358
ACCELEROMETER,0.28072014,4.2185836,8.318654
MAGNETIC_FIELD,17.21,-8.81,-31.184
GYROSCOPE,0.007330383,0.09865474,-0.038179077
ORIENTATION,288,335,1
ACCELEROMETER,-0.20111294,4.0916905,8.759786
MAGNETIC_FIELD,17.21,-8.491,-31.184
GYROSCOPE,0.10751228,-0.087964594,-0.106901415
ORIENTATION,292,333,1
ACCELEROMETER,-0.18974048,4.349666,8.496424
MAGNETIC_FIELD,17.21,-8.491,-31.184
GYROSCOPE,0.11178834,0.022296581,0.01038471
ORIENTATION,292,333,1
ACCELEROMETER,-0.08080431,4.5423994,8.787319
MAGNETIC_FIELD,17.21,-8.491,-31.184
GYROSCOPE,-0.053145275,0.05467244,-0.027183503
ORIENTATION,297,331,2
ACCELEROMETER,-0.34596214,4.7261543,8.522161
MAGNETIC_FIELD,17.21,-8.065,-31.184
GYROSCOPE,0.007941248,-0.11759156,-0.03145956
ORIENTATION,292,333,360
ACCELEROMETER,0.04249708,4.187459,8.197746
MAGNETIC_FIELD,16.836,-8.065,-31.184
GYROSCOPE,0.21899518,-6.1086525E-4,0.07452556
ORIENTATION,292,329,354
ACCELEROMETER,0.8499416,4.9416323,8.290522
MAGNETIC_FIELD,16.836,-8.065,-31.184
GYROSCOPE,-0.10323623,-0.11789699,-0.25411993
ORIENTATION,299,337,11
ACCELEROMETER,-1.6310499,3.7253778,8.585009
MAGNETIC_FIELD,16.836,-8.065,-31.184
GYROSCOPE,0.34055737,-0.06627888,-0.33353242
ORIENTATION,298,335,8
ACCELEROMETER,-1.0474633,3.7253778,7.9547353
MAGNETIC_FIELD,16.836,-7.688,-31.184
GYROSCOPE,-0.15057829,-0.16646078,0.24007004
ORIENTATION,296,331,359
ACCELEROMETER,0.09756372,4.976947,8.815451
MAGNETIC_FIELD,16.836,-7.688,-31.184
GYROSCOPE,-0.12736541,0.10323623,0.2657264
ORIENTATION,294,335,3
ACCELEROMETER,-0.4321534,4.203021,8.871116
MAGNETIC_FIELD,16.836,-7.688,-31.184
GYROSCOPE,-0.016187929,0.2321288,0.18417588
ORIENTATION,297,333,4
ACCELEROMETER,-0.587178,4.4885297,8.96449
MAGNETIC_FIELD,16.836,-7.688,-31.184
GYROSCOPE,0.09315695,0.08857546,-0.015271631
ORIENTATION,300,333,5
ACCELEROMETER,-0.79128367,4.413112,8.613141
MAGNETIC_FIELD,16.836,-7.688,-31.184
GYROSCOPE,0.10598512,0.06841691,-0.025350908
ORIENTATION,302,331,5
ACCELEROMETER,-0.65182143,4.56275,8.2115135
MAGNETIC_FIELD,16.836,-7.373,-31.184
GYROSCOPE,0.31215215,0.08552113,-0.053450707
ORIENTATION,305,332,7
ACCELEROMETER,-0.9504981,4.4645877,8.197746
MAGNETIC_FIELD,16.836,-7.373,-30.853
GYROSCOPE,0.19853121,0.0290161,-0.15668693
ORIENTATION,301,331,3
ACCELEROMETER,-0.46088383,5.29777,9.359533
MAGNETIC_FIELD,16.836,-7.373,-30.853
GYROSCOPE,-0.0012217305,-0.064751714,-0.03756821
ORIENTATION,311,331,9
ACCELEROMETER,-1.2563573,4.3400893,7.5680714
MAGNETIC_FIELD,16.836,-7.373,-30.853
GYROSCOPE,-0.112399206,0.12186762,-0.09865474
ORIENTATION,301,333,6
ACCELEROMETER,-0.92895025,4.582502,8.871715
MAGNETIC_FIELD,16.836,-7.737,-30.853
GYROSCOPE,-0.21197024,-0.09254608,0.09896017
ORIENTATION,300,330,2
ACCELEROMETER,-0.3345897,4.683657,8.209718
MAGNETIC_FIELD,16.836,-7.737,-30.548
GYROSCOPE,-0.10781772,-0.0018325958,0.0012217305
ORIENTATION,296,333,4
ACCELEROMETER,-0.6015432,4.518457,8.963293
MAGNETIC_FIELD,16.836,-7.737,-30.548
GYROSCOPE,-0.18325958,-0.06627888,0.02321288
ORIENTATION,299,333,5
ACCELEROMETER,-0.78170687,4.59567,8.810063
MAGNETIC_FIELD,16.836,-8.055,-30.548
GYROSCOPE,0.002443461,-0.087659165,0.012217305
ORIENTATION,293,335,4
ACCELEROMETER,-0.6769605,4.238934,8.938153
MAGNETIC_FIELD,16.836,-8.055,-30.548
GYROSCOPE,-0.02687807,-0.043676864,0.012217305
ORIENTATION,294,333,1
ACCELEROMETER,-0.2148796,4.461595,8.630499
MAGNETIC_FIELD,16.836,-8.055,-30.548
GYROSCOPE,0.03940081,0.13041973,-0.12308934
ORIENTATION,301,331,5
ACCELEROMETER,-0.81043726,4.6657004,8.435371
MAGNETIC_FIELD,16.836,-8.055,-30.548
GYROSCOPE,0.050396383,-0.13897185,-0.035430185
ORIENTATION,298,332,4
ACCELEROMETER,-0.57640404,4.5579615,8.531139
MAGNETIC_FIELD,16.836,-8.055,-30.548
GYROSCOPE,0.1777618,-9.162979E-4,-0.020463986
ORIENTATION,299,330,2
ACCELEROMETER,-0.25019407,4.6896424,8.056489
MAGNETIC_FIELD,16.836,-8.369,-30.548
GYROSCOPE,0.11362094,0.042455133,-0.05009095
ORIENTATION,299,331,4
ACCELEROMETER,-0.6380547,4.8937483,8.748413
MAGNETIC_FIELD,16.836,-8.369,-30.548
GYROSCOPE,0.09101892,-0.051923547,0.016493361
ORIENTATION,297,332,5
ACCELEROMETER,-0.6937199,4.2054152,8.018182
MAGNETIC_FIELD,16.836,-8.369,-30.209
GYROSCOPE,-0.14874569,-0.07422013,-0.017715093
ORIENTATION,291,332,360
ACCELEROMETER,0.05925649,5.0002904,9.533113
MAGNETIC_FIELD,16.836,-8.369,-30.209
GYROSCOPE,-0.100792766,0.08246681,0.16218472
ORIENTATION,296,332,4
ACCELEROMETER,-0.53211135,4.4885297,8.376115
MAGNETIC_FIELD,16.836,-8.715,-30.209
GYROSCOPE,-0.17134771,0.008857546,0.15668693
ORIENTATION,292,333,2
ACCELEROMETER,-0.36990416,4.470573,8.744822
MAGNETIC_FIELD,16.836,-8.715,-30.209
GYROSCOPE,-0.058643065,-0.03756821,0.05955936
ORIENTATION,294,333,3
ACCELEROMETER,-0.47764325,4.51726,8.678981
MAGNETIC_FIELD,16.836,-8.715,-30.209
GYROSCOPE,0.043982297,0.028099801,0.016493361
ORIENTATION,291,334,3
ACCELEROMETER,-0.52253455,4.370615,8.887277
MAGNETIC_FIELD,16.526,-8.715,-30.209
GYROSCOPE,0.18112154,0.028099801,0.021685716
ORIENTATION,299,330,3
ACCELEROMETER,-0.49320555,4.8722005,8.306085
MAGNETIC_FIELD,16.526,-8.715,-30.209
GYROSCOPE,-0.021380283,0.118507855,0.049480084
ORIENTATION,297,332,4
ACCELEROMETER,-0.6003461,4.445434,8.251018
MAGNETIC_FIELD,16.526,-8.715,-30.209
GYROSCOPE,0.04734206,-0.03023783,-0.058643065
ORIENTATION,296,331,2
ACCELEROMETER,-0.338181,4.868609,8.67539
MAGNETIC_FIELD,16.526,-8.715,-30.209
GYROSCOPE,-0.045814894,0.014049901,0.0030543262
ORIENTATION,295,332,4
ACCELEROMETER,-0.53330845,4.460996,8.454525
MAGNETIC_FIELD,16.526,-8.715,-30.209
GYROSCOPE,0.024129177,0.0033597588,-0.04917465
ORIENTATION,291,335,4
ACCELEROMETER,-0.64583594,4.2940006,9.132683
MAGNETIC_FIELD,16.526,-8.715,-30.209
GYROSCOPE,-0.19242255,-0.058643065,-0.13072516
ORIENTATION,295,330,1
ACCELEROMETER,-0.10055647,4.644751,8.134899
MAGNETIC_FIELD,16.526,-8.715,-30.209
GYROSCOPE,0.04886922,-0.09743301,-0.099571034
ORIENTATION,297,332,5
ACCELEROMETER,-0.670975,4.3754034,8.177995
MAGNETIC_FIELD,16.195,-8.715,-30.209
GYROSCOPE,0.15699236,-0.027794369,-0.058337633
ORIENTATION,306,328,6
ACCELEROMETER,-0.8074445,4.785411,7.5650787
MAGNETIC_FIELD,16.195,-8.715,-30.209
GYROSCOPE,0.16218472,0.10629055,0.16829337
ORIENTATION,297,337,11
ACCELEROMETER,-1.8872294,4.203021,9.510966
MAGNETIC_FIELD,16.195,-8.715,-30.209
GYROSCOPE,-0.1685988,0.56046885,-0.06078109
ORIENTATION,312,330,12
ACCELEROMETER,-1.6101006,4.5483847,7.743447
MAGNETIC_FIELD,16.195,-8.715,-30.209
GYROSCOPE,0.3359759,0.5919284,0.2489276
