ORIENTATION,0,0,0
ACCELEROMETER,0.08678981,4.698621,8.652046
MAGNETIC_FIELD,-12.675,-14.932,-41.11
GYROSCOPE,-0.15118915,0.03390302,0.16982053
ORIENTATION,66,332,1
ACCELEROMETER,-0.15502456,4.4119153,8.294712
MAGNETIC_FIELD,-12.675,-12.908,-41.807
GYROSCOPE,-0.048258353,0.03390302,0.00580322
ORIENTATION,58,334,358
ACCELEROMETER,0.37469256,4.216788,8.654441
MAGNETIC_FIELD,-12.675,-11.189,-42.189
GYROSCOPE,-0.057421334,-0.01160644,0.0125227375
ORIENTATION,54,336,357
ACCELEROMETER,0.44651863,4.0743327,8.935161
MAGNETIC_FIELD,-12.98,-10.305,-42.189
GYROSCOPE,-0.06780604,0.0143553335,0.019547688
ORIENTATION,52,335,358
ACCELEROMETER,0.32621,4.1892543,8.913014
MAGNETIC_FIELD,-12.98,-10.305,-42.652
GYROSCOPE,-0.026572637,0.0143553335,0.09407325
ORIENTATION,51,336,356
ACCELEROMETER,0.5883751,3.952827,8.900445
MAGNETIC_FIELD,-12.98,-9.692,-42.652
GYROSCOPE,-0.03390302,0.12186762,0.12644911
ORIENTATION,52,335,359
ACCELEROMETER,0.10235212,4.19943,8.848969
MAGNETIC_FIELD,-12.98,-8.811,-43.417
GYROSCOPE,0.022907447,0.14049901,0.31887165
ORIENTATION,47,337,357
ACCELEROMETER,0.5554548,3.982156,9.153033
MAGNETIC_FIELD,-12.98,-8.317,-43.417
GYROSCOPE,-0.061086524,0.30573806,0.35979962
ORIENTATION,54,335,2
ACCELEROMETER,-0.29688102,4.0438066,8.724471
MAGNETIC_FIELD,-12.98,-6.935,-43.811
GYROSCOPE,0.06841691,0.20952678,0.18875736
ORIENTATION,51,335,2
ACCELEROMETER,-0.3657143,4.0503907,8.72088
MAGNETIC_FIELD,-10.011,-6.935,-44.619
GYROSCOPE,-0.018936822,0.17440203,0.12980886
ORIENTATION,44,335,2
ACCELEROMETER,-0.3812766,4.0467997,8.768166
MAGNETIC_FIELD,-8.039,-6.549,-44.619
GYROSCOPE,0.011911872,0.1414153,0.106595986
ORIENTATION,40,335,4
ACCELEROMETER,-0.53211135,4.0587707,8.574235
MAGNETIC_FIELD,-6.645,-5.12,-45.281
GYROSCOPE,-0.051618114,0.09560041,0.096516706
ORIENTATION,31,336,2
ACCELEROMETER,-0.31543607,3.9193082,8.89446
MAGNETIC_FIELD,-6.645,-4.629,-44.851
GYROSCOPE,-0.09254608,0.03268129,0.22815818
ORIENTATION,40,337,5
ACCELEROMETER,-0.81881696,3.7181952,8.835801
MAGNETIC_FIELD,-6.645,-3.356,-45.619
GYROSCOPE,-0.002443461,0.018325957,0.34147367
ORIENTATION,42,338,7
ACCELEROMETER,-1.091756,3.6954503,9.305663
MAGNETIC_FIELD,-5.986,-2.465,-45.213
GYROSCOPE,-0.16249016,0.09040806,0.63041294
ORIENTATION,33,335,6
ACCELEROMETER,-0.9343372,4.0360255,8.410232
MAGNETIC_FIELD,-4.389,-1.515,-45.657
GYROSCOPE,-0.02076942,0.3662137,0.795652
ORIENTATION,24,328,7
ACCELEROMETER,-0.9343372,4.7740383,7.668628
MAGNETIC_FIELD,-1.948,-0.172,-45.657
GYROSCOPE,0.2929099,0.3817908,0.7663304
ORIENTATION,27,336,9
ACCELEROMETER,-1.4927847,4.198831,9.518148
MAGNETIC_FIELD,-1.091,-0.895,-46.188
GYROSCOPE,-0.055283304,0.0021380284,0.8145888
ORIENTATION,19,341,5
ACCELEROMETER,-0.6183026,2.7042508,7.8266454
MAGNETIC_FIELD,0.764,-0.305,-45.581
GYROSCOPE,0.6010914,0.15027285,0.473726
ORIENTATION,6,340,3
ACCELEROMETER,-0.4321534,3.0873232,8.307879
MAGNETIC_FIELD,0.764,-1.205,-45.072
GYROSCOPE,-0.3203988,0.2602286,1.5131133
ORIENTATION,350,343,358
ACCELEROMETER,0.25498247,2.767697,9.198523
MAGNETIC_FIELD,3.779,0.273,-45.072
GYROSCOPE,-0.0030543262,0.27977628,1.6722436
ORIENTATION,347,343,1
ACCELEROMETER,-0.12868834,2.759916,9.072827
MAGNETIC_FIELD,8.772,-1.319,-45.072
GYROSCOPE,0.31856623,0.44104472,1.142318
ORIENTATION,344,344,7
ACCELEROMETER,-1.0301052,2.5558102,8.573038
MAGNETIC_FIELD,12.809,-4.614,-44.747
GYROSCOPE,0.15149458,0.6536258,0.9963212
ORIENTATION,350,331,12
ACCELEROMETER,-1.6531962,4.526837,7.948151
MAGNETIC_FIELD,15.435,-5.882,-44.169
GYROSCOPE,0.16676621,0.66920286,0.6630942
ORIENTATION,291,343,356
ACCELEROMETER,0.7469909,3.4207156,10.988189
MAGNETIC_FIELD,16.22,-7.785,-43.367
GYROSCOPE,0.08277224,0.32253686,0.55863625
ORIENTATION,292,342,1
ACCELEROMETER,-0.13467385,2.7641058,8.400655
MAGNETIC_FIELD,15.855,-8.946,-41.612
GYROSCOPE,0.42852196,-0.035124753,0.065973446
ORIENTATION,311,329,0
ACCELEROMETER,-0.029927522,3.6403837,6.1064115
MAGNETIC_FIELD,17.765,-8.946,-41.612
GYROSCOPE,0.26511553,0.6597345,-0.09621128
ORIENTATION,280,344,0
ACCELEROMETER,-0.08499416,3.425504,11.679515
MAGNETIC_FIELD,19.105,-8.946,-39.781
GYROSCOPE,-0.112399206,0.059864793,0.17134771
ORIENTATION,305,338,11
ACCELEROMETER,-1.934515,3.8612487,9.512163
MAGNETIC_FIELD,18.363,-8.946,-39.053
GYROSCOPE,0.18325958,-0.011301007,-0.022296581
ORIENTATION,307,332,5
ACCELEROMETER,-0.6039374,4.0456023,7.447763
MAGNETIC_FIELD,19.514,-8.448,-37.225
GYROSCOPE,0.24465153,0.77274454,0.23701571
ORIENTATION,292,336,1
ACCELEROMETER,-0.19393034,4.7159786,10.603321
MAGNETIC_FIELD,19.197,-9.788,-36.148
GYROSCOPE,0.14966199,0.035124753,-0.12889257
ORIENTATION,281,340,2
ACCELEROMETER,-0.31184477,3.2034419,8.733449
MAGNETIC_FIELD,19.197,-10.618,-34.939
GYROSCOPE,-0.13927728,-0.04550946,-0.20463985
ORIENTATION,297,330,4
ACCELEROMETER,-0.5009867,4.2263646,7.445967
MAGNETIC_FIELD,22.367,-8.94,-33.349
GYROSCOPE,0.1740966,0.5662721,-0.23762658
ORIENTATION,284,339,6
ACCELEROMETER,-1.2372037,4.2521024,10.982801
MAGNETIC_FIELD,23.233,-7.766,-32.493
GYROSCOPE,0.102319926,-0.07452556,-0.024740042
ORIENTATION,286,339,7
ACCELEROMETER,-0.99898064,3.2746694,8.316858
MAGNETIC_FIELD,24.279,-8.56,-32.493
GYROSCOPE,-0.49327368,0.2828306,-0.2669481
ORIENTATION,299,330,9
ACCELEROMETER,-1.22224,4.707599,7.9954367
MAGNETIC_FIELD,25.28,-8.56,-31.43
GYROSCOPE,0.19272798,0.4550946,0.14110987
ORIENTATION,279,340,5
ACCELEROMETER,-1.0193313,4.2000284,11.203667
MAGNETIC_FIELD,24.25,-9.785,-31.43
GYROSCOPE,0.015882496,-0.28710666,-0.41141775
ORIENTATION,273,342,4
ACCELEROMETER,-0.6697779,3.283049,9.89344
MAGNETIC_FIELD,23.838,-10.36,-31.43
GYROSCOPE,-0.7257079,-0.043676864,-0.27122417
ORIENTATION,283,329,355
ACCELEROMETER,0.65182143,4.97156,8.268375
MAGNETIC_FIELD,24.89,-9.033,-29.553
GYROSCOPE,0.204029,0.49113566,-0.6569856
ORIENTATION,291,333,11
ACCELEROMETER,-1.869273,4.84766,9.34038
MAGNETIC_FIELD,23.544,-8.261,-29.553
GYROSCOPE,0.3304781,-0.004581489,-0.5354234
ORIENTATION,277,335,350
ACCELEROMETER,1.2593501,3.4967315,7.270592
MAGNETIC_FIELD,23.031,-8.677,-28.109
GYROSCOPE,-0.20738874,-0.028710667,-1.2589933
ORIENTATION,276,340,7
ACCELEROMETER,-1.0121487,3.2034419,8.813056
MAGNETIC_FIELD,22.331,-6.3,-30.007
GYROSCOPE,0.056505036,-0.89919364,-1.3154984
ORIENTATION,293,338,11
ACCELEROMETER,-1.8590976,4.060566,9.68694
MAGNETIC_FIELD,20.942,-1.095,-32.563
GYROSCOPE,0.54458636,-0.2742785,-1.1291844
ORIENTATION,287,349,5
ACCELEROMETER,-1.0061632,2.15957,11.2210245
MAGNETIC_FIELD,17.889,0.813,-34.136
GYROSCOPE,-1.1884383,-0.45540005,-1.1921035
ORIENTATION,304,330,349
ACCELEROMETER,1.1109096,3.477578,5.813122
MAGNETIC_FIELD,10.987,3.802,-34.834
GYROSCOPE,0.086437434,-0.86559606,-1.087951
ORIENTATION,332,348,8
ACCELEROMETER,-1.8848352,2.8281507,13.102269
MAGNETIC_FIELD,1.939,2.304,-36.018
GYROSCOPE,0.13530666,-1.5683966,-0.06536258
ORIENTATION,5,334,6
ACCELEROMETER,-0.5907693,2.8401217,5.8681884
MAGNETIC_FIELD,-0.132,3.302,-36.018
GYROSCOPE,0.96486163,0.65148777,-0.1777618
ORIENTATION,359,328,359
ACCELEROMETER,0.10115502,4.8099513,7.650073
MAGNETIC_FIELD,3.411,-3.512,-37.411
GYROSCOPE,0.14966199,0.61483586,-0.013744468
ORIENTATION,302,345,351
ACCELEROMETER,2.011728,3.309984,12.459426
MAGNETIC_FIELD,2.253,-5.778,-37.838
GYROSCOPE,-0.4175264,-0.17623462,-0.03268129
ORIENTATION,349,337,1
ACCELEROMETER,-0.073621705,3.2920272,7.795521
MAGNETIC_FIELD,0.019,-5.778,-38.623
GYROSCOPE,-0.26267207,0.37690386,-0.39370266
ORIENTATION,358,331,359
ACCELEROMETER,0.0796072,4.9105077,8.78672
MAGNETIC_FIELD,2.369,-6.831,-39.877
GYROSCOPE,0.20189096,-0.0729984,0.0720821
ORIENTATION,321,345,359
ACCELEROMETER,0.16879122,3.1016884,11.680712
MAGNETIC_FIELD,2.369,-7.815,-40.812
GYROSCOPE,-0.3200934,-0.10720685,0.72418076
ORIENTATION,337,331,356
ACCELEROMETER,0.43155485,3.240552,5.8454432
MAGNETIC_FIELD,2.369,-8.345,-42.671
GYROSCOPE,-0.04642576,0.85154617,1.0332786
ORIENTATION,349,328,359
ACCELEROMETER,0.1436521,5.5497594,9.042301
MAGNETIC_FIELD,4.493,-11.218,-44.474
GYROSCOPE,-0.089186326,-0.024740042,0.55833083
ORIENTATION,308,341,359
ACCELEROMETER,0.14425065,3.9558198,11.360487
MAGNETIC_FIELD,5.282,-9.849,-47.192
GYROSCOPE,-0.64599,0.19456059,0.3277292
ORIENTATION,292,342,352
ACCELEROMETER,1.4634558,3.2902317,9.959879
MAGNETIC_FIELD,6.799,-10.627,-48.017
GYROSCOPE,-0.5708536,0.4718934,0.122478485
ORIENTATION,4,332,9
ACCELEROMETER,-1.3467385,4.5005007,8.227076
MAGNETIC_FIELD,7.565,-9.019,-47.329
GYROSCOPE,0.58062744,-0.21655174,-0.057421334
ORIENTATION,295,344,359
ACCELEROMETER,0.3321955,3.6990416,13.083714
MAGNETIC_FIELD,7.565,-11.108,-46.098
GYROSCOPE,-0.7706065,-0.076052725,1.0189233
ORIENTATION,322,329,356
ACCELEROMETER,0.39743748,3.691859,6.238691
MAGNETIC_FIELD,6.942,-10.211,-45.486
GYROSCOPE,-0.30940324,0.8891144,0.44257188
ORIENTATION,339,327,1
ACCELEROMETER,-0.10534488,6.049549,9.244612
MAGNETIC_FIELD,8.364,-10.635,-45.486
GYROSCOPE,0.074830994,-0.06566802,-0.067500606
ORIENTATION,315,332,356
ACCELEROMETER,0.6302736,4.8883615,9.309854
MAGNETIC_FIELD,5.381,-10.023,-45.08
GYROSCOPE,0.12797627,-0.43554693,-0.2919936
ORIENTATION,346,324,1
ACCELEROMETER,-0.095768064,4.6920366,6.415862
MAGNETIC_FIELD,3.985,-8.779,-45.08
GYROSCOPE,0.09682214,-0.2012801,-0.20708331
ORIENTATION,14,327,11
ACCELEROMETER,-1.5562311,5.5910597,8.341399
MAGNETIC_FIELD,3.985,-7.475,-45.985
GYROSCOPE,0.14294247,0.21471913,0.14569137
ORIENTATION,331,339,358
ACCELEROMETER,0.26874915,3.6457705,9.363723
MAGNETIC_FIELD,3.985,-9.446,-45.648
GYROSCOPE,-0.634689,0.1386664,0.63591075
ORIENTATION,343,323,358
ACCELEROMETER,0.26276365,4.83509,6.5098343
MAGNETIC_FIELD,0.84,-6.015,-47.848
GYROSCOPE,0.37995818,-0.40653083,-0.23090707
ORIENTATION,15,332,6
ACCELEROMETER,-1.074398,4.988918,9.451111
MAGNETIC_FIELD,2.241,-6.015,-50.03
GYROSCOPE,0.25961772,0.06566802,-0.40683624
ORIENTATION,343,334,357
ACCELEROMETER,0.53570265,4.5663414,9.552266
MAGNETIC_FIELD,-0.587,-8.039,-50.866
GYROSCOPE,0.2321288,-0.19425514,-0.8924741
ORIENTATION,6,330,1
ACCELEROMETER,-0.16879122,4.135385,7.16824
MAGNETIC_FIELD,-7.04,-8.039,-49.987
GYROSCOPE,0.38423425,-0.10293079,-0.51251596
ORIENTATION,31,324,7
ACCELEROMETER,-0.9528923,5.4940944,7.363966
MAGNETIC_FIELD,-7.688,-9.997,-46.806
GYROSCOPE,0.5137377,-0.11301007,-0.49968776
ORIENTATION,15,332,355
ACCELEROMETER,0.6937199,4.281431,7.9445596
MAGNETIC_FIELD,-6.752,-13.722,-43.962
GYROSCOPE,0.19150625,0.15424347,-0.56779927
ORIENTATION,20,324,358
ACCELEROMETER,0.23343466,5.3881507,7.3687544
MAGNETIC_FIELD,-6.752,-12.561,-41.986
GYROSCOPE,-0.09896017,-0.61483586,-1.1575897
ORIENTATION,41,333,0
ACCELEROMETER,-0.045489833,4.3676224,8.525154
MAGNETIC_FIELD,-6.752,-11.888,-39.587
GYROSCOPE,0.43585235,-0.83077675,-1.4993688
ORIENTATION,8,340,351
ACCELEROMETER,1.5053543,3.525462,9.367314
MAGNETIC_FIELD,-9.307,-11.888,-35.478
GYROSCOPE,0.28863382,-1.1417072,-1.8530598
ORIENTATION,60,335,358
ACCELEROMETER,0.25198972,3.441665,7.256227
MAGNETIC_FIELD,-12.075,-12.507,-32.572
GYROSCOPE,0.32742378,-1.5931365,-1.8790215
ORIENTATION,86,338,357
ACCELEROMETER,0.4902128,3.9264908,9.78989
MAGNETIC_FIELD,-12.075,-16.439,-29.107
GYROSCOPE,0.21533,-1.1004738,-0.9645562
ORIENTATION,104,336,1
ACCELEROMETER,-0.11312603,4.0743327,9.08001
MAGNETIC_FIELD,-10.902,-19.036,-26.881
GYROSCOPE,0.3109304,-0.38331795,-1.4175128
ORIENTATION,105,330,358
ACCELEROMETER,0.30585927,4.359243,7.4166384
MAGNETIC_FIELD,-8.645,-21.119,-25.662
GYROSCOPE,0.52839845,-0.35185838,-1.2928963
ORIENTATION,129,332,359
ACCELEROMETER,0.093972415,4.666898,8.847174
MAGNETIC_FIELD,-4.605,-24.432,-24.53
GYROSCOPE,0.5381723,-0.76083267,-1.5125023
ORIENTATION,142,337,15
ACCELEROMETER,-2.3511062,4.000711,9.043498
MAGNETIC_FIELD,-1.589,-27.241,-21.319
GYROSCOPE,0.2724459,-1.1881329,-1.4511104
ORIENTATION,144,325,18
ACCELEROMETER,-2.3762453,5.29777,7.271789
MAGNETIC_FIELD,3.442,-27.745,-21.319
GYROSCOPE,0.30451632,-0.09040806,-0.048258353
ORIENTATION,177,327,11
ACCELEROMETER,-1.5466543,5.360019,8.111555
MAGNETIC_FIELD,3.958,-26.647,-21.319
GYROSCOPE,0.1554652,0.0711658,0.61819565
ORIENTATION,186,336,6
ACCELEROMETER,-0.8583213,3.4871547,7.9451585
MAGNETIC_FIELD,0.715,-25.958,-21.319
GYROSCOPE,-0.3368922,-0.4474588,0.9502009
ORIENTATION,169,324,6
ACCELEROMETER,-0.694917,4.457405,6.1489086
MAGNETIC_FIELD,-1.666,-24.905,-22.859
GYROSCOPE,-0.00580322,0.04428773,0.21135938
ORIENTATION,166,321,359
ACCELEROMETER,0.11911154,5.9639564,7.4004774
MAGNETIC_FIELD,1.01,-25.862,-23.269
GYROSCOPE,-0.77457714,0.91324353,0.19914207
ORIENTATION,141,329,25
ACCELEROMETER,-4.177882,6.0746884,9.153631
MAGNETIC_FIELD,1.01,-25.343,-25.288
GYROSCOPE,0.5363397,-0.3032946,0.04520403
ORIENTATION,149,322,9
ACCELEROMETER,-1.0019734,5.1481323,6.583456
MAGNETIC_FIELD,1.736,-25.898,-25.627
GYROSCOPE,-0.5742133,0.65179324,0.0290161
ORIENTATION,160,327,10
ACCELEROMETER,-1.3461399,5.043386,7.5572977
MAGNETIC_FIELD,-2.416,-24.114,-28.883
GYROSCOPE,-0.13408493,0.02321288,-0.4801401
ORIENTATION,169,336,359
ACCELEROMETER,0.17178397,5.3983264,11.960834
MAGNETIC_FIELD,1.434,-24.478,-31.347
GYROSCOPE,0.816116,0.19914207,-0.90102625
ORIENTATION,185,343,0
ACCELEROMETER,-0.06464344,2.9741971,9.620501
MAGNETIC_FIELD,3.697,-26.974,-29.141
GYROSCOPE,0.38759398,0.15607607,-1.1731668
ORIENTATION,160,328,12
ACCELEROMETER,-1.3916297,4.0066967,6.2913637
MAGNETIC_FIELD,7.646,-29.428,-26.596
GYROSCOPE,0.3912592,-1.4248432,-1.0931433
ORIENTATION,176,328,18
ACCELEROMETER,-2.7754784,5.7179523,8.750807
MAGNETIC_FIELD,13.316,-27.873,-28.268
GYROSCOPE,0.3313944,-0.6081163,-0.20708331
ORIENTATION,206,332,16
ACCELEROMETER,-2.2284033,4.2940006,7.6201453
MAGNETIC_FIELD,17.314,-26.014,-29.235
GYROSCOPE,0.08368854,0.25961772,-0.2507602
ORIENTATION,274,321,15
ACCELEROMETER,-1.4119805,4.596867,5.427655
MAGNETIC_FIELD,21.377,-23.939,-32.069
GYROSCOPE,-0.23701571,0.54275376,0.32284227
ORIENTATION,257,331,4
ACCELEROMETER,-0.7092823,6.2003837,11.004948
MAGNETIC_FIELD,20.252,-24.575,-36.007
GYROSCOPE,0.67347896,-0.5510005,-0.3744604
ORIENTATION,286,323,11
ACCELEROMETER,-1.2431892,5.073912,6.619369
MAGNETIC_FIELD,18.968,-26.034,-39.033
GYROSCOPE,0.10934488,0.09101892,-0.8145888
ORIENTATION,280,326,11
ACCELEROMETER,-1.376666,4.939238,7.1766195
MAGNETIC_FIELD,16.986,-27.186,-41.902
GYROSCOPE,0.33567044,-0.42485678,-0.1685988
ORIENTATION,263,330,9
ACCELEROMETER,-1.4544775,5.521029,9.327211
MAGNETIC_FIELD,14.61,-29.017,-42.614
GYROSCOPE,-0.24923302,0.13836098,0.35124752
ORIENTATION,108,329,24
ACCELEROMETER,-3.0873232,4.573524,6.8204823
MAGNETIC_FIELD,10.844,-33.807,-41.194
GYROSCOPE,0.24556783,-0.06169739,-0.3857614
ORIENTATION,246,323,9
ACCELEROMETER,-0.98820674,4.833295,6.455366
MAGNETIC_FIELD,13.47,-33.148,-39.909
GYROSCOPE,0.17440203,-0.108123146,0.1001819
ORIENTATION,239,327,7
ACCELEROMETER,-1.2539631,6.567295,9.927557
MAGNETIC_FIELD,11.949,-34.333,-36.454
GYROSCOPE,0.19639318,-0.5174029,-0.528093
ORIENTATION,200,331,12
ACCELEROMETER,-1.757344,4.757279,8.54311
MAGNETIC_FIELD,13.859,-35.366,-31.874
GYROSCOPE,-0.10629055,-0.15241088,-0.3042109
ORIENTATION,233,321,11
ACCELEROMETER,-1.1061212,4.8500543,5.807136
MAGNETIC_FIELD,16.542,-33.412,-29.496
GYROSCOPE,1.0635164,0.41386122,-0.44532076
ORIENTATION,214,322,22
ACCELEROMETER,-3.0573955,6.2075663,7.4776907
MAGNETIC_FIELD,16.542,-32.26,-25.274
GYROSCOPE,-0.49449542,0.119729586,0.29718593
ORIENTATION,209,330,19
ACCELEROMETER,-2.7922378,4.8895583,7.9852614
MAGNETIC_FIELD,16.542,-30.593,-24.261
GYROSCOPE,-0.4175264,-0.45906523,0.38606682
ORIENTATION,227,324,16
ACCELEROMETER,-1.9853917,5.183447,6.880337
MAGNETIC_FIELD,12.528,-28.964,-24.261
GYROSCOPE,-0.0070249503,-0.010995574,0.55680364
ORIENTATION,218,327,10
ACCELEROMETER,-1.6813282,5.9597664,9.183559
MAGNETIC_FIELD,11.085,-29.948,-23.435
GYROSCOPE,0.25961772,0.4908302,0.20433442
ORIENTATION,201,334,11
ACCELEROMETER,-1.8471266,4.4580035,9.154829
MAGNETIC_FIELD,7.922,-31.105,-21.881
GYROSCOPE,0.3032946,-0.09010262,0.68416905
ORIENTATION,198,325,10
ACCELEROMETER,-1.192911,4.8362875,6.7187285
MAGNETIC_FIELD,6.578,-32.077,-20.944
GYROSCOPE,-0.022907447,1.4132367,1.0806206
ORIENTATION,176,322,20
ACCELEROMETER,-2.842516,6.6750345,7.948151
MAGNETIC_FIELD,1.124,-33.061,-18.411
GYROSCOPE,0.40317106,-0.19364429,0.8958339
ORIENTATION,158,322,24
ACCELEROMETER,-2.5809495,5.048773,5.9172697
MAGNETIC_FIELD,-3.543,-32.733,-18.411
GYROSCOPE,0.14385876,1.0158689,1.3139712
ORIENTATION,157,319,6
ACCELEROMETER,-0.7266402,6.284181,7.176021
MAGNETIC_FIELD,-7.4,-29.127,-22.972
GYROSCOPE,0.30726522,1.5219707,1.3038919
ORIENTATION,140,327,8
ACCELEROMETER,-1.2216414,5.8885393,8.915408
MAGNETIC_FIELD,-12.153,-25.65,-25.26
GYROSCOPE,-0.063224554,0.54733527,1.0002918
ORIENTATION,132,332,359
ACCELEROMETER,0.19093758,4.337695,8.0606785
MAGNETIC_FIELD,-14.07,-24.002,-26.49
GYROSCOPE,-0.6606508,0.9673051,1.4114041
ORIENTATION,105,323,4
ACCELEROMETER,-0.56084174,5.7395,7.721899
MAGNETIC_FIELD,-14.07,-19.224,-30.592
GYROSCOPE,0.005497787,0.782213,0.9089675
ORIENTATION,109,337,15
ACCELEROMETER,-2.7431567,4.533421,10.341156
MAGNETIC_FIELD,-12.777,-15.267,-34.515
GYROSCOPE,-0.40011674,0.9651671,1.352761
ORIENTATION,74,324,12
ACCELEROMETER,-1.3706805,4.6459484,6.3177
MAGNETIC_FIELD,-8.163,-10.993,-38.551
GYROSCOPE,-0.14905111,1.4330899,1.3133603
ORIENTATION,30,320,1
ACCELEROMETER,-0.18555063,6.087258,7.343615
MAGNETIC_FIELD,-3.749,-7.679,-40.997
GYROSCOPE,-0.18387043,0.82436264,1.2464706
ORIENTATION,16,343,357
ACCELEROMETER,0.770933,4.045004,13.260286
MAGNETIC_FIELD,-3.388,-5.5,-41.792
GYROSCOPE,-1.0228939,-0.09712757,1.2360858
ORIENTATION,24,329,6
ACCELEROMETER,-0.7230489,4.429273,7.335834
MAGNETIC_FIELD,-1.522,-2.597,-42.803
GYROSCOPE,-0.011301007,0.79076505,-0.21319197
ORIENTATION,6,321,2
ACCELEROMETER,-0.1933318,5.5976434,6.9743094
MAGNETIC_FIELD,1.203,-7.696,-42.803
GYROSCOPE,0.1872302,0.22021692,-0.17837265
ORIENTATION,32,335,11
ACCELEROMETER,-2.0667946,5.130774,10.869077
MAGNETIC_FIELD,-0.672,-10.093,-42.803
GYROSCOPE,-0.20066923,-0.34574974,-0.06841691
ORIENTATION,48,324,22
ACCELEROMETER,-2.7156234,5.273828,6.7648168
MAGNETIC_FIELD,3.974,-10.742,-43.96
GYROSCOPE,-0.5290093,1.8167132,0.45448375
ORIENTATION,6,326,7
ACCELEROMETER,-1.1252748,5.9609637,8.692149
MAGNETIC_FIELD,6.044,-8.747,-46.531
GYROSCOPE,0.44318274,-0.11789699,0.32070425
ORIENTATION,351,333,5
ACCELEROMETER,-0.908001,5.9262476,11.358691
MAGNETIC_FIELD,4.147,-10.943,-47.062
GYROSCOPE,-0.4822781,0.17684549,0.17654006
ORIENTATION,358,328,4
ACCELEROMETER,-0.50757074,4.1174283,6.682217
MAGNETIC_FIELD,5.45,-16.314,-47.062
GYROSCOPE,-0.43066,0.37018433,0.007330383
ORIENTATION,9,326,9
ACCELEROMETER,-1.2910733,5.459977,7.939771
MAGNETIC_FIELD,6.767,-16.937,-47.062
GYROSCOPE,0.16798794,-0.25595254,-0.099265605
ORIENTATION,249,343,2
ACCELEROMETER,-0.34715924,3.8911762,12.500726
MAGNETIC_FIELD,9.971,-18.281,-44.85
GYROSCOPE,-1.2547172,-0.06352998,1.0732902
ORIENTATION,334,332,9
ACCELEROMETER,-1.1623849,3.7828386,7.053318
MAGNETIC_FIELD,14.689,-17.427,-42.881
GYROSCOPE,-0.539394,0.62949663,0.4841107
ORIENTATION,309,329,6
ACCELEROMETER,-0.8888474,5.120599,8.379107
MAGNETIC_FIELD,17.321,-15.882,-41.247
GYROSCOPE,0.10567969,-0.24220806,0.038789943
ORIENTATION,267,340,359
ACCELEROMETER,0.110731825,3.6032736,10.031107
MAGNETIC_FIELD,13.055,-15.882,-41.247
GYROSCOPE,0.06414085,-0.43463063,-0.13439035
ORIENTATION,293,333,2
ACCELEROMETER,-0.30166942,3.696049,7.2071457
MAGNETIC_FIELD,9.623,-14.064,-40.098
GYROSCOPE,-0.25778514,-0.1572978,-0.19547687
ORIENTATION,336,333,10
ACCELEROMETER,-1.5149311,4.705205,8.995614
MAGNETIC_FIELD,5.857,-10.929,-39.439
GYROSCOPE,0.1386664,-0.23243423,0.15607607
ORIENTATION,235,348,4
ACCELEROMETER,-0.8331822,2.5611973,11.628039
MAGNETIC_FIELD,4.199,-8.966,-39.439
GYROSCOPE,-0.59650993,0.3820962,0.75777835
ORIENTATION,351,325,3
ACCELEROMETER,-0.30107087,4.4526167,6.3781533
MAGNETIC_FIELD,4.878,-4.182,-41.011
GYROSCOPE,-0.08460484,0.19058995,0.57451874
ORIENTATION,337,332,358
ACCELEROMETER,0.3298013,4.5358152,8.624513
MAGNETIC_FIELD,5.57,-3.768,-41.868
GYROSCOPE,0.2843578,-0.10048734,0.08277224
ORIENTATION,331,336,358
ACCELEROMETER,0.4165911,4.3879733,10.081984
MAGNETIC_FIELD,3.822,-4.118,-43.666
GYROSCOPE,0.5888741,-0.31490102,-0.64812803
ORIENTATION,359,328,4
ACCELEROMETER,-0.5201403,4.2281604,6.779781
MAGNETIC_FIELD,5.49,-4.118,-47.145
GYROSCOPE,0.18875736,0.03726278,-0.4382958
ORIENTATION,345,331,0
ACCELEROMETER,-0.05566519,4.8961425,8.992023
MAGNETIC_FIELD,5.49,-8.218,-49.073
GYROSCOPE,0.064446285,-0.48808134,-0.092240654
ORIENTATION,346,334,2
ACCELEROMETER,-0.44891283,5.0451818,10.463859
MAGNETIC_FIELD,3.761,-12.376,-50.256
GYROSCOPE,0.26450464,-0.29046643,-1.5289958
ORIENTATION,316,338,357
ACCELEROMETER,0.42916065,2.8904,7.275979
MAGNETIC_FIELD,2.087,-15.834,-48.849
GYROSCOPE,0.59315014,0.03940081,-2.008525
ORIENTATION,58,338,10
ACCELEROMETER,-1.8836381,4.6178164,11.079168
MAGNETIC_FIELD,-0.613,-20.686,-44.566
GYROSCOPE,0.729984,-1.496009,-2.6746736
ORIENTATION,288,333,354
ACCELEROMETER,1.1318588,5.053561,9.993997
MAGNETIC_FIELD,0.775,-25.662,-41.261
GYROSCOPE,0.6356053,-0.49205196,-2.2660046
ORIENTATION,196,350,354
ACCELEROMETER,1.2096704,1.8291701,10.846333
MAGNETIC_FIELD,-0.061,-29.206,-35.708
GYROSCOPE,0.44501534,-1.8671097,-2.043955
ORIENTATION,122,331,28
ACCELEROMETER,-4.107253,4.8057613,7.7063365
MAGNETIC_FIELD,-1.748,-32.711,-29.244
GYROSCOPE,0.505491,-1.8606955,-1.9254472
ORIENTATION,146,334,20
ACCELEROMETER,-3.1322143,4.449025,8.444349
MAGNETIC_FIELD,4.808,-35.713,-24.559
GYROSCOPE,-0.051618114,-0.9737192,-1.1985176
ORIENTATION,162,323,21
ACCELEROMETER,-2.7431567,5.6221843,6.9677253
MAGNETIC_FIELD,7.981,-31.231,-25.973
GYROSCOPE,0.29779682,-0.5723807,-0.39003745
ORIENTATION,194,327,11
ACCELEROMETER,-2.0416555,6.9491706,10.629059
MAGNETIC_FIELD,11.132,-29.216,-23.692
GYROSCOPE,0.17287487,-0.21105394,-0.5012149
ORIENTATION,197,330,17
ACCELEROMETER,-2.0045455,4.0264487,6.5966244
MAGNETIC_FIELD,11.132,-26.472,-25.199
GYROSCOPE,-0.3857614,-0.109650314,-0.06872234
ORIENTATION,216,323,17
ACCELEROMETER,-2.2732944,5.9047,7.379528
MAGNETIC_FIELD,11.819,-26.167,-30.122
GYROSCOPE,-0.06811147,-0.5702427,-0.25717425
ORIENTATION,180,331,21
ACCELEROMETER,-3.915717,6.007052,9.991004
MAGNETIC_FIELD,7.742,-25.495,-34.484
GYROSCOPE,0.4147775,-0.27855456,-0.7855727
ORIENTATION,104,326,26
ACCELEROMETER,-3.3063924,4.987122,6.667852
MAGNETIC_FIELD,5.34,-28.857,-37.843
GYROSCOPE,-0.106595986,0.5516113,0.11728613
ORIENTATION,10,317,9
ACCELEROMETER,-0.9552865,5.4899044,5.8095303
MAGNETIC_FIELD,6.697,-30.625,-39.476
GYROSCOPE,-0.49480084,0.1600467,0.51923543
ORIENTATION,149,331,16
ACCELEROMETER,-3.0442274,6.0525417,10.489596
MAGNETIC_FIELD,3.118,-30.97,-40.698
GYROSCOPE,0.23793201,-0.12522738,-0.44104472
ORIENTATION,132,331,16
ACCELEROMETER,-2.2278047,4.6662993,7.9583263
MAGNETIC_FIELD,7.191,-32.476,-38.943
GYROSCOPE,-0.2406809,-0.40439278,0.12583824
ORIENTATION,240,326,358
ACCELEROMETER,0.24779987,4.138976,6.0860605
MAGNETIC_FIELD,9.327,-32.081,-39.501
GYROSCOPE,0.57818395,0.23548855,-0.17623462
ORIENTATION,178,330,14
ACCELEROMETER,-2.8233624,6.7719994,11.63163
MAGNETIC_FIELD,6.178,-35.092,-35.795
GYROSCOPE,0.11148291,-0.8359691,0.03176499
ORIENTATION,119,320,21
ACCELEROMETER,-1.5089456,3.5954924,3.9947255
MAGNETIC_FIELD,9.124,-37.126,-31.654
GYROSCOPE,0.08307768,0.25900686,-0.2733622
ORIENTATION,168,320,19
ACCELEROMETER,-2.6767175,7.0742674,7.9224133
MAGNETIC_FIELD,13.072,-37.126,-28.558
GYROSCOPE,0.14172074,0.63621616,0.35002577
ORIENTATION,198,326,17
ACCELEROMETER,-3.0609868,7.2753806,10.329783
MAGNETIC_FIELD,12.467,-35.835,-26.905
GYROSCOPE,0.1591304,0.38362336,0.051923547
ORIENTATION,196,320,20
ACCELEROMETER,-2.0087352,4.9302597,5.4922986
MAGNETIC_FIELD,9.523,-35.835,-25.404
GYROSCOPE,0.160963,0.0693332,0.05222898
ORIENTATION,214,318,8
ACCELEROMETER,-0.91697925,5.9064956,6.4805055
MAGNETIC_FIELD,10.111,-36.163,-23.377
GYROSCOPE,0.10934488,0.1740966,0.44135013
ORIENTATION,189,330,17
ACCELEROMETER,-3.0699651,6.209362,10.2896805
MAGNETIC_FIELD,7.485,-36.163,-22.064
GYROSCOPE,-0.6056729,0.14966199,0.6151413
ORIENTATION,175,325,22
ACCELEROMETER,-2.7090392,5.0493712,6.663662
MAGNETIC_FIELD,4.953,-35.382,-23.085
GYROSCOPE,-0.70157874,0.5412266,0.68233645
ORIENTATION,177,322,14
ACCELEROMETER,-1.8231846,5.93762,7.398083
MAGNETIC_FIELD,6.077,-34.541,-24.009
GYROSCOPE,0.1423316,0.9483683,0.78038037
ORIENTATION,186,330,10
ACCELEROMETER,-1.91596,6.329072,10.78947
MAGNETIC_FIELD,2.105,-34.541,-23.587
GYROSCOPE,-0.24678956,0.086437434,0.46120325
ORIENTATION,178,330,6
ACCELEROMETER,-0.7266402,3.8139634,6.527791
MAGNETIC_FIELD,-0.546,-34.205,-22.993
GYROSCOPE,-0.33964106,0.47250426,0.89369583
ORIENTATION,158,327,15
ACCELEROMETER,-2.2481554,5.5683146,8.149862
MAGNETIC_FIELD,-4.147,-34.205,-23.928
GYROSCOPE,-0.099571034,0.062308256,0.8347474
ORIENTATION,155,336,16
ACCELEROMETER,-2.6515784,4.2503066,9.270947
MAGNETIC_FIELD,-6.333,-32.423,-25.427
GYROSCOPE,-0.95478237,0.9627236,1.6820174
ORIENTATION,149,331,8
ACCELEROMETER,-1.0426749,4.055179,7.2023573
MAGNETIC_FIELD,-6.333,-29.078,-30.981
GYROSCOPE,-0.2761111,1.3344351,1.7611245
ORIENTATION,134,328,4
ACCELEROMETER,-0.6835446,5.6982,8.995614
MAGNETIC_FIELD,-9.892,-24.095,-34.997
GYROSCOPE,-0.21074851,0.33536503,0.74372846
ORIENTATION,95,326,10
ACCELEROMETER,-1.3150153,5.337274,7.739856
MAGNETIC_FIELD,-13.893,-20.12,-36.129
GYROSCOPE,0.6065892,-0.115453534,0.09590584
ORIENTATION,87,328,8
ACCELEROMETER,-1.0444705,5.0062757,7.925406
MAGNETIC_FIELD,-12.158,-17.475,-38.287
GYROSCOPE,-0.172264,0.19975294,1.3439035
ORIENTATION,89,334,6
ACCELEROMETER,-1.0618285,4.7429137,9.780912
MAGNETIC_FIELD,-10.095,-12.474,-41.23
GYROSCOPE,0.08827003,0.6236934,1.5012014
ORIENTATION,54,326,8
ACCELEROMETER,-0.9540894,4.5483847,6.8043213
MAGNETIC_FIELD,-6.163,-10.76,-43.023
GYROSCOPE,-0.011911872,1.1462886,0.49846604
ORIENTATION,33,325,5
ACCELEROMETER,-0.7080852,5.445612,7.7703815
MAGNETIC_FIELD,-4.093,-9.277,-44.895
GYROSCOPE,-0.18051068,0.5766568,1.1242975
ORIENTATION,21,322,4
ACCELEROMETER,-0.6805518,6.8528037,8.902839
MAGNETIC_FIELD,5.258,-7.347,-45.529
GYROSCOPE,0.66798115,0.88453287,-0.23457226
ORIENTATION,333,330,356
ACCELEROMETER,0.50996494,4.71538,8.171411
MAGNETIC_FIELD,8.499,-9.313,-45.529
GYROSCOPE,0.2764165,-0.0070249503,-0.86437434
ORIENTATION,344,329,5
ACCELEROMETER,-0.58119243,4.0683475,6.7983356
MAGNETIC_FIELD,8.871,-9.675,-44.731
GYROSCOPE,0.52412236,-0.37598756,-0.26542094
ORIENTATION,348,324,6
ACCELEROMETER,-0.9379285,6.087258,8.383896
MAGNETIC_FIELD,6.588,-12.28,-45.033
GYROSCOPE,0.21013765,-0.5885687,-0.5342017
ORIENTATION,305,337,358
ACCELEROMETER,0.42317516,4.1838675,9.956886
MAGNETIC_FIELD,2.4,-14.909,-43.577
GYROSCOPE,-0.76144356,-0.2415972,0.5503896
ORIENTATION,338,326,357
ACCELEROMETER,0.3866636,4.5406036,6.6415157
MAGNETIC_FIELD,2.096,-11.676,-45.124
GYROSCOPE,-0.19639318,0.47158796,0.36957347
ORIENTATION,347,329,359
ACCELEROMETER,0.16998832,5.3516393,8.883087
MAGNETIC_FIELD,1.133,-10.617,-46.35
GYROSCOPE,0.043066,0.0033597588,-0.086132
ORIENTATION,319,337,353
ACCELEROMETER,1.2611457,4.173094,9.886856
MAGNETIC_FIELD,-1.773,-9.727,-48.133
GYROSCOPE,-0.07452556,-0.052839845,-0.22999077
ORIENTATION,356,335,357
ACCELEROMETER,0.39025488,3.4500446,7.4166384
MAGNETIC_FIELD,-2.188,-11.95,-49.25
GYROSCOPE,-0.13439035,-0.10903945,0.12461651
ORIENTATION,27,328,7
ACCELEROMETER,-0.8798691,4.784812,7.675811
MAGNETIC_FIELD,-2.572,-14.791,-47.77
GYROSCOPE,0.3555236,-0.59406644,0.21960606
ORIENTATION,43,337,2
ACCELEROMETER,-0.4141969,4.285621,10.159795
MAGNETIC_FIELD,-4.223,-17.752,-46.492
GYROSCOPE,-0.5183192,0.087659165,1.0806206
ORIENTATION,9,327,357
ACCELEROMETER,0.38187516,4.408324,6.8492126
MAGNETIC_FIELD,-2.618,-16.201,-46.867
GYROSCOPE,-0.1994475,0.79045963,0.5448918
ORIENTATION,20,325,3
ACCELEROMETER,-0.415394,6.073491,8.804078
MAGNETIC_FIELD,-1.295,-14.768,-46.867
GYROSCOPE,0.14966199,0.028710667,-0.025045475
ORIENTATION,328,334,353
ACCELEROMETER,1.3078327,5.1385555,10.251971
MAGNETIC_FIELD,-0.903,-17.005,-46.359
GYROSCOPE,-0.040317107,-0.02443461,-0.17073683
ORIENTATION,9,322,2
ACCELEROMETER,-0.20051439,4.663905,5.868787
MAGNETIC_FIELD,-0.903,-17.005,-45.196
GYROSCOPE,0.27916542,-0.3930918,-0.4746423
ORIENTATION,8,332,360
ACCELEROMETER,0.009576807,5.7239375,10.627263
MAGNETIC_FIELD,0.071,-18.339,-43.995
GYROSCOPE,-0.3463606,-0.40042216,-0.0067195175
ORIENTATION,117,338,2
ACCELEROMETER,-0.3585317,3.6002808,9.071032
MAGNETIC_FIELD,2.142,-17.268,-43.435
GYROSCOPE,-0.3032946,-0.08857546,0.48747048
ORIENTATION,359,319,3
ACCELEROMETER,-0.28431144,5.394735,6.208165
MAGNETIC_FIELD,5.274,-16.716,-41.291
GYROSCOPE,-0.0070249503,-0.2125811,0.49663344
ORIENTATION,306,326,350
ACCELEROMETER,1.4772224,5.9771247,8.589797
MAGNETIC_FIELD,5.691,-13.919,-40.716
GYROSCOPE,0.42210788,-3.0543262E-4,-0.07513642
ORIENTATION,320,329,358
ACCELEROMETER,0.36870706,5.5060654,9.329007
MAGNETIC_FIELD,7.432,-13.285,-39.584
GYROSCOPE,0.129198,0.0070249503,-0.86467975
ORIENTATION,324,329,1
ACCELEROMETER,-0.12509704,4.1479545,6.8689647
MAGNETIC_FIELD,7.905,-10.723,-42.575
GYROSCOPE,-0.122783914,-0.20189096,-0.40408736
ORIENTATION,328,325,358
ACCELEROMETER,0.3250129,5.635352,7.9792757
MAGNETIC_FIELD,6.016,-9.265,-46.449
GYROSCOPE,0.43310347,-0.23457226,-0.2761111
ORIENTATION,345,325,1
ACCELEROMETER,-0.13946225,5.98311,8.446744
MAGNETIC_FIELD,6.898,-11.563,-50.265
GYROSCOPE,0.22113322,-0.03604105,-1.5054774
ORIENTATION,305,335,351
ACCELEROMETER,1.3904326,4.23654,9.045294
MAGNETIC_FIELD,5.102,-12.727,-55.314
GYROSCOPE,0.74220127,-0.31245756,-2.1337523
ORIENTATION,279,343,344
ACCELEROMETER,3.0735564,3.3865983,10.538677
MAGNETIC_FIELD,-2.983,-18.702,-54.545
GYROSCOPE,-0.3735441,-1.3448198,-2.6853635
ORIENTATION,293,335,342
ACCELEROMETER,2.665345,4.1904516,8.438364
MAGNETIC_FIELD,-9.568,-27.879,-47.969
GYROSCOPE,0.12492194,-1.9755383,-2.5751023
ORIENTATION,143,340,357
ACCELEROMETER,0.48243165,3.2872388,8.882488
MAGNETIC_FIELD,-9.568,-30.702,-38.415
GYROSCOPE,0.3100141,-2.1627684,-1.8637499
ORIENTATION,133,337,8
ACCELEROMETER,-1.3670892,4.262876,9.873089
MAGNETIC_FIELD,-6.169,-31.43,-31.8
GYROSCOPE,0.11453723,-1.7403551,-1.3335189
ORIENTATION,110,320,23
ACCELEROMETER,-2.1499932,4.5687356,4.985925
MAGNETIC_FIELD,-2.322,-30.911,-30.944
GYROSCOPE,0.14019357,-0.91751957,-1.1328496
ORIENTATION,171,327,358
ACCELEROMETER,0.2705448,6.530185,10.183737
MAGNETIC_FIELD,1.805,-29.824,-31.744
GYROSCOPE,-0.11362094,-0.38881573,-0.44868052
ORIENTATION,204,336,351
ACCELEROMETER,1.6310499,4.767454,10.597934
MAGNETIC_FIELD,8.436,-27.883,-35.044
GYROSCOPE,0.3032946,0.21227567,-0.66859204
ORIENTATION,268,322,5
ACCELEROMETER,-0.42676646,4.1838675,5.3701944
MAGNETIC_FIELD,11.607,-28.608,-36.854
GYROSCOPE,0.6554584,-0.36774087,-0.8567385
ORIENTATION,196,333,14
ACCELEROMETER,-2.5151088,5.2181625,10.103531
MAGNETIC_FIELD,12.965,-30.525,-35.972
GYROSCOPE,0.122478485,-0.64751714,0.26725355
ORIENTATION,210,334,10
ACCELEROMETER,-1.328782,3.6194344,7.2167225
MAGNETIC_FIELD,15.411,-32.51,-34.373
GYROSCOPE,-0.13744467,0.49266282,0.42821655
ORIENTATION,275,315,1
ACCELEROMETER,-0.12689269,5.6305637,5.6700683
MAGNETIC_FIELD,17.158,-31.985,-34.373
GYROSCOPE,0.05589417,1.3875804,0.23426682
ORIENTATION,266,318,358
ACCELEROMETER,0.26994625,6.879739,7.6560583
MAGNETIC_FIELD,13.703,-30.867,-35.772
GYROSCOPE,0.40500367,-0.5390886,-0.42149702
ORIENTATION,243,327,3
ACCELEROMETER,-0.3776853,5.499481,8.449737
MAGNETIC_FIELD,11.593,-33.113,-35.043
GYROSCOPE,0.713796,-0.65118235,-1.1985176
ORIENTATION,169,321,19
ACCELEROMETER,-2.0015526,4.9422307,5.7903767
MAGNETIC_FIELD,14.111,-34.196,-34.638
GYROSCOPE,0.77304995,0.40653083,-0.9593639
ORIENTATION,197,323,20
ACCELEROMETER,-2.6880898,5.981913,7.406463
MAGNETIC_FIELD,16.845,-36.186,-31.672
GYROSCOPE,0.08399397,-0.67011917,0.18325958
ORIENTATION,198,336,19
ACCELEROMETER,-2.7898436,3.9665937,8.276156
MAGNETIC_FIELD,14.967,-39.074,-27.262
GYROSCOPE,-1.5460999,-0.13988814,0.81031275
ORIENTATION,220,323,7
ACCELEROMETER,-0.866701,5.5341973,7.3962874
MAGNETIC_FIELD,11.573,-34.309,-31.307
GYROSCOPE,0.12156218,1.3771957,0.35796702
ORIENTATION,220,329,2
ACCELEROMETER,-0.32441434,7.463924,12.2319765
MAGNETIC_FIELD,5.528,-34.309,-30.448
GYROSCOPE,-1.0277808,-0.5870415,0.41599923
ORIENTATION,160,324,17
ACCELEROMETER,-2.2619221,5.533599,7.3657618
MAGNETIC_FIELD,-0.534,-33.544,-31.184
GYROSCOPE,0.79809546,-0.70829827,-0.86651236
ORIENTATION,110,313,51
ACCELEROMETER,-4.024653,5.571906,3.2674868
MAGNETIC_FIELD,3.985,-37.2,-26.559
GYROSCOPE,0.91996306,0.28588495,-0.26816985
ORIENTATION,166,322,15
ACCELEROMETER,-2.3918076,7.2352777,8.789713
MAGNETIC_FIELD,7.716,-40.014,-19.636
GYROSCOPE,-0.6914995,0.06352998,0.5983425
ORIENTATION,181,320,21
ACCELEROMETER,-2.3959973,5.7281275,6.3901243
MAGNETIC_FIELD,4.212,-39.591,-21.777
GYROSCOPE,-0.52626044,0.3707952,0.98807454
ORIENTATION,203,318,354
ACCELEROMETER,0.7218518,6.43322,7.083844
MAGNETIC_FIELD,-0.056,-36.47,-27.03
GYROSCOPE,0.12308934,0.3631594,1.0754282
ORIENTATION,162,321,8
ACCELEROMETER,-1.4838065,8.517971,10.529699
MAGNETIC_FIELD,-7.473,-35.923,-25.79
GYROSCOPE,-0.12034045,-0.049480084,0.25992316
ORIENTATION,169,335,352
ACCELEROMETER,0.9343372,3.2668881,6.843227
MAGNETIC_FIELD,-10.458,-35.545,-24.868
GYROSCOPE,-0.43249258,0.31520647,0.6637051
ORIENTATION,138,324,6
ACCELEROMETER,-0.80804306,5.6748567,7.657854
MAGNETIC_FIELD,-11.604,-34.915,-24.868
GYROSCOPE,-0.43554693,-0.12889257,0.6084218
ORIENTATION,133,324,10
ACCELEROMETER,-1.5143325,6.5469446,8.756194
MAGNETIC_FIELD,-12.719,-32.745,-27.699
GYROSCOPE,0.6805039,0.36193767,0.6236934
ORIENTATION,130,328,11
ACCELEROMETER,-1.400608,4.3754034,6.9988503
MAGNETIC_FIELD,-13.98,-29.806,-31.092
GYROSCOPE,-0.12675454,1.3261884,1.5161675
ORIENTATION,115,322,345
ACCELEROMETER,1.821389,5.4563856,6.6534867
MAGNETIC_FIELD,-13.98,-25.053,-35.891
GYROSCOPE,-0.26633725,0.95294976,1.3744467
ORIENTATION,100,328,0
ACCELEROMETER,-0.08619126,6.8869214,11.08276
MAGNETIC_FIELD,-18.272,-19.293,-37.004
GYROSCOPE,0.41691554,-0.099265605,0.7119634
ORIENTATION,88,328,12
ACCELEROMETER,-1.364695,4.2251673,6.701969
MAGNETIC_FIELD,-18.272,-17.538,-39.279
GYROSCOPE,0.31673363,0.32925636,0.90224797
ORIENTATION,62,323,0
ACCELEROMETER,-0.006584055,4.960786,6.5026517
MAGNETIC_FIELD,-10.864,-19.299,-44.093
GYROSCOPE,-0.24984388,1.6624697,0.86498517
ORIENTATION,74,330,6
ACCELEROMETER,-1.0720038,5.4701524,9.4295635
MAGNETIC_FIELD,-6.776,-17.074,-46.382
GYROSCOPE,0.06078109,0.80756384,0.9126327
ORIENTATION,68,331,12
ACCELEROMETER,-1.714847,4.7141833,8.324639
MAGNETIC_FIELD,-1.974,-14.047,-48.701
GYROSCOPE,-0.112399206,0.8014552,0.98654735
ORIENTATION,19,316,7
ACCELEROMETER,-0.81881696,6.3943143,6.523601
MAGNETIC_FIELD,1.931,-10.971,-50.338
GYROSCOPE,0.33261612,0.7125743,0.6365216
ORIENTATION,4,315,4
ACCELEROMETER,-0.55006784,7.386112,7.491457
MAGNETIC_FIELD,2.709,-11.929,-51.988
GYROSCOPE,1.029308,0.3286455,-0.33536503
ORIENTATION,316,328,345
ACCELEROMETER,1.7567455,4.3885717,6.771401
MAGNETIC_FIELD,2.709,-17.454,-51.507
GYROSCOPE,0.550695,-0.022602014,-1.2925909
ORIENTATION,20,324,9
ACCELEROMETER,-1.1851299,5.2157683,7.1209545
MAGNETIC_FIELD,4.605,-19.786,-51.507
GYROSCOPE,0.51159966,-0.20189096,-0.7199047
ORIENTATION,35,329,13
ACCELEROMETER,-1.6795325,4.657321,7.459734
MAGNETIC_FIELD,0.877,-23.864,-48.712
GYROSCOPE,0.2602286,-0.94134337,-0.40500367
ORIENTATION,95,334,8
ACCELEROMETER,-1.6154876,5.515642,11.338341
MAGNETIC_FIELD,2.0,-27.5,-48.069
GYROSCOPE,-0.90469146,0.050396383,0.011301007
ORIENTATION,53,326,8
ACCELEROMETER,-1.1480197,5.2355204,7.6943655
MAGNETIC_FIELD,6.707,-25.697,-50.401
GYROSCOPE,0.13255776,0.8020661,-0.42180246
ORIENTATION,58,327,19
ACCELEROMETER,-2.4079683,4.950012,7.08145
MAGNETIC_FIELD,7.389,-23.617,-50.926
GYROSCOPE,0.17531833,-0.38820487,-0.37384954
ORIENTATION,52,318,30
ACCELEROMETER,-3.4434607,6.3578024,6.0238113
MAGNETIC_FIELD,6.01,-24.33,-50.926
GYROSCOPE,-0.13164146,-0.50243664,0.45081854
ORIENTATION,15,323,10
ACCELEROMETER,-1.311424,5.6108117,7.379528
MAGNETIC_FIELD,6.822,-23.974,-51.701
GYROSCOPE,0.038179077,0.1469131,0.7281514
ORIENTATION,360,324,8
ACCELEROMETER,-1.1150994,6.2883706,8.465898
MAGNETIC_FIELD,5.003,-23.156,-52.153
GYROSCOPE,0.02076942,-0.013439035,0.70005155
ORIENTATION,330,329,1
ACCELEROMETER,-0.15203181,5.243302,8.708909
MAGNETIC_FIELD,1.617,-25.257,-50.63
GYROSCOPE,0.119729586,-0.22204952,0.16401732
ORIENTATION,328,326,357
ACCELEROMETER,0.4177882,4.957793,7.3849154
MAGNETIC_FIELD,1.141,-26.786,-46.981
GYROSCOPE,-0.4352415,0.09010262,0.713796
ORIENTATION,91,330,8
ACCELEROMETER,-1.4077905,5.4683566,9.466674
MAGNETIC_FIELD,-0.126,-25.244,-46.157
GYROSCOPE,0.14752395,0.5714644,0.5366451
ORIENTATION,49,329,2
ACCELEROMETER,-0.2789245,4.297592,7.2849574
MAGNETIC_FIELD,-0.126,-25.244,-43.725
GYROSCOPE,0.010995574,0.6789767,0.59040123
ORIENTATION,2,324,0
ACCELEROMETER,-0.004189853,6.0998273,8.546103
MAGNETIC_FIELD,-0.126,-24.224,-43.046
GYROSCOPE,0.110872045,0.2919936,0.6310238
ORIENTATION,337,321,355
ACCELEROMETER,0.6793547,6.649895,8.182184
MAGNETIC_FIELD,-0.126,-21.733,-43.046
GYROSCOPE,0.43188173,0.12644911,-0.64965516
ORIENTATION,329,324,354
ACCELEROMETER,0.75237787,5.089474,7.0395517
MAGNETIC_FIELD,-1.194,-22.518,-39.192
GYROSCOPE,-0.23396139,-0.66859204,-0.71593404
ORIENTATION,321,328,356
ACCELEROMETER,0.4961983,4.841076,7.7530236
MAGNETIC_FIELD,-1.194,-18.307,-37.568
GYROSCOPE,-0.32650748,-0.34880406,-0.37904188
ORIENTATION,21,330,0
ACCELEROMETER,-0.019153614,5.104438,8.669404
MAGNETIC_FIELD,-3.517,-14.134,-38.519
GYROSCOPE,0.105374254,-0.548557,-0.14477506
ORIENTATION,70,328,22
ACCELEROMETER,-2.8455088,4.794389,7.162853
MAGNETIC_FIELD,-2.381,-11.422,-37.21
GYROSCOPE,0.5479461,-0.058643065,-0.657291
ORIENTATION,359,329,356
ACCELEROMETER,0.56682724,4.832696,8.069656
MAGNETIC_FIELD,1.708,-8.172,-39.195
GYROSCOPE,-0.077579886,0.32406402,0.49938235
ORIENTATION,13,326,8
ACCELEROMETER,-1.1587936,6.0268044,8.775947
MAGNETIC_FIELD,1.708,-5.436,-40.319
GYROSCOPE,0.7632761,0.0030543262,-0.14935656
ORIENTATION,35,319,24
ACCELEROMETER,-2.806603,6.149507,6.3925185
MAGNETIC_FIELD,2.644,-9.1,-41.484
GYROSCOPE,-0.22418754,-0.16493362,-0.041233405
ORIENTATION,327,324,349
ACCELEROMETER,1.395221,5.189432,7.0132155
MAGNETIC_FIELD,5.111,-13.922,-41.929
GYROSCOPE,0.052839845,-0.42485678,-0.24098633
ORIENTATION,349,321,3
ACCELEROMETER,-0.3597288,6.181829,7.569867
MAGNETIC_FIELD,2.487,-10.832,-43.597
GYROSCOPE,0.19761491,-0.23671028,-0.04062254
ORIENTATION,292,339,347
ACCELEROMETER,2.6725276,4.5777135,11.71842
MAGNETIC_FIELD,4.782,-13.76,-43.908
GYROSCOPE,-0.45723262,0.09896017,-0.43066
ORIENTATION,291,327,335
ACCELEROMETER,2.834735,4.322731,5.993884
MAGNETIC_FIELD,1.686,-12.977,-46.604
GYROSCOPE,0.009162978,-0.80481493,-0.7733554
ORIENTATION,276,343,352
ACCELEROMETER,1.5634137,3.3363202,10.947487
MAGNETIC_FIELD,-0.86,-15.284,-46.604
GYROSCOPE,0.7431176,-0.7519751,-3.0411925
ORIENTATION,264,343,346
ACCELEROMETER,2.6437972,3.4344823,10.773309
MAGNETIC_FIELD,-0.151,-20.086,-47.421
GYROSCOPE,-0.081855945,-1.5968018,-2.5711317
ORIENTATION,269,337,355
ACCELEROMETER,0.8367735,3.9187095,9.231443
MAGNETIC_FIELD,-2.087,-28.262,-45.416
GYROSCOPE,0.31306845,-1.8869628,-2.5900686
ORIENTATION,147,336,3
ACCELEROMETER,-0.57400984,4.292804,9.545084
MAGNETIC_FIELD,-2.087,-31.3,-39.579
GYROSCOPE,0.09773844,-1.9486601,-1.8768835
ORIENTATION,159,341,6
ACCELEROMETER,-1.1198878,3.804985,10.692505
MAGNETIC_FIELD,-4.402,-33.358,-35.612
GYROSCOPE,-0.66950834,-1.8353447,-0.7067711
ORIENTATION,122,327,24
ACCELEROMETER,-2.8736405,4.485537,6.4260373
MAGNETIC_FIELD,-3.625,-32.931,-32.777
GYROSCOPE,0.15210545,-0.77549344,-1.6087136
ORIENTATION,138,328,11
ACCELEROMETER,-1.8309658,5.732916,9.006389
MAGNETIC_FIELD,1.095,-32.931,-31.05
GYROSCOPE,-0.34025195,-0.6270532,-0.36835176
ORIENTATION,170,332,7
ACCELEROMETER,-1.3198037,5.965752,11.28926
MAGNETIC_FIELD,5.833,-32.931,-29.902
GYROSCOPE,0.13652839,-0.024740042,0.20189096
ORIENTATION,203,331,359
ACCELEROMETER,0.074220255,4.282628,7.641693
MAGNETIC_FIELD,5.833,-33.641,-27.325
GYROSCOPE,-0.72021013,-0.0061086523,0.7031059
ORIENTATION,176,326,14
ACCELEROMETER,-1.7884687,5.0721164,7.3807254
MAGNETIC_FIELD,9.217,-30.561,-24.716
GYROSCOPE,0.30115658,-0.02565634,0.11942416
ORIENTATION,190,334,14
ACCELEROMETER,-2.3942018,4.76087,9.473856
MAGNETIC_FIELD,10.675,-28.546,-26.191
GYROSCOPE,-0.76174897,-0.12644911,1.1847731
ORIENTATION,203,323,17
ACCELEROMETER,-1.70946,4.3526587,5.470751
MAGNETIC_FIELD,10.675,-26.551,-29.211
GYROSCOPE,-0.43401974,0.8576548,0.20769419
ORIENTATION,243,325,5
ACCELEROMETER,-0.76075757,6.333262,8.859743
MAGNETIC_FIELD,13.233,-23.867,-33.097
GYROSCOPE,-0.04428773,-0.06047566,0.29077184
ORIENTATION,234,339,357
ACCELEROMETER,0.65242,4.6698904,12.175713
MAGNETIC_FIELD,12.059,-22.497,-37.246
GYROSCOPE,-0.61361414,-0.4156938,0.52870387
ORIENTATION,266,330,5
ACCELEROMETER,-0.64703304,3.9785647,6.9264255
MAGNETIC_FIELD,12.608,-22.81,-41.157
GYROSCOPE,-0.22540927,0.48288897,-0.09010262
ORIENTATION,345,328,16
ACCELEROMETER,-2.3361423,5.230732,8.177396
MAGNETIC_FIELD,13.336,-26.718,-42.559
GYROSCOPE,-0.028405234,-0.47678033,-0.16982053
ORIENTATION,215,342,6
ACCELEROMETER,-1.5717934,4.4274774,13.913304
MAGNETIC_FIELD,11.293,-29.772,-43.447
GYROSCOPE,-1.2547172,0.20952678,1.0409144
ORIENTATION,50,324,18
ACCELEROMETER,-1.9979613,4.7070007,6.1836243
MAGNETIC_FIELD,9.829,-29.309,-46.322
GYROSCOPE,0.17195857,1.3649784,0.47952923
ORIENTATION,318,316,359
ACCELEROMETER,0.06284779,6.031593,6.1866174
MAGNETIC_FIELD,13.549,-34.333,-43.792
GYROSCOPE,0.453262,-0.06414085,0.050701816
ORIENTATION,223,338,358
ACCELEROMETER,0.3321955,4.9781437,12.348694
MAGNETIC_FIELD,8.695,-38.922,-40.509
GYROSCOPE,-0.7174612,-0.61911196,-0.35246924
ORIENTATION,165,330,17
ACCELEROMETER,-1.8896236,3.8295257,6.2261214
MAGNETIC_FIELD,9.934,-37.231,-40.509
GYROSCOPE,-0.17073683,-0.6215554,-0.23823744
ORIENTATION,149,331,24
ACCELEROMETER,-3.21661,4.4663835,7.2687964
MAGNETIC_FIELD,13.981,-36.262,-38.743
GYROSCOPE,0.41691554,-0.3866777,-0.0018325958
ORIENTATION,204,343,5
ACCELEROMETER,-1.1695676,3.8498764,12.337321
MAGNETIC_FIELD,12.165,-36.976,-36.923
GYROSCOPE,-0.52687126,0.20005837,1.3900238
ORIENTATION,196,327,14
ACCELEROMETER,-1.6166847,4.325724,6.569091
MAGNETIC_FIELD,4.501,-35.836,-36.923
GYROSCOPE,0.6075055,0.0106901415,1.0051788
ORIENTATION,209,318,6
ACCELEROMETER,-0.6877344,6.339846,6.949769
MAGNETIC_FIELD,2.87,-36.956,-36.923
GYROSCOPE,0.25503623,0.77488256,0.9944886
ORIENTATION,213,329,351
ACCELEROMETER,1.7106571,6.217143,10.379463
MAGNETIC_FIELD,-3.628,-39.294,-34.291
GYROSCOPE,0.1469131,-0.040317107,0.5513059
ORIENTATION,171,322,356
ACCELEROMETER,0.37110126,4.673482,6.051345
MAGNETIC_FIELD,-11.624,-39.294,-33.543
GYROSCOPE,0.07086037,0.09468412,0.66981375
ORIENTATION,147,330,359
ACCELEROMETER,0.17118542,5.3199162,9.152434
MAGNETIC_FIELD,-11.624,-38.035,-35.827
GYROSCOPE,0.040011674,0.63132924,1.3784174
ORIENTATION,138,331,5
ACCELEROMETER,-0.79726917,4.6896424,8.485051
MAGNETIC_FIELD,-15.002,-36.859,-36.558
GYROSCOPE,-0.55680364,0.505491,2.214081
ORIENTATION,133,327,354
ACCELEROMETER,0.8194155,4.924873,7.5291657
MAGNETIC_FIELD,-12.968,-34.169,-40.263
GYROSCOPE,-0.18234327,2.0916026,1.8964312
ORIENTATION,127,328,355
ACCELEROMETER,0.94690675,6.3727665,10.045472
MAGNETIC_FIELD,-11.839,-30.085,-44.74
GYROSCOPE,0.01863139,0.9211848,1.0235047
ORIENTATION,145,337,354
ACCELEROMETER,1.0468647,4.1515455,9.77792
MAGNETIC_FIELD,-16.766,-29.365,-44.079
GYROSCOPE,0.12675454,0.24129178,1.0161743
ORIENTATION,77,322,1
ACCELEROMETER,-0.10354923,4.6244006,5.829881
MAGNETIC_FIELD,-15.495,-29.365,-44.079
GYROSCOPE,-0.24953845,1.0351112,0.8258898
ORIENTATION,110,334,8
ACCELEROMETER,-1.4077905,5.2540755,10.490793
MAGNETIC_FIELD,-12.991,-26.736,-46.641
GYROSCOPE,0.024129177,0.42210788,0.874759
ORIENTATION,128,342,1
ACCELEROMETER,-0.1400608,3.3925838,10.141838
MAGNETIC_FIELD,-10.144,-24.314,-47.473
GYROSCOPE,-0.60903263,1.0989466,1.2547172
ORIENTATION,63,318,14
ACCELEROMETER,-1.6280571,5.921459,6.455965
MAGNETIC_FIELD,-7.638,-20.286,-48.834
GYROSCOPE,-0.014966198,0.47708577,0.64934975
ORIENTATION,93,338,360
ACCELEROMETER,0.04070143,4.545392,11.217434
MAGNETIC_FIELD,-3.411,-17.829,-48.834
GYROSCOPE,0.9056077,0.6068946,-0.18875736
ORIENTATION,66,332,12
ACCELEROMETER,-1.6591818,4.2102036,7.8625584
MAGNETIC_FIELD,-2.166,-19.544,-46.609
GYROSCOPE,-0.032375857,0.999681,-0.14294247
ORIENTATION,34,333,0
ACCELEROMETER,-0.033518825,4.174889,8.297705
MAGNETIC_FIELD,-3.808,-16.583,-45.211
GYROSCOPE,-0.3912592,-0.16065755,-0.11484267
ORIENTATION,70,334,9
ACCELEROMETER,-1.4987702,4.4167037,9.117719
MAGNETIC_FIELD,-4.914,-15.425,-43.972
GYROSCOPE,0.18295415,-0.3277292,0.099571034
ORIENTATION,74,334,14
ACCELEROMETER,-1.9686323,3.9719806,7.933786
MAGNETIC_FIELD,-4.914,-16.513,-40.707
GYROSCOPE,-0.22968534,0.005497787,0.27030787
ORIENTATION,44,329,2
ACCELEROMETER,-0.3172317,4.4544125,7.2987237
MAGNETIC_FIELD,-4.914,-11.039,-41.11
GYROSCOPE,-0.16676621,0.20311269,0.17379116
ORIENTATION,47,338,1
ACCELEROMETER,-0.16519992,4.8644195,12.1128645
MAGNETIC_FIELD,-6.588,-9.152,-38.787
GYROSCOPE,-0.15943582,-0.2284636,-0.33841935
ORIENTATION,81,344,4
ACCELEROMETER,-0.61770403,2.4468741,8.681973
MAGNETIC_FIELD,-7.33,-8.296,-37.379
GYROSCOPE,-0.3717115,-0.09101892,-0.6246097
ORIENTATION,24,333,356
ACCELEROMETER,0.50637364,3.4159272,6.621763
MAGNETIC_FIELD,-4.028,-4.24,-36.312
GYROSCOPE,0.12492194,0.3933972,-0.3051272
ORIENTATION,64,344,11
ACCELEROMETER,-2.7982233,4.004901,14.056956
MAGNETIC_FIELD,-2.807,-3.025,-34.654
GYROSCOPE,-0.44959682,-0.36774087,-0.07727446
ORIENTATION,54,334,21
ACCELEROMETER,-1.9506758,2.670732,5.1235914
MAGNETIC_FIELD,-2.807,0.267,-32.376
GYROSCOPE,0.4569272,0.10323623,0.024129177
ORIENTATION,20,335,4
ACCELEROMETER,-0.6302736,4.1862617,8.828619
MAGNETIC_FIELD,-0.724,-1.875,-32.376
GYROSCOPE,0.20066923,0.7556403,0.677755
ORIENTATION,349,344,356
ACCELEROMETER,0.7344214,3.1663318,10.82658
MAGNETIC_FIELD,-5.097,-0.883,-32.376
GYROSCOPE,-0.23396139,-0.13775012,0.3277292
ORIENTATION,46,339,10
ACCELEROMETER,-1.4909891,3.3626564,8.513183
MAGNETIC_FIELD,-9.916,0.001,-33.999
GYROSCOPE,0.27580565,0.3109304,-0.43860126
ORIENTATION,46,326,14
ACCELEROMETER,-1.5885528,4.3999443,6.260239
MAGNETIC_FIELD,-13.9,-2.653,-35.574
GYROSCOPE,0.31031954,-0.3182608,0.23884831
ORIENTATION,68,346,1
ACCELEROMETER,-0.19512744,3.1322143,12.904149
MAGNETIC_FIELD,-16.531,-7.402,-36.016
GYROSCOPE,-0.6426302,-0.049785517,0.63438356
ORIENTATION,53,321,7
ACCELEROMETER,-0.65660983,4.5902834,5.5886655
MAGNETIC_FIELD,-15.126,-3.416,-39.282
GYROSCOPE,-0.12736541,0.34055737,0.2134974
ORIENTATION,59,335,8
ACCELEROMETER,-1.5358804,4.973954,10.388441
MAGNETIC_FIELD,-10.285,-4.064,-39.738
GYROSCOPE,0.14172074,-0.07422013,0.5329799
ORIENTATION,0,338,346
ACCELEROMETER,2.473809,3.9606082,9.640852
MAGNETIC_FIELD,-8.607,-6.671,-39.204
GYROSCOPE,0.28985557,-0.08093964,0.033292156
ORIENTATION,57,332,13
ACCELEROMETER,-1.5041572,3.5865142,6.683414
MAGNETIC_FIELD,-8.607,-9.788,-38.743
GYROSCOPE,-0.18325958,-0.2593123,-0.3585779
ORIENTATION,69,327,24
ACCELEROMETER,-4.1180267,6.6079965,9.321226
MAGNETIC_FIELD,-6.23,-11.437,-39.643
GYROSCOPE,0.2501493,-0.21288654,1.1499538
ORIENTATION,110,349,6
ACCELEROMETER,-1.1701661,2.1823149,11.011532
MAGNETIC_FIELD,-4.594,-13.056,-41.567
GYROSCOPE,-1.6328428,1.0467176,2.479502
ORIENTATION,45,338,358
ACCELEROMETER,0.24600422,3.2632968,8.170214
MAGNETIC_FIELD,-1.113,-7.728,-47.111
GYROSCOPE,-0.54428095,0.15027285,2.2562308
ORIENTATION,351,329,355
ACCELEROMETER,0.76434886,5.741296,9.481039
MAGNETIC_FIELD,3.584,-6.982,-50.677
GYROSCOPE,0.03970624,0.43188173,0.8347474
ORIENTATION,356,331,3
ACCELEROMETER,-0.40462008,5.009867,8.872911
MAGNETIC_FIELD,5.867,-7.424,-53.269
GYROSCOPE,0.28496864,0.25503623,0.24984388
ORIENTATION,357,326,5
ACCELEROMETER,-0.53570265,4.1282024,6.209362
MAGNETIC_FIELD,9.919,-7.826,-56.036
GYROSCOPE,0.18325958,0.59742624,0.19028452
ORIENTATION,338,337,4
ACCELEROMETER,-0.7930793,5.060744,11.786655
MAGNETIC_FIELD,13.026,-10.089,-58.732
GYROSCOPE,-1.0906999,0.129198,0.54519725
ORIENTATION,15,340,15
ACCELEROMETER,-1.7226281,2.35769,6.2752028
MAGNETIC_FIELD,19.732,-8.908,-61.912
GYROSCOPE,0.7076874,0.59773165,-0.50762904
ORIENTATION,329,330,5
ACCELEROMETER,-0.5793968,3.8456864,6.699575
MAGNETIC_FIELD,21.852,-16.264,-63.16
GYROSCOPE,-0.15271631,0.31490102,0.044593163
ORIENTATION,300,336,3
ACCELEROMETER,-0.5482722,5.1235914,11.679515
MAGNETIC_FIELD,19.927,-16.702,-63.16
GYROSCOPE,0.09254608,-0.22724187,-0.9407325
ORIENTATION,286,339,358
ACCELEROMETER,0.31004912,2.747945,7.228095
MAGNETIC_FIELD,22.46,-14.619,-61.628
GYROSCOPE,0.8185594,0.10873401,-1.3875804
ORIENTATION,355,332,19
ACCELEROMETER,-2.2188265,3.7193923,6.533178
MAGNETIC_FIELD,23.352,-15.669,-61.016
GYROSCOPE,0.69027776,-0.5739079,-0.87964594
ORIENTATION,302,335,4
ACCELEROMETER,-0.688333,4.803367,10.313024
MAGNETIC_FIELD,22.75,-16.671,-60.394
GYROSCOPE,-0.52534413,-0.39492437,0.86437434
ORIENTATION,272,345,8
ACCELEROMETER,-1.2054806,2.396596,8.741829
MAGNETIC_FIELD,18.383,-17.329,-59.989
GYROSCOPE,0.18203785,-0.5891795,-0.15393804
ORIENTATION,286,334,349
ACCELEROMETER,1.5933412,3.9797618,8.017583
MAGNETIC_FIELD,20.674,-15.614,-58.628
GYROSCOPE,-0.39370266,0.09743301,0.55771995
ORIENTATION,304,332,1
ACCELEROMETER,-0.10534488,5.1038394,9.652225
MAGNETIC_FIELD,18.141,-12.516,-58.628
GYROSCOPE,0.7247916,-0.4098906,-0.08277224
ORIENTATION,312,331,359
ACCELEROMETER,0.17118542,4.4819455,7.9553337
MAGNETIC_FIELD,17.839,-17.787,-57.27
GYROSCOPE,0.6954701,-0.118202426,-0.48380527
ORIENTATION,339,321,9
ACCELEROMETER,-0.8403648,4.5447936,5.511452
MAGNETIC_FIELD,16.659,-20.458,-56.236
GYROSCOPE,0.63499445,0.050701816,-0.56779927
ORIENTATION,302,334,5
ACCELEROMETER,-0.88765025,4.9123034,9.832987
MAGNETIC_FIELD,15.33,-22.795,-54.104
GYROSCOPE,-0.0033597588,0.02443461,0.4352415
ORIENTATION,61,328,33
ACCELEROMETER,-3.9019501,4.501099,5.9041014
MAGNETIC_FIELD,17.155,-25.878,-50.079
GYROSCOPE,0.070249505,0.3408628,-0.18417588
ORIENTATION,306,322,3
ACCELEROMETER,-0.3429694,5.3085437,6.8809357
MAGNETIC_FIELD,24.116,-25.335,-45.445
GYROSCOPE,-0.17348573,1.2247849,0.93859446
ORIENTATION,287,328,11
ACCELEROMETER,-2.284667,7.3992805,11.680113
MAGNETIC_FIELD,19.964,-25.335,-42.909
GYROSCOPE,0.16249016,-0.18600847,-0.5448918
ORIENTATION,260,334,7
ACCELEROMETER,-0.9175778,3.9390604,7.8906903
MAGNETIC_FIELD,17.643,-23.352,-39.595
GYROSCOPE,0.05681047,-0.1966986,-0.54183745
ORIENTATION,322,322,16
ACCELEROMETER,-1.6873137,4.6980224,5.849035
MAGNETIC_FIELD,18.345,-20.77,-39.982
GYROSCOPE,-0.015882496,0.36102137,-0.25167647
ORIENTATION,248,339,12
ACCELEROMETER,-2.6497827,4.871003,12.246342
MAGNETIC_FIELD,18.345,-19.488,-39.363
GYROSCOPE,-0.5751296,-0.43585235,0.33322698
ORIENTATION,31,325,32
ACCELEROMETER,-3.210026,4.26527,5.1409497
MAGNETIC_FIELD,18.975,-18.292,-38.339
GYROSCOPE,-0.15057829,0.700357,0.24007004
ORIENTATION,287,328,2
ACCELEROMETER,-0.35434186,5.3504424,8.455123
MAGNETIC_FIELD,22.865,-17.906,-35.824
GYROSCOPE,-0.06536258,0.5681047,0.82711154
ORIENTATION,270,335,6
ACCELEROMETER,-1.292869,5.6239796,12.001534
MAGNETIC_FIELD,19.345,-19.042,-35.824
GYROSCOPE,-0.5122105,-0.18906279,-0.25473082
ORIENTATION,248,344,357
ACCELEROMETER,0.4950012,2.8951883,10.0903635
MAGNETIC_FIELD,19.345,-18.368,-33.247
GYROSCOPE,-0.54153204,0.31215215,0.310625
ORIENTATION,308,331,26
ACCELEROMETER,-3.3249476,4.2491093,6.951565
MAGNETIC_FIELD,21.441,-15.823,-31.539
GYROSCOPE,0.655153,-0.28710666,-0.43004912
ORIENTATION,248,345,11
ACCELEROMETER,-2.7263973,3.8139634,13.857639
MAGNETIC_FIELD,22.686,-15.243,-30.007
GYROSCOPE,-1.6471981,-0.09193522,1.0473285
ORIENTATION,308,324,19
ACCELEROMETER,-2.0721815,4.633379,5.9567738
MAGNETIC_FIELD,23.417,-12.37,-28.189
GYROSCOPE,0.124005646,1.2883148,0.6899723
ORIENTATION,281,326,357
ACCELEROMETER,0.4285621,5.6102133,8.255207
MAGNETIC_FIELD,22.978,-12.37,-28.189
GYROSCOPE,0.102319926,0.13255776,1.0341948
ORIENTATION,262,341,353
ACCELEROMETER,1.3275849,3.6116533,10.602722
MAGNETIC_FIELD,19.461,-14.321,-29.443
GYROSCOPE,-0.09162979,-0.28985557,0.6395759
ORIENTATION,286,331,12
ACCELEROMETER,-1.4107834,3.9031472,6.7606273
MAGNETIC_FIELD,17.996,-12.846,-31.797
GYROSCOPE,-0.08032878,-0.10140363,0.028099801
ORIENTATION,277,337,10
ACCELEROMETER,-1.5598224,3.904943,9.138668
MAGNETIC_FIELD,17.591,-13.378,-34.175
GYROSCOPE,-0.118202426,-0.100792766,1.1123856
ORIENTATION,254,346,360
ACCELEROMETER,0.074220255,2.5953147,10.790668
MAGNETIC_FIELD,17.591,-15.075,-36.567
GYROSCOPE,-0.93492925,0.6365216,2.0146337
ORIENTATION,285,335,10
ACCELEROMETER,-1.4706384,3.7642837,7.9661074
MAGNETIC_FIELD,19.116,-17.276,-36.567
GYROSCOPE,-0.35185838,0.5207626,1.7467692
ORIENTATION,278,330,358
ACCELEROMETER,0.4141969,5.511452,9.619304
MAGNETIC_FIELD,21.119,-23.381,-34.829
GYROSCOPE,-0.087964594,0.81153446,0.9324858
ORIENTATION,255,334,357
ACCELEROMETER,0.47764325,4.281431,8.590994
MAGNETIC_FIELD,17.863,-28.237,-33.447
GYROSCOPE,0.71959925,0.42485678,-0.7800749
ORIENTATION,219,330,21
ACCELEROMETER,-2.4313118,3.8762126,6.323685
MAGNETIC_FIELD,17.399,-29.878,-32.675
GYROSCOPE,0.39736784,-0.36468655,-0.28771752
ORIENTATION,217,335,14
ACCELEROMETER,-2.4588451,4.730344,10.044274
MAGNETIC_FIELD,19.577,-30.815,-32.319
GYROSCOPE,-0.23304509,-0.19792034,0.21655174
ORIENTATION,207,334,23
ACCELEROMETER,-2.641403,3.394978,6.3165026
MAGNETIC_FIELD,17.597,-30.447,-31.855
GYROSCOPE,0.31887165,0.20189096,0.06536258
ORIENTATION,256,322,8
ACCELEROMETER,-0.85473,5.043386,6.476914
MAGNETIC_FIELD,14.347,-30.447,-33.518
GYROSCOPE,-0.012217305,-0.0070249503,0.81245077
ORIENTATION,237,329,2
ACCELEROMETER,-0.39264908,6.5110316,10.831967
MAGNETIC_FIELD,7.467,-30.767,-34.043
GYROSCOPE,0.5510005,-0.1151481,-0.52290064
ORIENTATION,227,328,358
ACCELEROMETER,0.18794483,4.4783545,7.0587053
MAGNETIC_FIELD,4.734,-30.767,-34.043
GYROSCOPE,0.73884153,-0.12614368,-1.1572843
ORIENTATION,175,329,9
ACCELEROMETER,-1.0636241,3.9025488,6.530185
MAGNETIC_FIELD,6.246,-31.64,-34.043
GYROSCOPE,0.5671884,-0.049785517,-0.6096435
ORIENTATION,150,328,19
ACCELEROMETER,-2.7527335,5.4617724,8.175002
MAGNETIC_FIELD,6.246,-31.64,-34.043
GYROSCOPE,-0.004581489,-0.4089743,-0.21471913
ORIENTATION,156,332,19
ACCELEROMETER,-2.3570917,3.6822822,6.667253
MAGNETIC_FIELD,6.246,-32.058,-34.043
GYROSCOPE,-0.27305678,0.24465153,-0.15607607
ORIENTATION,217,326,1
ACCELEROMETER,-0.08439561,5.5365915,8.288128
MAGNETIC_FIELD,7.144,-27.99,-38.716
GYROSCOPE,-0.1133155,0.37507126,0.83658
ORIENTATION,220,332,2
ACCELEROMETER,-0.46746787,6.299743,12.063784
MAGNETIC_FIELD,2.151,-27.606,-40.214
GYROSCOPE,-0.028405234,-0.051618114,-0.3549127
ORIENTATION,182,339,2
ACCELEROMETER,-0.35434186,3.264494,8.421604
MAGNETIC_FIELD,0.491,-29.931,-38.33
GYROSCOPE,-0.15882497,0.14813483,-0.64904433
ORIENTATION,124,329,16
ACCELEROMETER,-1.9644425,4.382586,7.069479
MAGNETIC_FIELD,2.645,-29.931,-36.376
GYROSCOPE,0.79229224,-0.16707164,-0.8206975
ORIENTATION,165,340,11
ACCELEROMETER,-1.9081788,3.8474822,10.128671
MAGNETIC_FIELD,5.769,-30.796,-32.917
GYROSCOPE,-1.4495832,-0.011911872,0.90469146
ORIENTATION,170,331,13
ACCELEROMETER,-1.447295,3.555988,6.215348
MAGNETIC_FIELD,5.769,-26.73,-33.386
GYROSCOPE,-0.1685988,0.23396139,0.4868596
ORIENTATION,237,325,4
ACCELEROMETER,-0.56084174,5.816713,8.165425
MAGNETIC_FIELD,6.848,-24.899,-33.813
GYROSCOPE,0.10048734,-0.15790866,0.71837753
ORIENTATION,210,339,1
ACCELEROMETER,-0.16340427,4.673482,12.272678
MAGNETIC_FIELD,2.941,-24.392,-32.119
GYROSCOPE,-0.3182608,0.17440203,0.33414328
ORIENTATION,191,339,1
ACCELEROMETER,-0.20590134,3.366846,8.849568
MAGNETIC_FIELD,2.18,-24.935,-30.786
GYROSCOPE,-0.03359759,0.4120286,-0.27855456
ORIENTATION,134,333,21
ACCELEROMETER,-2.7395654,3.8594532,7.079056
MAGNETIC_FIELD,4.658,-26.603,-27.824
GYROSCOPE,0.58062744,-0.40225476,0.04520403
ORIENTATION,184,346,7
ACCELEROMETER,-1.4826094,3.1202433,12.628217
MAGNETIC_FIELD,5.894,-28.193,-22.637
GYROSCOPE,-1.8438967,0.124005646,2.0045543
ORIENTATION,203,331,360
ACCELEROMETER,0.0077811554,3.8786068,6.995259
MAGNETIC_FIELD,4.032,-27.265,-22.637
GYROSCOPE,-0.37018433,1.058324,1.31672
ORIENTATION,206,324,359
ACCELEROMETER,0.110133275,5.985504,8.207922
MAGNETIC_FIELD,0.381,-25.9,-22.637
GYROSCOPE,-0.11453723,0.045814894,0.926988
ORIENTATION,164,341,14
ACCELEROMETER,-2.8209682,3.9785647,11.402386
MAGNETIC_FIELD,-4.512,-25.9,-21.047
GYROSCOPE,0.45814893,-0.18417588,0.09254608
ORIENTATION,133,325,20
ACCELEROMETER,-1.9333179,3.8642416,5.187038
MAGNETIC_FIELD,-2.96,-26.728,-21.998
GYROSCOPE,-0.29901853,1.9507982,0.59223384
ORIENTATION,151,331,12
ACCELEROMETER,-1.7908629,4.992509,8.702923
MAGNETIC_FIELD,-5.413,-26.272,-23.551
GYROSCOPE,-0.3472769,-0.19364429,1.2027937
ORIENTATION,165,355,3
ACCELEROMETER,-0.61291564,1.0001777,12.052411
MAGNETIC_FIELD,-9.465,-24.435,-27.255
GYROSCOPE,-1.1847731,0.40561453,2.1132884
ORIENTATION,123,330,5
ACCELEROMETER,-0.62368953,3.8989575,6.6564794
MAGNETIC_FIELD,-9.883,-19.947,-33.949
GYROSCOPE,-0.88514376,0.55771995,1.6074919
ORIENTATION,85,329,357
ACCELEROMETER,0.492607,5.556942,9.185953
MAGNETIC_FIELD,-10.203,-19.947,-33.251
GYROSCOPE,-0.17867808,0.08460484,0.6169739
ORIENTATION,143,343,354
ACCELEROMETER,1.1725603,3.5541923,11.43351
MAGNETIC_FIELD,-12.428,-18.164,-33.251
GYROSCOPE,0.59650993,-0.007941248,-0.3830125
ORIENTATION,98,334,2
ACCELEROMETER,-0.19931729,3.0160956,6.213552
MAGNETIC_FIELD,-10.136,-17.581,-32.614
GYROSCOPE,0.39095375,-0.3286455,-0.52595496
ORIENTATION,98,333,14
ACCELEROMETER,-2.2798786,4.7381253,8.948329
MAGNETIC_FIELD,-9.751,-19.96,-30.014
GYROSCOPE,-0.057421334,-0.36377025,0.42638394
ORIENTATION,150,352,359
ACCELEROMETER,0.20410569,1.2880806,9.7719345
MAGNETIC_FIELD,-9.437,-21.192,-29.351
GYROSCOPE,-0.59589905,0.18203785,-0.049785517
ORIENTATION,98,326,6
ACCELEROMETER,-0.7326257,4.4903255,6.5966244
MAGNETIC_FIELD,-10.514,-14.332,-34.033
GYROSCOPE,0.15974127,-0.29749137,0.74189585
ORIENTATION,76,335,354
ACCELEROMETER,1.1947067,4.9015293,10.548853
MAGNETIC_FIELD,-11.114,-14.332,-34.494
GYROSCOPE,0.50671273,-0.5870415,-0.11026118
ORIENTATION,93,338,7
ACCELEROMETER,-1.0103531,3.5954924,8.655039
MAGNETIC_FIELD,-11.758,-15.093,-34.494
GYROSCOPE,0.24312437,0.41325033,-0.87964594
ORIENTATION,72,330,1
ACCELEROMETER,-0.090381116,3.064578,5.358822
MAGNETIC_FIELD,-9.246,-16.484,-35.675
GYROSCOPE,0.91324353,0.40194935,-0.9398162
ORIENTATION,79,328,14
ACCELEROMETER,-2.2697031,5.915474,9.0554695
MAGNETIC_FIELD,-10.841,-20.713,-33.424
GYROSCOPE,-0.2941316,-1.0329732,0.12797627
ORIENTATION,118,341,14
ACCELEROMETER,-2.0967221,3.1411927,8.709507
MAGNETIC_FIELD,-11.402,-22.193,-33.424
GYROSCOPE,0.93554014,0.15821409,0.095294975
ORIENTATION,72,319,5
ACCELEROMETER,-0.41479546,4.4597993,5.057751
MAGNETIC_FIELD,-8.023,-18.844,-37.951
GYROSCOPE,0.38606682,0.26236662,0.5140431
ORIENTATION,50,325,359
ACCELEROMETER,0.15023616,6.2339025,9.035119
MAGNETIC_FIELD,-8.023,-18.844,-37.951
GYROSCOPE,0.080634214,-0.13530666,-0.14202617
ORIENTATION,120,338,357
ACCELEROMETER,0.51235914,3.5625722,8.965687
MAGNETIC_FIELD,-9.791,-18.424,-38.453
GYROSCOPE,0.020158553,-0.29901853,-0.89736104
ORIENTATION,82,331,5
ACCELEROMETER,-0.61171854,3.7241807,6.7444663
MAGNETIC_FIELD,-9.791,-15.776,-40.582
GYROSCOPE,0.07574729,-0.5839872,-0.7302894
ORIENTATION,97,340,7
ACCELEROMETER,-1.1300632,3.3842041,9.463681
MAGNETIC_FIELD,-9.791,-16.537,-41.184
GYROSCOPE,0.4981606,-0.6786713,0.020158553
ORIENTATION,99,340,8
ACCELEROMETER,-1.299453,3.309984,9.182362
MAGNETIC_FIELD,-10.6,-17.289,-41.184
GYROSCOPE,0.30970868,-0.19272798,-0.22968534
ORIENTATION,95,338,1
ACCELEROMETER,-0.22505496,3.41473,8.605359
MAGNETIC_FIELD,-10.6,-15.449,-42.112
GYROSCOPE,0.258396,-0.1151481,-0.0870483
ORIENTATION,60,335,355
ACCELEROMETER,0.6865373,3.8414967,8.228871
MAGNETIC_FIELD,-12.91,-16.654,-41.31
GYROSCOPE,0.4196644,-0.32162055,-0.40133846
ORIENTATION,80,338,350
ACCELEROMETER,1.5969325,3.8815994,9.273342
MAGNETIC_FIELD,-15.434,-19.265,-40.438
GYROSCOPE,0.04734206,-0.31887165,-0.5335908
