ORIENTATION,0,0,0
ACCELEROMETER,-0.0712275,3.0765493,8.792108
MAGNETIC_FIELD,-10.235,-19.863,-32.075
GYROSCOPE,-0.025961773,-0.009773844,-0.029626964
ORIENTATION,163,356,352
ACCELEROMETER,2.043451,1.0139444,13.715783
MAGNETIC_FIELD,-10.235,-16.363,-32.075
GYROSCOPE,-0.9764681,-0.009773844,1.5375478
ORIENTATION,167,357,348
ACCELEROMETER,1.5436616,0.4441244,7.2885485
MAGNETIC_FIELD,-10.235,-6.262,-32.075
GYROSCOPE,0.29046643,0.28527406,0.3136793
ORIENTATION,67,348,347
ACCELEROMETER,2.1440077,2.0123265,8.965088
MAGNETIC_FIELD,-10.235,-10.984,-32.075
GYROSCOPE,0.38820487,1.6584991,0.788627
ORIENTATION,116,349,359
ACCELEROMETER,0.11133038,1.9009962,10.071808
MAGNETIC_FIELD,-10.658,-9.909,-32.075
GYROSCOPE,0.41722095,-0.24098633,-1.026559
ORIENTATION,81,338,7
ACCELEROMETER,-0.973243,3.2064347,7.880515
MAGNETIC_FIELD,-10.658,-11.936,-32.075
GYROSCOPE,-0.02565634,1.2950343,-0.062002823
ORIENTATION,31,323,352
ACCELEROMETER,0.8295909,4.6399627,6.10701
MAGNETIC_FIELD,-10.658,-16.496,-32.075
GYROSCOPE,1.2904528,0.34330627,0.7831292
ORIENTATION,137,348,356
ACCELEROMETER,0.6805518,2.2296004,10.23222
MAGNETIC_FIELD,-10.658,-17.681,-32.075
GYROSCOPE,0.07391469,-0.50885075,0.09407325
ORIENTATION,130,347,3
ACCELEROMETER,-0.4914099,2.3523033,10.148422
MAGNETIC_FIELD,-10.997,-13.522,-32.075
GYROSCOPE,-0.5161811,0.70554936,-0.5342017
ORIENTATION,90,336,6
ACCELEROMETER,-0.7667431,3.4805708,7.9547353
MAGNETIC_FIELD,-10.591,-13.522,-32.595
GYROSCOPE,0.75625116,0.3399465,0.01740966
ORIENTATION,55,328,357
ACCELEROMETER,0.45789108,4.8362875,7.7009497
MAGNETIC_FIELD,-10.591,-17.835,-32.595
GYROSCOPE,0.698219,-0.27183503,0.4147775
ORIENTATION,102,335,6
ACCELEROMETER,-0.9540894,4.4568067,9.449316
MAGNETIC_FIELD,-9.823,-19.79,-32.093
GYROSCOPE,-1.1362094,0.68203104,-0.064751714
ORIENTATION,108,334,4
ACCELEROMETER,-0.5793968,4.0934863,8.282741
MAGNETIC_FIELD,-9.823,-18.955,-32.093
GYROSCOPE,0.4184427,-0.5891795,-0.04520403
ORIENTATION,101,332,4
ACCELEROMETER,-0.557849,4.280234,8.179192
MAGNETIC_FIELD,-9.823,-19.406,-32.093
GYROSCOPE,0.22724187,0.06078109,-0.18142697
ORIENTATION,110,334,0
ACCELEROMETER,-0.06464344,3.845088,8.034941
MAGNETIC_FIELD,-10.229,-19.406,-32.093
GYROSCOPE,-0.15088372,0.008552114,0.099265605
ORIENTATION,123,339,360
ACCELEROMETER,0.046686932,3.9857473,10.292673
MAGNETIC_FIELD,-10.675,-19.09,-32.093
GYROSCOPE,-0.13805555,-0.7654142,-0.35369098
ORIENTATION,97,331,359
ACCELEROMETER,0.15083471,4.437653,8.100183
MAGNETIC_FIELD,-10.675,-18.746,-32.093
GYROSCOPE,0.37568212,-0.04642576,0.0030543262
ORIENTATION,93,330,3
ACCELEROMETER,-0.43275195,4.6160207,8.087015
MAGNETIC_FIELD,-10.675,-20.755,-31.748
GYROSCOPE,-0.030543262,0.38453966,-0.099265605
ORIENTATION,117,336,3
ACCELEROMETER,-0.44651863,4.1138372,9.19134
MAGNETIC_FIELD,-10.169,-20.196,-31.748
GYROSCOPE,-0.5390886,-0.01160644,0.020463986
ORIENTATION,114,335,5
ACCELEROMETER,-0.6937199,3.9857473,8.683171
MAGNETIC_FIELD,-9.649,-19.044,-31.748
GYROSCOPE,0.35308012,0.09162979,-0.10323623
ORIENTATION,97,331,5
ACCELEROMETER,-0.7230489,4.561553,8.095993
MAGNETIC_FIELD,-9.649,-18.313,-32.194
GYROSCOPE,0.06352998,0.23304509,0.015577064
ORIENTATION,96,332,5
ACCELEROMETER,-0.7457938,4.744709,8.808268
MAGNETIC_FIELD,-9.649,-20.098,-32.194
GYROSCOPE,0.06566802,0.04184427,0.020158553
ORIENTATION,95,329,7
ACCELEROMETER,-0.97503865,4.8584337,7.9475527
MAGNETIC_FIELD,-9.649,-20.726,-32.194
GYROSCOPE,0.032070424,-0.015882496,-0.09682214
ORIENTATION,98,329,5
ACCELEROMETER,-0.65541273,4.88477,8.151658
MAGNETIC_FIELD,-9.051,-21.583,-31.781
GYROSCOPE,0.007330383,0.13500121,-0.027794369
ORIENTATION,109,331,4
ACCELEROMETER,-0.62129533,4.747702,8.632893
MAGNETIC_FIELD,-9.051,-21.218,-31.781
GYROSCOPE,-0.1301143,-0.0033597588,0.016187929
ORIENTATION,107,331,5
ACCELEROMETER,-0.8038532,4.635773,8.380304
MAGNETIC_FIELD,-9.051,-20.726,-31.781
GYROSCOPE,-0.06566802,-0.07971791,0.018020526
ORIENTATION,107,331,4
ACCELEROMETER,-0.58418524,4.5501804,8.359355
MAGNETIC_FIELD,-9.051,-20.726,-31.781
GYROSCOPE,-0.04917465,-0.005192355,0.0030543262
ORIENTATION,109,332,4
ACCELEROMETER,-0.5919664,4.540005,8.640674
MAGNETIC_FIELD,-9.051,-20.726,-31.481
GYROSCOPE,-0.02565634,-0.06627888,0.01863139
ORIENTATION,106,331,6
ACCELEROMETER,-0.931943,4.6513352,8.365341
MAGNETIC_FIELD,-9.051,-20.726,-31.481
GYROSCOPE,0.04062254,-0.02321288,0.029626964
ORIENTATION,108,332,3
ACCELEROMETER,-0.40761283,4.5783124,8.462905
MAGNETIC_FIELD,-9.051,-20.294,-31.481
GYROSCOPE,-0.0033597588,0.02107485,0.12156218
ORIENTATION,110,333,4
ACCELEROMETER,-0.682946,4.573524,8.966884
MAGNETIC_FIELD,-9.051,-20.294,-31.146
GYROSCOPE,0.018020526,0.070249505,0.021685716
ORIENTATION,105,331,4
ACCELEROMETER,-0.60214174,4.6321816,8.324639
MAGNETIC_FIELD,-9.051,-20.294,-31.146
GYROSCOPE,-0.020463986,0.17715092,0.026572637
ORIENTATION,105,331,4
ACCELEROMETER,-0.6063316,4.648941,8.319851
MAGNETIC_FIELD,-9.051,-20.294,-31.146
GYROSCOPE,-0.004581489,0.10262536,0.04520403
ORIENTATION,107,332,8
ACCELEROMETER,-1.1653777,4.635773,8.680777
MAGNETIC_FIELD,-9.051,-20.294,-31.146
GYROSCOPE,-0.053450707,0.036651913,-0.032986723
ORIENTATION,103,331,7
ACCELEROMETER,-1.074398,4.675277,8.228871
MAGNETIC_FIELD,-9.051,-20.294,-31.146
GYROSCOPE,0.0036651916,0.14385876,0.16065755
ORIENTATION,104,331,7
ACCELEROMETER,-1.0289081,4.642357,8.285733
MAGNETIC_FIELD,-8.711,-20.613,-31.146
GYROSCOPE,-0.0030543262,-0.014966198,0.046731193
ORIENTATION,108,332,8
ACCELEROMETER,-1.1372458,4.553173,8.37013
MAGNETIC_FIELD,-8.711,-20.613,-31.146
GYROSCOPE,-0.039095376,-0.031154128,-0.036651913
ORIENTATION,106,331,8
ACCELEROMETER,-1.1988965,4.6375685,8.307879
MAGNETIC_FIELD,-8.711,-20.613,-31.146
GYROSCOPE,-0.028099801,-0.023823744,-0.03726278
ORIENTATION,107,331,6
ACCELEROMETER,-0.8936358,4.5543704,8.328829
MAGNETIC_FIELD,-8.409,-20.613,-31.146
GYROSCOPE,0.010995574,-0.004886922,-0.030848695
ORIENTATION,110,332,6
ACCELEROMETER,-0.92176765,4.4843397,8.540716
MAGNETIC_FIELD,-8.409,-20.613,-31.146
GYROSCOPE,-0.034513887,-0.018936822,-0.05100725
ORIENTATION,112,333,6
ACCELEROMETER,-0.9540894,4.4143095,8.584411
MAGNETIC_FIELD,-8.409,-20.613,-31.146
GYROSCOPE,-0.01740966,-0.043982297,-0.016493361
ORIENTATION,114,333,4
ACCELEROMETER,-0.6584055,4.3795934,8.74542
MAGNETIC_FIELD,-8.409,-20.613,-31.146
GYROSCOPE,-0.026572637,-0.019547688,-0.0036651916
ORIENTATION,112,333,5
ACCELEROMETER,-0.78410107,4.4418426,8.590396
MAGNETIC_FIELD,-8.409,-20.613,-31.146
GYROSCOPE,0.006414085,-0.03756821,-0.015577064
ORIENTATION,111,332,5
ACCELEROMETER,-0.7553706,4.4484267,8.48146
MAGNETIC_FIELD,-8.409,-20.613,-31.146
GYROSCOPE,0.005497787,-0.03145956,-0.032375857
ORIENTATION,112,333,5
ACCELEROMETER,-0.7529764,4.3664255,8.520964
MAGNETIC_FIELD,-8.409,-20.613,-31.146
GYROSCOPE,0.0106901415,-0.03634648,0.0036651916
ORIENTATION,113,333,4
ACCELEROMETER,-0.58418524,4.361038,8.564059
MAGNETIC_FIELD,-8.409,-20.613,-31.146
GYROSCOPE,0.0076358155,0.0,0.007941248
ORIENTATION,114,333,4
ACCELEROMETER,-0.64703304,4.3580456,8.602366
MAGNETIC_FIELD,-8.409,-20.613,-31.146
GYROSCOPE,0.01160644,0.010079277,0.006414085
ORIENTATION,113,333,5
ACCELEROMETER,-0.7493851,4.409521,8.683171
MAGNETIC_FIELD,-8.767,-20.613,-31.146
GYROSCOPE,-0.01863139,0.013744468,-0.03359759
ORIENTATION,112,333,6
ACCELEROMETER,-0.82121116,4.3197384,8.523956
MAGNETIC_FIELD,-8.767,-20.613,-31.146
GYROSCOPE,-0.010079277,0.06047566,-0.036651913
ORIENTATION,116,334,5
ACCELEROMETER,-0.7697359,4.279037,8.889072
MAGNETIC_FIELD,-8.767,-20.613,-31.146
GYROSCOPE,-0.073303826,0.0018325958,-0.013439035
ORIENTATION,113,334,6
ACCELEROMETER,-0.9103952,4.2778397,8.612542
MAGNETIC_FIELD,-8.767,-20.289,-31.146
GYROSCOPE,0.043676864,-0.03481932,0.01282817
ORIENTATION,116,335,4
ACCELEROMETER,-0.6781576,4.0539823,8.644265
MAGNETIC_FIELD,-8.767,-20.289,-31.146
GYROSCOPE,0.09468412,-0.008552114,0.012217305
ORIENTATION,109,332,4
ACCELEROMETER,-0.61171854,4.525041,8.56825
MAGNETIC_FIELD,-8.767,-20.289,-31.146
GYROSCOPE,0.01740966,-0.002443461,-0.04734206
ORIENTATION,109,332,4
ACCELEROMETER,-0.66618663,4.4993033,8.579023
MAGNETIC_FIELD,-8.767,-20.289,-31.146
GYROSCOPE,0.09193522,-0.014049901,-0.0580322
ORIENTATION,108,332,4
ACCELEROMETER,-0.6422446,4.5555673,8.550891
MAGNETIC_FIELD,-8.767,-20.289,-31.146
GYROSCOPE,0.011911872,-0.020158553,-0.006414085
ORIENTATION,109,332,4
ACCELEROMETER,-0.64463884,4.5262384,8.597578
MAGNETIC_FIELD,-8.767,-20.289,-31.146
GYROSCOPE,-0.030848695,0.02107485,-0.013439035
ORIENTATION,106,331,5
ACCELEROMETER,-0.6997054,4.5795093,8.330027
MAGNETIC_FIELD,-8.767,-20.289,-31.146
GYROSCOPE,0.003970624,-0.018936822,0.020158553
ORIENTATION,107,332,4
ACCELEROMETER,-0.65182143,4.6273932,8.584411
MAGNETIC_FIELD,-9.083,-20.289,-31.146
GYROSCOPE,0.025045475,-3.0543262E-4,-0.0015271631
ORIENTATION,106,331,4
ACCELEROMETER,-0.59974754,4.6160207,8.449737
MAGNETIC_FIELD,-9.083,-20.289,-31.146
GYROSCOPE,-0.020463986,-0.015271631,0.020463986
ORIENTATION,104,331,5
ACCELEROMETER,-0.6793547,4.6698904,8.284536
MAGNETIC_FIELD,-9.083,-20.289,-31.146
GYROSCOPE,0.028099801,-0.008246681,-0.0106901415
ORIENTATION,109,332,4
ACCELEROMETER,-0.5955577,4.561553,8.710705
MAGNETIC_FIELD,-9.083,-20.289,-31.146
GYROSCOPE,-0.031154128,0.024740042,-0.027183503
ORIENTATION,107,332,5
ACCELEROMETER,-0.7194576,4.5860934,8.520366
MAGNETIC_FIELD,-9.083,-20.289,-31.146
GYROSCOPE,0.004276057,0.0070249503,-0.0021380284
ORIENTATION,105,331,6
ACCELEROMETER,-0.82001406,4.6698904,8.416218
MAGNETIC_FIELD,-9.083,-20.289,-31.146
GYROSCOPE,0.011911872,0.003970624,-0.0125227375
ORIENTATION,106,331,4
ACCELEROMETER,-0.581791,4.611831,8.46051
MAGNETIC_FIELD,-9.083,-20.289,-31.146
GYROSCOPE,0.03390302,0.04153884,0.0036651916
ORIENTATION,105,331,4
ACCELEROMETER,-0.58119243,4.6561236,8.350377
MAGNETIC_FIELD,-9.083,-20.289,-31.146
GYROSCOPE,0.028405234,0.01038471,0.009162978
ORIENTATION,105,331,4
ACCELEROMETER,-0.5859809,4.6686935,8.425795
MAGNETIC_FIELD,-9.083,-20.289,-31.146
GYROSCOPE,0.021685716,0.0125227375,0.0
ORIENTATION,105,331,5
ACCELEROMETER,-0.6973112,4.6579194,8.37013
MAGNETIC_FIELD,-9.083,-20.289,-31.146
GYROSCOPE,0.060170226,0.0030543262,-0.016187929
ORIENTATION,108,332,3
ACCELEROMETER,-0.492607,4.6136265,8.648455
MAGNETIC_FIELD,-9.083,-20.289,-31.146
GYROSCOPE,-0.02107485,-0.005192355,0.03940081
ORIENTATION,103,331,4
ACCELEROMETER,-0.62967503,4.730344,8.348581
MAGNETIC_FIELD,-9.083,-20.289,-31.146
GYROSCOPE,-0.024129177,-0.00580322,-0.0015271631
ORIENTATION,106,331,4
ACCELEROMETER,-0.59017074,4.693234,8.517372
MAGNETIC_FIELD,-9.083,-20.289,-30.822
GYROSCOPE,0.020158553,-0.011301007,0.0036651916
ORIENTATION,106,331,4
ACCELEROMETER,-0.53211135,4.6884456,8.449737
MAGNETIC_FIELD,-9.083,-20.289,-30.822
GYROSCOPE,-0.01160644,0.026267206,0.0
ORIENTATION,106,331,3
ACCELEROMETER,-0.48841715,4.7177744,8.505402
MAGNETIC_FIELD,-9.419,-20.289,-30.822
GYROSCOPE,0.007330383,0.006414085,0.005497787
ORIENTATION,104,331,4
ACCELEROMETER,-0.56563014,4.7441106,8.388684
MAGNETIC_FIELD,-9.419,-20.591,-30.822
GYROSCOPE,-3.0543262E-4,-0.010079277,-0.02565634
ORIENTATION,105,330,3
ACCELEROMETER,-0.5021838,4.7578773,8.328231
MAGNETIC_FIELD,-9.419,-20.591,-30.822
GYROSCOPE,0.015577064,-0.009773844,-0.030543262
ORIENTATION,104,330,5
ACCELEROMETER,-0.6733692,4.730344,8.244433
MAGNETIC_FIELD,-9.419,-20.591,-30.477
GYROSCOPE,0.02321288,-0.019242255,-0.027488936
ORIENTATION,107,331,4
ACCELEROMETER,-0.61052144,4.7506948,8.485649
MAGNETIC_FIELD,-9.419,-20.591,-30.477
GYROSCOPE,0.022907447,0.01038471,-0.03268129
ORIENTATION,106,331,5
ACCELEROMETER,-0.7679402,4.7219644,8.407838
MAGNETIC_FIELD,-9.419,-20.591,-30.477
GYROSCOPE,-0.017104227,0.019242255,0.0
ORIENTATION,102,329,5
ACCELEROMETER,-0.717662,4.8919525,8.182783
MAGNETIC_FIELD,-9.419,-20.933,-30.477
GYROSCOPE,0.087659165,0.025045475,-0.015882496
ORIENTATION,107,331,4
ACCELEROMETER,-0.6404489,4.753089,8.393473
MAGNETIC_FIELD,-9.419,-20.933,-30.477
GYROSCOPE,-0.0693332,0.016187929,0.0106901415
ORIENTATION,108,331,6
ACCELEROMETER,-0.9672575,4.9099092,8.875904
MAGNETIC_FIELD,-9.419,-20.933,-30.477
GYROSCOPE,0.007941248,0.0143553335,0.018020526
ORIENTATION,105,330,5
ACCELEROMETER,-0.76554596,4.71957,8.110358
MAGNETIC_FIELD,-9.419,-20.933,-30.477
GYROSCOPE,0.017104227,-0.060170226,0.0070249503
ORIENTATION,105,330,4
ACCELEROMETER,-0.5363012,4.8943467,8.369531
MAGNETIC_FIELD,-9.419,-21.241,-30.477
GYROSCOPE,0.0033597588,-0.010995574,0.015271631
ORIENTATION,108,330,5
ACCELEROMETER,-0.7284359,4.7961845,8.37013
MAGNETIC_FIELD,-9.419,-21.241,-30.477
GYROSCOPE,-0.048258353,-0.017104227,0.002443461
ORIENTATION,107,330,5
ACCELEROMETER,-0.6745663,4.8177323,8.365341
MAGNETIC_FIELD,-9.419,-21.241,-30.477
GYROSCOPE,-0.01985312,-0.011301007,-0.01863139
ORIENTATION,104,329,6
ACCELEROMETER,-0.8499416,4.9506106,8.217499
MAGNETIC_FIELD,-9.419,-21.241,-30.477
GYROSCOPE,0.032070424,0.0,-0.007941248
ORIENTATION,106,330,5
ACCELEROMETER,-0.7278373,4.88477,8.310873
MAGNETIC_FIELD,-9.419,-21.241,-30.477
GYROSCOPE,-0.0012217305,-0.020463986,-0.0061086523
ORIENTATION,107,330,4
ACCELEROMETER,-0.5279215,4.8883615,8.479664
MAGNETIC_FIELD,-9.419,-21.549,-30.477
GYROSCOPE,-0.02076942,-0.0012217305,0.022296581
ORIENTATION,107,330,5
ACCELEROMETER,-0.66139823,4.8542438,8.2354555
MAGNETIC_FIELD,-9.419,-21.549,-30.477
GYROSCOPE,-0.07086037,0.0061086523,0.009162978
ORIENTATION,111,331,4
ACCELEROMETER,-0.52971715,4.7459064,8.578424
MAGNETIC_FIELD,-9.419,-21.549,-30.477
GYROSCOPE,0.047036625,-0.014966198,-0.0021380284
ORIENTATION,110,331,3
ACCELEROMETER,-0.46447513,4.734534,8.38629
MAGNETIC_FIELD,-9.419,-21.549,-30.477
GYROSCOPE,-0.013133603,0.0067195175,0.024129177
ORIENTATION,107,330,4
ACCELEROMETER,-0.60932434,4.867412,8.2995
MAGNETIC_FIELD,-9.751,-21.549,-30.477
GYROSCOPE,0.03359759,-0.019547688,-0.0012217305
ORIENTATION,109,330,3
ACCELEROMETER,-0.40342298,4.755483,8.325238
MAGNETIC_FIELD,-9.751,-21.549,-30.477
GYROSCOPE,0.0106901415,0.017715093,-0.0021380284
ORIENTATION,108,330,4
ACCELEROMETER,-0.5722142,4.8542438,8.448539
MAGNETIC_FIELD,-9.751,-21.549,-30.477
GYROSCOPE,0.027488936,-0.0012217305,-0.02565634
ORIENTATION,108,330,3
ACCELEROMETER,-0.4201824,4.795586,8.316259
MAGNETIC_FIELD,-9.751,-21.549,-30.477
GYROSCOPE,-0.008857546,0.003970624,-0.038789943
ORIENTATION,109,330,4
ACCELEROMETER,-0.65421563,4.8775873,8.546701
MAGNETIC_FIELD,-9.751,-21.549,-30.477
GYROSCOPE,0.032375857,0.0076358155,-0.037873644
ORIENTATION,108,330,4
ACCELEROMETER,-0.623091,4.8320975,8.343194
MAGNETIC_FIELD,-9.751,-21.549,-30.477
GYROSCOPE,-0.003970624,0.016798794,-0.01985312
ORIENTATION,108,330,5
ACCELEROMETER,-0.6727707,4.8584337,8.424597
MAGNETIC_FIELD,-9.751,-21.549,-30.477
GYROSCOPE,-0.005497787,-0.024740042,-0.016493361
ORIENTATION,108,330,4
ACCELEROMETER,-0.6290765,4.8344917,8.352771
MAGNETIC_FIELD,-9.751,-21.549,-30.477
GYROSCOPE,0.003970624,-0.0036651916,-0.00580322
ORIENTATION,107,330,5
ACCELEROMETER,-0.777517,4.883573,8.333019
MAGNETIC_FIELD,-9.751,-21.549,-30.477
GYROSCOPE,0.028099801,0.035124753,-0.021380283
ORIENTATION,106,329,5
ACCELEROMETER,-0.6398504,4.8398786,8.115147
MAGNETIC_FIELD,-9.751,-21.549,-30.477
GYROSCOPE,0.037873644,0.006414085,0.0061086523
ORIENTATION,107,330,5
ACCELEROMETER,-0.700304,4.8680105,8.32045
MAGNETIC_FIELD,-9.751,-21.549,-30.477
GYROSCOPE,-3.0543262E-4,-0.007330383,0.0018325958
ORIENTATION,107,330,4
ACCELEROMETER,-0.6171055,4.8524485,8.251018
MAGNETIC_FIELD,-9.751,-21.549,-30.477
GYROSCOPE,-0.006414085,9.162979E-4,0.00580322
ORIENTATION,108,330,5
ACCELEROMETER,-0.7044938,4.8644195,8.428188
MAGNETIC_FIELD,-9.408,-21.549,-30.477
GYROSCOPE,0.019242255,-0.004581489,0.0070249503
ORIENTATION,106,329,5
ACCELEROMETER,-0.7134721,4.9063177,8.216302
MAGNETIC_FIELD,-9.408,-21.549,-30.477
GYROSCOPE,-0.0070249503,0.009468411,-0.005192355
ORIENTATION,107,330,4
ACCELEROMETER,-0.6087258,4.8045645,8.209718
MAGNETIC_FIELD,-9.408,-21.549,-30.477
GYROSCOPE,0.048258353,-0.02687807,-0.014966198
ORIENTATION,108,330,4
ACCELEROMETER,-0.6398504,4.908712,8.4826565
MAGNETIC_FIELD,-9.408,-21.549,-30.477
GYROSCOPE,-0.03726278,0.01863139,-0.012217305
ORIENTATION,110,330,3
ACCELEROMETER,-0.47884035,4.791396,8.441956
MAGNETIC_FIELD,-9.408,-21.231,-30.477
GYROSCOPE,0.030543262,0.013133603,0.0143553335
ORIENTATION,106,330,5
ACCELEROMETER,-0.6865373,4.9099092,8.343194
MAGNETIC_FIELD,-9.408,-21.231,-30.477
GYROSCOPE,0.01863139,0.0012217305,-0.009773844
ORIENTATION,106,330,3
ACCELEROMETER,-0.49440265,4.8440685,8.286332
MAGNETIC_FIELD,-9.408,-21.231,-30.477
GYROSCOPE,-0.025045475,0.018325957,0.015271631
ORIENTATION,107,330,5
ACCELEROMETER,-0.676362,4.879383,8.396465
MAGNETIC_FIELD,-9.408,-21.231,-30.131
GYROSCOPE,-0.025350908,-0.014049901,-0.02076942
ORIENTATION,109,330,3
ACCELEROMETER,-0.4973954,4.8189297,8.435371
MAGNETIC_FIELD,-9.04,-21.231,-30.131
GYROSCOPE,0.0021380284,0.011911872,-3.0543262E-4
ORIENTATION,108,330,4
ACCELEROMETER,-0.56084174,4.848857,8.377312
MAGNETIC_FIELD,-9.04,-21.231,-30.131
GYROSCOPE,-0.025045475,0.0018325958,-0.019242255
ORIENTATION,109,330,4
ACCELEROMETER,-0.5279215,4.7764325,8.347982
MAGNETIC_FIELD,-9.04,-21.231,-30.131
GYROSCOPE,0.020158553,0.020158553,-0.02443461
ORIENTATION,104,329,5
ACCELEROMETER,-0.7392098,4.9302597,8.057686
MAGNETIC_FIELD,-9.04,-21.231,-30.131
GYROSCOPE,0.05681047,9.162979E-4,-0.03940081
ORIENTATION,109,330,4
ACCELEROMETER,-0.59855044,4.796783,8.387487
MAGNETIC_FIELD,-9.04,-21.231,-30.131
GYROSCOPE,0.006414085,0.010995574,-0.03268129
ORIENTATION,110,331,5
ACCELEROMETER,-0.6847417,4.829105,8.539519
MAGNETIC_FIELD,-9.04,-21.231,-30.131
GYROSCOPE,-0.039095376,-0.003970624,-0.029626964
ORIENTATION,110,331,4
ACCELEROMETER,-0.6135142,4.7614684,8.412027
MAGNETIC_FIELD,-9.04,-21.231,-30.131
GYROSCOPE,0.018020526,0.021685716,0.0015271631
ORIENTATION,109,330,4
ACCELEROMETER,-0.60453594,4.8638206,8.491036
MAGNETIC_FIELD,-9.04,-21.231,-30.131
GYROSCOPE,0.0,-0.0106901415,-0.0036651916
ORIENTATION,108,330,4
ACCELEROMETER,-0.6368576,4.794389,8.292317
MAGNETIC_FIELD,-9.04,-21.231,-30.131
GYROSCOPE,-0.018936822,0.0106901415,-0.008246681
ORIENTATION,110,331,5
ACCELEROMETER,-0.7152678,4.7937903,8.500014
MAGNETIC_FIELD,-9.04,-21.231,-30.131
GYROSCOPE,0.018325957,-0.012217305,-0.018020526
ORIENTATION,110,330,3
ACCELEROMETER,-0.4818331,4.721366,8.292317
MAGNETIC_FIELD,-9.04,-21.231,-30.131
GYROSCOPE,-0.019242255,0.0067195175,0.010079277
ORIENTATION,109,330,5
ACCELEROMETER,-0.6997054,4.794389,8.417415
MAGNETIC_FIELD,-9.04,-21.231,-30.131
GYROSCOPE,0.02443461,-0.010079277,6.1086525E-4
ORIENTATION,109,330,4
ACCELEROMETER,-0.5363012,4.7800236,8.333617
MAGNETIC_FIELD,-9.04,-21.231,-30.131
GYROSCOPE,0.041233405,-0.012217305,0.0018325958
ORIENTATION,109,330,5
ACCELEROMETER,-0.6835446,4.823718,8.4425535
MAGNETIC_FIELD,-9.352,-21.231,-30.131
GYROSCOPE,-0.01985312,0.033292156,-0.02443461
ORIENTATION,108,330,4
ACCELEROMETER,-0.6338649,4.767454,8.296508
MAGNETIC_FIELD,-9.352,-21.231,-30.131
GYROSCOPE,0.01160644,0.011301007,-0.026267206
ORIENTATION,110,331,4
ACCELEROMETER,-0.58298814,4.8105497,8.552687
MAGNETIC_FIELD,-9.352,-21.231,-30.131
GYROSCOPE,-0.044898596,-0.02443461,0.004886922
ORIENTATION,110,331,4
ACCELEROMETER,-0.5291186,4.7243586,8.438962
MAGNETIC_FIELD,-9.352,-21.231,-30.131
GYROSCOPE,-0.016798794,0.00580322,0.018325957
ORIENTATION,111,331,4
ACCELEROMETER,-0.65900403,4.746505,8.568848
MAGNETIC_FIELD,-9.352,-21.231,-30.131
GYROSCOPE,0.002443461,-0.020158553,0.05497787
ORIENTATION,110,331,3
ACCELEROMETER,-0.4890157,4.7602715,8.498219
MAGNETIC_FIELD,-9.352,-21.231,-30.131
GYROSCOPE,-0.01038471,0.006414085,0.00580322
ORIENTATION,106,329,5
ACCELEROMETER,-0.729633,4.8745947,8.215105
MAGNETIC_FIELD,-9.352,-21.231,-30.131
GYROSCOPE,0.029321533,0.01038471,0.064751714
ORIENTATION,109,330,2
ACCELEROMETER,-0.29448682,4.8165355,8.437167
MAGNETIC_FIELD,-9.352,-21.231,-30.131
GYROSCOPE,0.016187929,0.04520403,-0.0018325958
ORIENTATION,107,330,6
ACCELEROMETER,-0.931943,4.8518496,8.296508
MAGNETIC_FIELD,-9.352,-21.231,-30.131
GYROSCOPE,0.0125227375,0.016798794,-0.056199603
ORIENTATION,110,331,4
ACCELEROMETER,-0.5363012,4.7800236,8.495825
MAGNETIC_FIELD,-9.352,-21.231,-30.131
GYROSCOPE,0.010079277,0.027183503,-0.008246681
ORIENTATION,107,330,5
ACCELEROMETER,-0.66139823,4.932654,8.383297
MAGNETIC_FIELD,-9.352,-21.231,-30.131
GYROSCOPE,0.015271631,0.025961773,-0.043982297
ORIENTATION,109,330,3
ACCELEROMETER,-0.4165911,4.6902413,8.230068
MAGNETIC_FIELD,-9.352,-21.231,-30.131
GYROSCOPE,0.030543262,-0.0076358155,-0.0018325958
ORIENTATION,107,330,5
ACCELEROMETER,-0.8026561,4.845266,8.337209
MAGNETIC_FIELD,-9.352,-21.231,-30.131
GYROSCOPE,-0.0036651916,0.016187929,-0.057726767
ORIENTATION,109,331,4
ACCELEROMETER,-0.5847838,4.8285065,8.532336
MAGNETIC_FIELD,-9.352,-21.231,-30.131
GYROSCOPE,0.04062254,0.0030543262,-0.03481932
ORIENTATION,106,330,5
ACCELEROMETER,-0.7799112,4.829105,8.193557
MAGNETIC_FIELD,-9.352,-21.231,-30.131
GYROSCOPE,0.030543262,-0.0018325958,0.034208454
ORIENTATION,110,330,2
ACCELEROMETER,-0.2208651,4.8003745,8.433576
MAGNETIC_FIELD,-9.352,-21.231,-30.131
GYROSCOPE,0.010995574,-0.024129177,0.015271631
ORIENTATION,106,329,4
ACCELEROMETER,-0.5141548,4.920683,8.230667
MAGNETIC_FIELD,-9.352,-21.231,-30.131
GYROSCOPE,0.053450707,0.0018325958,-0.017104227
ORIENTATION,106,329,4
ACCELEROMETER,-0.52971715,4.9362454,8.309077
MAGNETIC_FIELD,-9.352,-21.231,-29.782
GYROSCOPE,0.01160644,0.03390302,-0.00580322
ORIENTATION,108,330,2
ACCELEROMETER,-0.33997664,4.919486,8.350976
MAGNETIC_FIELD,-9.352,-21.231,-29.782
GYROSCOPE,0.040317107,0.007330383,0.0033597588
ORIENTATION,106,329,4
ACCELEROMETER,-0.60214174,4.9877205,8.308478
MAGNETIC_FIELD,-9.352,-21.231,-29.782
GYROSCOPE,0.015882496,0.020158553,-0.03023783
ORIENTATION,106,329,4
ACCELEROMETER,-0.52133745,5.0116625,8.359954
MAGNETIC_FIELD,-9.352,-21.231,-29.782
GYROSCOPE,0.024740042,0.0421497,-0.014049901
ORIENTATION,105,329,5
ACCELEROMETER,-0.7368156,4.9757495,8.131308
MAGNETIC_FIELD,-9.352,-21.231,-29.782
GYROSCOPE,0.017104227,0.048258353,-0.015882496
ORIENTATION,109,330,4
ACCELEROMETER,-0.60573304,4.8979383,8.456919
MAGNETIC_FIELD,-9.352,-21.231,-29.782
GYROSCOPE,-0.109650314,0.03756821,-0.0033597588
ORIENTATION,104,328,6
ACCELEROMETER,-0.89782566,5.0200424,8.073248
MAGNETIC_FIELD,-9.352,-21.231,-29.782
GYROSCOPE,-0.05009095,-0.03268129,-0.06169739
ORIENTATION,129,340,7
ACCELEROMETER,-1.1426327,3.5284548,9.672575
MAGNETIC_FIELD,-9.352,-21.231,-29.782
GYROSCOPE,-0.50335294,0.04520403,0.06291912
ORIENTATION,130,338,2
ACCELEROMETER,-0.30107087,3.6828809,9.209895
MAGNETIC_FIELD,-9.352,-21.231,-29.782
GYROSCOPE,0.16584991,-0.32986724,0.2764165
ORIENTATION,140,346,3
ACCELEROMETER,-0.664391,2.9388826,11.482592
MAGNETIC_FIELD,-9.352,-20.924,-29.782
GYROSCOPE,-1.0274754,-0.28527406,-0.70188415
ORIENTATION,120,334,1
ACCELEROMETER,-0.18854338,4.2904096,8.815451
MAGNETIC_FIELD,-9.757,-20.924,-30.12
GYROSCOPE,0.3118467,-0.6762278,-0.09712757
ORIENTATION,108,330,1
ACCELEROMETER,-0.19692309,5.051167,8.819042
MAGNETIC_FIELD,-9.757,-20.924,-30.12
GYROSCOPE,0.42760566,-0.5983425,-0.15149458
ORIENTATION,84,323,2
ACCELEROMETER,-0.21428105,5.5084596,7.371747
MAGNETIC_FIELD,-9.757,-20.924,-30.12
GYROSCOPE,0.32528573,-0.04886922,0.054061573
ORIENTATION,85,324,1
ACCELEROMETER,-0.16280572,5.677251,7.7332716
MAGNETIC_FIELD,-9.757,-21.908,-30.12
GYROSCOPE,0.1853976,0.11209377,0.04153884
ORIENTATION,84,322,2
ACCELEROMETER,-0.3321955,6.0998273,7.6919713
MAGNETIC_FIELD,-9.757,-22.914,-28.451
GYROSCOPE,0.16187929,0.024740042,-0.008246681
ORIENTATION,72,317,358
ACCELEROMETER,0.23822308,6.156091,6.593033
MAGNETIC_FIELD,-10.136,-24.412,-26.861
GYROSCOPE,0.012217305,-0.18967366,0.0
