ORIENTATION,86,338,4
ACCELEROMETER,-0.7044938,3.6750996,9.296086
MAGNETIC_FIELD,-6.838,-11.534,-34.332
GYROSCOPE,-0.28191432,-0.57360244,-0.4538729
ORIENTATION,51,335,358
ACCELEROMETER,0.350152,4.164714,8.783728
MAGNETIC_FIELD,-8.714,-10.289,-34.332
GYROSCOPE,0.5910121,-0.57360244,-0.090713486
ORIENTATION,69,338,359
ACCELEROMETER,0.09636662,3.4608185,8.662222
MAGNETIC_FIELD,-10.157,-13.903,-34.332
GYROSCOPE,-0.12339478,-0.39584067,-0.10995574
ORIENTATION,83,336,359
ACCELEROMETER,0.20051439,4.1180267,9.381081
MAGNETIC_FIELD,-10.157,-13.903,-34.332
GYROSCOPE,-0.013439035,-0.06383542,-0.07513642
ORIENTATION,83,336,359
ACCELEROMETER,0.20410569,3.9749734,9.024943
MAGNETIC_FIELD,-10.641,-13.903,-34.332
GYROSCOPE,0.16676621,-0.17623462,-0.029932396
ORIENTATION,70,333,358
ACCELEROMETER,0.25917232,4.4915223,8.7609825
MAGNETIC_FIELD,-10.641,-14.305,-34.332
GYROSCOPE,0.0033597588,-0.003970624,-0.042760566
ORIENTATION,63,332,354
ACCELEROMETER,0.91099375,4.6698904,8.89805
MAGNETIC_FIELD,-10.641,-14.859,-34.332
GYROSCOPE,0.081855945,0.007330383,0.01985312
ORIENTATION,72,333,356
ACCELEROMETER,0.59974754,4.7147818,9.1512375
MAGNETIC_FIELD,-11.563,-15.476,-34.332
GYROSCOPE,-0.2565634,-0.5140431,-0.1328632
ORIENTATION,77,332,359
ACCELEROMETER,0.21188685,4.4903255,8.534132
MAGNETIC_FIELD,-11.563,-15.476,-34.332
GYROSCOPE,0.03940081,0.09132435,0.050396383
ORIENTATION,72,331,357
ACCELEROMETER,0.45190558,4.711789,8.645462
MAGNETIC_FIELD,-10.675,-15.476,-33.929
GYROSCOPE,0.09254608,0.15363261,-0.028710667
ORIENTATION,60,329,356
ACCELEROMETER,0.55964464,5.217564,8.525752
MAGNETIC_FIELD,-10.311,-15.476,-33.929
GYROSCOPE,-0.057421334,-0.01282817,0.015271631
ORIENTATION,70,330,358
ACCELEROMETER,0.24061728,4.8638206,8.536526
MAGNETIC_FIELD,-10.311,-17.013,-33.929
GYROSCOPE,0.023518313,0.0015271631,0.07666359
ORIENTATION,70,329,357
ACCELEROMETER,0.3854665,4.945224,8.218696
MAGNETIC_FIELD,-10.311,-17.013,-33.512
GYROSCOPE,0.08582657,0.032375857,-0.060170226
ORIENTATION,62,327,357
ACCELEROMETER,0.43993455,5.00867,7.619547
MAGNETIC_FIELD,-10.311,-17.013,-33.512
GYROSCOPE,-0.059864793,-0.06078109,-0.023518313
ORIENTATION,90,333,358
ACCELEROMETER,0.3196259,4.8440685,9.670779
MAGNETIC_FIELD,-10.311,-17.013,-33.132
GYROSCOPE,-0.025045475,-0.098043874,0.015577064
ORIENTATION,57,325,356
ACCELEROMETER,0.48841715,5.0332108,7.282563
MAGNETIC_FIELD,-11.001,-15.98,-33.132
GYROSCOPE,0.16218472,0.053145275,-0.043066
ORIENTATION,87,334,357
ACCELEROMETER,0.48602295,4.630386,9.387665
MAGNETIC_FIELD,-11.001,-16.848,-32.563
GYROSCOPE,-0.24404067,-0.05681047,-0.049785517
ORIENTATION,61,326,355
ACCELEROMETER,0.6961141,5.103241,7.6548615
MAGNETIC_FIELD,-11.549,-15.719,-32.563
GYROSCOPE,0.09468412,0.047036625,-0.10567969
ORIENTATION,95,336,1
ACCELEROMETER,-0.1448492,4.4645877,9.964667
MAGNETIC_FIELD,-10.58,-15.719,-32.563
GYROSCOPE,-0.22999077,0.06627888,-0.13775012
ORIENTATION,64,329,354
ACCELEROMETER,0.8439561,5.13257,8.620323
MAGNETIC_FIELD,-10.58,-15.719,-32.563
GYROSCOPE,0.1160644,0.01740966,-0.018020526
ORIENTATION,74,330,360
ACCELEROMETER,5.985504E-4,4.7638626,8.109161
MAGNETIC_FIELD,-10.58,-16.304,-32.563
GYROSCOPE,-0.14966199,-0.23243423,-0.040317107
ORIENTATION,84,332,360
ACCELEROMETER,0.06943185,4.987122,9.329605
MAGNETIC_FIELD,-10.888,-15.669,-32.563
GYROSCOPE,0.01282817,0.2443461,0.07422013
ORIENTATION,73,330,357
ACCELEROMETER,0.3633201,4.8177323,8.316858
MAGNETIC_FIELD,-10.888,-15.669,-32.176
GYROSCOPE,0.24953845,-0.2098322,-0.02321288
ORIENTATION,79,330,1
ACCELEROMETER,-0.12808979,4.661511,8.160038
MAGNETIC_FIELD,-10.888,-15.971,-32.176
GYROSCOPE,-0.93126404,-0.07422013,-0.18325958
ORIENTATION,68,328,358
ACCELEROMETER,0.3549404,5.2480903,8.304289
MAGNETIC_FIELD,-10.888,-15.971,-32.176
GYROSCOPE,-0.15363261,0.19547687,0.06352998
ORIENTATION,61,326,357
ACCELEROMETER,0.35793316,5.168483,7.6015906
MAGNETIC_FIELD,-10.888,-15.971,-32.176
GYROSCOPE,0.4437936,0.106901415,0.12186762
ORIENTATION,75,329,0
ACCELEROMETER,-0.062249243,4.948815,8.127716
MAGNETIC_FIELD,-10.888,-16.339,-32.176
GYROSCOPE,0.41050145,-0.027183503,0.11148291
ORIENTATION,80,330,360
ACCELEROMETER,0.06703765,4.7614684,8.326435
MAGNETIC_FIELD,-10.888,-16.339,-32.176
GYROSCOPE,0.42302418,-0.0021380284,0.07971791
ORIENTATION,84,332,359
ACCELEROMETER,0.16460137,4.5513773,8.42759
MAGNETIC_FIELD,-10.888,-16.339,-32.176
GYROSCOPE,0.41447207,-0.08979719,0.118202426
ORIENTATION,99,336,0
ACCELEROMETER,-0.037110128,4.098873,9.126099
MAGNETIC_FIELD,-10.888,-16.339,-32.176
GYROSCOPE,-0.061086524,0.005497787,0.018020526
ORIENTATION,75,329,357
ACCELEROMETER,0.4165911,5.046977,8.533533
MAGNETIC_FIELD,-10.888,-16.339,-32.176
GYROSCOPE,-0.30085114,-0.082161374,0.005497787
ORIENTATION,85,332,359
ACCELEROMETER,0.1400608,4.646547,8.656237
MAGNETIC_FIELD,-10.888,-16.339,-32.176
GYROSCOPE,-0.36957347,0.08582657,-0.059253927
ORIENTATION,45,321,356
ACCELEROMETER,0.51235914,5.41329,6.5870476
MAGNETIC_FIELD,-10.888,-16.339,-32.176
GYROSCOPE,0.42149702,0.18448131,0.16035213
ORIENTATION,91,333,1
ACCELEROMETER,-0.16220717,4.5992613,9.096769
MAGNETIC_FIELD,-10.888,-16.339,-32.176
GYROSCOPE,-0.22357668,0.23090707,0.16401732
ORIENTATION,86,332,357
ACCELEROMETER,0.3842694,4.607641,8.779537
MAGNETIC_FIELD,-10.888,-16.339,-32.176
GYROSCOPE,0.04642576,0.11728613,0.058337633
ORIENTATION,91,333,360
ACCELEROMETER,0.01616086,4.378995,8.702923
MAGNETIC_FIELD,-10.888,-16.339,-32.176
GYROSCOPE,0.017104227,0.13041973,0.041233405
ORIENTATION,87,332,358
ACCELEROMETER,0.24839842,4.541202,8.670003
MAGNETIC_FIELD,-10.888,-16.339,-32.176
GYROSCOPE,0.13591751,-0.073303826,0.0027488936
ORIENTATION,88,332,1
ACCELEROMETER,-0.18495208,4.490924,8.528745
MAGNETIC_FIELD,-10.49,-16.339,-32.176
GYROSCOPE,-0.03268129,-0.038179077,-0.03634648
ORIENTATION,83,331,359
ACCELEROMETER,0.11552023,4.6232033,8.4647
MAGNETIC_FIELD,-10.49,-15.995,-32.539
GYROSCOPE,0.2510656,0.040317107,0.11362094
ORIENTATION,87,333,360
ACCELEROMETER,0.03172317,4.3957543,8.608951
MAGNETIC_FIELD,-10.49,-15.995,-32.539
GYROSCOPE,-0.064751714,0.05955936,-0.048563786
ORIENTATION,94,335,2
ACCELEROMETER,-0.2908955,4.2538977,8.998607
MAGNETIC_FIELD,-10.49,-15.995,-32.539
GYROSCOPE,-0.18997909,-0.01740966,-0.0076358155
ORIENTATION,84,332,359
ACCELEROMETER,0.17597382,4.4843397,8.547898
MAGNETIC_FIELD,-10.49,-15.591,-32.539
GYROSCOPE,0.099265605,0.01863139,0.016493361
ORIENTATION,77,331,359
ACCELEROMETER,0.10055647,4.5633483,8.193557
MAGNETIC_FIELD,-10.49,-15.176,-32.539
GYROSCOPE,0.05497787,0.03848451,-0.01740966
ORIENTATION,84,333,359
ACCELEROMETER,0.11971009,4.457405,8.889072
MAGNETIC_FIELD,-10.49,-15.176,-32.838
GYROSCOPE,-0.002443461,0.062002823,-0.0290161
ORIENTATION,77,332,359
ACCELEROMETER,0.11492168,4.0456023,7.507618
MAGNETIC_FIELD,-10.49,-15.176,-32.838
GYROSCOPE,-0.4034765,-0.04062254,-0.2941316
ORIENTATION,83,333,1
ACCELEROMETER,-0.079008654,4.312556,8.476072
MAGNETIC_FIELD,-10.49,-14.788,-32.838
GYROSCOPE,0.43218717,-0.076358154,-0.021991149
ORIENTATION,80,333,359
ACCELEROMETER,0.19512744,4.554969,9.022549
MAGNETIC_FIELD,-10.49,-14.788,-32.838
GYROSCOPE,0.36041048,-0.061086524,-0.06505715
ORIENTATION,82,333,2
ACCELEROMETER,-0.27473465,4.4903255,8.759187
MAGNETIC_FIELD,-10.49,-14.788,-32.838
GYROSCOPE,-0.19364429,-0.19303341,-0.10598512
ORIENTATION,64,328,360
ACCELEROMETER,0.0688333,5.0691237,8.027759
MAGNETIC_FIELD,-10.169,-14.788,-32.838
GYROSCOPE,0.17959438,0.10720685,0.111177474
ORIENTATION,74,332,358
ACCELEROMETER,0.25019407,4.7740383,8.89805
MAGNETIC_FIELD,-10.169,-14.788,-32.838
GYROSCOPE,-0.06047566,-0.08979719,0.08368854
ORIENTATION,76,332,359
ACCELEROMETER,0.09696517,4.5980644,8.654441
MAGNETIC_FIELD,-10.169,-14.788,-32.838
GYROSCOPE,0.076052725,0.17104226,-0.005192355
ORIENTATION,73,331,0
ACCELEROMETER,-0.073023155,4.793192,8.55987
MAGNETIC_FIELD,-10.169,-14.788,-32.838
GYROSCOPE,-0.35979962,-0.19028452,0.048258353
ORIENTATION,71,331,358
ACCELEROMETER,0.22505496,4.7536874,8.479664
MAGNETIC_FIELD,-10.169,-14.788,-32.838
GYROSCOPE,0.40408736,0.35308012,0.021685716
ORIENTATION,77,332,0
ACCELEROMETER,-0.05207389,4.672883,8.784326
MAGNETIC_FIELD,-10.169,-14.788,-32.838
GYROSCOPE,-0.34025195,-0.34788775,-0.13316862
ORIENTATION,76,331,2
ACCELEROMETER,-0.2693477,4.8099513,8.666411
MAGNETIC_FIELD,-10.169,-14.788,-32.838
GYROSCOPE,-0.082161374,0.29810223,-0.13652839
ORIENTATION,66,329,358
ACCELEROMETER,0.2861071,4.863222,8.251018
MAGNETIC_FIELD,-10.169,-15.185,-32.838
GYROSCOPE,0.05100725,-0.23884831,-3.0543262E-4
ORIENTATION,79,332,0
ACCELEROMETER,-0.044891283,4.5603557,8.588001
MAGNETIC_FIELD,-10.169,-15.504,-32.838
GYROSCOPE,-0.15668693,0.10476339,-0.106901415
ORIENTATION,76,330,2
ACCELEROMETER,-0.22385786,4.6351743,8.028955
MAGNETIC_FIELD,-10.169,-15.504,-32.838
GYROSCOPE,-0.0729984,0.1432479,-0.15943582
ORIENTATION,83,332,2
ACCELEROMETER,-0.31543607,4.509479,8.552089
MAGNETIC_FIELD,-10.169,-15.504,-32.838
GYROSCOPE,0.03726278,0.019547688,0.076052725
ORIENTATION,83,332,5
ACCELEROMETER,-0.65062433,4.4316673,8.177995
MAGNETIC_FIELD,-10.169,-15.504,-32.838
GYROSCOPE,-0.24953845,-0.016493361,-0.0693332
ORIENTATION,90,334,3
ACCELEROMETER,-0.44592008,4.2880154,8.9279785
MAGNETIC_FIELD,-10.169,-15.173,-32.838
GYROSCOPE,-0.13988814,0.7067711,-0.054367006
ORIENTATION,75,330,1
ACCELEROMETER,-0.14664486,4.938041,8.716091
MAGNETIC_FIELD,-10.169,-15.173,-32.838
GYROSCOPE,0.032070424,-0.22357668,0.019547688
ORIENTATION,65,330,356
ACCELEROMETER,0.5303157,4.8620253,8.267179
MAGNETIC_FIELD,-10.169,-15.513,-32.838
GYROSCOPE,0.12522738,-0.09865474,-0.10445796
ORIENTATION,73,329,1
ACCELEROMETER,-0.110133275,4.8524485,8.220491
MAGNETIC_FIELD,-10.169,-15.513,-32.484
GYROSCOPE,-0.021991149,-0.14874569,-0.18051068
ORIENTATION,80,331,0
ACCELEROMETER,-0.061650693,5.057751,9.266159
MAGNETIC_FIELD,-10.169,-15.823,-32.484
GYROSCOPE,-0.0729984,-0.058643065,-0.0711658
ORIENTATION,59,327,356
ACCELEROMETER,0.581791,5.0864816,7.8912888
MAGNETIC_FIELD,-10.169,-15.823,-32.484
GYROSCOPE,0.15363261,-0.18173242,-0.09896017
ORIENTATION,78,330,2
ACCELEROMETER,-0.24061728,4.833295,8.341399
MAGNETIC_FIELD,-10.169,-16.2,-32.136
GYROSCOPE,-0.4156938,-0.18967366,-0.28924468
ORIENTATION,70,328,359
ACCELEROMETER,0.11372458,5.155315,8.128913
MAGNETIC_FIELD,-10.169,-16.2,-32.136
GYROSCOPE,0.17531833,0.29626966,0.105374254
ORIENTATION,84,332,360
ACCELEROMETER,0.036511578,4.462792,8.289924
MAGNETIC_FIELD,-10.169,-16.2,-32.136
GYROSCOPE,0.47586402,-0.07849618,0.084910266
ORIENTATION,52,324,356
ACCELEROMETER,0.53809685,5.5701103,7.667431
MAGNETIC_FIELD,-10.169,-16.2,-32.136
GYROSCOPE,0.69027776,-0.13194689,0.20708331
ORIENTATION,85,332,357
ACCELEROMETER,0.46627077,4.348469,8.301296
MAGNETIC_FIELD,-10.169,-16.2,-32.136
GYROSCOPE,0.52106804,-0.04520403,0.030543262
ORIENTATION,64,329,354
ACCELEROMETER,0.95708215,5.0822916,8.409634
MAGNETIC_FIELD,-10.169,-16.2,-32.136
GYROSCOPE,0.1337795,0.27550024,-0.014966198
ORIENTATION,74,330,356
ACCELEROMETER,0.6242881,4.957195,8.644864
MAGNETIC_FIELD,-10.169,-16.2,-31.825
GYROSCOPE,0.29993483,-0.47555858,-0.030543262
ORIENTATION,53,326,353
ACCELEROMETER,0.9211691,5.288193,7.8050976
MAGNETIC_FIELD,-10.169,-16.2,-31.825
GYROSCOPE,-0.007330383,-0.16798794,-0.054367006
ORIENTATION,90,333,357
ACCELEROMETER,0.39264908,4.367024,8.656237
MAGNETIC_FIELD,-10.169,-16.636,-31.515
GYROSCOPE,-0.81031275,-0.04550946,-0.16493362
ORIENTATION,66,329,352
ACCELEROMETER,1.1366472,5.1182046,8.376713
MAGNETIC_FIELD,-10.485,-16.213,-31.515
GYROSCOPE,0.754724,0.096516706,0.101098195
ORIENTATION,83,332,356
ACCELEROMETER,0.6051345,4.698621,8.667608
MAGNETIC_FIELD,-10.485,-16.213,-31.515
GYROSCOPE,0.23426682,-0.050396383,-0.083383106
ORIENTATION,90,333,357
ACCELEROMETER,0.40581718,4.5525746,8.991425
MAGNETIC_FIELD,-10.485,-16.213,-31.515
GYROSCOPE,-0.22266038,-0.06841691,6.1086525E-4
ORIENTATION,84,332,356
ACCELEROMETER,0.6805518,4.9218802,9.229049
MAGNETIC_FIELD,-10.893,-16.213,-31.515
GYROSCOPE,-0.13347405,-0.039095376,0.01985312
ORIENTATION,44,321,354
ACCELEROMETER,0.7356185,5.4821234,6.811504
MAGNETIC_FIELD,-10.893,-16.213,-31.198
GYROSCOPE,0.8405506,0.054061573,0.19150625
ORIENTATION,79,330,357
ACCELEROMETER,0.50158525,5.007473,8.66282
MAGNETIC_FIELD,-10.893,-16.999,-31.198
GYROSCOPE,-0.042455133,0.09193522,0.14508049
ORIENTATION,88,332,355
ACCELEROMETER,0.7194576,4.6285906,8.529344
MAGNETIC_FIELD,-10.893,-16.999,-31.198
GYROSCOPE,-0.08032878,0.019242255,0.0015271631
ORIENTATION,88,332,355
ACCELEROMETER,0.80086046,4.794389,8.867524
MAGNETIC_FIELD,-11.314,-16.999,-31.198
GYROSCOPE,-0.027488936,0.10598512,-0.058643065
ORIENTATION,103,336,1
ACCELEROMETER,-0.19033903,3.9091327,8.632893
MAGNETIC_FIELD,-11.314,-16.999,-31.198
GYROSCOPE,0.05100725,-0.09010262,-0.04642576
ORIENTATION,77,329,354
ACCELEROMETER,0.89782566,5.263054,8.780136
MAGNETIC_FIELD,-11.314,-16.999,-31.198
GYROSCOPE,-0.06383542,-0.10354166,-0.15149458
ORIENTATION,78,329,355
ACCELEROMETER,0.75836337,4.8560395,8.108562
MAGNETIC_FIELD,-11.642,-16.999,-31.198
GYROSCOPE,0.04520403,0.1001819,0.17562376
ORIENTATION,87,331,355
ACCELEROMETER,0.7386112,4.8027687,8.733449
MAGNETIC_FIELD,-11.642,-16.999,-31.198
GYROSCOPE,-0.07788532,0.054367006,-0.043066
ORIENTATION,86,331,356
ACCELEROMETER,0.6254852,4.6154222,8.325238
MAGNETIC_FIELD,-11.642,-16.999,-31.198
GYROSCOPE,0.058337633,0.004276057,-0.06414085
ORIENTATION,63,327,352
ACCELEROMETER,0.99060094,4.97156,7.453748
MAGNETIC_FIELD,-12.008,-16.999,-31.198
GYROSCOPE,-0.017715093,0.015577064,-0.06291912
ORIENTATION,88,331,357
ACCELEROMETER,0.5590461,5.0182467,9.140464
MAGNETIC_FIELD,-12.008,-16.999,-31.198
GYROSCOPE,0.13775012,-0.13836098,-3.0543262E-4
ORIENTATION,69,327,354
ACCELEROMETER,0.80924016,4.950012,7.559692
MAGNETIC_FIELD,-12.008,-16.999,-31.198
GYROSCOPE,0.049480084,0.17195857,0.04550946
ORIENTATION,53,324,352
ACCELEROMETER,1.0887632,5.5856724,7.557896
MAGNETIC_FIELD,-12.394,-16.999,-31.198
GYROSCOPE,0.79259765,-0.20616703,0.17837265
ORIENTATION,66,325,355
ACCELEROMETER,0.66858083,5.3019595,7.6440873
MAGNETIC_FIELD,-12.394,-16.999,-31.198
GYROSCOPE,-0.57940567,0.14294247,-0.15363261
ORIENTATION,89,332,358
ACCELEROMETER,0.37349546,4.803367,8.850765
MAGNETIC_FIELD,-12.394,-16.999,-31.198
GYROSCOPE,0.2846632,0.15424347,0.09712757
ORIENTATION,82,329,357
ACCELEROMETER,0.47345337,4.95899,8.3868885
MAGNETIC_FIELD,-12.394,-16.999,-31.198
GYROSCOPE,-0.01038471,-0.042760566,-0.024129177
ORIENTATION,96,333,1
ACCELEROMETER,-0.19393034,3.9396589,7.890092
MAGNETIC_FIELD,-12.394,-17.312,-31.198
GYROSCOPE,-0.13622294,0.05467244,0.011301007
ORIENTATION,68,327,353
ACCELEROMETER,1.13964,6.201581,9.309854
MAGNETIC_FIELD,-12.394,-17.312,-31.198
GYROSCOPE,-0.030543262,0.046120327,-0.009773844
ORIENTATION,96,333,3
ACCELEROMETER,-0.35553896,3.9390604,7.6333137
MAGNETIC_FIELD,-12.394,-17.312,-31.198
GYROSCOPE,-0.042760566,0.022602014,-0.022907447
ORIENTATION,68,327,352
ACCELEROMETER,1.2976574,6.0597243,9.2865095
MAGNETIC_FIELD,-12.394,-17.312,-31.198
GYROSCOPE,-0.22143865,0.057421334,0.093767814
ORIENTATION,94,332,359
ACCELEROMETER,0.18375498,4.3281183,8.274361
MAGNETIC_FIELD,-12.394,-17.312,-31.198
GYROSCOPE,0.3313944,0.044898596,-0.24007004
ORIENTATION,88,330,359
ACCELEROMETER,0.18315643,4.485537,7.8984714
MAGNETIC_FIELD,-12.394,-17.312,-31.198
GYROSCOPE,-0.25259277,-0.17104226,0.105374254
ORIENTATION,84,330,355
ACCELEROMETER,0.7445967,5.369596,9.306861
MAGNETIC_FIELD,-12.394,-17.312,-31.198
GYROSCOPE,-0.08979719,-0.05497787,-0.07147124
ORIENTATION,70,327,353
ACCELEROMETER,0.92057055,5.0876784,7.7691846
MAGNETIC_FIELD,-12.394,-17.312,-31.198
GYROSCOPE,-0.096516706,-0.09407325,0.015882496
ORIENTATION,80,330,353
ACCELEROMETER,1.0857705,5.2139726,8.817844
MAGNETIC_FIELD,-12.394,-17.312,-31.198
GYROSCOPE,-0.54183745,-0.016187929,-0.1563815
ORIENTATION,95,333,0
ACCELEROMETER,-0.048482586,4.3179426,8.418612
MAGNETIC_FIELD,-12.394,-17.312,-31.198
GYROSCOPE,0.070554934,0.09560041,-0.13072516
ORIENTATION,73,329,351
ACCELEROMETER,1.4431051,5.6802435,9.193136
MAGNETIC_FIELD,-12.394,-17.312,-31.198
GYROSCOPE,0.021991149,0.26297748,0.26633725
ORIENTATION,92,332,356
ACCELEROMETER,0.57760113,4.421492,8.319252
MAGNETIC_FIELD,-12.394,-17.312,-31.198
GYROSCOPE,-0.11148291,-1.0033462,-0.121256754
ORIENTATION,87,330,1
ACCELEROMETER,-0.077213004,4.71119,8.127716
MAGNETIC_FIELD,-12.394,-17.312,-31.198
GYROSCOPE,-0.35124752,0.56199604,-0.15607607
ORIENTATION,95,333,358
ACCELEROMETER,0.25797522,4.27365,8.278551
MAGNETIC_FIELD,-12.088,-17.312,-31.198
GYROSCOPE,0.002443461,-0.124311075,0.02076942
ORIENTATION,46,320,352
ACCELEROMETER,0.88046765,5.5790887,6.63553
MAGNETIC_FIELD,-12.088,-16.854,-31.198
GYROSCOPE,1.269378,-0.045814894,-0.12186762
ORIENTATION,101,335,358
ACCELEROMETER,0.35913026,4.220978,9.247604
MAGNETIC_FIELD,-12.088,-17.218,-31.198
GYROSCOPE,0.59437186,-0.42394048,0.039095376
ORIENTATION,103,335,358
ACCELEROMETER,0.28191724,4.396951,9.585187
MAGNETIC_FIELD,-12.088,-16.795,-31.198
GYROSCOPE,-0.5207626,-0.10873401,0.02565634
ORIENTATION,85,331,356
ACCELEROMETER,0.5883751,4.6261964,8.337209
MAGNETIC_FIELD,-12.088,-16.795,-31.198
GYROSCOPE,-0.93767816,-0.029932396,-0.1151481
ORIENTATION,93,333,357
ACCELEROMETER,0.49919105,4.5382094,8.952518
MAGNETIC_FIELD,-12.088,-16.795,-31.198
GYROSCOPE,0.6032294,0.5503896,0.12492194
ORIENTATION,79,330,354
ACCELEROMETER,0.92057055,4.823119,8.252813
MAGNETIC_FIELD,-12.088,-16.795,-31.198
GYROSCOPE,-0.4999932,-0.28527406,-0.124311075
ORIENTATION,93,333,2
ACCELEROMETER,-0.31663316,4.224569,8.158841
MAGNETIC_FIELD,-12.088,-16.795,-31.198
GYROSCOPE,-0.106901415,0.30482176,-0.18325958
ORIENTATION,93,333,357
ACCELEROMETER,0.55844754,4.7925935,9.4457245
MAGNETIC_FIELD,-11.207,-16.45,-31.597
GYROSCOPE,0.2706133,0.10567969,0.13500121
ORIENTATION,76,329,357
ACCELEROMETER,0.4321534,4.96737,8.3150625
MAGNETIC_FIELD,-11.682,-16.45,-31.597
GYROSCOPE,0.062308256,-0.77396625,0.008552114
ORIENTATION,82,329,2
ACCELEROMETER,-0.34596214,4.867412,8.076241
MAGNETIC_FIELD,-11.682,-16.45,-31.597
GYROSCOPE,-0.13194689,0.4156938,0.0076358155
ORIENTATION,84,331,359
ACCELEROMETER,0.15322891,4.733337,8.413823
MAGNETIC_FIELD,-10.427,-16.45,-31.597
GYROSCOPE,0.07666359,0.2929099,0.057726767
ORIENTATION,79,330,359
ACCELEROMETER,0.14963761,4.8733974,8.308478
MAGNETIC_FIELD,-11.035,-16.45,-31.597
GYROSCOPE,0.05100725,-0.33841935,-0.05467244
ORIENTATION,80,329,1
ACCELEROMETER,-0.08798691,4.7788267,7.968502
MAGNETIC_FIELD,-10.157,-16.45,-31.597
GYROSCOPE,-0.0580322,0.7351763,0.1151481
ORIENTATION,86,332,357
ACCELEROMETER,0.38845924,4.7536874,8.879496
MAGNETIC_FIELD,-10.157,-16.45,-31.597
GYROSCOPE,-0.24770586,-0.40133846,0.08277224
ORIENTATION,88,332,360
ACCELEROMETER,0.046088383,4.5352163,8.54311
MAGNETIC_FIELD,-10.473,-16.45,-31.597
GYROSCOPE,0.07147124,0.5907067,-0.09773844
ORIENTATION,76,328,359
ACCELEROMETER,0.11611878,5.2181625,8.501212
MAGNETIC_FIELD,-10.473,-16.45,-31.597
GYROSCOPE,-0.07941248,-0.3998113,0.08674286
ORIENTATION,82,330,1
ACCELEROMETER,-0.1388637,4.674679,8.033744
MAGNETIC_FIELD,-10.473,-16.45,-31.597
GYROSCOPE,-0.05375614,0.5207626,-0.15393804
ORIENTATION,58,324,357
ACCELEROMETER,0.39504328,5.427057,7.4788876
MAGNETIC_FIELD,-10.473,-16.45,-31.915
GYROSCOPE,0.07544186,-0.53023106,0.25595254
ORIENTATION,89,332,0
ACCELEROMETER,-0.0664391,4.7518916,9.040505
MAGNETIC_FIELD,-10.473,-16.45,-31.915
GYROSCOPE,0.12736541,0.7602218,0.09682214
ORIENTATION,61,325,358
ACCELEROMETER,0.23822308,5.4402246,7.683592
MAGNETIC_FIELD,-10.473,-16.45,-31.915
GYROSCOPE,-0.016798794,0.08979719,0.23762658
ORIENTATION,31,318,352
ACCELEROMETER,0.93014735,6.1704564,6.7630215
MAGNETIC_FIELD,-10.473,-16.45,-31.915
GYROSCOPE,0.07544186,0.6044512,0.18753563
ORIENTATION,43,322,354
ACCELEROMETER,0.7577648,5.5766945,6.9958572
MAGNETIC_FIELD,-10.473,-16.45,-31.915
GYROSCOPE,0.13927728,0.35308012,-0.14874569
ORIENTATION,70,329,356
ACCELEROMETER,0.5734113,4.9224787,8.051701
MAGNETIC_FIELD,-10.473,-16.45,-31.915
GYROSCOPE,0.09773844,-0.30207285,-0.15241088
ORIENTATION,99,335,358
ACCELEROMETER,0.29508537,4.300585,9.346964
MAGNETIC_FIELD,-10.473,-16.45,-31.915
GYROSCOPE,0.06291912,-0.39706242,-0.08277224
ORIENTATION,101,336,359
ACCELEROMETER,0.16460137,4.24492,9.524733
MAGNETIC_FIELD,-10.473,-16.45,-31.915
GYROSCOPE,-0.20005837,-0.2134974,0.0
ORIENTATION,110,339,0
ACCELEROMETER,-0.014963761,3.5128925,9.018958
MAGNETIC_FIELD,-10.473,-16.45,-31.915
GYROSCOPE,-0.9089675,0.06352998,-0.13927728
ORIENTATION,113,340,1
ACCELEROMETER,-0.09816227,3.7116113,10.240001
MAGNETIC_FIELD,-10.124,-16.45,-31.915
GYROSCOPE,0.9660834,0.636827,0.11148291
ORIENTATION,58,323,360
ACCELEROMETER,0.0017956513,5.697003,7.4746976
MAGNETIC_FIELD,-10.124,-16.45,-31.915
GYROSCOPE,0.10751228,-0.30879238,-0.14660765
ORIENTATION,87,331,5
ACCELEROMETER,-0.59017074,4.0958805,7.3567834
MAGNETIC_FIELD,-10.124,-16.45,-31.915
GYROSCOPE,-0.82772243,0.40225476,-0.17165314
ORIENTATION,112,339,360
ACCELEROMETER,0.015562311,3.7954082,10.032304
MAGNETIC_FIELD,-10.124,-16.45,-31.915
GYROSCOPE,0.054367006,0.14049901,0.12095132
ORIENTATION,78,331,354
ACCELEROMETER,0.8463503,4.7758336,8.575432
MAGNETIC_FIELD,-10.124,-15.075,-31.915
GYROSCOPE,0.41263947,-0.5345071,0.07422013
ORIENTATION,25,321,349
ACCELEROMETER,1.4000094,6.087258,7.513005
MAGNETIC_FIELD,-10.574,-16.325,-31.915
GYROSCOPE,0.031154128,-0.34025195,-0.36010507
ORIENTATION,100,336,3
ACCELEROMETER,-0.52073884,4.022857,8.990228
MAGNETIC_FIELD,-11.213,-17.759,-31.915
GYROSCOPE,-0.12308934,0.40317106,-0.25686884
ORIENTATION,64,324,357
ACCELEROMETER,0.3824737,5.710171,7.843405
MAGNETIC_FIELD,-10.469,-16.635,-31.915
GYROSCOPE,1.0815369,0.19272798,0.5122105
ORIENTATION,45,325,351
ACCELEROMETER,1.3042414,5.475539,7.826047
MAGNETIC_FIELD,-11.37,-18.571,-31.915
GYROSCOPE,0.16157386,-0.9092729,0.01160644
ORIENTATION,83,328,358
ACCELEROMETER,0.2633622,4.899135,7.8410106
MAGNETIC_FIELD,-13.145,-19.255,-31.599
GYROSCOPE,-0.7370089,-0.08155051,-0.17287487
ORIENTATION,99,332,358
ACCELEROMETER,0.29747957,4.643554,8.672397
MAGNETIC_FIELD,-11.024,-18.0,-31.599
GYROSCOPE,0.21135938,0.6957755,0.13469578
ORIENTATION,79,330,351
ACCELEROMETER,1.3275849,4.9721584,8.367136
MAGNETIC_FIELD,-11.474,-17.098,-31.599
GYROSCOPE,0.2761111,-0.49174652,0.19608775
ORIENTATION,72,328,355
ACCELEROMETER,0.7278373,4.9787426,7.9463553
MAGNETIC_FIELD,-14.14,-17.95,-31.599
GYROSCOPE,0.12522738,-0.47800204,-0.14110987
ORIENTATION,87,330,359
ACCELEROMETER,0.08559271,4.992509,8.48984
MAGNETIC_FIELD,-12.373,-17.95,-31.599
GYROSCOPE,0.2171626,0.51068336,-0.06261369
ORIENTATION,73,327,354
ACCELEROMETER,0.86969376,5.3276973,8.183381
MAGNETIC_FIELD,-11.033,-18.656,-31.599
GYROSCOPE,0.07574729,0.08857546,0.20708331
ORIENTATION,75,328,352
ACCELEROMETER,1.1917139,5.3157263,8.3312235
MAGNETIC_FIELD,-13.105,-19.424,-31.599
GYROSCOPE,-0.18020524,-0.6377433,-0.046120327
ORIENTATION,103,333,360
ACCELEROMETER,0.035913024,4.610634,9.088389
MAGNETIC_FIELD,-13.806,-18.887,-31.599
GYROSCOPE,-0.25473082,0.10842858,-0.13347405
ORIENTATION,80,327,356
ACCELEROMETER,0.57041854,5.2385135,7.929596
MAGNETIC_FIELD,-11.528,-17.24,-31.9
GYROSCOPE,1.0613784,0.2764165,0.16646078
ORIENTATION,51,325,351
ACCELEROMETER,1.316811,5.7203465,8.072051
MAGNETIC_FIELD,-12.483,-19.168,-31.24
GYROSCOPE,-0.15118915,-0.70738196,0.0842994
ORIENTATION,92,330,354
ACCELEROMETER,0.8194155,4.882974,8.389283
MAGNETIC_FIELD,-14.254,-19.168,-30.921
GYROSCOPE,-0.20952678,-0.053450707,-0.13408493
ORIENTATION,101,333,1
ACCELEROMETER,-0.1340753,4.5783124,8.855554
MAGNETIC_FIELD,-12.921,-18.437,-31.381
GYROSCOPE,0.14172074,0.3827071,-0.13836098
ORIENTATION,81,328,356
ACCELEROMETER,0.53809685,5.4114943,8.507197
MAGNETIC_FIELD,-11.787,-18.437,-31.381
GYROSCOPE,-0.004581489,0.079107046,0.18203785
ORIENTATION,78,327,357
ACCELEROMETER,0.39564183,4.8722005,7.4136457
MAGNETIC_FIELD,-12.258,-18.437,-31.381
GYROSCOPE,-0.17256944,-0.18753563,-0.116675265
ORIENTATION,97,332,360
ACCELEROMETER,0.029927522,4.7494974,8.9602995
MAGNETIC_FIELD,-12.258,-18.437,-31.381
GYROSCOPE,0.22388211,0.41172317,0.017104227
ORIENTATION,76,326,356
ACCELEROMETER,0.5446809,5.5790887,8.355764
MAGNETIC_FIELD,-12.258,-18.437,-31.381
GYROSCOPE,-0.26206118,-0.2012801,-0.023518313
ORIENTATION,76,326,356
ACCELEROMETER,0.48961425,5.2474914,7.81228
MAGNETIC_FIELD,-12.258,-18.843,-31.381
GYROSCOPE,0.23732115,0.14263703,0.044898596
ORIENTATION,87,329,357
ACCELEROMETER,0.45848963,5.2145715,8.560468
MAGNETIC_FIELD,-12.855,-18.843,-31.381
GYROSCOPE,-0.39706242,-0.25534168,-0.17256944
ORIENTATION,85,328,357
ACCELEROMETER,0.51235914,5.3265004,8.507795
MAGNETIC_FIELD,-12.855,-18.843,-31.047
GYROSCOPE,0.10903945,0.25717425,0.11453723
ORIENTATION,79,326,358
ACCELEROMETER,0.3250129,5.185841,7.5549035
MAGNETIC_FIELD,-12.315,-18.843,-31.047
GYROSCOPE,0.18875736,0.036651913,0.09712757
ORIENTATION,83,326,360
ACCELEROMETER,0.0017956513,5.6431336,8.513183
MAGNETIC_FIELD,-12.315,-18.843,-31.047
GYROSCOPE,-0.007330383,0.26267207,0.07574729
ORIENTATION,83,324,6
ACCELEROMETER,-0.7787141,5.499481,7.6530657
MAGNETIC_FIELD,-11.97,-18.843,-31.047
GYROSCOPE,0.02687807,0.25381452,0.071776666
