ORIENTATION,0,0,0
ACCELEROMETER,-1.1127052,4.164714,9.293094
MAGNETIC_FIELD,-17.324,-24.281,-48.455
GYROSCOPE,0.7348709,0.6646214,0.83108217
ORIENTATION,94,334,4
ACCELEROMETER,-0.599149,4.134786,8.568848
MAGNETIC_FIELD,-17.324,-24.688,-50.401
GYROSCOPE,-0.010995574,0.6646214,0.018325957
ORIENTATION,84,332,359
ACCELEROMETER,0.1328782,4.4047327,8.4108305
MAGNETIC_FIELD,-17.324,-24.688,-51.821
GYROSCOPE,0.0571159,-0.03176499,0.1160644
ORIENTATION,98,337,1
ACCELEROMETER,-0.12629414,3.9205053,9.20391
MAGNETIC_FIELD,-17.324,-24.688,-51.821
GYROSCOPE,0.029932396,-0.18387043,-0.0580322
ORIENTATION,70,330,357
ACCELEROMETER,0.4321534,4.7961845,8.207922
MAGNETIC_FIELD,-17.324,-24.688,-52.444
GYROSCOPE,0.35735616,-0.049785517,0.0852157
ORIENTATION,83,333,358
ACCELEROMETER,0.32321724,4.343082,8.590994
MAGNETIC_FIELD,-18.2,-24.688,-50.381
GYROSCOPE,-0.08155051,-0.40286562,-0.11026118
ORIENTATION,94,335,360
ACCELEROMETER,0.0047884034,4.1820717,9.0716305
MAGNETIC_FIELD,-19.129,-24.688,-50.381
GYROSCOPE,-0.19181168,0.057726767,-0.17501289
ORIENTATION,88,333,1
ACCELEROMETER,-0.12509704,4.24073,8.376713
MAGNETIC_FIELD,-18.728,-25.036,-51.896
GYROSCOPE,0.17012598,0.22999077,0.03848451
ORIENTATION,88,334,0
ACCELEROMETER,-0.032920275,4.4783545,8.989629
MAGNETIC_FIELD,-18.728,-25.036,-51.17
GYROSCOPE,0.12064589,-0.09682214,-0.0290161
ORIENTATION,85,332,359
ACCELEROMETER,0.110133275,4.4621935,8.496424
MAGNETIC_FIELD,-20.196,-25.036,-50.463
GYROSCOPE,-0.092240654,-0.29077184,0.013744468
ORIENTATION,86,332,358
ACCELEROMETER,0.23642741,4.533421,8.669404
MAGNETIC_FIELD,-19.831,-25.381,-50.889
GYROSCOPE,0.064446285,0.19364429,0.043066
ORIENTATION,88,333,358
ACCELEROMETER,0.25198972,4.4448357,8.785523
MAGNETIC_FIELD,-20.401,-25.381,-50.274
GYROSCOPE,-0.09010262,-0.17348573,0.01282817
ORIENTATION,91,334,359
ACCELEROMETER,0.15083471,4.2718544,8.681973
MAGNETIC_FIELD,-19.865,-25.381,-50.941
GYROSCOPE,0.07238753,0.16920967,0.109650314
ORIENTATION,96,336,360
ACCELEROMETER,0.04309563,4.1222167,9.073426
MAGNETIC_FIELD,-19.865,-25.381,-50.941
GYROSCOPE,-0.09987647,-0.13530666,0.007941248
ORIENTATION,91,334,358
ACCELEROMETER,0.32561144,4.2515035,8.727464
MAGNETIC_FIELD,-19.865,-25.381,-52.024
GYROSCOPE,0.22968534,0.034513887,0.057421334
ORIENTATION,91,335,357
ACCELEROMETER,0.47165772,4.1742907,8.847174
MAGNETIC_FIELD,-20.832,-25.381,-51.272
GYROSCOPE,-0.050396383,-0.14172074,-0.029626964
ORIENTATION,91,335,356
ACCELEROMETER,0.5398925,4.179079,8.789713
MAGNETIC_FIELD,-21.667,-25.381,-51.272
GYROSCOPE,0.110872045,-0.07971791,6.1086525E-4
ORIENTATION,81,332,354
ACCELEROMETER,0.830788,4.577115,8.540117
MAGNETIC_FIELD,-22.291,-25.381,-50.906
GYROSCOPE,0.10445796,-0.12522738,-0.11148291
ORIENTATION,82,332,355
ACCELEROMETER,0.7715315,4.643554,8.670003
MAGNETIC_FIELD,-23.4,-25.381,-50.46
GYROSCOPE,-0.0711658,-0.09743301,-0.044898596
ORIENTATION,88,333,356
ACCELEROMETER,0.61171854,4.407127,8.700529
MAGNETIC_FIELD,-23.4,-25.381,-50.831
GYROSCOPE,-0.17562376,-0.024740042,-0.12064589
ORIENTATION,101,338,358
ACCELEROMETER,0.28491,3.775656,9.428965
MAGNETIC_FIELD,-22.846,-25.381,-50.375
GYROSCOPE,-0.1908954,0.14721853,-0.3145956
ORIENTATION,93,335,357
ACCELEROMETER,0.46567222,4.1659107,8.802881
MAGNETIC_FIELD,-22.097,-25.381,-50.375
GYROSCOPE,-0.08002335,-0.29993483,-0.007941248
ORIENTATION,93,334,1
ACCELEROMETER,-0.10474633,4.2036195,8.7125
MAGNETIC_FIELD,-22.097,-25.381,-50.375
GYROSCOPE,0.112704635,0.011301007,0.025045475
ORIENTATION,89,333,0
ACCELEROMETER,-0.0712275,4.253299,8.326435
MAGNETIC_FIELD,-22.097,-25.381,-50.375
GYROSCOPE,0.24098633,0.10048734,-0.05131268
ORIENTATION,96,336,358
ACCELEROMETER,0.40880993,4.572925,10.077793
MAGNETIC_FIELD,-22.097,-25.381,-50.051
GYROSCOPE,-0.5195409,-0.18448131,-0.30268374
ORIENTATION,94,335,358
ACCELEROMETER,0.29388827,4.2281604,8.993818
MAGNETIC_FIELD,-22.769,-25.381,-50.051
GYROSCOPE,0.04734206,-0.057421334,-0.17654006
ORIENTATION,90,333,357
ACCELEROMETER,0.39324763,4.3143516,8.623316
MAGNETIC_FIELD,-22.769,-25.381,-49.572
GYROSCOPE,0.06994407,-0.023518313,-0.036957346
ORIENTATION,81,330,358
ACCELEROMETER,0.3417723,4.9542017,8.585009
MAGNETIC_FIELD,-22.196,-25.381,-49.572
GYROSCOPE,0.014966198,0.13561209,-0.058337633
ORIENTATION,92,334,357
ACCELEROMETER,0.4950012,4.538808,9.341577
MAGNETIC_FIELD,-22.196,-26.329,-49.008
GYROSCOPE,-0.11789699,-0.25259277,0.03940081
ORIENTATION,93,333,358
ACCELEROMETER,0.36272156,4.531027,8.930372
MAGNETIC_FIELD,-22.196,-26.329,-49.008
GYROSCOPE,-0.022296581,0.06414085,0.043066
ORIENTATION,92,333,357
ACCELEROMETER,0.39504328,4.3448777,8.462306
MAGNETIC_FIELD,-22.196,-26.329,-49.008
GYROSCOPE,0.046120327,-0.070249505,0.03573562
ORIENTATION,95,334,357
ACCELEROMETER,0.4902128,4.4161053,8.99741
MAGNETIC_FIELD,-22.5,-26.329,-49.008
GYROSCOPE,-0.12767084,-0.03481932,0.01863139
ORIENTATION,93,334,356
ACCELEROMETER,0.6619968,4.2299557,8.495825
MAGNETIC_FIELD,-22.5,-25.775,-49.008
GYROSCOPE,-0.022296581,-0.1020145,0.013439035
ORIENTATION,96,335,357
ACCELEROMETER,0.45968673,4.0252514,8.580819
MAGNETIC_FIELD,-22.5,-25.775,-49.008
GYROSCOPE,-0.17165314,0.04062254,0.062308256
ORIENTATION,103,338,358
ACCELEROMETER,0.39145198,3.8486793,9.309854
MAGNETIC_FIELD,-22.932,-25.775,-49.008
GYROSCOPE,-0.04428773,-0.010079277,-0.038789943
ORIENTATION,99,336,357
ACCELEROMETER,0.4830302,3.8732197,8.648455
MAGNETIC_FIELD,-22.932,-25.775,-49.008
GYROSCOPE,0.050396383,0.1160644,0.19547687
ORIENTATION,102,337,357
ACCELEROMETER,0.46746787,3.8426938,9.077017
MAGNETIC_FIELD,-22.932,-25.775,-49.008
GYROSCOPE,-0.027183503,-0.008857546,0.054061573
ORIENTATION,97,336,355
ACCELEROMETER,0.8559271,4.060566,8.89446
MAGNETIC_FIELD,-22.932,-25.204,-49.008
GYROSCOPE,0.09193522,0.029626964,0.10445796
ORIENTATION,102,338,357
ACCELEROMETER,0.52732295,3.6649241,8.9124155
MAGNETIC_FIELD,-22.932,-24.334,-49.008
GYROSCOPE,-0.06383542,0.028405234,0.0067195175
ORIENTATION,93,336,355
ACCELEROMETER,0.7386112,4.056975,8.874108
MAGNETIC_FIELD,-22.932,-24.002,-49.008
GYROSCOPE,0.029932396,-0.010079277,0.04795292
ORIENTATION,93,336,354
ACCELEROMETER,0.8643068,3.942053,8.705916
MAGNETIC_FIELD,-23.278,-23.468,-49.72
GYROSCOPE,0.055588737,0.029626964,0.0015271631
ORIENTATION,81,333,352
ACCELEROMETER,1.1665748,4.2940006,8.484452
MAGNETIC_FIELD,-23.278,-23.468,-49.72
GYROSCOPE,0.007330383,-0.02076942,-0.10048734
ORIENTATION,92,336,355
ACCELEROMETER,0.7386112,3.852869,8.748413
MAGNETIC_FIELD,-23.957,-23.468,-49.72
GYROSCOPE,0.02565634,-0.09743301,0.038179077
ORIENTATION,99,339,358
ACCELEROMETER,0.35434186,3.6924577,9.473856
MAGNETIC_FIELD,-24.69,-24.041,-49.72
GYROSCOPE,-0.2959642,0.026267206,-0.13958271
ORIENTATION,91,336,355
ACCELEROMETER,0.777517,3.957017,8.664018
MAGNETIC_FIELD,-24.205,-23.275,-50.08
GYROSCOPE,0.06719518,0.27977628,0.0
ORIENTATION,90,336,356
ACCELEROMETER,0.5955577,4.2102036,9.281123
MAGNETIC_FIELD,-24.205,-23.739,-50.08
GYROSCOPE,0.082161374,-0.03848451,-0.21868975
ORIENTATION,85,333,358
ACCELEROMETER,0.3321955,4.1222167,8.1756
MAGNETIC_FIELD,-24.205,-24.136,-50.08
GYROSCOPE,0.28924468,0.09254608,0.0125227375
ORIENTATION,92,336,357
ACCELEROMETER,0.5231331,4.0384197,8.853159
MAGNETIC_FIELD,-24.205,-25.453,-49.65
GYROSCOPE,-0.22235495,-0.13194689,-0.019242255
ORIENTATION,80,331,354
ACCELEROMETER,0.9744401,4.8704047,8.588001
MAGNETIC_FIELD,-24.205,-24.681,-50.057
GYROSCOPE,0.4202753,0.043066,0.122478485
ORIENTATION,90,334,359
ACCELEROMETER,0.16819267,4.162918,8.554482
MAGNETIC_FIELD,-24.205,-25.588,-50.057
GYROSCOPE,-0.20616703,-0.15302174,-0.20463985
ORIENTATION,91,334,358
ACCELEROMETER,0.3250129,4.38917,8.861539
MAGNETIC_FIELD,-24.205,-25.588,-50.057
GYROSCOPE,0.007941248,0.13500121,-0.034513887
ORIENTATION,98,337,357
ACCELEROMETER,0.55006784,3.9606082,9.118916
MAGNETIC_FIELD,-24.546,-25.588,-50.057
GYROSCOPE,-0.062002823,0.038789943,-0.12034045
ORIENTATION,90,334,356
ACCELEROMETER,0.6488287,4.1916485,8.429385
MAGNETIC_FIELD,-24.546,-25.588,-50.057
GYROSCOPE,-0.10873401,-0.33017266,-0.07880162
ORIENTATION,104,339,0
ACCELEROMETER,-0.038905777,3.728969,9.928156
MAGNETIC_FIELD,-24.546,-24.943,-50.057
GYROSCOPE,0.45540005,0.12003502,-0.13958271
ORIENTATION,89,334,357
ACCELEROMETER,0.4973954,4.144962,8.368932
MAGNETIC_FIELD,-24.546,-24.943,-50.057
GYROSCOPE,0.32528573,-0.46944994,0.043676864
ORIENTATION,90,334,356
ACCELEROMETER,0.5363012,4.220379,8.644864
MAGNETIC_FIELD,-24.546,-25.849,-50.057
GYROSCOPE,-0.0421497,0.04886922,0.083383106
ORIENTATION,101,338,358
ACCELEROMETER,0.2801216,3.7421372,9.0315275
MAGNETIC_FIELD,-24.546,-25.459,-50.057
GYROSCOPE,0.038789943,0.03940081,0.15302174
ORIENTATION,93,335,358
ACCELEROMETER,0.29209262,4.203021,8.865729
MAGNETIC_FIELD,-24.546,-24.758,-50.057
GYROSCOPE,-0.09712757,0.13805555,-0.09468412
ORIENTATION,86,333,357
ACCELEROMETER,0.39743748,4.4927197,8.684368
MAGNETIC_FIELD,-24.546,-24.758,-50.057
GYROSCOPE,0.13164146,-0.12767084,-0.004886922
ORIENTATION,96,337,358
ACCELEROMETER,0.28191724,3.9312792,9.065644
MAGNETIC_FIELD,-24.546,-24.758,-50.057
GYROSCOPE,-0.07269296,-0.0571159,-0.058643065
ORIENTATION,90,334,357
ACCELEROMETER,0.53091425,4.474763,9.244612
MAGNETIC_FIELD,-24.2,-25.082,-50.057
GYROSCOPE,-0.18478674,-0.067500606,-0.09743301
ORIENTATION,84,332,356
ACCELEROMETER,0.62009823,4.289212,8.090606
MAGNETIC_FIELD,-24.2,-25.082,-50.057
GYROSCOPE,-0.108123146,-0.06719518,0.04153884
ORIENTATION,94,335,356
ACCELEROMETER,0.599149,4.0946836,8.944737
MAGNETIC_FIELD,-24.2,-25.082,-50.057
GYROSCOPE,0.014049901,0.024740042,-0.018936822
ORIENTATION,93,335,356
ACCELEROMETER,0.64703304,4.185065,9.012972
MAGNETIC_FIELD,-23.745,-25.082,-50.057
GYROSCOPE,0.03970624,0.0729984,-0.003970624
ORIENTATION,86,332,356
ACCELEROMETER,0.5506664,4.3742065,8.3821
MAGNETIC_FIELD,-23.745,-25.431,-50.057
GYROSCOPE,0.101098195,-0.036651913,-0.1020145
ORIENTATION,95,335,358
ACCELEROMETER,0.32920274,4.0857053,8.865729
MAGNETIC_FIELD,-23.745,-25.431,-50.057
GYROSCOPE,0.03604105,-0.20616703,0.09437868
ORIENTATION,88,333,356
ACCELEROMETER,0.664391,4.36044,8.639477
MAGNETIC_FIELD,-23.745,-25.431,-50.057
GYROSCOPE,-0.09132435,0.1469131,-0.00580322
ORIENTATION,104,339,359
ACCELEROMETER,0.17537527,3.4632127,9.060856
MAGNETIC_FIELD,-23.745,-25.431,-50.057
GYROSCOPE,-0.0720821,-0.03268129,-0.12461651
ORIENTATION,85,332,355
ACCELEROMETER,0.6937199,4.3939586,8.336012
MAGNETIC_FIELD,-23.745,-25.431,-50.057
GYROSCOPE,0.15851954,-0.02687807,0.022296581
ORIENTATION,97,336,359
ACCELEROMETER,0.21667525,3.8642416,8.754997
MAGNETIC_FIELD,-23.745,-25.431,-50.057
GYROSCOPE,0.37018433,-0.0421497,0.2434298
ORIENTATION,91,334,357
ACCELEROMETER,0.5410896,4.343082,8.968679
MAGNETIC_FIELD,-23.745,-25.431,-50.057
GYROSCOPE,-0.024740042,0.010995574,-0.14752395
ORIENTATION,94,335,359
ACCELEROMETER,0.15143326,4.0803185,8.67539
MAGNETIC_FIELD,-23.745,-25.102,-50.057
GYROSCOPE,0.11911872,0.11362094,0.27030787
ORIENTATION,92,335,358
ACCELEROMETER,0.31543607,4.0773253,8.558673
MAGNETIC_FIELD,-23.434,-25.102,-50.057
GYROSCOPE,-0.106901415,-0.03176499,-0.028099801
ORIENTATION,85,333,354
ACCELEROMETER,0.8888474,4.547188,8.824429
MAGNETIC_FIELD,-23.434,-25.102,-50.057
GYROSCOPE,0.04917465,0.13194689,0.21013765
ORIENTATION,87,332,358
ACCELEROMETER,0.24480712,4.060566,7.7733746
MAGNETIC_FIELD,-23.434,-25.102,-50.057
GYROSCOPE,0.23182335,0.0027488936,0.009773844
ORIENTATION,80,331,355
ACCELEROMETER,0.729633,4.780622,8.561067
MAGNETIC_FIELD,-23.434,-24.681,-50.405
GYROSCOPE,0.15210545,0.17165314,0.2452624
ORIENTATION,92,335,357
ACCELEROMETER,0.5117606,4.237737,9.188946
MAGNETIC_FIELD,-23.434,-24.681,-50.405
GYROSCOPE,0.13988814,0.116675265,-0.1133155
ORIENTATION,83,332,358
ACCELEROMETER,0.33159694,4.5872903,8.532935
MAGNETIC_FIELD,-23.434,-24.681,-50.405
GYROSCOPE,-0.36071593,-0.09254608,-0.28496864
ORIENTATION,86,333,358
ACCELEROMETER,0.3345897,4.132991,7.989451
MAGNETIC_FIELD,-23.434,-24.681,-50.405
GYROSCOPE,0.7431176,-0.17379116,0.047647487
ORIENTATION,90,334,356
ACCELEROMETER,0.55006784,4.296395,8.935161
MAGNETIC_FIELD,-23.434,-24.681,-50.405
GYROSCOPE,-0.106901415,-0.06719518,-0.12217305
ORIENTATION,87,332,2
ACCELEROMETER,-0.28550854,4.557363,8.656237
MAGNETIC_FIELD,-23.434,-24.681,-50.405
GYROSCOPE,-0.22388211,-0.032986723,-0.28619036
ORIENTATION,81,332,355
ACCELEROMETER,0.7356185,4.209007,7.855376
MAGNETIC_FIELD,-23.434,-24.681,-50.405
GYROSCOPE,0.45875978,-0.13652839,0.258396
ORIENTATION,98,337,357
ACCELEROMETER,0.45489833,4.0138793,9.630676
MAGNETIC_FIELD,-23.434,-24.681,-50.405
GYROSCOPE,-0.6249151,0.121256754,-0.42455134
ORIENTATION,92,335,357
ACCELEROMETER,0.42556936,3.9552212,8.476072
MAGNETIC_FIELD,-23.434,-24.681,-50.405
GYROSCOPE,0.03848451,-0.3622431,0.004276057
ORIENTATION,96,337,357
ACCELEROMETER,0.5303157,3.9624038,9.153033
MAGNETIC_FIELD,-23.434,-24.681,-50.405
GYROSCOPE,-0.027488936,0.014660766,-0.053450707
ORIENTATION,96,336,357
ACCELEROMETER,0.4890157,3.965995,9.100959
MAGNETIC_FIELD,-23.434,-24.681,-50.405
GYROSCOPE,-6.1086525E-4,0.0030543262,-0.014660766
ORIENTATION,96,337,358
ACCELEROMETER,0.29987377,3.9151182,9.088988
MAGNETIC_FIELD,-23.434,-24.681,-50.405
GYROSCOPE,0.13622294,-0.040317107,0.08674286
ORIENTATION,97,337,357
ACCELEROMETER,0.5883751,4.1120415,9.634268
MAGNETIC_FIELD,-23.434,-24.681,-50.405
GYROSCOPE,-0.15760323,-0.018020526,-0.03970624
ORIENTATION,83,333,352
ACCELEROMETER,1.0636241,4.0162735,7.835025
MAGNETIC_FIELD,-23.434,-24.681,-50.08
GYROSCOPE,-0.094989546,-0.076358154,-0.029626964
ORIENTATION,98,337,358
ACCELEROMETER,0.43514615,4.277241,10.110714
MAGNETIC_FIELD,-23.434,-24.681,-50.08
GYROSCOPE,0.14263703,0.00580322,0.080634214
ORIENTATION,82,332,354
ACCELEROMETER,0.91338795,4.283227,8.075643
MAGNETIC_FIELD,-23.434,-24.681,-50.08
GYROSCOPE,-0.4447099,0.099265605,-0.10140363
ORIENTATION,97,337,355
ACCELEROMETER,0.8158242,3.9031472,9.134478
MAGNETIC_FIELD,-23.78,-24.681,-50.08
GYROSCOPE,0.51893,0.056199603,0.03970624
ORIENTATION,97,337,358
ACCELEROMETER,0.2837129,3.7600937,8.78672
MAGNETIC_FIELD,-24.194,-24.681,-50.08
GYROSCOPE,-0.07360926,-0.2874121,-0.03359759
ORIENTATION,96,337,357
ACCELEROMETER,0.50158525,4.0803185,9.482236
MAGNETIC_FIELD,-24.194,-25.007,-50.08
GYROSCOPE,0.11759156,0.087659165,0.15027285
ORIENTATION,87,333,357
ACCELEROMETER,0.39324763,4.2862196,8.376115
MAGNETIC_FIELD,-24.194,-25.007,-50.08
GYROSCOPE,-0.044898596,0.023823744,-0.06352998
ORIENTATION,92,335,358
ACCELEROMETER,0.26156655,4.1635165,8.728063
MAGNETIC_FIELD,-24.194,-25.007,-50.08
GYROSCOPE,0.015271631,0.12308934,-0.03726278
ORIENTATION,86,333,355
ACCELEROMETER,0.7589619,4.653131,9.065046
MAGNETIC_FIELD,-24.194,-25.337,-50.08
GYROSCOPE,0.30543262,0.0036651916,0.09162979
ORIENTATION,91,334,355
ACCELEROMETER,0.7009025,4.1982327,8.641871
MAGNETIC_FIELD,-24.194,-25.337,-49.734
GYROSCOPE,0.06566802,-0.55680364,-0.0571159
ORIENTATION,89,333,356
ACCELEROMETER,0.61530983,4.3478703,8.640674
MAGNETIC_FIELD,-24.194,-25.337,-49.734
GYROSCOPE,-0.0027488936,-0.005497787,0.040927973
ORIENTATION,89,334,354
ACCELEROMETER,1.0193313,4.4394484,9.013571
MAGNETIC_FIELD,-24.194,-25.337,-49.734
GYROSCOPE,0.0842994,-0.003970624,-0.029932396
ORIENTATION,91,334,355
ACCELEROMETER,0.74639237,4.249708,8.747216
MAGNETIC_FIELD,-24.598,-25.337,-49.734
GYROSCOPE,-0.12522738,-0.33261612,-6.1086525E-4
ORIENTATION,96,336,359
ACCELEROMETER,0.22804771,4.325724,9.685743
MAGNETIC_FIELD,-24.598,-25.337,-49.734
GYROSCOPE,0.5311473,0.31642818,0.12858713
ORIENTATION,57,322,354
ACCELEROMETER,0.79367787,5.681441,7.152079
MAGNETIC_FIELD,-24.598,-25.337,-49.734
GYROSCOPE,0.42577308,0.008552114,0.009468411
ORIENTATION,82,330,358
ACCELEROMETER,0.31244332,4.983531,8.704719
MAGNETIC_FIELD,-24.598,-30.026,-47.174
GYROSCOPE,-0.64751714,-0.26206118,-0.20738874
ORIENTATION,104,334,2
ACCELEROMETER,-0.28431144,4.313753,8.820838
MAGNETIC_FIELD,-24.598,-28.533,-47.926
GYROSCOPE,-0.22449298,0.10170906,-0.050701816
ORIENTATION,94,331,359
ACCELEROMETER,0.08738836,4.548983,8.286931
MAGNETIC_FIELD,-22.286,-26.683,-49.705
GYROSCOPE,0.056505036,0.04428773,0.0036651916
ORIENTATION,96,334,356
ACCELEROMETER,0.6338649,4.5160627,9.414599
MAGNETIC_FIELD,-22.984,-26.683,-49.372
GYROSCOPE,-0.0027488936,-0.19394971,0.118202426
ORIENTATION,66,326,352
ACCELEROMETER,1.002572,5.2199583,7.5812397
MAGNETIC_FIELD,-24.049,-26.683,-48.783
GYROSCOPE,0.45570546,-0.30451632,0.16737708
ORIENTATION,80,329,355
ACCELEROMETER,0.79607207,5.040992,8.3072815
MAGNETIC_FIELD,-24.049,-27.949,-47.938
GYROSCOPE,-0.45845437,-0.0036651916,-0.07696902
ORIENTATION,100,334,356
ACCELEROMETER,0.5979519,4.3382936,8.929773
MAGNETIC_FIELD,-24.049,-27.574,-48.703
GYROSCOPE,0.38087448,0.3659083,0.19425514
ORIENTATION,70,327,350
ACCELEROMETER,1.3688848,5.4623713,8.1558485
MAGNETIC_FIELD,-24.049,-27.081,-48.703
GYROSCOPE,-0.22632557,-0.116980694,-0.0076358155
ORIENTATION,90,332,355
ACCELEROMETER,0.82899237,4.7058034,8.726865
MAGNETIC_FIELD,-24.938,-28.381,-47.79
GYROSCOPE,-0.14294247,0.08246681,-0.10170906
ORIENTATION,92,331,356
ACCELEROMETER,0.6596026,4.710592,8.394072
MAGNETIC_FIELD,-24.513,-27.606,-48.252
GYROSCOPE,0.0720821,0.021991149,-0.064751714
ORIENTATION,96,333,357
ACCELEROMETER,0.38726214,4.4328647,8.762778
MAGNETIC_FIELD,-24.513,-27.606,-48.252
GYROSCOPE,-0.50671273,0.025961773,-0.15485434
ORIENTATION,98,334,357
ACCELEROMETER,0.47524905,4.3209357,8.849568
MAGNETIC_FIELD,-23.689,-25.881,-48.803
GYROSCOPE,0.06963864,0.18295415,-0.05497787
ORIENTATION,97,335,355
ACCELEROMETER,0.80205756,4.1479545,9.021352
MAGNETIC_FIELD,-23.689,-25.881,-48.803
GYROSCOPE,-0.14446963,-0.04337143,-0.15790866
ORIENTATION,90,333,357
ACCELEROMETER,0.415394,4.453215,8.6095495
MAGNETIC_FIELD,-24.609,-26.617,-48.464
GYROSCOPE,0.26145032,0.035430185,-0.03023783
ORIENTATION,84,329,358
ACCELEROMETER,0.34835634,5.1259856,8.637681
MAGNETIC_FIELD,-23.583,-27.043,-48.921
GYROSCOPE,0.050701816,0.19700404,0.13164146
ORIENTATION,95,333,0
ACCELEROMETER,-0.034117375,4.052785,8.052299
MAGNETIC_FIELD,-22.628,-27.549,-48.921
GYROSCOPE,0.0033597588,0.029321533,0.08735373
ORIENTATION,85,330,355
ACCELEROMETER,0.7104794,4.9123034,8.44375
MAGNETIC_FIELD,-22.628,-26.96,-48.921
GYROSCOPE,-0.13133603,-0.19547687,0.01985312
ORIENTATION,85,330,358
ACCELEROMETER,0.35075054,4.6950297,8.03554
MAGNETIC_FIELD,-23.297,-26.96,-48.579
GYROSCOPE,0.02687807,0.20647246,-0.0729984
ORIENTATION,88,331,358
ACCELEROMETER,0.29568392,4.7788267,8.464102
MAGNETIC_FIELD,-22.244,-26.96,-49.046
GYROSCOPE,0.04337143,0.18081611,-0.060170226
ORIENTATION,91,332,359
ACCELEROMETER,0.19871874,4.5795093,8.495825
MAGNETIC_FIELD,-22.244,-26.96,-49.046
GYROSCOPE,-0.05497787,-0.062002823,0.032070424
ORIENTATION,92,332,358
ACCELEROMETER,0.37588966,4.590882,8.711303
MAGNETIC_FIELD,-21.923,-26.96,-49.046
GYROSCOPE,0.14874569,0.055588737,0.07971791
ORIENTATION,95,333,357
ACCELEROMETER,0.39384618,4.4843397,8.958505
MAGNETIC_FIELD,-22.251,-26.96,-49.046
GYROSCOPE,-0.24984388,-0.10995574,0.020158553
ORIENTATION,79,329,353
ACCELEROMETER,0.9768343,4.900931,8.170812
MAGNETIC_FIELD,-22.663,-26.96,-49.046
GYROSCOPE,0.33841935,-0.0061086523,0.07574729
ORIENTATION,99,335,359
ACCELEROMETER,0.22924481,4.1581297,8.950125
MAGNETIC_FIELD,-23.126,-26.96,-49.046
GYROSCOPE,0.08582657,-0.13652839,0.017104227
ORIENTATION,94,333,357
ACCELEROMETER,0.45609543,4.5501804,8.980052
MAGNETIC_FIELD,-23.126,-26.96,-49.046
GYROSCOPE,0.038179077,-0.042455133,0.0076358155
ORIENTATION,88,331,355
ACCELEROMETER,0.65182143,4.373009,8.023568
MAGNETIC_FIELD,-23.126,-26.96,-49.046
GYROSCOPE,0.14905111,-0.0070249503,-0.05497787
ORIENTATION,99,335,1
ACCELEROMETER,-0.23822308,4.501099,9.531916
MAGNETIC_FIELD,-23.126,-26.96,-49.353
GYROSCOPE,-0.42852196,0.019242255,-0.17745635
ORIENTATION,94,333,358
ACCELEROMETER,0.32920274,4.264672,8.403648
MAGNETIC_FIELD,-22.119,-26.568,-49.353
GYROSCOPE,-0.024740042,0.33261612,-0.022907447
ORIENTATION,96,334,0
ACCELEROMETER,-0.073621705,4.3299136,8.952518
MAGNETIC_FIELD,-21.342,-26.568,-49.716
GYROSCOPE,0.058948494,-0.089186326,-0.0067195175
ORIENTATION,96,334,360
ACCELEROMETER,0.023343466,4.18686,8.722076
MAGNETIC_FIELD,-21.342,-26.251,-49.716
GYROSCOPE,-0.09010262,0.013439035,-0.040011674
ORIENTATION,80,329,357
ACCELEROMETER,0.40102878,4.9428296,8.294712
MAGNETIC_FIELD,-21.04,-26.251,-50.062
GYROSCOPE,-0.07269296,0.043676864,-0.040317107
ORIENTATION,88,332,358
ACCELEROMETER,0.30107087,4.5394063,8.472482
MAGNETIC_FIELD,-21.63,-26.251,-50.062
GYROSCOPE,0.013133603,0.03359759,-0.038789943
ORIENTATION,92,333,359
ACCELEROMETER,0.093373865,4.5561657,8.939949
MAGNETIC_FIELD,-21.63,-26.251,-50.062
GYROSCOPE,-0.1881465,-0.0125227375,-0.0852157
ORIENTATION,85,331,358
ACCELEROMETER,0.3286042,4.6513352,8.435371
MAGNETIC_FIELD,-21.63,-26.251,-50.062
GYROSCOPE,0.10995574,0.045814894,0.04642576
ORIENTATION,97,335,2
ACCELEROMETER,-0.29508537,4.2730513,9.198523
MAGNETIC_FIELD,-21.63,-26.251,-50.062
GYROSCOPE,-0.043066,-0.007941248,-0.04337143
ORIENTATION,96,335,1
ACCELEROMETER,-0.15502456,4.074931,8.639477
MAGNETIC_FIELD,-21.63,-26.251,-50.062
GYROSCOPE,-0.05222898,0.124311075,-0.07147124
ORIENTATION,96,335,1
ACCELEROMETER,-0.12270284,4.2293572,8.956709
MAGNETIC_FIELD,-21.63,-26.251,-50.416
GYROSCOPE,0.021380283,-0.015577064,-0.04428773
ORIENTATION,92,333,2
ACCELEROMETER,-0.27712885,4.296395,8.344392
MAGNETIC_FIELD,-21.18,-25.91,-50.416
GYROSCOPE,0.30818152,-0.0021380284,-0.022602014
ORIENTATION,74,327,359
ACCELEROMETER,0.108936176,5.149329,7.9266033
MAGNETIC_FIELD,-21.18,-25.91,-50.416
GYROSCOPE,0.22174409,-0.013133603,-0.0125227375
ORIENTATION,75,328,359
ACCELEROMETER,0.14963761,5.1996074,8.164826
MAGNETIC_FIELD,-21.18,-25.91,-50.416
GYROSCOPE,-0.028405234,0.15485434,0.04886922
ORIENTATION,83,331,359
ACCELEROMETER,0.17357962,4.8189297,8.566454
MAGNETIC_FIELD,-20.722,-27.166,-50.416
GYROSCOPE,-0.6957755,-0.029932396,-0.18753563
ORIENTATION,98,334,1
ACCELEROMETER,-0.13826515,4.261679,8.914211
MAGNETIC_FIELD,-20.722,-26.339,-50.416
GYROSCOPE,0.14660765,-0.13103059,0.05497787
ORIENTATION,84,331,358
ACCELEROMETER,0.29747957,4.694431,8.358757
MAGNETIC_FIELD,-20.722,-25.915,-50.416
GYROSCOPE,0.23548855,-0.09621128,-0.021685716
ORIENTATION,81,331,356
ACCELEROMETER,0.61411273,4.8698063,8.683769
MAGNETIC_FIELD,-20.722,-26.637,-50.416
GYROSCOPE,-0.18661933,-0.122783914,-0.1695151
ORIENTATION,75,329,355
ACCELEROMETER,0.78529817,4.983531,8.219295
MAGNETIC_FIELD,-20.722,-26.937,-49.972
GYROSCOPE,-0.03756821,-0.11178834,0.04337143
ORIENTATION,86,331,356
ACCELEROMETER,0.6027403,4.770447,8.596381
MAGNETIC_FIELD,-21.534,-26.937,-49.308
GYROSCOPE,-0.15699236,-0.12308934,-0.06169739
ORIENTATION,97,334,3
ACCELEROMETER,-0.42916065,4.216788,8.5143795
MAGNETIC_FIELD,-21.087,-26.937,-49.308
GYROSCOPE,-0.44318274,0.4801401,-0.15241088
ORIENTATION,94,333,1
ACCELEROMETER,-0.14664486,4.5034933,8.720282
MAGNETIC_FIELD,-19.39,-25.982,-50.587
GYROSCOPE,0.23854288,0.4728097,-0.005497787
ORIENTATION,83,331,360
ACCELEROMETER,0.050278235,4.8015714,8.543709
MAGNETIC_FIELD,-19.944,-26.416,-49.932
GYROSCOPE,0.01863139,-0.20555615,0.0076358155
ORIENTATION,89,332,360
ACCELEROMETER,0.038307227,4.449624,8.358158
MAGNETIC_FIELD,-20.35,-26.855,-49.604
GYROSCOPE,-0.06383542,0.04337143,-0.07452556
ORIENTATION,80,328,359
ACCELEROMETER,0.18136078,5.0601454,8.190564
MAGNETIC_FIELD,-20.35,-26.855,-49.604
GYROSCOPE,0.14844026,0.09132435,0.09010262
ORIENTATION,83,330,358
ACCELEROMETER,0.33877954,4.8961425,8.39048
MAGNETIC_FIELD,-21.395,-27.401,-48.98
GYROSCOPE,0.04550946,-0.03481932,0.04734206
ORIENTATION,86,330,357
ACCELEROMETER,0.47644615,4.9015293,8.519767
MAGNETIC_FIELD,-21.395,-27.401,-48.98
GYROSCOPE,-0.11911872,0.06994407,0.032986723
ORIENTATION,86,329,359
ACCELEROMETER,0.18614918,5.0092683,8.468291
MAGNETIC_FIELD,-21.849,-27.401,-48.98
GYROSCOPE,-0.036651913,0.036957346,-0.042455133
ORIENTATION,86,330,356
ACCELEROMETER,0.5674258,5.0038815,8.683171
MAGNETIC_FIELD,-21.849,-27.401,-48.98
GYROSCOPE,0.116675265,0.044593163,0.069027774
ORIENTATION,87,330,357
ACCELEROMETER,0.3890578,4.917092,8.583213
MAGNETIC_FIELD,-22.462,-27.401,-48.98
GYROSCOPE,-0.021685716,-0.17104226,-0.027488936
ORIENTATION,83,328,359
ACCELEROMETER,0.12330139,5.133767,8.300697
MAGNETIC_FIELD,-22.146,-27.401,-48.98
GYROSCOPE,0.016493361,0.040317107,-0.0015271631
ORIENTATION,86,329,1
ACCELEROMETER,-0.19033903,4.9943047,8.3150625
MAGNETIC_FIELD,-21.669,-27.401,-48.98
GYROSCOPE,0.045814894,0.1518,-0.014049901
ORIENTATION,76,324,2
ACCELEROMETER,-0.33279404,5.53719,7.6267295
MAGNETIC_FIELD,-20.088,-27.401,-48.98
GYROSCOPE,0.06352998,0.36743546,0.07422013
