ORIENTATION,0,0,0
ACCELEROMETER,-0.6925228,6.293159,6.483498
MAGNETIC_FIELD,-12.112,-28.999,-29.907
GYROSCOPE,-0.02565634,0.005497787,-0.031154128
ORIENTATION,124,331,13
ACCELEROMETER,-2.0171149,4.9482164,8.696938
MAGNETIC_FIELD,-12.112,-28.559,-30.895
GYROSCOPE,-1.1502593,0.005497787,-0.30298916
ORIENTATION,140,333,355
ACCELEROMETER,0.76434886,4.5896845,9.0716305
MAGNETIC_FIELD,-12.112,-26.181,-32.575
GYROSCOPE,-0.6301075,0.04642576,0.4700608
ORIENTATION,111,329,9
ACCELEROMETER,-1.3126211,5.0200424,8.190564
MAGNETIC_FIELD,-12.112,-24.113,-34.187
GYROSCOPE,0.08582657,-0.35308012,-0.20799962
ORIENTATION,102,328,8
ACCELEROMETER,-1.1522095,4.9907136,7.9702973
MAGNETIC_FIELD,-12.112,-24.438,-33.459
GYROSCOPE,0.083383106,0.032070424,0.02443461
ORIENTATION,110,330,3
ACCELEROMETER,-0.41958386,4.785411,8.414422
MAGNETIC_FIELD,-12.112,-24.438,-35.15
GYROSCOPE,-0.23487769,0.07971791,0.15027285
ORIENTATION,108,331,6
ACCELEROMETER,-0.8936358,4.6764746,8.387487
MAGNETIC_FIELD,-12.112,-23.034,-34.79
GYROSCOPE,0.0030543262,-0.20799962,0.08277224
ORIENTATION,108,333,8
ACCELEROMETER,-1.2150574,4.598663,8.88608
MAGNETIC_FIELD,-12.112,-21.867,-34.79
GYROSCOPE,-0.13164146,0.0027488936,-0.06658431
ORIENTATION,104,332,5
ACCELEROMETER,-0.7009025,4.514866,8.517971
MAGNETIC_FIELD,-12.112,-21.456,-35.301
GYROSCOPE,0.01740966,-0.036651913,0.032986723
ORIENTATION,99,331,6
ACCELEROMETER,-0.90500826,4.6818614,8.500613
MAGNETIC_FIELD,-12.112,-21.456,-35.301
GYROSCOPE,0.06261369,0.0027488936,-0.035124753
ORIENTATION,101,332,5
ACCELEROMETER,-0.7332243,4.5447936,8.526949
MAGNETIC_FIELD,-12.112,-21.116,-35.829
GYROSCOPE,0.044898596,-0.043982297,-0.021991149
ORIENTATION,101,333,4
ACCELEROMETER,-0.581791,4.4777555,8.631696
MAGNETIC_FIELD,-12.112,-21.116,-35.261
GYROSCOPE,0.07238753,-0.032375857,-0.009773844
ORIENTATION,99,332,4
ACCELEROMETER,-0.60812724,4.583699,8.494628
MAGNETIC_FIELD,-12.112,-21.116,-35.261
GYROSCOPE,0.018020526,-0.04550946,-0.054367006
ORIENTATION,100,332,4
ACCELEROMETER,-0.587178,4.5801077,8.571242
MAGNETIC_FIELD,-12.112,-21.501,-35.261
GYROSCOPE,0.053450707,-0.01282817,-0.043982297
ORIENTATION,103,333,3
ACCELEROMETER,-0.44472298,4.4597993,8.611943
MAGNETIC_FIELD,-12.112,-21.501,-35.261
GYROSCOPE,0.04642576,-0.049785517,-0.0027488936
ORIENTATION,101,332,3
ACCELEROMETER,-0.45489833,4.565144,8.516175
MAGNETIC_FIELD,-11.807,-21.501,-35.768
GYROSCOPE,-0.02565634,-0.0106901415,-0.005497787
ORIENTATION,100,332,3
ACCELEROMETER,-0.50038815,4.5914803,8.565256
MAGNETIC_FIELD,-11.807,-21.011,-35.374
GYROSCOPE,3.0543262E-4,0.008857546,-0.037873644
ORIENTATION,101,333,3
ACCELEROMETER,-0.39504328,4.4843397,8.635885
MAGNETIC_FIELD,-11.807,-21.011,-35.374
GYROSCOPE,-0.038179077,-0.034208454,-0.03726278
ORIENTATION,101,333,4
ACCELEROMETER,-0.6087258,4.490924,8.677784
MAGNETIC_FIELD,-11.807,-21.011,-35.018
GYROSCOPE,0.004886922,-0.03023783,-0.002443461
ORIENTATION,103,333,3
ACCELEROMETER,-0.45130703,4.405331,8.670602
MAGNETIC_FIELD,-11.807,-21.011,-35.018
GYROSCOPE,-0.029321533,0.007941248,-0.01740966
ORIENTATION,104,333,2
ACCELEROMETER,-0.37708676,4.347272,8.697536
MAGNETIC_FIELD,-11.807,-21.011,-35.018
GYROSCOPE,-0.087964594,0.025045475,-0.055588737
ORIENTATION,104,334,3
ACCELEROMETER,-0.504578,4.3766007,8.775947
MAGNETIC_FIELD,-11.807,-21.42,-35.374
GYROSCOPE,-0.01038471,-0.022907447,-0.03390302
ORIENTATION,104,333,4
ACCELEROMETER,-0.66020113,4.431069,8.721478
MAGNETIC_FIELD,-11.807,-21.42,-35.374
GYROSCOPE,0.035430185,-0.004276057,-0.040011674
ORIENTATION,104,333,4
ACCELEROMETER,-0.6218939,4.4047327,8.637083
MAGNETIC_FIELD,-11.807,-21.42,-35.374
GYROSCOPE,-0.015577064,-0.007941248,-0.0070249503
ORIENTATION,106,334,3
ACCELEROMETER,-0.52073884,4.381389,8.893861
MAGNETIC_FIELD,-11.807,-21.012,-35.374
GYROSCOPE,-0.024740042,0.014049901,0.007941248
ORIENTATION,102,333,4
ACCELEROMETER,-0.599149,4.3915644,8.533533
MAGNETIC_FIELD,-11.807,-21.012,-35.374
GYROSCOPE,0.013133603,0.05375614,0.03359759
ORIENTATION,104,333,4
ACCELEROMETER,-0.5566519,4.3783965,8.763975
MAGNETIC_FIELD,-11.807,-21.012,-35.374
GYROSCOPE,-0.008857546,0.01863139,0.025045475
ORIENTATION,106,334,2
ACCELEROMETER,-0.3681085,4.24073,8.752603
MAGNETIC_FIELD,-11.807,-21.012,-35.374
GYROSCOPE,-0.07849618,-0.019242255,-0.022296581
ORIENTATION,105,334,3
ACCELEROMETER,-0.43873745,4.3077674,8.823831
MAGNETIC_FIELD,-11.807,-21.012,-35.374
GYROSCOPE,0.025350908,-0.013744468,0.022296581
ORIENTATION,105,334,4
ACCELEROMETER,-0.6655881,4.3688197,8.938752
MAGNETIC_FIELD,-11.807,-20.687,-35.374
GYROSCOPE,-0.13683382,-0.013744468,-0.0290161
ORIENTATION,102,333,3
ACCELEROMETER,-0.42676646,4.302979,8.604761
MAGNETIC_FIELD,-11.807,-20.687,-35.374
GYROSCOPE,0.080634214,-0.047647487,0.0
ORIENTATION,102,333,3
ACCELEROMETER,-0.49440265,4.350863,8.620323
MAGNETIC_FIELD,-12.147,-20.687,-35.694
GYROSCOPE,0.006414085,-0.049785517,-0.0033597588
ORIENTATION,102,334,2
ACCELEROMETER,-0.33159694,4.4017396,8.841787
MAGNETIC_FIELD,-12.147,-20.687,-35.694
GYROSCOPE,-0.023518313,-0.008857546,9.162979E-4
ORIENTATION,101,333,2
ACCELEROMETER,-0.32621,4.349067,8.681973
MAGNETIC_FIELD,-12.147,-20.687,-35.694
GYROSCOPE,0.011301007,-0.010079277,-0.025350908
ORIENTATION,103,334,2
ACCELEROMETER,-0.31064767,4.268263,8.759187
MAGNETIC_FIELD,-12.147,-20.687,-35.694
GYROSCOPE,0.029932396,-0.021380283,-0.018325957
ORIENTATION,101,333,3
ACCELEROMETER,-0.41240123,4.410718,8.805874
MAGNETIC_FIELD,-12.147,-20.687,-35.694
GYROSCOPE,-0.0067195175,-0.010079277,-0.010079277
ORIENTATION,102,334,3
ACCELEROMETER,-0.5201403,4.344279,8.716091
MAGNETIC_FIELD,-12.147,-20.687,-35.694
GYROSCOPE,0.011301007,0.03268129,-0.032375857
ORIENTATION,103,334,3
ACCELEROMETER,-0.45489833,4.2036195,8.588001
MAGNETIC_FIELD,-12.493,-20.687,-35.694
GYROSCOPE,0.0021380284,0.025961773,-0.06872234
ORIENTATION,105,335,2
ACCELEROMETER,-0.32202014,4.2940006,9.118318
MAGNETIC_FIELD,-12.493,-20.687,-35.694
GYROSCOPE,-0.07941248,-0.026267206,0.03726278
ORIENTATION,99,333,5
ACCELEROMETER,-0.7278373,4.3341036,8.361151
MAGNETIC_FIELD,-12.493,-20.687,-35.694
GYROSCOPE,0.061086524,-0.003970624,-0.093767814
ORIENTATION,104,334,1
ACCELEROMETER,-0.23104046,4.3041763,8.933365
MAGNETIC_FIELD,-12.493,-20.687,-35.694
GYROSCOPE,0.021991149,-0.015577064,0.02687807
ORIENTATION,103,334,3
ACCELEROMETER,-0.4914099,4.2820296,8.756793
MAGNETIC_FIELD,-12.82,-20.687,-35.694
GYROSCOPE,0.053450707,0.064751714,-0.08735373
ORIENTATION,101,333,5
ACCELEROMETER,-0.7272388,4.2874165,8.561666
MAGNETIC_FIELD,-12.82,-20.993,-35.694
GYROSCOPE,0.04917465,0.03145956,-0.07727446
ORIENTATION,102,333,5
ACCELEROMETER,-0.7469909,4.4113164,8.772954
MAGNETIC_FIELD,-12.82,-20.993,-35.694
GYROSCOPE,-0.015882496,-0.005192355,-0.042760566
ORIENTATION,100,332,5
ACCELEROMETER,-0.6901286,4.381389,8.388085
MAGNETIC_FIELD,-12.82,-20.993,-36.009
GYROSCOPE,-0.01160644,0.022602014,-0.0061086523
ORIENTATION,104,334,4
ACCELEROMETER,-0.6811504,4.308366,8.905831
MAGNETIC_FIELD,-12.82,-20.993,-36.009
GYROSCOPE,-0.007941248,-0.01282817,-3.0543262E-4
ORIENTATION,103,334,5
ACCELEROMETER,-0.82480246,4.2622776,8.648455
MAGNETIC_FIELD,-12.82,-20.993,-36.009
GYROSCOPE,0.029626964,0.055283304,0.08399397
ORIENTATION,100,333,6
ACCELEROMETER,-0.8583213,4.4538136,8.69155
MAGNETIC_FIELD,-12.82,-20.993,-36.009
GYROSCOPE,0.084910266,0.01282817,-0.008857546
ORIENTATION,103,334,6
ACCELEROMETER,-0.9528923,4.349067,8.81605
MAGNETIC_FIELD,-12.82,-21.299,-36.009
GYROSCOPE,0.056505036,0.06414085,0.022907447
ORIENTATION,97,331,5
ACCELEROMETER,-0.7302315,4.577115,8.316858
MAGNETIC_FIELD,-12.82,-21.299,-36.009
GYROSCOPE,0.067500606,-0.014660766,0.0720821
ORIENTATION,100,332,3
ACCELEROMETER,-0.5267244,4.530428,8.635287
MAGNETIC_FIELD,-12.82,-21.299,-36.009
GYROSCOPE,-0.025350908,-0.00580322,0.09315695
ORIENTATION,101,333,4
ACCELEROMETER,-0.5482722,4.5118732,8.839992
MAGNETIC_FIELD,-12.82,-21.299,-36.009
GYROSCOPE,-0.032986723,0.024129177,-0.029626964
ORIENTATION,98,332,4
ACCELEROMETER,-0.59136784,4.542998,8.398261
MAGNETIC_FIELD,-12.82,-21.655,-36.009
GYROSCOPE,0.07086037,9.162979E-4,0.016798794
ORIENTATION,105,334,3
ACCELEROMETER,-0.39923313,4.4424415,8.980052
MAGNETIC_FIELD,-12.82,-21.655,-36.009
GYROSCOPE,-0.13927728,-0.10293079,0.035124753
ORIENTATION,100,332,2
ACCELEROMETER,-0.3196259,4.557363,8.620922
MAGNETIC_FIELD,-12.82,-21.655,-36.009
GYROSCOPE,0.053145275,-0.01038471,-0.012217305
ORIENTATION,103,333,4
ACCELEROMETER,-0.5482722,4.413112,8.659229
MAGNETIC_FIELD,-12.82,-21.655,-36.009
GYROSCOPE,-0.035430185,0.021991149,-0.09407325
ORIENTATION,103,333,3
ACCELEROMETER,-0.49919105,4.3418846,8.623316
MAGNETIC_FIELD,-12.82,-21.655,-36.009
GYROSCOPE,0.0061086523,-0.07086037,-0.013133603
ORIENTATION,105,334,2
ACCELEROMETER,-0.3453636,4.3634324,8.921394
MAGNETIC_FIELD,-12.82,-21.655,-36.009
GYROSCOPE,-0.0143553335,-0.07086037,-0.024129177
ORIENTATION,104,334,3
ACCELEROMETER,-0.5243302,4.368221,8.759786
MAGNETIC_FIELD,-12.82,-21.655,-36.009
GYROSCOPE,-0.02321288,0.009468411,-0.017715093
ORIENTATION,103,333,3
ACCELEROMETER,-0.47345337,4.4244847,8.734647
MAGNETIC_FIELD,-12.82,-21.655,-36.009
GYROSCOPE,0.11942416,-0.034513887,-0.025961773
ORIENTATION,103,333,2
ACCELEROMETER,-0.35673606,4.3281183,8.566454
MAGNETIC_FIELD,-12.82,-21.655,-36.009
GYROSCOPE,-0.018936822,-0.011301007,-0.015882496
ORIENTATION,103,333,2
ACCELEROMETER,-0.35913026,4.484938,8.901642
MAGNETIC_FIELD,-12.82,-21.655,-36.009
GYROSCOPE,-0.009468411,9.162979E-4,0.017715093
ORIENTATION,101,332,3
ACCELEROMETER,-0.39085343,4.4741645,8.499416
MAGNETIC_FIELD,-12.82,-21.655,-36.009
GYROSCOPE,0.022907447,0.0076358155,-0.0030543262
ORIENTATION,104,333,1
ACCELEROMETER,-0.22266077,4.4538136,8.842984
MAGNETIC_FIELD,-12.82,-21.655,-36.009
GYROSCOPE,-0.029932396,-0.025350908,0.06047566
ORIENTATION,103,333,2
ACCELEROMETER,-0.30047232,4.398747,8.701127
MAGNETIC_FIELD,-12.82,-21.655,-36.009
GYROSCOPE,-0.101098195,0.019242255,0.019242255
ORIENTATION,103,333,1
ACCELEROMETER,-0.17717093,4.4179006,8.69155
MAGNETIC_FIELD,-12.82,-21.655,-36.009
GYROSCOPE,0.006414085,-0.018020526,0.03359759
ORIENTATION,102,333,2
ACCELEROMETER,-0.24779987,4.4167037,8.561666
MAGNETIC_FIELD,-12.82,-21.655,-36.009
GYROSCOPE,0.048258353,-0.018020526,0.01282817
ORIENTATION,103,333,1
ACCELEROMETER,-0.22146365,4.4597993,8.784326
MAGNETIC_FIELD,-12.82,-21.655,-35.694
GYROSCOPE,-9.162979E-4,0.0061086523,-0.005497787
ORIENTATION,103,333,2
ACCELEROMETER,-0.2717419,4.4406457,8.738836
MAGNETIC_FIELD,-13.208,-21.655,-35.694
GYROSCOPE,-0.008857546,-0.004886922,-0.0143553335
ORIENTATION,104,333,0
ACCELEROMETER,-0.0688333,4.390966,8.675988
MAGNETIC_FIELD,-13.208,-21.655,-35.694
GYROSCOPE,0.008857546,-0.02076942,0.0012217305
ORIENTATION,106,334,0
ACCELEROMETER,-0.04129998,4.289212,8.79929
MAGNETIC_FIELD,-13.208,-21.655,-35.694
GYROSCOPE,-0.027794369,0.020463986,0.0018325958
ORIENTATION,107,334,0
ACCELEROMETER,-0.05746084,4.279037,8.868123
MAGNETIC_FIELD,-13.208,-21.655,-35.694
GYROSCOPE,0.01282817,-0.008246681,-0.026572637
ORIENTATION,104,333,3
ACCELEROMETER,-0.40761283,4.401141,8.771158
MAGNETIC_FIELD,-13.543,-21.655,-35.694
GYROSCOPE,0.057421334,0.02687807,-0.07391469
ORIENTATION,101,333,2
ACCELEROMETER,-0.2801216,4.333505,8.331821
MAGNETIC_FIELD,-13.543,-21.269,-35.694
GYROSCOPE,-0.011301007,0.0061086523,-0.062002823
ORIENTATION,100,333,4
ACCELEROMETER,-0.6135142,4.4915223,8.629301
MAGNETIC_FIELD,-13.543,-21.269,-35.694
GYROSCOPE,-0.08307768,0.004276057,0.0061086523
ORIENTATION,106,335,2
ACCELEROMETER,-0.30645782,4.2491093,8.98484
MAGNETIC_FIELD,-13.543,-21.269,-35.694
GYROSCOPE,-0.0070249503,9.162979E-4,0.099265605
ORIENTATION,105,334,1
ACCELEROMETER,-0.094570965,4.3394904,8.968081
MAGNETIC_FIELD,-13.543,-21.269,-35.694
GYROSCOPE,-0.13316862,0.057726767,-0.008857546
ORIENTATION,105,334,2
ACCELEROMETER,-0.2705448,4.222773,8.829217
MAGNETIC_FIELD,-13.543,-20.95,-35.694
GYROSCOPE,0.06811147,-0.023823744,0.006414085
ORIENTATION,100,333,1
ACCELEROMETER,-0.207697,4.4286747,8.643068
MAGNETIC_FIELD,-13.543,-20.95,-35.694
GYROSCOPE,0.012217305,-0.0143553335,0.03023783
ORIENTATION,102,334,1
ACCELEROMETER,-0.20470424,4.3263226,8.763975
MAGNETIC_FIELD,-13.543,-20.95,-35.694
GYROSCOPE,-0.061086524,0.025961773,-0.009773844
ORIENTATION,104,334,1
ACCELEROMETER,-0.16998832,4.288614,8.855554
MAGNETIC_FIELD,-13.543,-20.95,-35.694
GYROSCOPE,-0.018325957,-0.0106901415,-0.029321533
ORIENTATION,104,334,1
ACCELEROMETER,-0.15502456,4.2395325,8.805275
MAGNETIC_FIELD,-13.543,-20.645,-35.694
GYROSCOPE,0.018325957,-0.058337633,0.018020526
ORIENTATION,100,333,2
ACCELEROMETER,-0.31483752,4.3742065,8.660426
MAGNETIC_FIELD,-13.543,-20.645,-35.694
GYROSCOPE,-0.043676864,0.03268129,-0.004886922
ORIENTATION,101,334,1
ACCELEROMETER,-0.22445641,4.299388,8.682572
MAGNETIC_FIELD,-13.543,-20.645,-35.694
GYROSCOPE,-0.015882496,0.0012217305,-0.019242255
ORIENTATION,103,334,1
ACCELEROMETER,-0.107140526,4.244321,8.835203
MAGNETIC_FIELD,-13.543,-20.645,-35.694
GYROSCOPE,0.0015271631,-0.0027488936,0.005497787
ORIENTATION,102,334,0
ACCELEROMETER,-0.05626374,4.261679,8.738836
MAGNETIC_FIELD,-13.543,-20.645,-35.694
GYROSCOPE,0.005497787,0.0076358155,-0.009773844
ORIENTATION,106,335,360
ACCELEROMETER,0.023343466,4.1784806,9.07582
MAGNETIC_FIELD,-13.543,-20.307,-35.694
GYROSCOPE,0.02107485,-0.006414085,-0.009773844
ORIENTATION,101,334,1
ACCELEROMETER,-0.1412579,4.1892543,8.659827
MAGNETIC_FIELD,-13.543,-20.307,-35.694
GYROSCOPE,0.0067195175,0.013133603,-0.04917465
ORIENTATION,104,335,1
ACCELEROMETER,-0.16699557,4.198831,9.029732
MAGNETIC_FIELD,-13.543,-20.307,-35.694
GYROSCOPE,-0.03023783,-0.014966198,0.005497787
ORIENTATION,101,334,2
ACCELEROMETER,-0.29328972,4.336498,8.884284
MAGNETIC_FIELD,-13.543,-20.307,-35.694
GYROSCOPE,0.013744468,0.025961773,-0.015577064
ORIENTATION,103,335,1
ACCELEROMETER,-0.13108255,4.1916485,8.852561
MAGNETIC_FIELD,-13.543,-20.307,-35.694
GYROSCOPE,0.009468411,0.019242255,-0.008246681
ORIENTATION,101,334,2
ACCELEROMETER,-0.3321955,4.291008,8.774151
MAGNETIC_FIELD,-13.543,-20.307,-35.694
GYROSCOPE,0.05467244,6.1086525E-4,-0.0021380284
ORIENTATION,101,334,1
ACCELEROMETER,-0.17836803,4.2742486,8.780735
MAGNETIC_FIELD,-13.543,-20.307,-35.694
GYROSCOPE,-0.0067195175,-0.003970624,-0.0021380284
ORIENTATION,101,334,1
ACCELEROMETER,-0.2088941,4.256891,8.741829
MAGNETIC_FIELD,-13.543,-20.307,-35.694
GYROSCOPE,0.044593163,0.019547688,-0.021685716
ORIENTATION,101,334,1
ACCELEROMETER,-0.16101007,4.2969937,8.77834
MAGNETIC_FIELD,-13.543,-20.307,-35.694
GYROSCOPE,-0.007330383,0.01740966,-0.023823744
ORIENTATION,99,333,2
ACCELEROMETER,-0.33279404,4.358644,8.698733
MAGNETIC_FIELD,-13.543,-20.307,-35.694
GYROSCOPE,-0.0015271631,6.1086525E-4,-0.035430185
ORIENTATION,101,334,1
ACCELEROMETER,-0.15442601,4.262876,8.760384
MAGNETIC_FIELD,-13.543,-20.307,-35.694
GYROSCOPE,0.019242255,0.009162978,0.004886922
ORIENTATION,101,334,2
ACCELEROMETER,-0.2705448,4.335301,8.860342
MAGNETIC_FIELD,-13.543,-20.307,-35.694
GYROSCOPE,-0.019242255,0.02321288,0.0143553335
ORIENTATION,99,333,2
ACCELEROMETER,-0.27234045,4.361637,8.643666
MAGNETIC_FIELD,-13.543,-20.307,-35.694
GYROSCOPE,-0.008552114,-3.0543262E-4,0.013744468
ORIENTATION,112,338,358
ACCELEROMETER,0.23822308,3.6254199,8.896255
MAGNETIC_FIELD,-13.543,-20.307,-35.694
GYROSCOPE,-0.52656585,0.01282817,-0.02687807
ORIENTATION,114,339,1
ACCELEROMETER,-0.10235212,3.5978866,9.268554
MAGNETIC_FIELD,-13.543,-19.99,-35.694
GYROSCOPE,-0.10354166,-0.23304509,-0.006414085
ORIENTATION,112,339,2
ACCELEROMETER,-0.37469256,3.6697125,9.48463
MAGNETIC_FIELD,-13.543,-19.99,-35.694
GYROSCOPE,0.19608775,0.05009095,0.041233405
ORIENTATION,101,335,4
ACCELEROMETER,-0.6805518,4.168904,8.781932
MAGNETIC_FIELD,-13.543,-19.636,-35.694
GYROSCOPE,0.30818152,0.15974127,0.02076942
ORIENTATION,86,329,4
ACCELEROMETER,-0.6206968,4.947618,8.112753
MAGNETIC_FIELD,-13.543,-19.636,-35.694
GYROSCOPE,0.5705481,0.10293079,-0.047036625
ORIENTATION,81,326,6
ACCELEROMETER,-0.8726865,5.2929816,7.837419
MAGNETIC_FIELD,-13.168,-20.051,-35.694
GYROSCOPE,0.03176499,0.029321533,0.03604105
ORIENTATION,96,332,2
ACCELEROMETER,-0.24241292,4.63278,8.854955
MAGNETIC_FIELD,-13.168,-22.276,-35.694
GYROSCOPE,-0.9056077,0.119729586,0.095294975
ORIENTATION,109,334,359
ACCELEROMETER,0.08319851,4.5765166,9.475652
MAGNETIC_FIELD,-13.168,-20.535,-35.694
GYROSCOPE,0.40744713,-0.7672467,0.07360926
ORIENTATION,78,322,10
ACCELEROMETER,-1.1845313,5.5120506,6.941389
MAGNETIC_FIELD,-13.168,-21.27,-35.694
GYROSCOPE,0.11453723,0.37598756,-0.17867808
ORIENTATION,97,331,6
ACCELEROMETER,-0.9804256,4.847061,8.72088
MAGNETIC_FIELD,-12.751,-24.287,-35.694
GYROSCOPE,-0.6780604,0.13316862,0.06047566
ORIENTATION,93,326,2
ACCELEROMETER,-0.25498247,5.3223104,7.9864583
MAGNETIC_FIELD,-12.751,-22.227,-35.694
GYROSCOPE,0.97097033,-0.4877759,0.022602014
ORIENTATION,101,331,2
ACCELEROMETER,-0.2896984,4.6764746,8.552687
MAGNETIC_FIELD,-12.751,-23.825,-35.359
GYROSCOPE,-0.8561276,0.3576616,0.10293079
ORIENTATION,95,327,2
ACCELEROMETER,-0.3238158,5.192425,8.109759
MAGNETIC_FIELD,-12.751,-21.94,-35.359
GYROSCOPE,0.21471913,-0.41599923,-0.07819075
ORIENTATION,101,332,4
ACCELEROMETER,-0.5626374,4.8614264,9.005191
MAGNETIC_FIELD,-12.751,-24.023,-35.359
GYROSCOPE,-0.42241332,0.38881573,-0.032070424
ORIENTATION,89,324,6
ACCELEROMETER,-0.79607207,5.2959743,7.2634096
MAGNETIC_FIELD,-12.751,-23.231,-35.359
GYROSCOPE,0.6960809,-0.14844026,-0.09621128
ORIENTATION,118,336,1
ACCELEROMETER,-0.24361002,4.32333,9.856929
MAGNETIC_FIELD,-12.751,-24.508,-35.359
GYROSCOPE,0.009468411,0.16615535,-0.07360926
ORIENTATION,108,331,4
ACCELEROMETER,-0.62608373,4.5926776,8.341997
MAGNETIC_FIELD,-12.751,-21.073,-35.359
GYROSCOPE,-0.39461896,0.22815818,-0.028710667
ORIENTATION,83,325,7
ACCELEROMETER,-0.931943,5.1505265,7.21373
MAGNETIC_FIELD,-12.751,-21.488,-35.359
GYROSCOPE,0.569021,-0.11942416,-0.11759156
ORIENTATION,96,330,5
ACCELEROMETER,-0.78529817,4.8536453,8.350976
MAGNETIC_FIELD,-12.751,-23.307,-35.359
GYROSCOPE,0.752586,-0.004581489,0.018325957
ORIENTATION,115,335,2
ACCELEROMETER,-0.30526072,4.631583,9.909002
MAGNETIC_FIELD,-12.751,-22.778,-35.035
GYROSCOPE,-0.43585235,0.2846632,0.009468411
ORIENTATION,98,329,3
ACCELEROMETER,-0.47105917,4.7399206,7.9846625
MAGNETIC_FIELD,-12.39,-21.069,-35.035
GYROSCOPE,-0.20738874,-0.10995574,-0.059253927
ORIENTATION,94,330,4
ACCELEROMETER,-0.51834464,4.666898,7.9972324
MAGNETIC_FIELD,-12.39,-21.693,-35.035
GYROSCOPE,0.14019357,-0.3304781,0.004886922
ORIENTATION,112,336,2
ACCELEROMETER,-0.3752911,4.3760023,9.642049
MAGNETIC_FIELD,-12.39,-21.693,-35.035
GYROSCOPE,-0.5018258,0.111177474,-0.029932396
ORIENTATION,101,332,3
ACCELEROMETER,-0.38486794,4.6375685,8.63828
MAGNETIC_FIELD,-12.39,-20.869,-35.035
GYROSCOPE,-0.15760323,-0.10262536,-0.020463986
ORIENTATION,92,329,5
ACCELEROMETER,-0.6703765,4.791396,8.028955
MAGNETIC_FIELD,-12.39,-21.945,-35.035
GYROSCOPE,0.47586402,-0.07269296,-0.08368854
ORIENTATION,117,337,2
ACCELEROMETER,-0.31244332,4.1036615,9.870695
MAGNETIC_FIELD,-12.39,-21.945,-35.035
GYROSCOPE,-0.93737274,0.07269296,-0.036651913
ORIENTATION,102,332,3
ACCELEROMETER,-0.48003745,4.622605,8.623316
MAGNETIC_FIELD,-12.39,-20.512,-35.035
GYROSCOPE,-0.09193522,-0.24312437,0.042760566
ORIENTATION,97,332,2
ACCELEROMETER,-0.22146365,4.519056,8.428787
MAGNETIC_FIELD,-12.39,-21.669,-35.035
GYROSCOPE,0.5222898,0.052534413,-0.076052725
ORIENTATION,104,333,2
ACCELEROMETER,-0.24540567,4.5244427,8.727464
MAGNETIC_FIELD,-12.39,-21.669,-35.035
GYROSCOPE,-0.12797627,0.007330383,0.05131268
ORIENTATION,100,331,3
ACCELEROMETER,-0.43754035,4.6722846,8.467094
MAGNETIC_FIELD,-12.39,-21.669,-35.035
GYROSCOPE,0.048563786,0.008246681,-0.02443461
ORIENTATION,100,331,2
ACCELEROMETER,-0.36152446,4.7016134,8.5622635
MAGNETIC_FIELD,-12.39,-21.669,-35.035
GYROSCOPE,0.10354166,-0.007941248,-0.022602014
ORIENTATION,110,335,0
ACCELEROMETER,-0.023942016,4.390966,9.251794
MAGNETIC_FIELD,-12.39,-21.669,-35.035
GYROSCOPE,-0.48258355,-0.0036651916,0.03268129
ORIENTATION,93,329,3
ACCELEROMETER,-0.45549688,4.9398365,8.130709
MAGNETIC_FIELD,-12.39,-21.669,-35.035
GYROSCOPE,-0.074830994,-0.269697,-0.06841691
ORIENTATION,104,333,3
ACCELEROMETER,-0.44951138,4.369418,8.412626
MAGNETIC_FIELD,-12.39,-21.669,-35.035
GYROSCOPE,0.7174612,-0.129198,-0.034513887
ORIENTATION,125,340,359
ACCELEROMETER,0.092176765,3.6804867,10.216658
MAGNETIC_FIELD,-12.39,-21.359,-35.035
GYROSCOPE,-0.57971114,0.1459968,-0.12339478
ORIENTATION,107,334,358
ACCELEROMETER,0.32142156,4.1982327,8.492832
MAGNETIC_FIELD,-12.39,-21.359,-35.035
GYROSCOPE,-0.66920286,-0.050701816,0.10445796
ORIENTATION,86,326,7
ACCELEROMETER,-0.80684596,4.706402,6.8665705
MAGNETIC_FIELD,-12.39,-20.939,-35.035
GYROSCOPE,0.46761733,-0.31948254,0.05375614
ORIENTATION,105,334,2
ACCELEROMETER,-0.3489549,4.079121,8.401853
MAGNETIC_FIELD,-12.39,-20.939,-35.035
GYROSCOPE,1.5833627,0.29260445,-0.2764165
ORIENTATION,112,336,0
ACCELEROMETER,-0.049679685,3.9426517,8.917803
MAGNETIC_FIELD,-12.39,-20.939,-35.356
GYROSCOPE,-0.055588737,0.28710666,0.17134771
ORIENTATION,111,336,360
ACCELEROMETER,0.030526072,3.8373067,8.612542
MAGNETIC_FIELD,-12.724,-20.613,-35.356
GYROSCOPE,-0.50610185,-0.05222898,-0.010995574
ORIENTATION,113,338,1
ACCELEROMETER,-0.14784196,3.7565024,9.135675
MAGNETIC_FIELD,-12.724,-20.613,-35.356
GYROSCOPE,0.08582657,-0.3381139,-0.017715093
ORIENTATION,113,337,360
ACCELEROMETER,0.037708677,3.86484,9.234436
MAGNETIC_FIELD,-12.724,-19.755,-35.356
GYROSCOPE,0.014966198,0.15577064,-0.051923547
ORIENTATION,108,336,359
ACCELEROMETER,0.088585466,3.9749734,9.1350765
MAGNETIC_FIELD,-12.724,-19.755,-35.356
GYROSCOPE,-0.12583824,-0.06261369,0.16584991
ORIENTATION,98,333,3
ACCELEROMETER,-0.415394,4.18686,8.258799
MAGNETIC_FIELD,-12.724,-19.755,-35.356
GYROSCOPE,0.005497787,0.1133155,0.27885997
ORIENTATION,109,337,359
ACCELEROMETER,0.12150574,3.8989575,9.094376
MAGNETIC_FIELD,-12.724,-19.755,-35.356
GYROSCOPE,-0.083383106,0.32986724,0.09896017
ORIENTATION,107,336,0
ACCELEROMETER,-0.01436521,3.788824,8.694544
MAGNETIC_FIELD,-13.108,-19.755,-35.356
GYROSCOPE,-0.17073683,0.1423316,0.0852157
ORIENTATION,112,339,1
ACCELEROMETER,-0.08439561,3.7116113,9.431957
MAGNETIC_FIELD,-13.108,-19.351,-35.658
GYROSCOPE,-0.15851954,-0.11362094,-0.010079277
ORIENTATION,101,335,0
ACCELEROMETER,-0.074818805,4.0438066,8.69155
MAGNETIC_FIELD,-13.108,-19.351,-35.658
GYROSCOPE,0.24404067,-0.003970624,-0.04550946
ORIENTATION,83,328,4
ACCELEROMETER,-0.4878186,4.38498,7.0251865
MAGNETIC_FIELD,-13.108,-19.351,-35.658
GYROSCOPE,0.5458081,-0.029321533,-0.43035457
ORIENTATION,105,337,1
ACCELEROMETER,-0.14664486,4.0934863,9.421184
MAGNETIC_FIELD,-13.429,-19.692,-35.658
GYROSCOPE,0.03268129,-0.22571471,-0.06688975
ORIENTATION,103,336,2
ACCELEROMETER,-0.26515785,3.942053,8.714894
MAGNETIC_FIELD,-13.429,-19.692,-35.658
GYROSCOPE,0.095294975,0.024740042,-0.14385876
ORIENTATION,97,333,6
ACCELEROMETER,-0.87328506,4.0779243,8.013991
MAGNETIC_FIELD,-13.429,-19.692,-35.658
GYROSCOPE,0.21533,-0.096516706,-0.18936823
ORIENTATION,93,331,8
ACCELEROMETER,-0.9391256,4.0078936,7.129933
MAGNETIC_FIELD,-13.731,-19.692,-35.658
GYROSCOPE,0.09712757,-0.07941248,0.022907447
ORIENTATION,106,337,3
ACCELEROMETER,-0.49440265,4.11264,9.629479
MAGNETIC_FIELD,-13.731,-19.692,-36.058
GYROSCOPE,-0.064446285,0.03756821,0.0290161
ORIENTATION,105,337,1
ACCELEROMETER,-0.095169514,3.9749734,9.248202
MAGNETIC_FIELD,-13.731,-19.692,-36.058
GYROSCOPE,-0.25411993,0.22540927,0.10903945
ORIENTATION,92,331,7
ACCELEROMETER,-0.98341835,4.308366,7.630321
MAGNETIC_FIELD,-13.731,-19.692,-36.058
GYROSCOPE,0.2660318,0.03481932,-0.18753563
ORIENTATION,87,330,3
ACCELEROMETER,-0.38307226,4.219182,7.2233067
MAGNETIC_FIELD,-13.731,-19.692,-36.058
GYROSCOPE,0.43799037,-0.15607607,-0.09560041
ORIENTATION,101,335,4
ACCELEROMETER,-0.53689975,3.9881415,8.558673
MAGNETIC_FIELD,-13.731,-19.692,-36.058
GYROSCOPE,-0.07788532,-0.076358154,-0.05681047
ORIENTATION,111,339,3
ACCELEROMETER,-0.41718966,3.4955344,9.303867
MAGNETIC_FIELD,-13.731,-19.692,-36.058
GYROSCOPE,0.15454891,-0.022602014,-0.058643065
ORIENTATION,89,331,1
ACCELEROMETER,-0.14784196,4.6124296,8.291121
MAGNETIC_FIELD,-14.044,-19.692,-36.058
GYROSCOPE,0.22204952,-0.022296581,-0.10720685
ORIENTATION,89,331,0
ACCELEROMETER,-0.053869538,4.76506,8.640076
MAGNETIC_FIELD,-14.044,-20.013,-36.058
GYROSCOPE,0.28802297,-0.10567969,-0.007330383
ORIENTATION,88,330,2
ACCELEROMETER,-0.29987377,5.192425,8.883087
MAGNETIC_FIELD,-14.044,-20.578,-36.058
GYROSCOPE,0.32620203,-0.15851954,-0.021380283
