ORIENTATION,0,0,0
ACCELEROMETER,-1.733402,3.1585505,9.619903
MAGNETIC_FIELD,-17.14,-30.953,-42.187
GYROSCOPE,-0.5522222,-0.21777347,-0.27305678
ORIENTATION,137,350,7
ACCELEROMETER,-1.0528502,1.666963,9.193734
MAGNETIC_FIELD,-20.059,-29.646,-39.947
GYROSCOPE,0.44593164,-0.21777347,-0.24556783
ORIENTATION,119,337,1
ACCELEROMETER,-0.15801731,3.54282,8.30369
MAGNETIC_FIELD,-18.203,-25.842,-32.518
GYROSCOPE,0.17715092,-0.2415972,-0.06872234
ORIENTATION,131,344,360
ACCELEROMETER,0.025139118,2.919729,10.168175
MAGNETIC_FIELD,-16.836,-27.838,-28.581
GYROSCOPE,-0.2761111,-0.009468411,-0.043676864
ORIENTATION,137,341,358
ACCELEROMETER,0.39504328,3.3213563,9.504981
MAGNETIC_FIELD,-17.834,-27.838,-28.581
GYROSCOPE,0.073303826,-0.3145956,0.022296581
ORIENTATION,129,336,357
ACCELEROMETER,0.4297592,3.8666358,8.604761
MAGNETIC_FIELD,-18.557,-28.172,-28.581
GYROSCOPE,0.11301007,-0.10903945,0.028710667
ORIENTATION,132,339,358
ACCELEROMETER,0.3417723,3.4081461,8.831612
MAGNETIC_FIELD,-17.468,-28.95,-28.581
GYROSCOPE,-0.13072516,0.093462385,-0.02443461
ORIENTATION,141,344,358
ACCELEROMETER,0.37469256,2.734777,9.770139
MAGNETIC_FIELD,-16.899,-28.541,-29.516
GYROSCOPE,-0.3182608,-0.04062254,-0.013744468
ORIENTATION,140,344,358
ACCELEROMETER,0.3669114,2.7832594,9.518747
MAGNETIC_FIELD,-16.899,-26.893,-32.324
GYROSCOPE,0.16279559,0.018325957,0.064446285
ORIENTATION,139,346,357
ACCELEROMETER,0.51235914,2.5270798,9.770139
MAGNETIC_FIELD,-16.899,-26.893,-31.318
GYROSCOPE,0.39553526,0.024740042,-3.0543262E-4
ORIENTATION,119,332,357
ACCELEROMETER,0.46028528,4.2898107,7.955932
MAGNETIC_FIELD,-15.649,-27.563,-30.529
GYROSCOPE,0.06811147,-0.05222898,0.08002335
ORIENTATION,138,340,357
ACCELEROMETER,0.50517654,3.3423057,9.31524
MAGNETIC_FIELD,-14.598,-29.946,-29.446
GYROSCOPE,-0.11575896,-0.04795292,0.034513887
ORIENTATION,141,337,356
ACCELEROMETER,0.56802434,3.787627,8.963891
MAGNETIC_FIELD,-17.115,-28.746,-32.398
GYROSCOPE,-0.08155051,-0.051923547,-0.014049901
ORIENTATION,131,337,358
ACCELEROMETER,0.3585317,3.70802,8.938752
MAGNETIC_FIELD,-17.771,-29.367,-33.932
GYROSCOPE,0.0983493,-0.035124753,-0.003970624
ORIENTATION,132,338,357
ACCELEROMETER,0.4938041,3.6541502,9.087193
MAGNETIC_FIELD,-17.388,-29.367,-33.261
GYROSCOPE,-0.040317107,0.021685716,-0.032375857
ORIENTATION,133,337,356
ACCELEROMETER,0.6194997,3.7696705,9.069236
MAGNETIC_FIELD,-18.795,-28.872,-36.54
GYROSCOPE,0.053145275,0.011301007,-0.026572637
ORIENTATION,127,338,357
ACCELEROMETER,0.39923313,3.578733,9.016563
MAGNETIC_FIELD,-20.55,-28.872,-36.54
GYROSCOPE,0.003970624,0.036957346,-0.04062254
ORIENTATION,124,338,357
ACCELEROMETER,0.5153519,3.639785,8.952518
MAGNETIC_FIELD,-20.004,-28.872,-37.03
GYROSCOPE,-0.027794369,-0.0012217305,0.03848451
ORIENTATION,127,340,358
ACCELEROMETER,0.30645782,3.3063924,9.040505
MAGNETIC_FIELD,-20.556,-28.872,-34.848
GYROSCOPE,-0.07544186,-0.01985312,0.003970624
ORIENTATION,126,338,356
ACCELEROMETER,0.56203884,3.551798,8.907627
MAGNETIC_FIELD,-19.087,-28.288,-33.718
GYROSCOPE,0.051618114,0.10720685,-0.0027488936
ORIENTATION,129,339,357
ACCELEROMETER,0.4213795,3.5194764,9.121908
MAGNETIC_FIELD,-19.087,-28.288,-32.989
GYROSCOPE,-0.09712757,-0.03726278,-0.0711658
ORIENTATION,131,340,357
ACCELEROMETER,0.48482585,3.3243492,9.181165
MAGNETIC_FIELD,-18.644,-28.288,-32.212
GYROSCOPE,-0.09865474,-0.0067195175,-0.013744468
ORIENTATION,132,340,358
ACCELEROMETER,0.28909984,3.2620997,9.134478
MAGNETIC_FIELD,-18.093,-28.288,-32.539
GYROSCOPE,-0.05100725,-0.0106901415,0.00580322
ORIENTATION,133,341,358
ACCELEROMETER,0.3489549,3.245939,9.297284
MAGNETIC_FIELD,-18.093,-28.288,-32.159
GYROSCOPE,-0.12034045,0.01985312,-0.03634648
ORIENTATION,131,339,358
ACCELEROMETER,0.29328972,3.4141316,9.02614
MAGNETIC_FIELD,-18.093,-28.288,-31.715
GYROSCOPE,0.016187929,-0.06047566,0.035124753
ORIENTATION,127,335,355
ACCELEROMETER,0.74758947,3.9725792,8.448539
MAGNETIC_FIELD,-18.482,-28.288,-31.715
GYROSCOPE,0.10048734,0.11759156,0.029626964
ORIENTATION,128,337,356
ACCELEROMETER,0.5859809,3.8115692,8.830415
MAGNETIC_FIELD,-18.482,-28.288,-32.379
GYROSCOPE,-0.22113322,-0.017104227,-0.16249016
ORIENTATION,129,336,354
ACCELEROMETER,0.9660604,4.009091,9.093178
MAGNETIC_FIELD,-18.167,-28.288,-31.295
GYROSCOPE,-0.49388456,-0.2779437,0.03756821
ORIENTATION,132,340,359
ACCELEROMETER,0.19093758,3.2507274,9.075222
MAGNETIC_FIELD,-17.587,-28.288,-31.857
GYROSCOPE,0.17287487,0.33536503,-0.26267207
ORIENTATION,138,347,1
ACCELEROMETER,-0.31004912,2.834735,12.218808
MAGNETIC_FIELD,-14.385,-28.288,-33.111
GYROSCOPE,0.022296581,0.0076358155,-0.16432275
ORIENTATION,127,335,2
ACCELEROMETER,-0.320823,3.5194764,7.5112095
MAGNETIC_FIELD,-12.896,-27.612,-33.544
GYROSCOPE,0.63621616,-0.102319926,0.23548855
ORIENTATION,131,335,360
ACCELEROMETER,0.021547815,3.70802,8.093599
MAGNETIC_FIELD,-10.879,-27.995,-33.168
GYROSCOPE,0.20219639,-0.22143865,0.2556471
ORIENTATION,147,346,3
ACCELEROMETER,-0.52971715,3.039439,11.968615
MAGNETIC_FIELD,-10.107,-27.995,-33.964
GYROSCOPE,-0.625526,-0.027794369,-0.3100141
ORIENTATION,153,343,357
ACCELEROMETER,0.40462008,2.754529,8.871715
MAGNETIC_FIELD,-7.69,-27.995,-36.514
GYROSCOPE,0.50610185,0.14721853,-0.16890424
ORIENTATION,145,334,358
ACCELEROMETER,0.26635495,3.3740287,6.919243
MAGNETIC_FIELD,-4.048,-29.867,-35.589
GYROSCOPE,-0.8961393,0.1151481,-0.028710667
ORIENTATION,169,333,357
ACCELEROMETER,0.5351041,4.935647,9.566631
MAGNETIC_FIELD,-2.738,-32.173,-34.562
GYROSCOPE,0.18478674,0.099571034,-0.30940324
ORIENTATION,169,357,5
ACCELEROMETER,-1.2485762,0.7793127,14.4130945
MAGNETIC_FIELD,-2.337,-33.332,-33.857
GYROSCOPE,-0.4529566,0.10781772,-0.03145956
ORIENTATION,167,352,7
ACCELEROMETER,-1.0127473,1.1366472,8.425196
MAGNETIC_FIELD,-2.011,-32.92,-33.177
GYROSCOPE,-0.06078109,0.13622294,0.1826487
ORIENTATION,168,340,4
ACCELEROMETER,-0.5386954,2.6898856,7.498041
MAGNETIC_FIELD,-2.343,-32.92,-33.177
GYROSCOPE,-0.2855795,0.055283304,0.16249016
ORIENTATION,176,352,359
ACCELEROMETER,0.2172738,1.6753427,12.5186825
MAGNETIC_FIELD,-1.422,-32.13,-34.146
GYROSCOPE,-1.14018,0.08246681,-0.32345316
ORIENTATION,178,338,358
ACCELEROMETER,0.18794483,2.8060043,6.9222355
MAGNETIC_FIELD,-0.399,-30.32,-37.025
GYROSCOPE,0.23609942,0.37904188,-0.729984
ORIENTATION,172,342,3
ACCELEROMETER,-0.4441244,2.558803,7.8972745
MAGNETIC_FIELD,5.459,-30.694,-38.458
GYROSCOPE,0.18112154,0.23151793,-0.17562376
ORIENTATION,190,345,3
ACCELEROMETER,-0.48841715,2.4642322,9.387665
MAGNETIC_FIELD,8.341,-30.694,-40.869
GYROSCOPE,0.29168814,-0.2180789,0.40683624
ORIENTATION,210,342,359
ACCELEROMETER,0.16699557,2.2481554,6.7725983
MAGNETIC_FIELD,9.822,-30.694,-42.543
GYROSCOPE,0.49418998,0.18387043,0.41813725
ORIENTATION,204,341,4
ACCELEROMETER,-0.712275,3.4392707,10.113707
MAGNETIC_FIELD,8.282,-32.85,-43.365
GYROSCOPE,0.43127087,0.05955936,0.19333886
ORIENTATION,222,340,351
ACCELEROMETER,1.407192,3.4877534,9.31105
MAGNETIC_FIELD,11.563,-34.857,-42.912
GYROSCOPE,-0.37293324,0.18875736,-0.17989981
ORIENTATION,227,336,354
ACCELEROMETER,0.694917,3.232771,7.1700354
MAGNETIC_FIELD,14.198,-35.369,-44.354
GYROSCOPE,0.011911872,-0.04886922,-0.30085114
ORIENTATION,237,334,353
ACCELEROMETER,1.1935096,4.663306,9.282919
MAGNETIC_FIELD,15.187,-32.864,-46.498
GYROSCOPE,0.57787853,-0.034513887,-0.024740042
ORIENTATION,228,339,359
ACCELEROMETER,0.2645593,4.196437,11.213842
MAGNETIC_FIELD,15.757,-34.066,-45.475
GYROSCOPE,-0.043676864,-0.25809056,-0.13408493
ORIENTATION,238,334,359
ACCELEROMETER,0.12689269,3.4919431,7.041946
MAGNETIC_FIELD,17.201,-33.432,-44.847
GYROSCOPE,0.1863139,-0.3200934,0.17348573
ORIENTATION,239,334,358
ACCELEROMETER,0.29388827,4.2742486,8.954314
MAGNETIC_FIELD,18.135,-32.948,-44.847
GYROSCOPE,0.076358154,0.15393804,0.07971791
ORIENTATION,230,341,358
ACCELEROMETER,0.46507367,3.8953662,11.1096945
MAGNETIC_FIELD,18.135,-33.578,-44.503
GYROSCOPE,-0.28955013,-0.0067195175,-0.5305365
ORIENTATION,235,337,358
ACCELEROMETER,0.29508537,3.3848026,7.9433627
MAGNETIC_FIELD,19.741,-33.024,-44.503
GYROSCOPE,-0.19120082,-0.4529566,-0.24953845
ORIENTATION,253,330,355
ACCELEROMETER,0.65660983,4.5513773,7.787141
MAGNETIC_FIELD,19.741,-32.136,-46.159
GYROSCOPE,0.21105394,-0.05131268,-0.077579886
ORIENTATION,254,331,356
ACCELEROMETER,0.7170634,5.3767786,9.682152
MAGNETIC_FIELD,19.741,-32.742,-44.754
GYROSCOPE,0.25411993,-0.06566802,0.082161374
ORIENTATION,242,335,1
ACCELEROMETER,-0.1436521,3.7181952,7.825448
MAGNETIC_FIELD,20.616,-32.742,-44.448
GYROSCOPE,-0.12767084,0.16890424,0.1957823
ORIENTATION,263,326,359
ACCELEROMETER,0.10295067,4.5286326,6.7187285
MAGNETIC_FIELD,20.616,-31.434,-44.448
GYROSCOPE,0.3747658,-0.11148291,0.3839288
ORIENTATION,251,333,353
ACCELEROMETER,1.1851299,5.018845,9.700109
MAGNETIC_FIELD,20.132,-31.434,-43.318
GYROSCOPE,-0.093767814,0.19211712,0.18081611
ORIENTATION,257,328,346
ACCELEROMETER,1.8136078,4.5645456,7.047333
MAGNETIC_FIELD,19.258,-31.434,-43.318
GYROSCOPE,0.38148534,0.060170226,0.2828306
ORIENTATION,260,327,350
ACCELEROMETER,1.2659341,4.8015714,7.231686
MAGNETIC_FIELD,17.802,-29.743,-43.722
GYROSCOPE,0.29443705,-0.23976462,-0.18081611
ORIENTATION,242,336,0
ACCELEROMETER,-0.032920275,4.547188,10.286089
MAGNETIC_FIELD,18.389,-29.005,-43.722
GYROSCOPE,0.636827,-0.124311075,0.0842994
ORIENTATION,255,332,359
ACCELEROMETER,0.19093758,4.3795934,8.227076
MAGNETIC_FIELD,17.726,-30.226,-42.98
GYROSCOPE,-0.014049901,-0.069027774,0.39645153
ORIENTATION,251,331,1
ACCELEROMETER,-0.09995792,3.7852328,6.947375
MAGNETIC_FIELD,16.293,-29.634,-41.896
GYROSCOPE,-0.07971791,-0.04184427,-0.015882496
ORIENTATION,241,336,358
ACCELEROMETER,0.30047232,4.6603136,10.239402
MAGNETIC_FIELD,16.293,-28.141,-41.896
GYROSCOPE,0.1301143,0.21135938,0.0067195175
ORIENTATION,248,335,353
ACCELEROMETER,0.9475053,3.663727,7.7254906
MAGNETIC_FIELD,15.277,-28.141,-40.58
GYROSCOPE,-0.16126843,-0.12308934,-0.073303826
ORIENTATION,248,333,357
ACCELEROMETER,0.39923313,3.3542767,6.6283474
MAGNETIC_FIELD,15.277,-25.891,-41.337
GYROSCOPE,-0.6579019,0.364992,-0.30024028
ORIENTATION,250,335,358
ACCELEROMETER,0.3669114,4.325724,9.216479
MAGNETIC_FIELD,16.662,-22.48,-41.337
GYROSCOPE,-0.11026118,0.7715228,-0.06658431
ORIENTATION,243,342,358
ACCELEROMETER,0.46387658,3.7433343,11.799225
MAGNETIC_FIELD,15.693,-21.554,-41.337
GYROSCOPE,-0.2968805,0.057726767,-0.33628133
ORIENTATION,276,329,357
ACCELEROMETER,0.4357447,4.325125,7.307702
MAGNETIC_FIELD,15.693,-22.137,-41.337
GYROSCOPE,0.015271631,-0.024740042,0.008552114
ORIENTATION,289,324,358
ACCELEROMETER,0.30585927,5.461174,7.4776907
MAGNETIC_FIELD,14.834,-22.904,-40.907
GYROSCOPE,0.14172074,0.01160644,0.09743301
ORIENTATION,270,329,353
ACCELEROMETER,1.1426327,5.523423,9.2547865
MAGNETIC_FIELD,14.834,-24.148,-40.315
GYROSCOPE,0.084910266,-0.039095376,-0.160963
ORIENTATION,272,325,347
ACCELEROMETER,1.5903485,4.9308586,6.8025255
MAGNETIC_FIELD,14.834,-24.148,-40.315
GYROSCOPE,-0.06383542,-0.0018325958,-0.2669481
ORIENTATION,279,325,356
ACCELEROMETER,0.5506664,5.047576,7.1592617
MAGNETIC_FIELD,14.834,-23.554,-40.315
GYROSCOPE,0.2724459,-0.14752395,-0.0580322
ORIENTATION,253,335,359
ACCELEROMETER,0.2621651,5.1259856,11.142016
MAGNETIC_FIELD,14.834,-22.07,-40.89
GYROSCOPE,0.4999932,-0.1337795,0.04642576
ORIENTATION,299,320,358
ACCELEROMETER,0.24839842,5.587468,6.613384
MAGNETIC_FIELD,13.992,-24.049,-40.425
GYROSCOPE,0.24617869,-0.23090707,0.4083634
ORIENTATION,282,328,8
ACCELEROMETER,-0.8972271,3.980959,6.351817
MAGNETIC_FIELD,13.992,-24.049,-39.987
GYROSCOPE,-0.07422013,0.26511553,-0.048258353
ORIENTATION,280,327,2
ACCELEROMETER,-0.31603462,6.269217,9.52174
MAGNETIC_FIELD,14.433,-22.988,-39.987
GYROSCOPE,0.21930063,0.09865474,-0.03604105
ORIENTATION,235,343,359
ACCELEROMETER,0.12689269,3.3291376,11.130045
MAGNETIC_FIELD,13.891,-23.857,-39.222
GYROSCOPE,-0.6747007,0.026267206,-0.63346726
ORIENTATION,280,326,1
ACCELEROMETER,-0.1412579,4.51726,6.7348895
MAGNETIC_FIELD,13.891,-22.219,-39.222
GYROSCOPE,-0.15882497,-0.13133603,-0.34697145
ORIENTATION,288,326,3
ACCELEROMETER,-0.46387658,5.133168,7.639299
MAGNETIC_FIELD,13.891,-21.717,-38.795
GYROSCOPE,0.20066923,-0.13347405,-0.21533
ORIENTATION,297,317,353
ACCELEROMETER,0.90620536,6.964134,7.2969284
MAGNETIC_FIELD,14.205,-22.589,-37.083
GYROSCOPE,0.7910705,-0.19883664,0.48563787
ORIENTATION,258,333,358
ACCELEROMETER,0.3573346,4.778228,9.284714
MAGNETIC_FIELD,14.205,-25.209,-33.087
GYROSCOPE,0.061086524,-0.04734206,0.098043874
ORIENTATION,265,324,359
ACCELEROMETER,0.18136078,5.251083,7.244256
MAGNETIC_FIELD,13.815,-24.295,-31.791
GYROSCOPE,0.21868975,-0.17806722,-0.40378192
ORIENTATION,258,327,358
ACCELEROMETER,0.30885202,5.3881507,8.26658
MAGNETIC_FIELD,13.815,-24.295,-29.296
GYROSCOPE,0.26725355,-0.20555615,-0.9954049
ORIENTATION,259,324,353
ACCELEROMETER,0.97862995,5.659294,7.6728177
MAGNETIC_FIELD,13.815,-23.773,-27.886
GYROSCOPE,-0.26542094,-0.35613444,-0.8790351
ORIENTATION,255,325,358
ACCELEROMETER,0.2693477,5.233725,7.504027
MAGNETIC_FIELD,14.372,-22.01,-29.165
GYROSCOPE,0.27122417,-0.45204028,-1.1337659
ORIENTATION,246,331,10
ACCELEROMETER,-1.5328877,4.96737,8.856153
MAGNETIC_FIELD,15.968,-19.151,-30.757
GYROSCOPE,0.37782016,-0.63438356,-0.56505036
ORIENTATION,282,324,2
ACCELEROMETER,-0.2717419,5.386954,7.3047094
MAGNETIC_FIELD,17.416,-17.546,-30.757
GYROSCOPE,-0.0125227375,-0.23426682,-0.076358154
ORIENTATION,275,328,2
ACCELEROMETER,-0.28431144,4.6244006,7.507618
MAGNETIC_FIELD,18.412,-15.283,-32.362
GYROSCOPE,0.04184427,-0.02321288,-0.46303585
ORIENTATION,272,335,4
ACCELEROMETER,-0.676362,4.687248,9.8515415
MAGNETIC_FIELD,18.412,-12.263,-33.886
GYROSCOPE,0.14446963,-0.46700647,-0.65179324
ORIENTATION,285,333,1
ACCELEROMETER,-0.11791443,4.282628,8.2354555
MAGNETIC_FIELD,16.86,-9.713,-36.614
GYROSCOPE,0.10781772,-0.48838675,-0.5839872
ORIENTATION,305,331,5
ACCELEROMETER,-0.64942724,4.373608,7.972093
MAGNETIC_FIELD,15.467,-6.172,-38.504
GYROSCOPE,-0.021380283,-0.28069258,-0.45540005
ORIENTATION,319,329,4
ACCELEROMETER,-0.5722142,4.803367,8.100781
MAGNETIC_FIELD,11.868,-4.119,-40.065
GYROSCOPE,0.1777618,-0.32467487,-0.17592919
ORIENTATION,324,333,1
ACCELEROMETER,-0.24540567,4.9021277,9.60853
MAGNETIC_FIELD,8.25,-7.453,-39.651
GYROSCOPE,-0.38759398,-0.49632803,-0.047036625
ORIENTATION,329,331,1
ACCELEROMETER,-0.095768064,4.4155064,7.908048
MAGNETIC_FIELD,6.898,-9.683,-39.036
GYROSCOPE,-0.20922135,0.19639318,-0.060170226
ORIENTATION,338,324,1
ACCELEROMETER,-0.18375498,5.816713,8.051102
MAGNETIC_FIELD,6.898,-11.004,-38.415
GYROSCOPE,0.2171626,0.16646078,0.07513642
ORIENTATION,325,329,360
ACCELEROMETER,0.051475335,5.309741,8.978256
MAGNETIC_FIELD,6.564,-13.619,-36.738
GYROSCOPE,-0.018020526,-0.053145275,-0.27550024
ORIENTATION,317,326,357
ACCELEROMETER,0.4345476,5.470751,8.030152
MAGNETIC_FIELD,8.168,-15.214,-33.969
GYROSCOPE,-0.12095132,-0.019242255,-0.20647246
ORIENTATION,313,324,0
ACCELEROMETER,-0.038307227,5.6778493,7.8865004
MAGNETIC_FIELD,8.979,-15.214,-33.178
GYROSCOPE,0.06169739,-0.1994475,-0.03359759
ORIENTATION,311,328,5
ACCELEROMETER,-0.7374141,5.2660465,8.297705
MAGNETIC_FIELD,10.952,-15.597,-31.532
GYROSCOPE,0.47067168,-0.084910266,0.08674286
ORIENTATION,303,326,6
ACCELEROMETER,-0.7236475,5.0481744,7.4872675
MAGNETIC_FIELD,12.77,-17.738,-29.318
GYROSCOPE,0.03726278,0.25900686,0.40408736
ORIENTATION,284,325,4
ACCELEROMETER,-0.44113165,4.9069166,6.991069
MAGNETIC_FIELD,14.321,-16.41,-29.318
GYROSCOPE,0.064751714,0.12583824,0.12339478
ORIENTATION,281,328,5
ACCELEROMETER,-0.7146692,5.434838,8.598177
MAGNETIC_FIELD,14.321,-15.24,-29.925
GYROSCOPE,0.45875978,0.07727446,0.002443461
ORIENTATION,267,334,2
ACCELEROMETER,-0.36990416,4.482544,9.381081
MAGNETIC_FIELD,13.511,-15.893,-29.322
GYROSCOPE,-0.24984388,-0.13469578,-0.44135013
ORIENTATION,288,326,3
ACCELEROMETER,-0.37349546,5.1690817,7.52737
MAGNETIC_FIELD,13.819,-14.788,-29.925
GYROSCOPE,-0.2932153,-0.15974127,-0.07941248
ORIENTATION,289,328,5
ACCELEROMETER,-0.6715736,5.3725886,8.509591
MAGNETIC_FIELD,13.819,-13.998,-30.514
GYROSCOPE,-0.17562376,0.094989546,-0.14782938
ORIENTATION,306,323,5
ACCELEROMETER,-0.76195467,6.067506,7.965509
MAGNETIC_FIELD,13.023,-15.107,-29.98
GYROSCOPE,0.24770586,-0.13622294,0.27580565
ORIENTATION,289,330,9
ACCELEROMETER,-1.2294226,4.6519337,7.912238
MAGNETIC_FIELD,14.953,-17.597,-27.589
GYROSCOPE,-0.042760566,0.40011674,0.3817908
ORIENTATION,284,326,10
ACCELEROMETER,-1.5077485,5.7305217,8.218696
MAGNETIC_FIELD,17.822,-18.939,-25.64
GYROSCOPE,-0.022602014,0.19547687,0.07727446
ORIENTATION,275,322,4
ACCELEROMETER,-0.5291186,5.8717794,7.5806413
MAGNETIC_FIELD,20.071,-19.316,-23.867
GYROSCOPE,0.4083634,0.15485434,0.041233405
ORIENTATION,273,320,1
ACCELEROMETER,-0.13826515,4.8698063,5.7484784
MAGNETIC_FIELD,24.05,-19.808,-21.318
GYROSCOPE,0.3848451,0.24495697,0.48258355
ORIENTATION,253,331,357
ACCELEROMETER,0.50397944,5.0421886,8.986636
MAGNETIC_FIELD,26.556,-17.687,-22.167
GYROSCOPE,-0.3304781,-0.015882496,-0.2910773
ORIENTATION,260,329,356
ACCELEROMETER,0.6123171,4.8865657,8.238448
MAGNETIC_FIELD,27.499,-13.85,-25.758
GYROSCOPE,0.52626044,-0.54336464,-0.5815437
ORIENTATION,274,333,10
ACCELEROMETER,-1.6675615,4.9721584,9.408614
MAGNETIC_FIELD,25.366,-10.017,-29.188
GYROSCOPE,-0.9669997,-0.41630468,-0.87781334
ORIENTATION,299,318,4
ACCELEROMETER,-0.4794389,6.155493,6.859388
MAGNETIC_FIELD,18.693,-7.041,-31.669
GYROSCOPE,0.22418754,-0.7131852,-0.25900686
ORIENTATION,313,326,8
ACCELEROMETER,-1.1653777,5.4671597,8.008006
MAGNETIC_FIELD,12.826,-6.718,-32.481
GYROSCOPE,0.118202426,-0.05375614,-0.6765333
ORIENTATION,303,335,2
ACCELEROMETER,-0.25318682,4.245518,9.081805
MAGNETIC_FIELD,9.507,-12.907,-32.162
GYROSCOPE,0.105374254,0.06627888,0.38789943
ORIENTATION,287,331,354
ACCELEROMETER,0.7835025,4.461595,7.939771
MAGNETIC_FIELD,9.507,-19.48,-31.858
GYROSCOPE,-0.08246681,0.5308419,0.45478916
ORIENTATION,276,327,1
ACCELEROMETER,-0.11731588,5.0996494,7.934983
MAGNETIC_FIELD,9.173,-22.663,-32.794
GYROSCOPE,0.012217305,-0.31612277,0.16615535
ORIENTATION,251,330,358
ACCELEROMETER,0.26276365,5.3516393,9.349358
MAGNETIC_FIELD,10.873,-22.663,-33.984
GYROSCOPE,0.047647487,0.16371189,0.32925636
ORIENTATION,262,328,356
ACCELEROMETER,0.50637364,4.8763905,7.856573
MAGNETIC_FIELD,10.108,-24.841,-33.573
GYROSCOPE,-0.056199603,-0.19272798,0.5195409
ORIENTATION,246,329,3
ACCELEROMETER,-0.3573346,4.560954,7.615956
MAGNETIC_FIELD,10.461,-24.205,-35.743
GYROSCOPE,-0.008552114,0.28099802,0.095294975
ORIENTATION,242,334,358
ACCELEROMETER,0.32621,4.8015714,9.868899
MAGNETIC_FIELD,9.309,-23.143,-37.182
GYROSCOPE,-0.07544186,-0.020158553,-0.2003638
ORIENTATION,242,336,355
ACCELEROMETER,0.7751228,3.7487214,8.549694
MAGNETIC_FIELD,6.713,-24.317,-37.59
GYROSCOPE,-0.034513887,-0.2012801,0.007941248
ORIENTATION,229,334,1
ACCELEROMETER,-0.11611878,3.8007953,7.7799582
MAGNETIC_FIELD,5.828,-25.906,-38.014
GYROSCOPE,-0.14569137,0.094989546,-0.16646078
ORIENTATION,239,332,357
ACCELEROMETER,0.5291186,4.8344917,8.924387
MAGNETIC_FIELD,6.559,-28.294,-38.652
GYROSCOPE,0.32528573,0.1459968,0.051618114
ORIENTATION,194,342,4
ACCELEROMETER,-0.79367787,3.4153287,10.20289
MAGNETIC_FIELD,8.56,-33.866,-37.854
GYROSCOPE,-0.4877759,-0.05497787,-0.0061086523
ORIENTATION,214,334,359
ACCELEROMETER,0.18614918,3.9258924,8.054094
MAGNETIC_FIELD,11.543,-36.427,-38.533
GYROSCOPE,-0.1994475,0.22052236,0.11759156
ORIENTATION,222,331,359
ACCELEROMETER,0.11552023,4.76087,8.567651
MAGNETIC_FIELD,12.617,-37.481,-40.615
GYROSCOPE,0.24007004,-0.033292156,0.02687807
ORIENTATION,213,343,356
ACCELEROMETER,0.80564886,3.3213563,10.784681
MAGNETIC_FIELD,13.462,-40.019,-41.223
GYROSCOPE,-0.66828656,-0.15790866,-0.34972036
ORIENTATION,217,336,357
ACCELEROMETER,0.34476504,3.2902317,7.471705
MAGNETIC_FIELD,18.406,-39.277,-45.971
GYROSCOPE,-0.6310238,0.07666359,-0.57543504
ORIENTATION,218,338,5
ACCELEROMETER,-0.81043726,3.7152026,9.017162
MAGNETIC_FIELD,27.958,-34.092,-53.295
GYROSCOPE,0.29168814,0.39950588,-0.090713486
ORIENTATION,248,338,359
ACCELEROMETER,0.14544775,4.225766,10.373477
MAGNETIC_FIELD,34.359,-29.74,-54.251
GYROSCOPE,0.39278635,-0.025350908,0.28680122
ORIENTATION,261,336,356
ACCELEROMETER,0.52492875,3.7229836,8.377312
MAGNETIC_FIELD,30.488,-34.643,-55.654
GYROSCOPE,0.109650314,-0.28527406,0.22693644
ORIENTATION,264,331,359
ACCELEROMETER,0.13467385,4.4556093,7.8865004
MAGNETIC_FIELD,30.851,-34.017,-57.266
GYROSCOPE,0.1695151,-0.003970624,0.23426682
ORIENTATION,258,335,354
ACCELEROMETER,0.92655605,4.4903255,9.399037
MAGNETIC_FIELD,32.386,-31.341,-58.106
GYROSCOPE,0.046120327,-0.05497787,-0.04886922
ORIENTATION,265,333,352
ACCELEROMETER,1.1569979,4.214992,8.116942
MAGNETIC_FIELD,31.828,-28.703,-59.576
GYROSCOPE,0.081855945,-0.09040806,0.06536258
ORIENTATION,275,330,355
ACCELEROMETER,0.7020996,4.384382,7.4872675
MAGNETIC_FIELD,31.828,-22.003,-60.714
GYROSCOPE,0.19517145,0.025961773,-0.064751714
ORIENTATION,274,338,358
ACCELEROMETER,0.32022446,4.238934,10.257359
MAGNETIC_FIELD,30.557,-15.507,-60.714
GYROSCOPE,0.16126843,-0.059253927,-0.2687807
ORIENTATION,276,344,3
ACCELEROMETER,-0.5590461,2.7862523,9.493608
MAGNETIC_FIELD,25.859,-12.904,-60.086
GYROSCOPE,-0.025961773,-0.26145032,0.10170906
ORIENTATION,295,336,359
ACCELEROMETER,0.13467385,3.7193923,8.337209
MAGNETIC_FIELD,21.553,-11.796,-56.352
GYROSCOPE,-0.14782938,0.22052236,0.004581489
ORIENTATION,309,328,357
ACCELEROMETER,0.3800795,5.121197,8.1558485
MAGNETIC_FIELD,17.19,-11.796,-53.233
GYROSCOPE,0.108123146,-0.10262536,0.006414085
ORIENTATION,283,342,356
ACCELEROMETER,0.7218518,3.5098996,10.954071
MAGNETIC_FIELD,13.357,-14.53,-52.503
GYROSCOPE,-0.42913285,-0.11728613,-0.43982297
ORIENTATION,296,335,355
ACCELEROMETER,0.6745663,3.6074634,7.650073
MAGNETIC_FIELD,11.64,-16.448,-51.22
GYROSCOPE,-0.047036625,-0.013744468,-0.24831672
ORIENTATION,305,331,357
ACCELEROMETER,0.42916065,4.378995,7.9194207
MAGNETIC_FIELD,13.284,-19.865,-51.22
GYROSCOPE,-0.24740042,0.09285152,-0.1685988
ORIENTATION,284,334,355
ACCELEROMETER,0.7248446,4.2610803,8.589199
MAGNETIC_FIELD,15.147,-21.681,-53.17
GYROSCOPE,0.42271876,-0.04642576,0.16126843
ORIENTATION,280,333,352
ACCELEROMETER,1.2785037,4.629189,8.875904
MAGNETIC_FIELD,15.829,-26.39,-53.604
GYROSCOPE,-0.20372356,0.22571471,0.12339478
ORIENTATION,273,331,352
ACCELEROMETER,1.0947487,4.2275615,7.677606
MAGNETIC_FIELD,17.5,-26.39,-54.045
GYROSCOPE,0.025045475,0.043982297,-0.30604348
ORIENTATION,252,341,353
ACCELEROMETER,1.2192472,3.271078,9.333197
MAGNETIC_FIELD,23.171,-22.712,-56.913
GYROSCOPE,0.26267207,-3.0543262E-4,-1.3524556
ORIENTATION,269,337,352
ACCELEROMETER,1.151611,3.5823243,8.464102
MAGNETIC_FIELD,25.18,-19.041,-56.913
GYROSCOPE,-0.08124508,-0.26358834,-1.41904
ORIENTATION,279,334,350
ACCELEROMETER,1.4269443,4.1216183,8.508394
MAGNETIC_FIELD,22.419,-10.964,-56.913
GYROSCOPE,0.094989546,-0.24220806,-1.8203784
ORIENTATION,281,345,1
ACCELEROMETER,-0.17956513,2.7982233,10.501567
MAGNETIC_FIELD,15.908,-3.765,-56.913
GYROSCOPE,0.56779927,-0.5696318,-1.7333301
ORIENTATION,355,345,15
ACCELEROMETER,-2.0967221,2.1877017,7.9756846
MAGNETIC_FIELD,9.487,-5.639,-56.097
GYROSCOPE,0.013133603,-0.59315014,-1.4495832
ORIENTATION,339,336,3
ACCELEROMETER,-0.37588966,3.5793316,8.14268
MAGNETIC_FIELD,7.087,-5.639,-56.097
GYROSCOPE,0.45234573,-0.074830994,-1.1175779
ORIENTATION,343,339,2
ACCELEROMETER,-0.3752911,3.4644098,8.879496
MAGNETIC_FIELD,2.438,-8.549,-54.817
GYROSCOPE,0.2968805,-0.23793201,-1.5882497
ORIENTATION,357,346,2
ACCELEROMETER,-0.39564183,2.3942018,9.801862
MAGNETIC_FIELD,-2.799,-13.305,-53.131
GYROSCOPE,-0.7516697,-0.98868537,-1.7635679
ORIENTATION,48,340,3
ACCELEROMETER,-0.57879823,3.4314895,9.549872
MAGNETIC_FIELD,-4.618,-12.886,-53.131
GYROSCOPE,-0.28130344,-0.09773844,-1.185384
ORIENTATION,20,333,360
ACCELEROMETER,0.038905777,4.132392,8.267777
MAGNETIC_FIELD,-8.83,-13.726,-52.491
GYROSCOPE,0.26816985,-0.9098838,-0.8527679
ORIENTATION,56,340,358
ACCELEROMETER,0.30526072,3.9707835,10.953473
MAGNETIC_FIELD,-12.059,-19.001,-51.997
GYROSCOPE,-0.3555236,-0.30848694,-0.5833763
ORIENTATION,70,335,2
ACCELEROMETER,-0.22445641,3.954024,8.32045
MAGNETIC_FIELD,-11.094,-21.185,-51.451
GYROSCOPE,0.33353242,-0.33475417,0.08674286
ORIENTATION,69,333,355
ACCELEROMETER,0.94211835,5.2516813,10.419566
MAGNETIC_FIELD,-9.841,-22.518,-51.354
GYROSCOPE,0.14630222,-0.3023783,-0.16890424
ORIENTATION,31,325,357
ACCELEROMETER,0.34117374,4.68665,6.5696893
MAGNETIC_FIELD,-12.629,-26.245,-48.918
GYROSCOPE,0.41996986,-0.21991149,-0.15515977
ORIENTATION,94,333,359
ACCELEROMETER,0.1592144,4.370615,8.5143795
MAGNETIC_FIELD,-13.842,-29.951,-46.17
GYROSCOPE,0.72112644,-0.20647246,-0.02076942
ORIENTATION,104,331,2
ACCELEROMETER,-0.3298013,5.2983685,9.475053
MAGNETIC_FIELD,-17.379,-31.507,-45.289
GYROSCOPE,0.20341812,-0.7733554,0.15485434
ORIENTATION,99,328,1
ACCELEROMETER,-0.088585466,4.917092,7.8487916
MAGNETIC_FIELD,-20.225,-33.239,-44.044
GYROSCOPE,-0.13988814,0.08399397,0.27091873
ORIENTATION,108,330,357
ACCELEROMETER,0.41958386,4.6040497,7.8649526
MAGNETIC_FIELD,-20.709,-31.494,-46.348
GYROSCOPE,-0.0729984,0.3109304,0.21624629
ORIENTATION,98,329,360
ACCELEROMETER,0.034117375,5.525219,9.164406
MAGNETIC_FIELD,-22.601,-27.545,-49.537
GYROSCOPE,0.11636983,-0.10720685,-0.028405234
ORIENTATION,94,333,353
ACCELEROMETER,0.9923966,3.8911762,7.6027875
MAGNETIC_FIELD,-23.075,-26.69,-50.134
GYROSCOPE,0.20341812,0.020463986,-0.06658431
ORIENTATION,75,328,355
ACCELEROMETER,0.5662287,4.5501804,7.1945763
MAGNETIC_FIELD,-20.475,-24.99,-52.592
GYROSCOPE,-0.07666359,0.046120327,-0.082161374
ORIENTATION,78,332,356
ACCELEROMETER,0.7080852,5.257667,9.755774
MAGNETIC_FIELD,-20.881,-22.467,-54.154
GYROSCOPE,0.42149702,-0.23548855,0.12675454
ORIENTATION,83,334,3
ACCELEROMETER,-0.44711718,3.9671922,8.210915
MAGNETIC_FIELD,-21.507,-21.85,-53.135
GYROSCOPE,-0.13103059,-0.12767084,0.14294247
ORIENTATION,70,330,0
ACCELEROMETER,-0.01616086,4.158728,7.091027
MAGNETIC_FIELD,-19.148,-19.458,-53.135
GYROSCOPE,0.099571034,0.2846632,0.18692477
ORIENTATION,59,331,356
ACCELEROMETER,0.6099229,5.0559554,9.120711
MAGNETIC_FIELD,-18.246,-16.781,-53.471
GYROSCOPE,0.26542094,-0.13622294,0.041233405
ORIENTATION,27,330,348
ACCELEROMETER,1.472434,4.2957964,7.1586633
MAGNETIC_FIELD,-19.67,-17.602,-51.484
GYROSCOPE,0.12492194,-0.08857546,0.16982053
ORIENTATION,46,329,353
ACCELEROMETER,0.8738836,4.347272,7.1209545
MAGNETIC_FIELD,-16.581,-16.464,-50.959
GYROSCOPE,0.0,0.1572978,-0.014049901
ORIENTATION,70,337,357
ACCELEROMETER,0.45190558,4.2251673,9.9233675
MAGNETIC_FIELD,-14.054,-14.768,-50.959
GYROSCOPE,0.27763826,0.0888809,-0.022602014
ORIENTATION,68,335,5
ACCELEROMETER,-0.65900403,3.6709096,7.8942814
MAGNETIC_FIELD,-14.054,-16.145,-49.005
GYROSCOPE,-0.23762658,-0.28008172,0.099571034
ORIENTATION,46,329,357
ACCELEROMETER,0.32321724,4.0216603,6.7600284
MAGNETIC_FIELD,-11.697,-15.061,-49.005
GYROSCOPE,0.06872234,0.43982297,0.24984388
ORIENTATION,32,328,356
ACCELEROMETER,0.5686229,5.121197,8.265982
MAGNETIC_FIELD,-11.697,-14.271,-49.005
GYROSCOPE,0.13469578,0.012217305,0.04886922
ORIENTATION,60,341,351
ACCELEROMETER,1.3084313,2.908955,8.593987
MAGNETIC_FIELD,-13.433,-15.96,-47.059
GYROSCOPE,0.16249016,-0.024129177,0.12156218
ORIENTATION,69,338,354
ACCELEROMETER,0.9068039,3.390788,8.38629
MAGNETIC_FIELD,-13.433,-14.685,-47.059
GYROSCOPE,-0.28191432,0.11881329,-0.32498032
ORIENTATION,53,335,355
ACCELEROMETER,0.76434886,4.329315,9.167398
MAGNETIC_FIELD,-14.245,-14.685,-46.119
GYROSCOPE,0.33383787,-0.12492194,0.09773844
ORIENTATION,119,353,3
ACCELEROMETER,-0.57520694,1.4993688,12.299613
MAGNETIC_FIELD,-14.245,-16.648,-43.957
GYROSCOPE,-0.5366451,0.033292156,-0.17745635
ORIENTATION,75,336,357
ACCELEROMETER,0.45729253,3.5164838,7.8039002
MAGNETIC_FIELD,-13.775,-17.143,-41.848
GYROSCOPE,-0.011911872,0.07941248,0.09773844
ORIENTATION,57,328,359
ACCELEROMETER,0.1933318,5.076905,7.972093
MAGNETIC_FIELD,-12.725,-17.585,-40.386
GYROSCOPE,0.0580322,0.12339478,-0.11728613
ORIENTATION,130,349,358
ACCELEROMETER,0.50038815,2.5528176,12.728175
MAGNETIC_FIELD,-11.534,-19.076,-39.161
GYROSCOPE,-0.788627,0.09773844,-0.7021896
ORIENTATION,94,335,359
ACCELEROMETER,0.14425065,3.6846764,7.9170265
MAGNETIC_FIELD,-11.534,-17.878,-39.161
GYROSCOPE,-0.24190263,-0.38637227,-0.51923543
ORIENTATION,69,327,4
ACCELEROMETER,-0.56203884,4.8823757,7.6069775
MAGNETIC_FIELD,-9.393,-18.968,-37.414
GYROSCOPE,0.55771995,-0.042455133,-0.0070249503
ORIENTATION,137,351,4
ACCELEROMETER,-0.8511387,2.0368671,12.7257805
MAGNETIC_FIELD,-8.401,-21.165,-35.671
GYROSCOPE,-0.9486737,0.05467244,-0.38606682
ORIENTATION,110,333,359
ACCELEROMETER,0.11133038,3.7463272,7.4495587
MAGNETIC_FIELD,-8.401,-18.615,-37.834
GYROSCOPE,-0.15149458,0.009162978,0.15943582
ORIENTATION,101,335,355
ACCELEROMETER,0.84694886,4.5561657,9.9550905
MAGNETIC_FIELD,-7.711,-17.247,-39.219
GYROSCOPE,-0.13347405,0.07391469,-0.02321288
ORIENTATION,143,347,357
ACCELEROMETER,0.5554548,2.8030117,12.118252
MAGNETIC_FIELD,-10.137,-16.426,-39.219
GYROSCOPE,-0.43371433,-0.48624873,-0.47861293
ORIENTATION,67,334,354
ACCELEROMETER,0.7445967,3.453636,7.162853
MAGNETIC_FIELD,-10.835,-16.426,-40.104
GYROSCOPE,0.09407325,0.021991149,-0.16584991
ORIENTATION,60,333,354
ACCELEROMETER,0.93134445,4.5795093,8.9758625
MAGNETIC_FIELD,-9.675,-18.388,-39.367
GYROSCOPE,0.3735441,-0.1704314,0.08460484
ORIENTATION,136,350,2
ACCELEROMETER,-0.4417302,2.2361844,13.108852
MAGNETIC_FIELD,-10.607,-19.729,-38.433
GYROSCOPE,-0.89766645,-0.0852157,-0.25473082
ORIENTATION,105,336,358
ACCELEROMETER,0.29568392,3.232771,7.3047094
MAGNETIC_FIELD,-9.236,-20.108,-38.755
GYROSCOPE,-0.053450707,-0.20219639,0.093462385
ORIENTATION,112,337,358
ACCELEROMETER,0.25558102,4.060566,9.536105
MAGNETIC_FIELD,-8.691,-21.488,-37.591
GYROSCOPE,0.17867808,0.14844026,0.0125227375
ORIENTATION,149,348,359
ACCELEROMETER,0.16340427,2.1057005,10.3214035
MAGNETIC_FIELD,-8.691,-21.832,-37.223
GYROSCOPE,-0.6065892,-0.2415972,-0.3680463
ORIENTATION,143,339,355
ACCELEROMETER,0.7368156,3.0334535,7.8302364
MAGNETIC_FIELD,-6.164,-20.407,-38.577
GYROSCOPE,0.1001819,0.4279111,-0.5696318
ORIENTATION,87,332,359
ACCELEROMETER,0.11911154,4.505289,8.38629
MAGNETIC_FIELD,-7.704,-23.031,-36.679
GYROSCOPE,-0.062308256,-0.50671273,0.13439035
ORIENTATION,150,348,2
ACCELEROMETER,-0.40641573,2.5378537,12.363658
MAGNETIC_FIELD,-8.433,-23.805,-35.243
GYROSCOPE,-0.559858,0.35063666,-0.008246681
ORIENTATION,141,339,359
ACCELEROMETER,0.20171149,3.1280246,8.046912
MAGNETIC_FIELD,-8.433,-24.298,-36.262
GYROSCOPE,0.2947425,0.47219884,0.31612277
ORIENTATION,145,335,354
ACCELEROMETER,1.0450691,4.638766,10.016143
MAGNETIC_FIELD,-8.433,-24.629,-36.585
GYROSCOPE,-0.32803464,-0.14446963,0.11728613
ORIENTATION,164,345,353
ACCELEROMETER,1.3389573,2.9819782,11.288062
MAGNETIC_FIELD,-12.672,-23.76,-36.585
GYROSCOPE,0.37048978,-0.8594874,0.05589417
ORIENTATION,113,335,5
ACCELEROMETER,-0.8146271,3.903746,8.499416
MAGNETIC_FIELD,-13.565,-25.704,-34.005
GYROSCOPE,0.004276057,0.025045475,1.0485502
ORIENTATION,128,340,5
ACCELEROMETER,-0.78050977,3.157952,8.495825
MAGNETIC_FIELD,-12.245,-24.426,-34.747
GYROSCOPE,0.904386,0.5122105,1.6627752
ORIENTATION,125,337,2
ACCELEROMETER,-0.29448682,4.5741224,10.836157
MAGNETIC_FIELD,-14.106,-23.614,-34.15
GYROSCOPE,0.43310347,0.5390886,2.1316142
ORIENTATION,129,336,352
ACCELEROMETER,1.2952632,3.911527,8.79091
MAGNETIC_FIELD,-17.172,-23.001,-34.15
GYROSCOPE,0.09773844,1.1655309,2.2516494
ORIENTATION,104,332,355
ACCELEROMETER,0.7074866,4.4208937,8.201937
MAGNETIC_FIELD,-16.268,-17.518,-38.41
GYROSCOPE,0.5112942,1.3191634,1.2528846
ORIENTATION,103,340,357
ACCELEROMETER,0.62728083,4.0037036,11.174338
MAGNETIC_FIELD,-15.522,-15.754,-40.162
GYROSCOPE,-0.15760323,0.6450737,0.72418076
ORIENTATION,41,329,349
ACCELEROMETER,1.4790181,4.6860514,7.5549035
MAGNETIC_FIELD,-14.907,-14.225,-41.558
GYROSCOPE,-0.013133603,0.29077184,1.3362677
ORIENTATION,66,336,353
ACCELEROMETER,0.99778354,3.4440591,7.799112
MAGNETIC_FIELD,-12.17,-12.094,-43.026
GYROSCOPE,0.10140363,0.72021013,1.042747
ORIENTATION,39,336,352
ACCELEROMETER,1.4449008,4.5244427,9.923966
MAGNETIC_FIELD,-8.506,-11.54,-45.993
GYROSCOPE,0.018325957,0.6814202,0.78954333
ORIENTATION,20,324,357
ACCELEROMETER,0.31124622,4.7961845,6.622362
MAGNETIC_FIELD,-7.395,-10.566,-47.88
GYROSCOPE,0.7079928,0.2519819,1.5241088
ORIENTATION,36,334,1
ACCELEROMETER,-0.15981296,3.9091327,8.052299
MAGNETIC_FIELD,-4.771,-12.615,-49.093
GYROSCOPE,-0.053450707,0.7516697,0.46883908
ORIENTATION,9,316,359
ACCELEROMETER,0.11611878,7.4112515,7.5734587
MAGNETIC_FIELD,-0.753,-11.244,-50.0
GYROSCOPE,0.23793201,0.7110472,0.5305365
ORIENTATION,326,338,353
ACCELEROMETER,1.2282255,3.9911342,9.91439
MAGNETIC_FIELD,1.065,-17.207,-49.62
GYROSCOPE,-0.14721853,0.21319197,-0.03481932
ORIENTATION,167,342,1
ACCELEROMETER,-0.18914193,2.6198552,7.833828
MAGNETIC_FIELD,5.093,-11.79,-51.475
GYROSCOPE,-0.23762658,0.29626966,-0.21471913
ORIENTATION,332,328,356
ACCELEROMETER,0.55246204,4.6645036,7.428011
MAGNETIC_FIELD,5.093,-12.254,-51.475
GYROSCOPE,0.22815818,-0.42119157,0.11759156
ORIENTATION,291,346,3
ACCELEROMETER,-0.64823014,2.7144263,10.726024
MAGNETIC_FIELD,5.093,-13.705,-53.585
GYROSCOPE,-0.95325524,0.13194689,-0.26816985
ORIENTATION,322,340,1
ACCELEROMETER,-0.109534726,3.0238767,8.213309
MAGNETIC_FIELD,5.093,-15.946,-54.164
GYROSCOPE,-0.20952678,0.10781772,0.0027488936
ORIENTATION,340,329,360
ACCELEROMETER,0.020949265,5.077503,8.3551655
MAGNETIC_FIELD,5.093,-16.494,-54.595
GYROSCOPE,0.2770274,0.1881465,0.15699236
ORIENTATION,266,344,354
ACCELEROMETER,1.2455834,3.3446999,11.356895
MAGNETIC_FIELD,4.443,-21.081,-55.143
GYROSCOPE,0.14630222,-0.0571159,-0.21685717
ORIENTATION,317,327,353
ACCELEROMETER,0.961272,4.9536033,7.477092
MAGNETIC_FIELD,1.484,-25.086,-52.911
GYROSCOPE,-0.08399397,-0.26939157,0.050701816
ORIENTATION,315,329,355
ACCELEROMETER,0.6871359,4.933253,8.054693
MAGNETIC_FIELD,1.484,-27.001,-51.365
GYROSCOPE,0.31245756,-0.1133155,-0.018325957
ORIENTATION,241,334,357
ACCELEROMETER,0.60812724,5.693412,11.874641
MAGNETIC_FIELD,1.01,-29.124,-49.482
GYROSCOPE,-0.014049901,-0.15851954,-0.035430185
ORIENTATION,176,332,1
ACCELEROMETER,-0.18555063,3.9498343,7.5112095
MAGNETIC_FIELD,1.01,-30.397,-47.377
GYROSCOPE,-0.26328292,-0.03359759,0.15088372
ORIENTATION,308,323,355
ACCELEROMETER,0.65421563,5.568913,7.359776
MAGNETIC_FIELD,3.768,-26.969,-48.733
GYROSCOPE,0.23182335,0.2501493,0.008552114
ORIENTATION,230,339,353
ACCELEROMETER,1.5005659,4.8141413,12.467207
MAGNETIC_FIELD,1.806,-27.774,-48.733
GYROSCOPE,-0.7330383,-0.33322698,-0.5589417
ORIENTATION,245,334,353
ACCELEROMETER,1.002572,4.0701427,8.196549
MAGNETIC_FIELD,1.152,-24.639,-49.826
GYROSCOPE,0.06291912,-0.53023106,-0.17470746
ORIENTATION,294,330,353
ACCELEROMETER,0.92775315,4.5681367,7.9583263
MAGNETIC_FIELD,0.535,-24.101,-50.196
GYROSCOPE,0.33964106,-0.06291912,-0.08307768
ORIENTATION,319,323,350
ACCELEROMETER,1.525705,6.7067575,8.72088
MAGNETIC_FIELD,-0.289,-23.466,-51.089
GYROSCOPE,0.5564982,-0.15515977,0.43371433
ORIENTATION,284,334,354
ACCELEROMETER,0.97503865,4.36044,8.811859
MAGNETIC_FIELD,0.349,-25.84,-51.089
GYROSCOPE,-0.006414085,0.38331795,-0.03268129
ORIENTATION,336,324,356
ACCELEROMETER,0.4938041,4.9781437,6.851607
MAGNETIC_FIELD,1.736,-25.84,-51.089
GYROSCOPE,0.09773844,-0.24220806,0.28680122
ORIENTATION,301,327,351
ACCELEROMETER,1.6160861,6.59004,9.860519
MAGNETIC_FIELD,1.414,-25.84,-52.375
GYROSCOPE,-0.15943582,-0.14263703,-0.2489276
ORIENTATION,277,332,350
ACCELEROMETER,1.4466964,4.3478703,8.057087
MAGNETIC_FIELD,1.414,-28.761,-52.015
GYROSCOPE,-0.17715092,-0.25595254,-0.12003502
ORIENTATION,307,322,349
ACCELEROMETER,1.3377602,5.4581814,6.88333
MAGNETIC_FIELD,2.87,-28.376,-53.405
GYROSCOPE,0.042760566,-0.22540927,-0.0033597588
ORIENTATION,204,338,0
ACCELEROMETER,-0.024540568,4.127005,10.081984
MAGNETIC_FIELD,2.87,-28.376,-53.883
GYROSCOPE,0.33292156,-0.12003502,0.010995574
ORIENTATION,303,329,358
ACCELEROMETER,0.32800564,4.8440685,8.062474
MAGNETIC_FIELD,3.321,-30.65,-53.186
GYROSCOPE,-0.04795292,-0.09254608,0.44715336
ORIENTATION,231,334,358
ACCELEROMETER,0.32621,3.7373488,7.7039423
MAGNETIC_FIELD,4.472,-31.178,-52.755
GYROSCOPE,-0.14172074,0.29260445,0.17898351
ORIENTATION,232,334,358
ACCELEROMETER,0.34476504,4.7764325,9.794679
MAGNETIC_FIELD,4.847,-29.054,-52.755
GYROSCOPE,0.32406402,-0.081855945,-0.07788532
ORIENTATION,258,334,347
ACCELEROMETER,1.9614497,4.1904516,8.208521
MAGNETIC_FIELD,3.979,-30.059,-52.755
GYROSCOPE,0.2761111,-0.25381452,0.086132
ORIENTATION,306,320,349
ACCELEROMETER,1.1402385,5.2103815,6.0585275
MAGNETIC_FIELD,5.931,-29.483,-55.003
GYROSCOPE,0.15241088,-0.12064589,-0.07238753
ORIENTATION,245,336,357
ACCELEROMETER,0.581791,4.44304,9.797672
MAGNETIC_FIELD,8.659,-30.273,-56.048
GYROSCOPE,0.45753807,0.08735373,-0.043676864
ORIENTATION,280,330,1
ACCELEROMETER,-0.11552023,4.378995,7.7105265
MAGNETIC_FIELD,7.902,-31.436,-56.784
GYROSCOPE,0.103847094,0.0018325958,0.55955255
ORIENTATION,278,330,359
ACCELEROMETER,0.090979666,4.0665517,7.0090256
MAGNETIC_FIELD,10.282,-33.177,-56.784
GYROSCOPE,-0.04886922,0.5647449,0.24617869
ORIENTATION,245,334,359
ACCELEROMETER,0.26036942,4.8147397,10.041881
MAGNETIC_FIELD,10.282,-33.599,-57.444
GYROSCOPE,0.22571471,0.07788532,-0.046731193
ORIENTATION,243,338,350
ACCELEROMETER,1.6591818,3.7493198,8.978855
MAGNETIC_FIELD,7.904,-35.939,-53.945
GYROSCOPE,0.052534413,-0.2098322,0.092240654
ORIENTATION,251,330,354
ACCELEROMETER,0.78290397,4.0982747,7.0724716
MAGNETIC_FIELD,9.069,-33.085,-54.258
GYROSCOPE,-0.05497787,0.20097467,-0.1151481
ORIENTATION,255,332,355
ACCELEROMETER,0.7667431,5.1080294,9.39365
MAGNETIC_FIELD,9.069,-30.661,-54.258
GYROSCOPE,0.473726,0.06811147,-0.1423316
ORIENTATION,188,335,9
ACCELEROMETER,-1.1875241,3.5889084,7.7410526
MAGNETIC_FIELD,7.443,-31.564,-52.719
GYROSCOPE,-0.034208454,-0.08827003,0.25137106
ORIENTATION,255,331,357
ACCELEROMETER,0.33039984,3.9444473,7.2328835
MAGNETIC_FIELD,9.669,-30.024,-53.096
GYROSCOPE,0.004276057,0.70707655,0.18845193
ORIENTATION,261,332,356
ACCELEROMETER,0.7212533,4.9853263,9.384672
MAGNETIC_FIELD,9.173,-29.223,-53.662
GYROSCOPE,0.119729586,0.018020526,-0.070249505
ORIENTATION,234,341,355
ACCELEROMETER,0.86969376,3.2585084,9.2907
MAGNETIC_FIELD,8.187,-30.339,-53.662
GYROSCOPE,-0.2742785,-0.32925636,-0.15302174
ORIENTATION,275,329,354
ACCELEROMETER,0.83138657,4.4819455,7.37055
MAGNETIC_FIELD,9.55,-28.727,-53.662
GYROSCOPE,-0.02687807,0.39492437,-0.16646078
ORIENTATION,282,327,352
ACCELEROMETER,1.163582,5.246893,8.093599
MAGNETIC_FIELD,10.217,-27.25,-53.662
GYROSCOPE,0.24251351,-0.07360926,0.049785517
ORIENTATION,214,343,4
ACCELEROMETER,-0.6302736,3.1130607,10.16578
MAGNETIC_FIELD,10.217,-27.25,-51.843
GYROSCOPE,-0.43768495,-0.07086037,-0.4392121
ORIENTATION,275,331,358
ACCELEROMETER,0.19632454,3.887585,7.056311
MAGNETIC_FIELD,10.723,-26.234,-50.416
GYROSCOPE,-0.32284227,0.37782016,-0.13530666
ORIENTATION,295,327,359
ACCELEROMETER,0.1364695,5.1541176,7.9529395
MAGNETIC_FIELD,10.723,-24.07,-50.416
GYROSCOPE,0.1881465,0.12889257,-0.106595986
ORIENTATION,253,339,351
ACCELEROMETER,1.821389,4.362834,11.414955
MAGNETIC_FIELD,9.844,-24.07,-49.067
GYROSCOPE,-0.4447099,-0.24007004,-0.57879484
ORIENTATION,258,337,351
ACCELEROMETER,1.3503298,3.5901055,8.239645
MAGNETIC_FIELD,9.844,-22.732,-47.355
GYROSCOPE,-0.093767814,-0.23823744,-0.2574797
ORIENTATION,280,326,341
ACCELEROMETER,3.091513,6.389526,8.890868
MAGNETIC_FIELD,9.844,-20.431,-47.355
GYROSCOPE,0.018325957,0.0061086523,-0.42546764
ORIENTATION,302,326,354
ACCELEROMETER,0.85293436,5.6527104,8.264186
MAGNETIC_FIELD,9.844,-17.216,-46.24
GYROSCOPE,0.5421429,-0.5198463,-0.9221011
ORIENTATION,271,339,359
ACCELEROMETER,0.22266077,3.7780502,9.962274
MAGNETIC_FIELD,9.844,-17.216,-45.523
GYROSCOPE,0.2919936,-0.31398472,-1.0033462
ORIENTATION,302,323,348
ACCELEROMETER,1.335366,4.894945,6.2883706
MAGNETIC_FIELD,9.844,-19.319,-45.523
GYROSCOPE,-0.03023783,-0.23396139,-0.51159966
ORIENTATION,275,335,354
ACCELEROMETER,0.8535329,3.6445735,7.7548194
MAGNETIC_FIELD,8.85,-17.926,-47.245
GYROSCOPE,-0.32742378,-0.52656585,-1.2370021
ORIENTATION,210,345,7
ACCELEROMETER,-1.0241197,2.183512,8.015189
MAGNETIC_FIELD,4.441,-11.991,-48.458
GYROSCOPE,-0.6227771,-0.7901542,-1.9465221
ORIENTATION,312,337,355
ACCELEROMETER,1.062427,4.92607,11.365275
MAGNETIC_FIELD,-0.134,-8.226,-48.762
GYROSCOPE,-0.42821655,-0.5858198,-1.3820826
ORIENTATION,308,332,338
ACCELEROMETER,2.9281087,4.197036,7.314286
MAGNETIC_FIELD,-5.221,-1.324,-48.762
GYROSCOPE,0.31306845,-0.71685034,-1.8606955
ORIENTATION,11,341,357
ACCELEROMETER,0.45010993,3.3010056,9.355942
MAGNETIC_FIELD,-6.297,-4.449,-48.762
GYROSCOPE,1.0873401,-0.38056904,-1.5467108
ORIENTATION,60,345,8
ACCELEROMETER,-1.2922704,2.3690627,8.983045
MAGNETIC_FIELD,-7.267,-10.6,-45.962
GYROSCOPE,0.1731803,-0.45723262,-1.1850786
ORIENTATION,11,336,353
ACCELEROMETER,1.1659763,4.361038,9.821015
MAGNETIC_FIELD,-10.679,-15.696,-43.255
GYROSCOPE,-0.008552114,-0.5540548,-0.6908886
ORIENTATION,73,335,2
ACCELEROMETER,-0.35314476,3.9414546,8.406641
MAGNETIC_FIELD,-12.809,-14.808,-43.255
GYROSCOPE,0.37995818,-0.66859204,-0.5983425
ORIENTATION,26,317,355
ACCELEROMETER,0.57281274,6.569091,7.0066314
MAGNETIC_FIELD,-11.834,-14.808,-44.45
GYROSCOPE,0.7101309,-0.4071417,-0.34483343
ORIENTATION,114,347,356
ACCELEROMETER,0.7445967,2.6479871,11.013328
MAGNETIC_FIELD,-11.834,-21.542,-42.457
GYROSCOPE,-0.50640726,-0.17654006,-0.5503896
ORIENTATION,70,330,355
ACCELEROMETER,0.7493851,4.602853,8.030152
MAGNETIC_FIELD,-12.297,-19.799,-43.606
GYROSCOPE,-0.04428773,-0.4437936,-0.16982053
ORIENTATION,104,340,4
ACCELEROMETER,-0.6799533,3.7780502,10.186729
MAGNETIC_FIELD,-12.297,-19.253,-45.19
GYROSCOPE,0.57451874,0.267559,0.015271631
ORIENTATION,92,337,3
ACCELEROMETER,-0.48602295,3.7415388,8.903438
MAGNETIC_FIELD,-13.52,-18.908,-45.19
GYROSCOPE,-0.18295415,-0.32467487,0.5109888
ORIENTATION,73,332,1
ACCELEROMETER,-0.088585466,3.8726213,7.318476
MAGNETIC_FIELD,-11.227,-16.18,-47.938
GYROSCOPE,0.12736541,0.7287622,0.14263703
ORIENTATION,44,332,357
ACCELEROMETER,0.5189432,4.9182887,9.082404
MAGNETIC_FIELD,-11.227,-17.07,-50.025
GYROSCOPE,0.37384954,-0.1731803,-0.042760566
ORIENTATION,112,345,357
ACCELEROMETER,0.50517654,2.460641,9.165603
MAGNETIC_FIELD,-12.364,-19.975,-51.377
GYROSCOPE,-0.6771441,0.092240654,-0.34422258
ORIENTATION,44,331,354
ACCELEROMETER,0.6811504,3.8241386,6.9623384
MAGNETIC_FIELD,-11.923,-20.797,-52.131
GYROSCOPE,0.16493362,0.11453723,0.015882496
ORIENTATION,84,338,354
ACCELEROMETER,1.2725182,4.601057,11.298837
MAGNETIC_FIELD,-11.923,-21.578,-52.131
GYROSCOPE,0.20677789,0.073303826,0.18112154
ORIENTATION,98,339,4
ACCELEROMETER,-0.56563014,3.1453824,8.292317
MAGNETIC_FIELD,-15.736,-22.949,-50.143
GYROSCOPE,-0.022907447,-0.85154617,-0.17562376
ORIENTATION,98,338,359
ACCELEROMETER,0.108337626,3.333926,8.149862
MAGNETIC_FIELD,-12.724,-21.661,-52.604
GYROSCOPE,-0.33353242,0.65209866,-0.16707164
ORIENTATION,57,331,358
ACCELEROMETER,0.34955344,5.2726307,9.403227
MAGNETIC_FIELD,-12.347,-19.75,-53.442
GYROSCOPE,0.43401974,0.027183503,-0.04520403
ORIENTATION,102,342,358
ACCELEROMETER,0.3184288,3.145981,9.689933
MAGNETIC_FIELD,-11.433,-20.642,-55.14
GYROSCOPE,-0.16737708,-0.47403142,-0.121256754
ORIENTATION,85,338,4
ACCELEROMETER,-0.52373165,3.0310593,7.4471645
MAGNETIC_FIELD,-7.405,-19.831,-57.543
GYROSCOPE,-0.63713247,0.2602286,-0.6795876
ORIENTATION,20,331,357
ACCELEROMETER,0.533907,5.037999,8.974067
MAGNETIC_FIELD,-4.751,-19.831,-59.233
GYROSCOPE,0.5549711,0.027488936,0.21502456
ORIENTATION,124,345,1
ACCELEROMETER,-0.16998832,2.956839,11.055226
MAGNETIC_FIELD,-8.1,-24.465,-55.975
GYROSCOPE,-0.36254853,-0.50518554,-0.2519819
ORIENTATION,94,337,4
ACCELEROMETER,-0.54887074,3.1591492,7.365163
MAGNETIC_FIELD,-6.402,-23.664,-56.916
GYROSCOPE,-0.23762658,0.25320363,0.12492194
ORIENTATION,6,330,355
ACCELEROMETER,0.85772276,5.2462945,8.941745
MAGNETIC_FIELD,-4.02,-23.664,-56.327
GYROSCOPE,0.53786683,0.43982297,0.13836098
ORIENTATION,148,344,0
ACCELEROMETER,-0.08140286,3.2363622,11.256938
MAGNETIC_FIELD,-9.233,-27.238,-52.288
GYROSCOPE,-0.055283304,-0.35735616,-0.44715336
ORIENTATION,80,331,358
ACCELEROMETER,0.25198972,3.7511156,6.854001
MAGNETIC_FIELD,-10.516,-25.048,-51.783
GYROSCOPE,-0.5207626,-0.37843102,-0.3726278
ORIENTATION,76,331,2
ACCELEROMETER,-0.26036942,4.9344497,8.952518
MAGNETIC_FIELD,-7.402,-23.69,-54.309
GYROSCOPE,0.03176499,0.16157386,-0.054061573
ORIENTATION,131,349,8
ACCELEROMETER,-1.6017209,2.1960814,11.086949
MAGNETIC_FIELD,-2.159,-23.69,-55.99
GYROSCOPE,-0.42943826,0.10293079,-0.41630468
ORIENTATION,58,334,3
ACCELEROMETER,-0.44951138,3.6661212,7.383718
MAGNETIC_FIELD,1.028,-25.315,-54.322
GYROSCOPE,0.049785517,0.12156218,0.3203988
ORIENTATION,346,328,359
ACCELEROMETER,0.14604631,5.2397103,8.234857
MAGNETIC_FIELD,-1.268,-25.856,-52.156
GYROSCOPE,0.505491,0.08277224,-0.1872302
ORIENTATION,170,344,1
ACCELEROMETER,-0.08678981,2.7952304,9.572617
MAGNETIC_FIELD,-2.729,-29.965,-48.631
GYROSCOPE,-0.2648101,0.032070424,-0.11209377
ORIENTATION,62,326,2
ACCELEROMETER,-0.17178397,4.1515455,6.1764417
MAGNETIC_FIELD,-2.249,-28.271,-49.147
GYROSCOPE,-0.059864793,-0.040011674,-0.14538592
ORIENTATION,56,326,4
ACCELEROMETER,-0.6919243,6.3697734,9.365519
MAGNETIC_FIELD,-0.392,-28.271,-48.481
GYROSCOPE,0.37568212,0.16707164,0.08093964
ORIENTATION,130,341,16
ACCELEROMETER,-2.332551,2.8712463,8.08462
MAGNETIC_FIELD,-0.729,-29.04,-46.151
GYROSCOPE,-0.41080686,0.19120082,-0.17165314
ORIENTATION,150,335,4
ACCELEROMETER,-0.5943606,3.879804,8.362348
MAGNETIC_FIELD,3.363,-27.453,-46.926
GYROSCOPE,-0.16218472,0.52656585,-0.01985312
ORIENTATION,291,327,356
ACCELEROMETER,0.60573304,5.2965727,8.0127945
MAGNETIC_FIELD,1.153,-25.387,-48.281
GYROSCOPE,0.31703907,-0.08460484,-0.099265605
ORIENTATION,175,350,3
ACCELEROMETER,-0.5153519,1.8800468,10.171167
MAGNETIC_FIELD,-1.968,-27.276,-46.313
GYROSCOPE,-0.19456059,-0.16187929,-0.6105598
ORIENTATION,103,331,3
ACCELEROMETER,-0.4297592,4.301782,7.60578
MAGNETIC_FIELD,-0.743,-23.68,-49.053
GYROSCOPE,-0.13591751,-0.17348573,-0.3109304
ORIENTATION,338,327,356
ACCELEROMETER,0.664391,6.0806737,9.440936
MAGNETIC_FIELD,-2.142,-22.062,-51.171
GYROSCOPE,0.82344633,-0.18112154,0.07788532
ORIENTATION,103,340,15
ACCELEROMETER,-2.3768437,3.357868,8.716091
MAGNETIC_FIELD,-2.752,-26.673,-49.958
GYROSCOPE,-0.93370754,0.0571159,-0.2764165
ORIENTATION,101,333,4
ACCELEROMETER,-0.48961425,3.9432502,7.707534
MAGNETIC_FIELD,-0.781,-28.038,-50.663
GYROSCOPE,-0.004886922,0.56169057,0.3827071
ORIENTATION,304,329,356
ACCELEROMETER,0.6039374,5.0062757,8.330027
MAGNETIC_FIELD,0.039,-27.516,-51.863
GYROSCOPE,0.355829,0.13103059,0.23182335
ORIENTATION,190,342,358
ACCELEROMETER,0.35314476,3.0011318,9.490616
MAGNETIC_FIELD,-2.015,-32.383,-48.446
GYROSCOPE,-0.30451632,-0.26236662,-0.3848451
ORIENTATION,157,331,0
ACCELEROMETER,-0.01616086,3.9234982,7.1305313
MAGNETIC_FIELD,-2.015,-30.738,-48.446
GYROSCOPE,0.060170226,0.017104227,0.1160644
ORIENTATION,104,328,2
ACCELEROMETER,-0.30286652,4.9135003,8.010999
MAGNETIC_FIELD,-1.266,-30.738,-47.833
GYROSCOPE,0.46639562,0.42485678,0.1600467
ORIENTATION,154,348,11
ACCELEROMETER,-2.208651,2.4863784,11.686697
MAGNETIC_FIELD,-1.266,-34.077,-44.094
GYROSCOPE,-1.104139,0.12950343,-0.52381694
ORIENTATION,171,332,0
ACCELEROMETER,-0.04369418,4.0001125,7.5806413
MAGNETIC_FIELD,-0.607,-31.959,-44.094
GYROSCOPE,0.23060162,-0.204029,0.6563747
ORIENTATION,211,329,355
ACCELEROMETER,0.729633,5.306748,8.883087
MAGNETIC_FIELD,-1.025,-31.959,-44.546
GYROSCOPE,0.3203988,0.398895,0.04520403
ORIENTATION,175,351,1
ACCELEROMETER,-0.2789245,1.7908629,11.319187
MAGNETIC_FIELD,-1.76,-35.089,-40.466
GYROSCOPE,-0.8881981,-0.28924468,-0.956615
ORIENTATION,136,327,8
ACCELEROMETER,-0.95708215,4.5280337,6.8611836
MAGNETIC_FIELD,0.187,-33.393,-40.846
GYROSCOPE,-0.14446963,0.21624629,0.17470746
ORIENTATION,163,336,6
ACCELEROMETER,-1.01574,4.421492,9.64983
MAGNETIC_FIELD,0.564,-34.069,-39.456
GYROSCOPE,0.5131268,0.04062254,0.51893
ORIENTATION,158,345,14
ACCELEROMETER,-2.0536265,2.2900538,8.225879
MAGNETIC_FIELD,-1.585,-37.147,-34.228
GYROSCOPE,0.036957346,-0.037873644,0.96852684
ORIENTATION,165,332,5
ACCELEROMETER,-0.6757634,4.401141,8.096592
MAGNETIC_FIELD,-6.205,-38.5,-29.113
GYROSCOPE,0.03848451,1.2562444,1.2944235
ORIENTATION,154,329,6
ACCELEROMETER,-0.7368156,4.295198,7.167641
MAGNETIC_FIELD,-11.306,-33.819,-30.308
GYROSCOPE,0.5195409,0.88178396,1.344209
ORIENTATION,142,327,356
ACCELEROMETER,0.5650316,4.8733974,7.5650787
MAGNETIC_FIELD,-15.454,-31.59,-30.308
GYROSCOPE,0.5635232,0.8417723,1.4419475
ORIENTATION,138,335,357
ACCELEROMETER,0.56982,5.133767,10.880449
MAGNETIC_FIELD,-17.863,-29.478,-31.556
GYROSCOPE,-0.46211955,1.2712106,1.3631458
ORIENTATION,107,324,358
ACCELEROMETER,0.23463176,5.530606,7.6470804
MAGNETIC_FIELD,-18.672,-22.912,-37.355
GYROSCOPE,0.6780604,0.79229224,1.0797043
ORIENTATION,94,331,347
ACCELEROMETER,1.7220296,4.1425676,7.410054
MAGNETIC_FIELD,-16.558,-19.49,-40.931
GYROSCOPE,-0.5852089,0.64965516,1.4416419
ORIENTATION,84,333,359
ACCELEROMETER,0.22984336,4.797382,9.297284
MAGNETIC_FIELD,-14.936,-15.028,-44.445
GYROSCOPE,0.2434298,0.21533,1.1252137
ORIENTATION,49,331,355
ACCELEROMETER,0.7116765,4.4023385,7.7649946
MAGNETIC_FIELD,-14.497,-11.665,-47.094
GYROSCOPE,0.21105394,0.8356637,0.7293731
ORIENTATION,49,328,2
ACCELEROMETER,-0.3309984,4.8374844,7.8308353
MAGNETIC_FIELD,-10.285,-9.255,-49.54
GYROSCOPE,-0.14660765,0.4184427,0.23365596
ORIENTATION,41,325,8
ACCELEROMETER,-1.067814,5.2875943,7.5525093
MAGNETIC_FIELD,-9.309,-5.88,-50.643
GYROSCOPE,0.7510588,0.03604105,0.7855727
ORIENTATION,26,339,356
ACCELEROMETER,0.6398504,3.696049,9.818023
MAGNETIC_FIELD,-6.202,-9.762,-51.351
GYROSCOPE,-0.33658674,0.4813618,0.7318166
ORIENTATION,28,331,3
ACCELEROMETER,-0.29448682,3.7163997,6.6870055
MAGNETIC_FIELD,2.503,-12.571,-51.351
GYROSCOPE,-0.48197266,1.1597277,-0.026267206
ORIENTATION,348,337,1
ACCELEROMETER,-0.16879122,4.423288,10.579977
MAGNETIC_FIELD,3.599,-12.571,-51.351
GYROSCOPE,0.3481932,0.47678033,0.26419923
ORIENTATION,4,326,5
ACCELEROMETER,-0.75477207,5.577293,8.128315
MAGNETIC_FIELD,1.025,-14.172,-51.028
GYROSCOPE,0.24556783,-0.57543504,-0.112704635
ORIENTATION,354,333,360
ACCELEROMETER,0.0077811554,4.1904516,8.2115135
MAGNETIC_FIELD,3.648,-21.636,-51.028
GYROSCOPE,-0.35796702,0.5363397,0.2312125
ORIENTATION,342,325,0
ACCELEROMETER,-0.016759412,5.4025164,7.856573
MAGNETIC_FIELD,5.16,-20.37,-52.969
GYROSCOPE,0.24495697,0.20158553,0.4202753
ORIENTATION,309,330,355
ACCELEROMETER,0.9840169,6.066907,10.58716
MAGNETIC_FIELD,5.596,-22.99,-51.661
GYROSCOPE,-0.4978552,0.18784106,-0.12339478
ORIENTATION,314,322,351
ACCELEROMETER,1.0582372,5.3606176,6.731298
MAGNETIC_FIELD,6.01,-25.299,-51.661
GYROSCOPE,0.08368854,0.3399465,-0.12767084
ORIENTATION,333,321,359
ACCELEROMETER,0.08259996,5.7395,7.0251865
MAGNETIC_FIELD,7.044,-26.896,-51.156
GYROSCOPE,0.3463606,-0.09193522,-0.16340645
ORIENTATION,332,314,357
ACCELEROMETER,0.34356794,7.948151,7.65127
MAGNETIC_FIELD,7.044,-28.814,-50.411
GYROSCOPE,0.364992,-0.3210097,0.45540005
ORIENTATION,337,313,360
ACCELEROMETER,0.022744916,7.3950906,6.985682
MAGNETIC_FIELD,7.044,-34.46,-46.914
GYROSCOPE,0.39095375,0.28955013,0.4071417
ORIENTATION,289,322,1
ACCELEROMETER,-0.14664486,5.3384714,6.7564373
MAGNETIC_FIELD,10.162,-31.947,-45.429
GYROSCOPE,0.3277292,0.31520647,0.3295618
ORIENTATION,284,320,355
ACCELEROMETER,0.7673417,7.064092,8.510789
MAGNETIC_FIELD,11.088,-31.947,-44.194
GYROSCOPE,-0.3145956,0.1563815,-0.03573562
ORIENTATION,269,322,347
ACCELEROMETER,1.6370354,5.8065376,7.2951326
MAGNETIC_FIELD,11.088,-31.947,-43.586
GYROSCOPE,0.2657264,0.070249505,0.42149702
ORIENTATION,274,324,8
ACCELEROMETER,-1.0875661,5.620987,7.6829934
MAGNETIC_FIELD,9.419,-29.307,-45.671
GYROSCOPE,0.61575216,-0.3378085,-0.2180789
ORIENTATION,323,315,0
ACCELEROMETER,-0.037708677,7.36217,7.2526355
MAGNETIC_FIELD,11.436,-30.409,-45.671
GYROSCOPE,0.15515977,-0.35521814,0.038789943
ORIENTATION,252,328,9
ACCELEROMETER,-1.1671734,4.381389,6.9970546
MAGNETIC_FIELD,11.436,-32.8,-43.406
GYROSCOPE,-0.37415496,0.57604593,0.2761111
ORIENTATION,265,323,353
ACCELEROMETER,1.0540473,6.133346,8.19236
MAGNETIC_FIELD,10.269,-29.612,-45.576
GYROSCOPE,0.21655174,-0.032986723,0.44073927
ORIENTATION,223,334,6
ACCELEROMETER,-0.9935937,4.9895163,10.1621895
MAGNETIC_FIELD,7.582,-29.612,-45.576
GYROSCOPE,-0.6414085,-0.016493361,-0.850019
ORIENTATION,266,327,354
ACCELEROMETER,0.8924387,5.1966147,8.020576
MAGNETIC_FIELD,10.047,-27.677,-46.64
GYROSCOPE,-0.40469822,0.09621128,-0.34422258
ORIENTATION,299,313,345
ACCELEROMETER,1.6172832,6.7360864,6.123171
MAGNETIC_FIELD,6.494,-28.028,-47.351
GYROSCOPE,0.6356053,-0.6203337,0.5748242
ORIENTATION,262,330,359
ACCELEROMETER,0.15682021,6.167464,10.860698
MAGNETIC_FIELD,4.17,-30.831,-45.932
GYROSCOPE,0.18325958,-0.21074851,-0.06261369
ORIENTATION,272,325,349
ACCELEROMETER,1.4059949,5.3941364,7.4992385
MAGNETIC_FIELD,2.59,-32.681,-44.657
GYROSCOPE,-0.51159966,-0.5403103,-0.030543262
ORIENTATION,259,325,355
ACCELEROMETER,0.6476316,5.786187,8.194156
MAGNETIC_FIELD,4.441,-30.78,-46.151
GYROSCOPE,0.31337386,0.07544186,-0.13194689
ORIENTATION,238,333,352
ACCELEROMETER,1.5628152,5.430648,10.477027
MAGNETIC_FIELD,3.555,-29.19,-45.428
GYROSCOPE,-0.25717425,-0.2510656,-0.27855456
ORIENTATION,267,327,349
ACCELEROMETER,1.3814543,4.863222,7.4202294
MAGNETIC_FIELD,2.569,-28.828,-46.426
GYROSCOPE,-0.45998153,-0.54244834,-0.30298916
ORIENTATION,265,329,356
ACCELEROMETER,0.57400984,4.865018,7.9289975
MAGNETIC_FIELD,3.309,-27.005,-49.014
GYROSCOPE,0.12339478,0.21197024,-0.08277224
ORIENTATION,310,323,354
ACCELEROMETER,1.1510124,7.7087307,10.250774
MAGNETIC_FIELD,5.618,-28.939,-50.637
GYROSCOPE,-0.18967366,-0.16523905,0.5662721
ORIENTATION,200,340,2
ACCELEROMETER,-0.30047232,2.9484594,8.258799
MAGNETIC_FIELD,8.334,-31.115,-49.27
GYROSCOPE,-0.20158553,0.5183192,-0.059864793
ORIENTATION,272,327,358
ACCELEROMETER,0.26156655,4.8602295,7.5602903
MAGNETIC_FIELD,9.109,-30.052,-49.27
GYROSCOPE,0.4111123,0.22327125,0.1704314
ORIENTATION,277,327,355
ACCELEROMETER,0.81522566,6.1112,9.204509
MAGNETIC_FIELD,8.261,-31.968,-46.961
GYROSCOPE,-0.20341812,-0.15302174,-0.058337633
ORIENTATION,268,326,354
ACCELEROMETER,0.8038532,5.019444,7.2610154
MAGNETIC_FIELD,7.0,-32.756,-46.058
GYROSCOPE,-0.32375857,0.10842858,-0.06566802
ORIENTATION,266,325,355
ACCELEROMETER,0.61770403,5.337274,7.5561004
MAGNETIC_FIELD,9.065,-31.047,-46.421
GYROSCOPE,0.06627888,0.28771752,-0.018020526
ORIENTATION,260,328,355
ACCELEROMETER,0.7080852,5.2983685,8.455123
MAGNETIC_FIELD,8.306,-30.21,-46.421
GYROSCOPE,0.34269542,-0.12156218,0.08124508
ORIENTATION,256,329,357
ACCELEROMETER,0.47046062,4.9733553,8.39886
MAGNETIC_FIELD,7.083,-30.59,-45.767
GYROSCOPE,-0.13775012,0.3857614,0.26419923
ORIENTATION,251,329,360
ACCELEROMETER,0.062249243,4.631583,7.6788034
MAGNETIC_FIELD,8.367,-29.043,-46.789
GYROSCOPE,0.37995818,-0.105068825,0.14477506
ORIENTATION,279,324,350
ACCELEROMETER,1.7405846,7.029975,9.502586
MAGNETIC_FIELD,7.902,-29.043,-46.789
GYROSCOPE,0.04428773,-0.11209377,0.1740966
ORIENTATION,261,330,352
ACCELEROMETER,1.1420342,4.6842556,7.9224133
MAGNETIC_FIELD,7.902,-30.198,-45.55
GYROSCOPE,0.22266038,0.30848694,-0.14874569
ORIENTATION,281,324,355
ACCELEROMETER,0.6027403,5.439626,7.354389
MAGNETIC_FIELD,8.753,-30.198,-44.845
GYROSCOPE,0.112704635,-0.312763,-0.28130344
ORIENTATION,253,329,360
ACCELEROMETER,0.046088383,5.8005524,9.635465
MAGNETIC_FIELD,8.753,-29.328,-43.988
GYROSCOPE,0.46822822,-0.39920044,-0.21471913
ORIENTATION,289,323,0
ACCELEROMETER,-0.037110128,5.37199,7.1634517
MAGNETIC_FIELD,9.127,-29.328,-41.642
GYROSCOPE,0.44318274,-0.4297437,0.38087448
ORIENTATION,286,322,359
ACCELEROMETER,0.073621705,5.1810527,6.5565214
MAGNETIC_FIELD,12.364,-26.0,-42.788
GYROSCOPE,0.103847094,0.20097467,0.32406402
ORIENTATION,282,325,357
ACCELEROMETER,0.46686932,6.2740054,8.82802
MAGNETIC_FIELD,12.67,-25.074,-42.788
GYROSCOPE,0.56382865,0.0143553335,-0.6392705
ORIENTATION,232,339,3
ACCELEROMETER,-0.49320555,3.7337575,9.92636
MAGNETIC_FIELD,13.233,-26.406,-39.84
GYROSCOPE,-0.7141015,0.03145956,-1.0839803
ORIENTATION,290,320,360
ACCELEROMETER,0.021547815,4.71957,5.7149596
MAGNETIC_FIELD,13.233,-22.262,-39.84
GYROSCOPE,0.10934488,0.08735373,0.051618114
ORIENTATION,301,317,356
ACCELEROMETER,0.521936,6.2554507,6.7839704
MAGNETIC_FIELD,11.738,-22.262,-38.587
GYROSCOPE,0.6392705,0.2098322,0.079107046
ORIENTATION,261,332,352
ACCELEROMETER,1.5921441,6.1662664,11.60709
MAGNETIC_FIELD,8.825,-22.262,-38.587
GYROSCOPE,0.021380283,-0.15668693,-0.5491679
ORIENTATION,271,328,350
ACCELEROMETER,1.2180501,4.417302,7.065888
MAGNETIC_FIELD,8.825,-21.379,-38.587
GYROSCOPE,0.1908954,-0.03970624,-0.61086524
ORIENTATION,282,327,355
ACCELEROMETER,0.6691794,4.736928,7.1969705
MAGNETIC_FIELD,8.049,-21.379,-38.107
GYROSCOPE,-0.21777347,-0.41172317,-1.2977833
ORIENTATION,256,334,357
ACCELEROMETER,0.47046062,4.510676,9.0794115
MAGNETIC_FIELD,8.049,-20.146,-38.555
GYROSCOPE,-0.03359759,-0.8127562,-1.8567249
ORIENTATION,267,333,358
ACCELEROMETER,0.25917232,4.745308,9.2787285
MAGNETIC_FIELD,7.223,-19.485,-38.555
GYROSCOPE,-0.3323107,-1.039998,-1.6905695
ORIENTATION,272,332,353
ACCELEROMETER,0.94092125,4.083311,7.554305
MAGNETIC_FIELD,5.789,-16.511,-39.793
GYROSCOPE,0.18234327,-1.0079277,-1.7889189
ORIENTATION,313,326,355
ACCELEROMETER,0.5823896,4.8739963,7.156269
MAGNETIC_FIELD,4.428,-14.266,-40.982
GYROSCOPE,0.6102544,-0.8921687,-1.3542882
ORIENTATION,228,345,1
ACCELEROMETER,-0.27952304,3.4859576,13.071743
MAGNETIC_FIELD,2.543,-14.793,-41.618
GYROSCOPE,-0.5323691,-0.8524625,-2.2064452
ORIENTATION,115,343,10
ACCELEROMETER,-1.6567876,3.004723,9.763555
MAGNETIC_FIELD,-1.753,-14.793,-41.618
GYROSCOPE,-0.37812558,-1.505172,-1.1881329
ORIENTATION,27,327,5
ACCELEROMETER,-0.6500258,5.2642508,8.230667
MAGNETIC_FIELD,-7.574,-13.951,-41.618
GYROSCOPE,0.10476339,-1.0848967,-0.9053023
ORIENTATION,36,329,359
ACCELEROMETER,0.15263036,5.90889,9.810242
MAGNETIC_FIELD,-10.894,-14.701,-41.067
GYROSCOPE,0.42210788,-0.5821546,-0.6374379
ORIENTATION,85,339,0
ACCELEROMETER,-0.019153614,3.4237084,8.893861
MAGNETIC_FIELD,-9.349,-19.039,-40.225
GYROSCOPE,-0.6762278,-0.20677789,-1.2666291
ORIENTATION,37,326,355
ACCELEROMETER,0.6871359,5.026028,7.3430166
MAGNETIC_FIELD,-8.047,-20.983,-40.225
GYROSCOPE,-0.089186326,-0.2489276,-0.17470746
ORIENTATION,90,332,2
ACCELEROMETER,-0.25498247,5.0960584,9.709685
MAGNETIC_FIELD,-9.274,-20.983,-40.225
GYROSCOPE,0.017104227,-0.43188173,-0.1777618
ORIENTATION,84,328,12
ACCELEROMETER,-1.6112977,4.766257,7.6003933
MAGNETIC_FIELD,-11.297,-21.607,-40.225
GYROSCOPE,0.15332718,-0.063224554,-0.15974127
ORIENTATION,55,323,359
ACCELEROMETER,0.11971009,5.5527525,7.268198
MAGNETIC_FIELD,-11.662,-22.563,-40.225
GYROSCOPE,0.28527406,-0.25045475,0.44929138
ORIENTATION,97,333,359
ACCELEROMETER,0.11731588,4.803367,9.269751
MAGNETIC_FIELD,-10.603,-21.58,-40.956
GYROSCOPE,0.3115413,0.0070249503,-0.058948494
ORIENTATION,72,329,356
ACCELEROMETER,0.55006784,4.4639893,7.5531077
MAGNETIC_FIELD,-9.982,-24.847,-40.956
GYROSCOPE,-0.112704635,-0.16249016,0.11484267
ORIENTATION,68,324,359
ACCELEROMETER,0.094570965,4.687248,6.5271926
MAGNETIC_FIELD,-9.228,-24.444,-43.164
GYROSCOPE,-0.16982053,0.1591304,-0.019547688
ORIENTATION,83,329,1
ACCELEROMETER,-0.24241292,5.6018333,9.27394
MAGNETIC_FIELD,-10.317,-24.444,-43.809
GYROSCOPE,0.027488936,-0.026267206,-0.08032878
ORIENTATION,100,333,11
ACCELEROMETER,-1.4083891,3.900753,7.5842323
MAGNETIC_FIELD,-11.079,-26.895,-42.991
GYROSCOPE,-0.061391957,0.23793201,0.36102137
ORIENTATION,111,334,4
ACCELEROMETER,-0.48482585,3.8624458,7.776367
MAGNETIC_FIELD,-8.604,-25.488,-43.635
GYROSCOPE,0.0033597588,0.5198463,0.053450707
ORIENTATION,68,326,359
ACCELEROMETER,0.14305355,5.6407394,8.421006
MAGNETIC_FIELD,-7.2,-23.606,-44.618
GYROSCOPE,0.36774087,0.09254608,0.046120327
ORIENTATION,40,327,356
ACCELEROMETER,0.4818331,4.8698063,7.368156
MAGNETIC_FIELD,-6.413,-24.697,-45.05
GYROSCOPE,-0.029932396,-0.0036651916,0.043982297
ORIENTATION,39,321,1
ACCELEROMETER,-0.1436521,4.969764,6.1225724
MAGNETIC_FIELD,-4.966,-24.697,-46.536
GYROSCOPE,0.19792034,0.35430184,0.12644911
ORIENTATION,20,326,357
ACCELEROMETER,0.5398925,6.384139,9.291298
MAGNETIC_FIELD,-4.449,-24.697,-48.483
GYROSCOPE,0.40194935,0.13255776,0.4370741
ORIENTATION,38,325,2
ACCELEROMETER,-0.26276365,5.4061074,7.645883
MAGNETIC_FIELD,-7.684,-28.46,-47.805
GYROSCOPE,-0.35521814,-0.052839845,0.08155051
ORIENTATION,45,323,358
ACCELEROMETER,0.24899697,5.1613,6.899491
MAGNETIC_FIELD,-4.881,-29.92,-48.487
GYROSCOPE,0.37110063,0.43890667,0.20219639
ORIENTATION,39,326,357
ACCELEROMETER,0.46806642,5.471948,8.067263
MAGNETIC_FIELD,-7.658,-31.518,-46.347
GYROSCOPE,-0.21594086,-0.18203785,-0.2941316
ORIENTATION,283,326,348
ACCELEROMETER,1.6430209,5.3743844,7.678205
MAGNETIC_FIELD,-11.428,-33.07,-43.82
GYROSCOPE,-0.015882496,-0.12339478,-0.0061086523
ORIENTATION,89,323,355
ACCELEROMETER,0.54049104,4.903325,6.5607114
MAGNETIC_FIELD,-12.533,-30.07,-44.152
GYROSCOPE,0.02565634,0.43004912,-0.10323623
ORIENTATION,91,326,359
ACCELEROMETER,0.23104046,6.451775,9.64564
MAGNETIC_FIELD,-10.131,-30.07,-46.589
GYROSCOPE,0.30634892,-0.086437434,0.28680122
ORIENTATION,98,329,0
ACCELEROMETER,-0.051475335,4.9661727,8.130709
MAGNETIC_FIELD,-10.131,-31.066,-44.694
GYROSCOPE,-0.12950343,-0.24831672,0.48716503
ORIENTATION,44,322,352
ACCELEROMETER,0.9367314,5.3540335,6.687604
MAGNETIC_FIELD,-9.075,-29.438,-45.054
GYROSCOPE,0.4810564,0.087659165,0.35918877
ORIENTATION,66,325,355
ACCELEROMETER,0.88286185,6.4990606,9.241618
MAGNETIC_FIELD,-9.739,-29.067,-44.529
GYROSCOPE,0.25137106,-0.008857546,-0.042760566
ORIENTATION,106,329,354
ACCELEROMETER,0.7733272,4.167108,6.821679
MAGNETIC_FIELD,-9.201,-30.989,-43.432
GYROSCOPE,0.2489276,0.14080444,-0.05222898
ORIENTATION,56,319,359
ACCELEROMETER,0.14604631,5.395334,6.1530986
MAGNETIC_FIELD,-7.392,-30.989,-43.432
GYROSCOPE,0.35124752,-0.28680122,0.23548855
ORIENTATION,39,318,357
ACCELEROMETER,0.40402153,7.5016327,8.230068
MAGNETIC_FIELD,-8.05,-30.989,-43.432
GYROSCOPE,0.19425514,-0.04734206,0.17531833
ORIENTATION,83,324,357
ACCELEROMETER,0.4405331,5.365406,7.3909006
MAGNETIC_FIELD,-8.05,-32.586,-41.781
GYROSCOPE,0.084910266,0.41599923,0.005497787
ORIENTATION,75,320,0
ACCELEROMETER,-0.02932897,5.395932,6.332065
MAGNETIC_FIELD,-5.67,-32.171,-42.904
GYROSCOPE,0.27916542,0.010995574,0.37934732
ORIENTATION,116,325,357
ACCELEROMETER,0.46148238,6.4787097,9.277532
MAGNETIC_FIELD,-6.706,-32.171,-41.575
GYROSCOPE,-0.5983425,-0.16646078,-0.46914452
ORIENTATION,121,326,359
ACCELEROMETER,0.16519992,4.697424,6.977901
MAGNETIC_FIELD,-5.642,-30.096,-42.61
GYROSCOPE,-0.1600467,0.17715092,-0.09987647
ORIENTATION,69,323,358
ACCELEROMETER,0.21068975,5.704784,7.555502
MAGNETIC_FIELD,-3.32,-28.378,-43.864
GYROSCOPE,0.15760323,0.047647487,0.021380283
ORIENTATION,18,322,358
ACCELEROMETER,0.30346507,6.25964,7.86615
MAGNETIC_FIELD,-3.32,-27.687,-44.822
GYROSCOPE,0.18997909,-0.40561453,0.18325958
ORIENTATION,169,331,356
ACCELEROMETER,0.6051345,5.269039,9.32781
MAGNETIC_FIELD,-1.412,-29.667,-44.111
GYROSCOPE,-0.1957823,0.20861048,0.5308419
ORIENTATION,322,321,354
ACCELEROMETER,0.7182605,5.3085437,6.588843
MAGNETIC_FIELD,-1.412,-28.756,-44.612
GYROSCOPE,0.53878313,-0.14813483,0.2864958
ORIENTATION,278,326,351
ACCELEROMETER,1.4101849,6.323685,9.352949
MAGNETIC_FIELD,-2.418,-30.899,-43.472
GYROSCOPE,-0.40622538,-0.076358154,-0.34513888
ORIENTATION,291,321,347
ACCELEROMETER,1.6394296,5.7903767,6.974908
MAGNETIC_FIELD,-2.928,-31.549,-42.051
GYROSCOPE,0.321926,-0.077579886,0.35002577
ORIENTATION,4,321,356
ACCELEROMETER,0.4830302,5.8161144,7.2191167
MAGNETIC_FIELD,-3.417,-31.198,-42.051
GYROSCOPE,0.3371976,-0.116675265,0.14172074
ORIENTATION,282,323,353
ACCELEROMETER,1.2677298,7.361572,9.688137
MAGNETIC_FIELD,-4.162,-32.133,-41.198
GYROSCOPE,-0.14508049,-0.124311075,0.32406402
ORIENTATION,208,329,350
ACCELEROMETER,1.4616601,4.969764,8.086416
MAGNETIC_FIELD,-8.065,-33.169,-39.038
GYROSCOPE,0.26267207,0.004886922,0.6417139
ORIENTATION,135,326,356
ACCELEROMETER,0.55605334,5.2917843,7.791331
MAGNETIC_FIELD,-9.854,-32.29,-40.235
GYROSCOPE,0.44959682,0.16890424,0.19150625
ORIENTATION,151,335,355
ACCELEROMETER,0.88944596,5.016451,10.66976
MAGNETIC_FIELD,-9.854,-34.738,-39.582
GYROSCOPE,0.03604105,-0.11026118,-0.69058317
ORIENTATION,102,321,355
ACCELEROMETER,0.60333884,5.2983685,6.427833
MAGNETIC_FIELD,-10.331,-39.033,-38.362
GYROSCOPE,0.25686884,-0.5314528,0.732122
ORIENTATION,143,329,360
ACCELEROMETER,0.011971008,5.4922986,9.060258
MAGNETIC_FIELD,-13.079,-41.416,-35.731
GYROSCOPE,0.17287487,0.10934488,0.7770206
ORIENTATION,155,346,3
ACCELEROMETER,-0.57041854,2.7042508,10.787674
MAGNETIC_FIELD,-17.315,-41.935,-32.771
GYROSCOPE,-0.66828656,0.3903429,1.1068878
ORIENTATION,145,336,0
ACCELEROMETER,-0.05686229,3.514688,8.049306
MAGNETIC_FIELD,-24.311,-37.426,-32.376
GYROSCOPE,0.46883908,0.4896085,1.6557503
ORIENTATION,119,326,357
ACCELEROMETER,0.40462008,5.3462524,7.9661074
MAGNETIC_FIELD,-29.859,-29.168,-35.418
GYROSCOPE,0.95203346,1.0054842,1.5143349
ORIENTATION,107,332,348
ACCELEROMETER,1.9979613,5.2241483,9.57561
MAGNETIC_FIELD,-30.59,-25.482,-37.527
GYROSCOPE,-0.0106901415,0.90010995,0.5830709
ORIENTATION,97,331,355
ACCELEROMETER,0.60932434,4.1611223,7.5531077
MAGNETIC_FIELD,-26.969,-24.716,-41.183
GYROSCOPE,-0.04642576,0.9437868,1.3405437
ORIENTATION,81,327,353
ACCELEROMETER,0.81761986,4.5394063,6.918046
MAGNETIC_FIELD,-20.188,-19.19,-46.984
GYROSCOPE,-1.2034045,1.2666291,0.6780604
ORIENTATION,92,339,357
ACCELEROMETER,0.4914099,4.2263646,10.9834
MAGNETIC_FIELD,-14.511,-13.453,-49.951
GYROSCOPE,0.5320636,0.7831292,1.0256428
ORIENTATION,54,334,359
ACCELEROMETER,0.2112883,4.2401314,8.786121
MAGNETIC_FIELD,-8.793,-11.791,-51.85
GYROSCOPE,-0.3830125,0.6246097,0.9080512
ORIENTATION,38,331,3
ACCELEROMETER,-0.36272156,4.2598834,7.6644382
MAGNETIC_FIELD,-1.487,-10.205,-53.263
GYROSCOPE,-0.2733622,0.8008443,0.47525316
ORIENTATION,5,322,1
ACCELEROMETER,-0.12749124,6.251859,7.9541364
MAGNETIC_FIELD,-1.129,-11.21,-52.699
GYROSCOPE,0.27183503,-0.027488936,0.68325275
ORIENTATION,331,339,353
ACCELEROMETER,1.2300211,4.2317514,10.752359
MAGNETIC_FIELD,0.569,-13.972,-50.334
GYROSCOPE,-0.017715093,0.462425,0.31337386
ORIENTATION,326,326,348
ACCELEROMETER,1.4191631,4.6579194,6.746262
MAGNETIC_FIELD,4.629,-18.453,-45.269
GYROSCOPE,0.0729984,0.95172805,0.6221663
ORIENTATION,344,328,3
ACCELEROMETER,-0.36511576,4.9853263,7.8589673
MAGNETIC_FIELD,6.314,-16.827,-44.68
GYROSCOPE,-0.21899518,0.36835176,-0.07666359
ORIENTATION,316,331,359
ACCELEROMETER,0.094570965,4.8422728,8.690353
MAGNETIC_FIELD,5.921,-14.782,-45.12
GYROSCOPE,0.49877146,0.040011674,0.35033122
ORIENTATION,306,336,359
ACCELEROMETER,0.13946225,3.9641995,8.861539
MAGNETIC_FIELD,5.273,-18.988,-45.12
GYROSCOPE,-0.33750305,0.31306845,0.12889257
ORIENTATION,310,330,358
ACCELEROMETER,0.3609259,4.8901567,8.402451
MAGNETIC_FIELD,7.217,-17.927,-45.12
GYROSCOPE,-0.040317107,0.21227567,0.23854288
ORIENTATION,293,331,352
ACCELEROMETER,1.3377602,5.2522798,9.289502
MAGNETIC_FIELD,6.246,-17.927,-44.816
GYROSCOPE,0.21746802,-0.076052725,-0.055588737
ORIENTATION,283,331,344
ACCELEROMETER,2.2200236,4.4675803,7.869741
MAGNETIC_FIELD,4.113,-19.903,-44.107
GYROSCOPE,0.04550946,-0.073303826,-0.3585779
ORIENTATION,317,325,355
ACCELEROMETER,0.6063316,4.982932,7.179612
MAGNETIC_FIELD,4.113,-18.431,-44.783
GYROSCOPE,0.22999077,-0.5006041,-0.3371976
ORIENTATION,356,327,4
ACCELEROMETER,-0.6560113,5.4725466,8.483853
MAGNETIC_FIELD,4.113,-17.156,-44.783
GYROSCOPE,0.3100141,-0.1826487,0.0580322
ORIENTATION,332,333,2
ACCELEROMETER,-0.2633622,4.246715,8.371326
MAGNETIC_FIELD,4.682,-17.974,-45.735
GYROSCOPE,0.22327125,0.24862215,1.1129965
ORIENTATION,316,329,356
ACCELEROMETER,0.48003745,4.311359,7.1448965
MAGNETIC_FIELD,7.427,-16.925,-49.383
GYROSCOPE,0.19425514,0.28252518,0.40561453
ORIENTATION,296,334,354
ACCELEROMETER,0.95827925,4.4562078,9.057265
MAGNETIC_FIELD,8.421,-20.59,-50.234
GYROSCOPE,0.008246681,0.13408493,-0.010079277
ORIENTATION,301,327,352
ACCELEROMETER,1.0366893,4.911106,7.4645224
MAGNETIC_FIELD,6.806,-24.247,-48.159
GYROSCOPE,0.98929626,0.183565,0.58368176
ORIENTATION,301,323,351
ACCELEROMETER,1.1330559,5.3881507,7.08983
MAGNETIC_FIELD,4.106,-23.371,-47.74
GYROSCOPE,-0.20189096,-1.4682146,-0.03390302
ORIENTATION,325,324,357
ACCELEROMETER,0.42796355,6.3631897,8.698134
MAGNETIC_FIELD,3.096,-22.592,-48.098
GYROSCOPE,0.7415904,0.116980694,0.38423425
ORIENTATION,317,329,358
ACCELEROMETER,0.32621,4.64535,7.650073
MAGNETIC_FIELD,3.096,-27.186,-45.951
GYROSCOPE,-0.5919284,0.2950479,0.32345316
ORIENTATION,270,329,356
ACCELEROMETER,0.57879823,4.6513352,7.7907324
MAGNETIC_FIELD,5.0,-24.545,-47.392
GYROSCOPE,0.34116822,0.17806722,0.364992
ORIENTATION,285,328,351
ACCELEROMETER,1.3006501,5.355231,8.6257105
MAGNETIC_FIELD,3.463,-24.545,-46.398
GYROSCOPE,0.07513642,-0.19211712,-0.09773844
ORIENTATION,280,328,345
ACCELEROMETER,1.8716671,4.6782703,7.176021
MAGNETIC_FIELD,2.88,-26.449,-45.777
GYROSCOPE,0.27885997,0.10170906,0.2929099
ORIENTATION,305,319,348
ACCELEROMETER,1.3425486,5.3618145,6.0806737
MAGNETIC_FIELD,-0.126,-25.453,-45.777
GYROSCOPE,-0.011911872,-0.926988,0.011301007
ORIENTATION,281,330,353
ACCELEROMETER,1.1312603,5.673061,9.631873
MAGNETIC_FIELD,-2.043,-24.026,-45.333
GYROSCOPE,0.13072516,-0.14966199,0.09743301
ORIENTATION,245,333,355
ACCELEROMETER,0.7745243,4.38917,8.6334915
MAGNETIC_FIELD,-2.462,-23.435,-44.938
GYROSCOPE,0.115453534,0.4792238,0.5494733
ORIENTATION,47,331,359
ACCELEROMETER,0.14305355,4.203021,7.5094137
MAGNETIC_FIELD,0.3,-21.099,-46.4
GYROSCOPE,0.33322698,-0.004886922,0.31245756
ORIENTATION,304,330,351
ACCELEROMETER,1.395221,5.427655,9.190144
MAGNETIC_FIELD,-0.155,-22.265,-46.4
GYROSCOPE,0.21380283,-0.09254608,-0.04642576
ORIENTATION,265,335,352
ACCELEROMETER,1.3138182,4.19524,8.796297
MAGNETIC_FIELD,-2.235,-26.509,-45.098
GYROSCOPE,-0.19272798,-0.17562376,-0.18295415
ORIENTATION,346,322,355
ACCELEROMETER,0.5410896,4.9081135,6.302736
MAGNETIC_FIELD,-1.705,-25.395,-44.598
GYROSCOPE,0.16829337,-0.36071593,-0.02321288
ORIENTATION,32,329,358
ACCELEROMETER,0.25198972,5.450999,9.239823
MAGNETIC_FIELD,0.164,-24.836,-44.215
GYROSCOPE,0.23487769,0.07849618,0.05497787
ORIENTATION,170,335,1
ACCELEROMETER,-0.17178397,4.2119994,9.0554695
MAGNETIC_FIELD,0.691,-25.653,-41.687
GYROSCOPE,-0.24220806,0.016493361,0.6960809
ORIENTATION,243,331,354
ACCELEROMETER,0.777517,3.9683893,7.1969705
MAGNETIC_FIELD,2.645,-20.944,-42.352
GYROSCOPE,0.28252518,0.13164146,0.15760323
ORIENTATION,249,336,357
ACCELEROMETER,0.49679685,4.221576,9.411008
MAGNETIC_FIELD,2.041,-19.874,-43.077
GYROSCOPE,0.059253927,-0.19975294,0.009468411
ORIENTATION,267,334,340
ACCELEROMETER,2.9011738,4.07134,8.024766
MAGNETIC_FIELD,2.041,-20.298,-43.942
GYROSCOPE,0.17837265,0.010995574,0.108123146
ORIENTATION,9,327,4
ACCELEROMETER,-0.5093664,4.6884456,7.258621
MAGNETIC_FIELD,2.041,-18.754,-45.112
GYROSCOPE,0.124311075,-0.3387248,-0.26236662
ORIENTATION,295,337,1
ACCELEROMETER,-0.1921347,4.183269,9.762956
MAGNETIC_FIELD,3.366,-17.359,-45.112
GYROSCOPE,0.23701571,0.024740042,0.14263703
ORIENTATION,321,335,1
ACCELEROMETER,-0.1364695,4.64535,9.969456
MAGNETIC_FIELD,3.009,-20.034,-45.112
GYROSCOPE,-0.37293324,0.31948254,1.0015136
ORIENTATION,245,338,359
ACCELEROMETER,0.16460137,3.177704,7.934983
MAGNETIC_FIELD,8.197,-16.589,-46.279
GYROSCOPE,0.40133846,0.28038713,0.040011674
ORIENTATION,288,337,0
ACCELEROMETER,-0.04070143,3.7020345,8.848371
MAGNETIC_FIELD,8.523,-20.147,-47.532
GYROSCOPE,0.17348573,-0.5558874,-0.12003502
ORIENTATION,273,334,346
ACCELEROMETER,1.9375077,3.863643,7.8368206
MAGNETIC_FIELD,9.336,-25.296,-46.173
GYROSCOPE,0.6096435,0.05681047,0.7266242
ORIENTATION,318,320,0
ACCELEROMETER,-0.031124622,5.149329,6.2129536
MAGNETIC_FIELD,9.761,-23.437,-46.173
GYROSCOPE,0.18845193,-0.116675265,-0.46731192
ORIENTATION,303,328,3
ACCELEROMETER,-0.50158525,5.5389857,8.903438
MAGNETIC_FIELD,10.72,-24.441,-45.245
GYROSCOPE,0.49510628,0.2843578,0.17012598
ORIENTATION,253,335,1
ACCELEROMETER,-0.15143326,4.1054573,8.835203
MAGNETIC_FIELD,11.781,-28.12,-41.787
GYROSCOPE,0.34147367,0.17592919,0.655153
ORIENTATION,251,331,359
ACCELEROMETER,0.07182605,4.1060557,7.303512
MAGNETIC_FIELD,11.781,-26.628,-39.732
GYROSCOPE,-0.06841691,-0.046731193,0.51343226
ORIENTATION,260,329,355
ACCELEROMETER,0.7422025,5.026028,8.256405
MAGNETIC_FIELD,10.903,-26.628,-36.63
GYROSCOPE,0.00580322,0.18295415,0.21991149
ORIENTATION,232,341,348
ACCELEROMETER,2.1033063,3.6954503,10.257957
MAGNETIC_FIELD,6.874,-28.242,-32.501
GYROSCOPE,-0.19120082,-0.12339478,-0.183565
ORIENTATION,274,317,351
ACCELEROMETER,0.87448215,5.394735,5.639542
MAGNETIC_FIELD,4.138,-24.781,-31.953
GYROSCOPE,-0.17287487,-0.51251596,-0.23854288
ORIENTATION,226,330,356
ACCELEROMETER,0.56563014,4.857237,8.564059
MAGNETIC_FIELD,5.519,-23.904,-31.581
GYROSCOPE,0.32986724,0.32406402,0.079107046
ORIENTATION,230,337,347
ACCELEROMETER,2.4983494,4.5256395,10.603321
MAGNETIC_FIELD,9.069,-23.904,-29.962
GYROSCOPE,0.14782938,0.40683624,0.2593123
ORIENTATION,251,327,336
ACCELEROMETER,2.7670987,4.4759603,6.2913637
MAGNETIC_FIELD,6.864,-28.451,-26.681
GYROSCOPE,0.34697145,0.31887165,-0.7110472
ORIENTATION,214,338,350
ACCELEROMETER,1.5993267,3.5122938,8.719084
MAGNETIC_FIELD,10.96,-27.488,-26.681
GYROSCOPE,-0.49357912,-0.38362336,-2.0018053
ORIENTATION,221,339,353
ACCELEROMETER,1.30484,3.9258924,9.995792
MAGNETIC_FIELD,16.006,-21.53,-30.334
GYROSCOPE,-0.21227567,-1.1337659,-2.3087652
ORIENTATION,254,332,5
ACCELEROMETER,-0.6733692,4.039018,7.4166384
MAGNETIC_FIELD,15.232,-13.81,-35.197
GYROSCOPE,-0.50885075,-1.6600263,-2.1276436
ORIENTATION,272,336,352
ACCELEROMETER,1.1288661,3.7295678,8.305486
MAGNETIC_FIELD,11.973,-2.83,-38.044
GYROSCOPE,-0.25442538,-0.4428773,-2.1154263
ORIENTATION,326,336,4
ACCELEROMETER,-0.5590461,3.4051533,7.5602903
MAGNETIC_FIELD,6.553,2.523,-38.044
GYROSCOPE,0.48655418,-0.35338554,-1.8054122
ORIENTATION,3,334,11
ACCELEROMETER,-1.7663223,4.2634745,8.752603
MAGNETIC_FIELD,2.493,1.016,-38.044
GYROSCOPE,0.25961772,-0.3998113,-0.8081747
ORIENTATION,357,347,3
ACCELEROMETER,-0.5955577,2.6767175,11.574768
MAGNETIC_FIELD,-1.564,-3.092,-36.97
GYROSCOPE,-0.83169305,-0.49968776,-1.3524556
ORIENTATION,13,333,3
ACCELEROMETER,-0.38367084,4.0623617,8.017583
MAGNETIC_FIELD,-5.358,0.082,-36.154
GYROSCOPE,-0.13805555,-0.75228053,-1.0461067
ORIENTATION,21,333,1
ACCELEROMETER,-0.2837129,5.6646814,11.282077
MAGNETIC_FIELD,-6.297,1.068,-36.454
GYROSCOPE,0.96669424,-0.29749137,-0.5109888
ORIENTATION,22,333,1
ACCELEROMETER,-0.1388637,4.292804,8.6017685
MAGNETIC_FIELD,-5.744,-3.436,-37.606
GYROSCOPE,0.9822713,-0.698219,-0.52473325
ORIENTATION,23,337,359
ACCELEROMETER,0.17836803,4.180875,9.675568
MAGNETIC_FIELD,-5.744,-12.4,-37.606
GYROSCOPE,-0.66645396,-0.90285885,0.043982297
ORIENTATION,34,320,6
ACCELEROMETER,-0.6697779,5.494693,6.495469
MAGNETIC_FIELD,-6.727,-9.169,-39.469
GYROSCOPE,0.59895337,-0.58368176,-0.52564955
ORIENTATION,55,337,4
ACCELEROMETER,-0.7757214,5.108628,12.2319765
MAGNETIC_FIELD,-5.329,-14.55,-39.469
GYROSCOPE,0.44043383,0.026572637,-0.42546764
ORIENTATION,50,334,0
ACCELEROMETER,-0.010773907,3.98874,8.059482
MAGNETIC_FIELD,-2.511,-18.69,-40.397
GYROSCOPE,-0.44135013,-0.09896017,-0.3136793
ORIENTATION,342,327,354
ACCELEROMETER,0.98700964,5.707777,8.722675
MAGNETIC_FIELD,-2.511,-19.851,-40.934
GYROSCOPE,0.9300423,-0.68508536,-0.23823744
ORIENTATION,112,337,6
ACCELEROMETER,-1.0546459,4.346673,10.338761
MAGNETIC_FIELD,-1.495,-24.476,-39.704
GYROSCOPE,-0.8900307,0.43799037,-0.39675698
ORIENTATION,38,327,359
ACCELEROMETER,0.18195933,5.015254,7.86196
MAGNETIC_FIELD,3.182,-27.026,-38.574
GYROSCOPE,-0.35521814,-0.19883664,0.014049901
ORIENTATION,343,321,3
ACCELEROMETER,-0.35793316,5.2199583,6.4350157
MAGNETIC_FIELD,-1.042,-25.553,-38.574
GYROSCOPE,0.5885687,-0.4859433,0.61422503
ORIENTATION,172,339,1
ACCELEROMETER,-0.11252748,4.7255554,12.250531
MAGNETIC_FIELD,-1.042,-26.858,-36.634
GYROSCOPE,-0.37873647,0.8026769,0.30543262
ORIENTATION,304,320,351
ACCELEROMETER,0.9020155,5.04997,5.8825536
MAGNETIC_FIELD,-6.756,-25.346,-36.634
GYROSCOPE,-0.04428773,-0.68477994,0.14508049
ORIENTATION,86,325,356
ACCELEROMETER,0.5494693,5.5497594,7.9822683
MAGNETIC_FIELD,-5.94,-23.526,-38.198
GYROSCOPE,0.33505958,0.45814893,-0.28985557
ORIENTATION,160,349,0
ACCELEROMETER,-0.0035913025,1.8860323,10.065224
MAGNETIC_FIELD,-7.234,-25.97,-36.865
GYROSCOPE,-0.61850107,0.070554934,-0.9266826
ORIENTATION,74,323,357
ACCELEROMETER,0.31603462,4.8219223,6.4248405
MAGNETIC_FIELD,-7.865,-24.064,-36.865
GYROSCOPE,-0.0290161,-0.25259277,-0.23487769
ORIENTATION,93,327,3
ACCELEROMETER,-0.52373165,5.6922145,8.798093
MAGNETIC_FIELD,-8.88,-21.873,-37.38
GYROSCOPE,0.6056729,0.087964594,0.017104227
ORIENTATION,139,350,6
ACCELEROMETER,-1.2431892,2.0626047,11.159973
MAGNETIC_FIELD,-6.706,-23.144,-37.38
GYROSCOPE,-0.743423,0.12186762,-0.73853606
ORIENTATION,62,324,359
ACCELEROMETER,0.108936176,5.213374,7.2107368
MAGNETIC_FIELD,-4.733,-21.859,-38.035
GYROSCOPE,0.1994475,-0.5363397,0.29168814
ORIENTATION,16,322,355
ACCELEROMETER,0.57400984,5.6281695,7.290344
MAGNETIC_FIELD,-2.471,-21.237,-39.236
GYROSCOPE,0.070554934,0.14874569,-0.1459968
ORIENTATION,185,343,355
ACCELEROMETER,0.830788,2.9789855,10.011953
MAGNETIC_FIELD,-2.471,-23.675,-38.551
GYROSCOPE,-0.38820487,-0.16798794,-0.34483343
ORIENTATION,137,332,360
ACCELEROMETER,0.026934769,4.6710877,8.637083
MAGNETIC_FIELD,-2.471,-21.096,-39.312
GYROSCOPE,-0.58062744,-0.4905248,-0.33444872
ORIENTATION,23,327,359
ACCELEROMETER,0.15622166,5.159505,7.86615
MAGNETIC_FIELD,-3.762,-19.804,-39.312
GYROSCOPE,0.636827,-0.28405234,0.18753563
ORIENTATION,136,345,7
ACCELEROMETER,-1.3748703,3.1094694,11.13603
MAGNETIC_FIELD,-1.824,-21.054,-39.312
GYROSCOPE,-0.27152961,0.1386664,-0.29168814
ORIENTATION,133,335,1
ACCELEROMETER,-0.17597382,4.076727,8.700529
MAGNETIC_FIELD,0.596,-19.818,-40.757
GYROSCOPE,0.069027774,0.1881465,0.13103059
ORIENTATION,76,333,4
ACCELEROMETER,-0.65780693,4.4873323,8.884284
MAGNETIC_FIELD,3.503,-21.997,-42.555
GYROSCOPE,0.05497787,0.16187929,-0.20066923
ORIENTATION,265,333,359
ACCELEROMETER,0.16879122,4.0414124,7.9547353
MAGNETIC_FIELD,6.208,-25.244,-41.159
GYROSCOPE,-0.54611355,0.035430185,-0.15363261
ORIENTATION,298,321,354
ACCELEROMETER,0.60333884,4.8177323,6.0142345
MAGNETIC_FIELD,8.232,-23.37,-41.159
GYROSCOPE,-0.004276057,0.1001819,0.09437868
ORIENTATION,219,338,4
ACCELEROMETER,-0.7302315,3.9977183,10.047267
MAGNETIC_FIELD,7.87,-23.37,-43.273
GYROSCOPE,0.6310238,-0.12095132,0.12980886
ORIENTATION,224,337,5
ACCELEROMETER,-0.75118077,3.8097734,8.965687
MAGNETIC_FIELD,9.58,-23.37,-42.64
GYROSCOPE,-0.45081854,-0.03145956,-0.021991149
ORIENTATION,228,342,359
ACCELEROMETER,0.18136078,3.1052797,9.77373
MAGNETIC_FIELD,3.504,-20.423,-44.973
GYROSCOPE,-0.8151997,-0.6985244,-0.9669997
ORIENTATION,25,318,13
ACCELEROMETER,-1.6394296,6.567894,7.132327
MAGNETIC_FIELD,-1.054,-17.153,-47.111
GYROSCOPE,0.3726278,-0.79259765,-0.015882496
ORIENTATION,289,334,344
ACCELEROMETER,2.2421699,3.8714242,7.790134
MAGNETIC_FIELD,0.939,-18.913,-48.246
GYROSCOPE,-0.55771995,0.21655174,-0.5900958
ORIENTATION,254,340,356
ACCELEROMETER,0.6991069,3.5661635,9.71986
MAGNETIC_FIELD,-3.016,-18.457,-47.352
GYROSCOPE,0.38453966,0.35827246,0.75502944
ORIENTATION,57,334,3
ACCELEROMETER,-0.3842694,3.1441853,6.5391636
MAGNETIC_FIELD,-0.494,-15.73,-52.394
GYROSCOPE,0.37720928,-0.08552113,0.7874053
ORIENTATION,59,341,3
ACCELEROMETER,-0.5446809,3.7187939,10.981605
MAGNETIC_FIELD,3.335,-23.294,-46.203
GYROSCOPE,-0.904386,0.75747293,-0.28160888
ORIENTATION,193,346,1
ACCELEROMETER,-0.17238252,2.52289,9.7563715
MAGNETIC_FIELD,-1.457,-24.092,-41.957
GYROSCOPE,-0.23518312,0.4905248,-0.2883284
ORIENTATION,127,335,5
ACCELEROMETER,-0.7080852,3.4943373,7.381324
MAGNETIC_FIELD,-7.783,-22.055,-39.939
GYROSCOPE,-0.8671232,0.12980886,-0.11942416
ORIENTATION,126,335,354
ACCELEROMETER,0.80445176,3.7942111,8.013991
MAGNETIC_FIELD,-8.323,-18.887,-42.279
GYROSCOPE,0.7855727,0.4813618,0.045814894
ORIENTATION,111,339,356
ACCELEROMETER,0.7140707,3.6206315,9.199121
MAGNETIC_FIELD,-11.079,-25.52,-38.891
GYROSCOPE,-0.36193767,-0.20372356,-0.7852673
ORIENTATION,99,329,2
ACCELEROMETER,-0.20829555,4.12102,6.8013287
MAGNETIC_FIELD,-8.912,-23.623,-41.697
GYROSCOPE,-0.077579886,0.21960606,-0.37110063
ORIENTATION,99,332,12
ACCELEROMETER,-1.8561049,4.7046065,8.702325
MAGNETIC_FIELD,-7.229,-23.623,-42.106
GYROSCOPE,0.24709499,0.5103779,0.18784106
ORIENTATION,112,335,3
ACCELEROMETER,-0.51954174,5.503671,11.746552
MAGNETIC_FIELD,-5.9,-26.966,-40.335
GYROSCOPE,0.40011674,0.06719518,0.27000242
ORIENTATION,115,328,357
ACCELEROMETER,0.4369418,4.9344497,8.009203
MAGNETIC_FIELD,-11.305,-30.154,-36.216
GYROSCOPE,-0.03634648,-0.9221011,0.41874814
ORIENTATION,92,321,352
ACCELEROMETER,1.0630256,5.747281,7.1425023
MAGNETIC_FIELD,-10.655,-26.634,-38.562
GYROSCOPE,0.8145888,0.6542367,0.47678033
ORIENTATION,136,337,357
ACCELEROMETER,0.54049104,4.720767,11.077971
MAGNETIC_FIELD,-15.051,-29.0,-36.705
GYROSCOPE,-0.41447207,-0.44715336,-0.86467975
ORIENTATION,108,328,358
ACCELEROMETER,0.24480712,5.0020857,7.8930845
MAGNETIC_FIELD,-14.613,-28.15,-39.248
GYROSCOPE,0.06994407,-1.1636983,0.017715093
ORIENTATION,106,330,7
ACCELEROMETER,-0.9840169,4.5280337,7.66384
MAGNETIC_FIELD,-14.613,-30.038,-39.659
GYROSCOPE,0.8051204,0.08460484,0.93523467
ORIENTATION,98,325,4
ACCELEROMETER,-0.770933,7.633912,10.912771
MAGNETIC_FIELD,-14.613,-34.239,-37.092
GYROSCOPE,0.35338554,0.8023715,1.8976529
ORIENTATION,133,333,0
ACCELEROMETER,-0.049679685,4.3275194,8.628104
MAGNETIC_FIELD,-24.519,-31.864,-33.676
GYROSCOPE,0.5534439,0.59131753,0.9443977
ORIENTATION,105,325,352
ACCELEROMETER,0.8948329,4.417302,6.2859764
MAGNETIC_FIELD,-28.749,-24.798,-34.468
GYROSCOPE,0.42394048,0.9254609,1.3637567
ORIENTATION,95,330,353
ACCELEROMETER,0.7212533,3.283049,5.5324016
MAGNETIC_FIELD,-21.571,-18.658,-43.063
GYROSCOPE,0.2275473,1.6771306,1.4462235
ORIENTATION,48,324,350
ACCELEROMETER,2.0207062,8.091205,10.913968
MAGNETIC_FIELD,-12.858,-16.452,-45.726
GYROSCOPE,-0.7318166,1.1933253,1.2308935
ORIENTATION,81,338,359
ACCELEROMETER,0.06823475,2.9322984,7.1963716
MAGNETIC_FIELD,-7.591,-8.181,-47.418
GYROSCOPE,-0.11759156,1.2431108,0.67011917
ORIENTATION,6,332,353
ACCELEROMETER,1.1294646,4.80636,8.939949
MAGNETIC_FIELD,2.424,-8.181,-47.418
GYROSCOPE,-0.00580322,1.1771374,1.7699821
ORIENTATION,352,334,1
ACCELEROMETER,-0.11432313,5.5222263,11.118672
MAGNETIC_FIELD,8.503,-9.637,-46.064
GYROSCOPE,0.8368854,0.1337795,0.86406887
ORIENTATION,317,333,357
ACCELEROMETER,0.39564183,3.3865983,6.7001734
MAGNETIC_FIELD,7.821,-14.488,-43.948
GYROSCOPE,-0.70096785,0.44929138,0.89888823
ORIENTATION,316,324,353
ACCELEROMETER,0.8463503,5.261258,7.2981253
MAGNETIC_FIELD,10.549,-15.057,-42.84
GYROSCOPE,-0.17440203,0.4202753,0.049785517
ORIENTATION,15,326,18
ACCELEROMETER,-2.6324248,5.761048,8.097789
MAGNETIC_FIELD,9.23,-14.614,-43.31
GYROSCOPE,0.18600847,0.13805555,-0.47983465
ORIENTATION,253,346,355
ACCELEROMETER,1.0893618,3.2609026,13.050195
MAGNETIC_FIELD,8.66,-12.799,-42.695
GYROSCOPE,-0.15302174,0.01863139,0.41783184
ORIENTATION,304,330,353
ACCELEROMETER,0.8858546,3.9504328,6.817489
MAGNETIC_FIELD,11.625,-15.653,-42.695
GYROSCOPE,-0.23884831,0.8943067,0.46670106
ORIENTATION,304,325,355
ACCELEROMETER,0.66020113,4.785411,6.863578
MAGNETIC_FIELD,13.197,-18.664,-43.103
GYROSCOPE,-0.01985312,0.589485,0.3839288
ORIENTATION,279,334,1
ACCELEROMETER,-0.14185645,5.5976434,11.52868
MAGNETIC_FIELD,12.719,-17.973,-44.685
GYROSCOPE,0.8585711,0.17104226,0.21319197
ORIENTATION,330,320,5
ACCELEROMETER,-0.52133745,5.4803276,6.5032506
MAGNETIC_FIELD,12.719,-24.314,-45.17
GYROSCOPE,-0.06505715,0.19425514,-0.039095376
ORIENTATION,302,323,360
ACCELEROMETER,0.004189853,5.2887917,6.9449806
MAGNETIC_FIELD,15.699,-28.378,-42.822
GYROSCOPE,0.07086037,0.26847526,0.21746802
ORIENTATION,258,330,4
ACCELEROMETER,-0.7398083,5.4378304,9.419388
MAGNETIC_FIELD,13.236,-28.378,-42.822
GYROSCOPE,-0.07147124,0.028710667,0.07452556
ORIENTATION,232,341,354
ACCELEROMETER,0.99419224,3.4087446,10.113707
MAGNETIC_FIELD,12.187,-30.67,-41.726
GYROSCOPE,-0.17256944,0.08277224,0.054061573
ORIENTATION,249,329,360
ACCELEROMETER,5.985504E-4,3.9618053,6.555324
MAGNETIC_FIELD,8.891,-29.768,-40.576
GYROSCOPE,0.01282817,-0.40561453,-0.33383787
ORIENTATION,231,330,4
ACCELEROMETER,-0.5686229,5.0960584,8.750807
MAGNETIC_FIELD,7.339,-28.321,-37.6
GYROSCOPE,0.27305678,0.096516706,-0.11453723
ORIENTATION,191,344,6
ACCELEROMETER,-1.287482,3.484162,12.49055
MAGNETIC_FIELD,6.427,-28.321,-34.233
GYROSCOPE,-0.11056661,0.33536503,0.19120082
ORIENTATION,207,333,2
ACCELEROMETER,-0.34955344,4.0306387,8.023568
MAGNETIC_FIELD,4.014,-26.139,-32.994
GYROSCOPE,-0.20647246,-0.062002823,0.19608775
ORIENTATION,233,326,359
ACCELEROMETER,0.15801731,4.811747,7.235876
MAGNETIC_FIELD,0.894,-22.991,-34.13
GYROSCOPE,0.13683382,-0.23793201,0.26145032
ORIENTATION,188,343,359
ACCELEROMETER,0.31364042,3.9600096,13.139977
MAGNETIC_FIELD,-2.912,-24.07,-31.988
GYROSCOPE,-0.75411314,-0.11148291,-0.14996742
ORIENTATION,190,330,353
ACCELEROMETER,0.9498995,4.663306,8.02297
MAGNETIC_FIELD,-5.41,-21.231,-31.271
GYROSCOPE,0.0036651916,0.06811147,-0.3594942
ORIENTATION,132,331,357
ACCELEROMETER,0.41060558,4.712986,8.604162
MAGNETIC_FIELD,-5.41,-20.687,-31.271
GYROSCOPE,0.50671273,-0.30726522,-0.42485678
ORIENTATION,58,321,0
ACCELEROMETER,-0.0017956513,5.9005103,7.392098
MAGNETIC_FIELD,-5.41,-21.391,-29.985
GYROSCOPE,0.14049901,-0.22418754,0.18081611
ORIENTATION,123,331,2
ACCELEROMETER,-0.2765303,4.8620253,8.701726
MAGNETIC_FIELD,-3.523,-20.874,-28.984
GYROSCOPE,-0.02107485,0.5751296,0.56688297
ORIENTATION,162,328,355
ACCELEROMETER,0.79248077,5.2522798,8.459313
MAGNETIC_FIELD,-1.565,-16.639,-31.372
GYROSCOPE,0.52656585,-0.12186762,0.4990769
ORIENTATION,17,329,358
ACCELEROMETER,0.28670564,5.4114943,9.044696
MAGNETIC_FIELD,-2.442,-15.733,-32.252
GYROSCOPE,-0.16890424,-0.4156938,-0.23762658
ORIENTATION,37,332,358
ACCELEROMETER,0.28550854,3.8283286,7.092224
MAGNETIC_FIELD,-1.309,-15.733,-32.614
GYROSCOPE,-0.1600467,0.15607607,0.04917465
ORIENTATION,36,329,2
ACCELEROMETER,-0.32022446,4.933253,8.061277
MAGNETIC_FIELD,0.225,-15.144,-34.745
GYROSCOPE,0.14996742,0.27885997,-0.026267206
ORIENTATION,91,336,5
ACCELEROMETER,-0.7679402,4.0186677,9.192537
MAGNETIC_FIELD,0.794,-14.677,-35.733
GYROSCOPE,0.5036584,0.07727446,0.2593123
ORIENTATION,20,325,6
ACCELEROMETER,-0.8230068,5.4378304,7.868544
MAGNETIC_FIELD,2.746,-16.461,-35.391
GYROSCOPE,-0.16707164,0.30115658,0.57604593
ORIENTATION,282,334,358
ACCELEROMETER,0.22625206,3.654749,7.431602
MAGNETIC_FIELD,4.652,-15.351,-37.828
GYROSCOPE,0.19028452,0.46181414,0.24770586
ORIENTATION,339,323,1
ACCELEROMETER,-0.094570965,5.6628857,7.4202294
MAGNETIC_FIELD,5.577,-16.484,-39.262
GYROSCOPE,-0.1386664,-0.05222898,-0.24770586
ORIENTATION,218,347,0
ACCELEROMETER,-0.007182605,2.5983074,11.249755
MAGNETIC_FIELD,4.635,-19.416,-39.262
GYROSCOPE,-0.3866777,-0.07819075,-0.6450737
ORIENTATION,295,328,354
ACCELEROMETER,0.78050977,4.836886,7.689577
MAGNETIC_FIELD,4.003,-19.416,-38.78
GYROSCOPE,-0.37201694,-0.5571091,-0.65026605
ORIENTATION,316,332,4
ACCELEROMETER,-0.587178,4.8045645,8.847174
MAGNETIC_FIELD,4.003,-19.058,-37.904
GYROSCOPE,0.47952923,0.01038471,-0.058337633
ORIENTATION,242,335,3
ACCELEROMETER,-0.6374562,5.33488,11.300034
MAGNETIC_FIELD,4.649,-19.058,-35.795
GYROSCOPE,-0.23487769,0.022602014,-0.6270532
ORIENTATION,173,338,8
ACCELEROMETER,-1.1438298,3.221997,7.961319
MAGNETIC_FIELD,5.677,-19.058,-34.178
GYROSCOPE,-0.015882496,-0.16371189,0.5131268
ORIENTATION,299,323,355
ACCELEROMETER,0.7727286,7.165247,9.64564
MAGNETIC_FIELD,6.956,-15.792,-35.305
GYROSCOPE,0.539394,-0.09560041,0.77213365
ORIENTATION,281,332,352
ACCELEROMETER,1.2503718,4.8243165,8.871116
MAGNETIC_FIELD,2.5,-16.758,-35.305
GYROSCOPE,0.18753563,-0.7449502,-0.025961773
ORIENTATION,288,330,350
ACCELEROMETER,1.395221,4.644751,7.856573
MAGNETIC_FIELD,1.44,-18.116,-34.899
GYROSCOPE,-0.30085114,-0.34972036,0.043982297
ORIENTATION,6,328,3
ACCELEROMETER,-0.34596214,4.301782,6.82946
MAGNETIC_FIELD,2.264,-16.477,-35.925
GYROSCOPE,0.22937989,-0.014049901,-0.5897904
ORIENTATION,336,329,1
ACCELEROMETER,-0.12449849,5.662287,9.567828
MAGNETIC_FIELD,4.248,-16.477,-36.437
GYROSCOPE,0.1151481,0.024740042,0.08827003
ORIENTATION,297,334,4
ACCELEROMETER,-0.57400984,4.404134,9.1590185
MAGNETIC_FIELD,4.248,-16.477,-35.47
GYROSCOPE,-0.20708331,0.11759156,0.35460728
ORIENTATION,296,331,358
ACCELEROMETER,0.29987377,4.0282445,7.243657
MAGNETIC_FIELD,6.526,-14.291,-37.109
GYROSCOPE,0.25137106,0.35643986,0.21197024
ORIENTATION,311,332,2
ACCELEROMETER,-0.2621651,4.9494133,9.411607
MAGNETIC_FIELD,7.112,-14.291,-38.42
GYROSCOPE,-0.035124753,-0.17348573,-0.10323623
ORIENTATION,277,335,346
ACCELEROMETER,2.019509,3.9636009,8.336012
MAGNETIC_FIELD,6.596,-16.11,-40.373
GYROSCOPE,0.087659165,-0.3115413,-0.037873644
ORIENTATION,319,325,357
ACCELEROMETER,0.3477578,5.0344076,7.1221514
MAGNETIC_FIELD,6.596,-17.054,-41.883
GYROSCOPE,0.16676621,-0.22296582,-0.27916542
ORIENTATION,318,332,3
ACCELEROMETER,-0.52492875,4.731541,8.9519205
MAGNETIC_FIELD,8.277,-17.054,-42.253
GYROSCOPE,0.56291234,0.016798794,-0.07727446
ORIENTATION,100,339,14
ACCELEROMETER,-2.195483,3.4021606,8.548497
MAGNETIC_FIELD,10.192,-19.57,-39.862
GYROSCOPE,-0.8136725,-0.043676864,-0.4196644
ORIENTATION,292,327,356
ACCELEROMETER,0.44711718,4.6686935,7.123947
MAGNETIC_FIELD,14.195,-18.373,-39.035
GYROSCOPE,-0.07727446,0.7333437,0.52473325
ORIENTATION,289,327,357
ACCELEROMETER,0.44532153,5.1702785,7.8691425
MAGNETIC_FIELD,15.065,-17.749,-37.834
GYROSCOPE,0.6533204,0.11789699,0.36865717
ORIENTATION,250,344,352
ACCELEROMETER,1.7226281,3.4620156,12.197859
MAGNETIC_FIELD,13.487,-20.259,-36.592
GYROSCOPE,-1.2507466,-0.29535335,-1.3988814
ORIENTATION,265,331,347
ACCELEROMETER,1.7304093,4.276643,7.5722613
MAGNETIC_FIELD,13.487,-17.63,-37.237
GYROSCOPE,0.16371189,-0.7351763,-0.26297748
ORIENTATION,265,336,359
ACCELEROMETER,0.2124854,4.050989,9.236232
MAGNETIC_FIELD,15.223,-15.185,-37.237
GYROSCOPE,-0.58551437,0.19914207,-0.3659083
ORIENTATION,305,325,3
ACCELEROMETER,-0.37948096,6.0597243,8.531737
MAGNETIC_FIELD,19.496,-12.165,-36.511
GYROSCOPE,-0.098043874,0.453262,0.0
ORIENTATION,259,347,3
ACCELEROMETER,-0.59256494,2.6527755,11.349713
MAGNETIC_FIELD,20.317,-15.492,-32.061
GYROSCOPE,0.93492925,0.41141775,0.0018325958
ORIENTATION,256,342,346
ACCELEROMETER,2.345719,3.0556,9.291897
MAGNETIC_FIELD,18.818,-13.05,-30.407
GYROSCOPE,-0.4914411,-0.9419542,-1.1838568
ORIENTATION,271,333,349
ACCELEROMETER,1.6992847,4.778228,9.0842
MAGNETIC_FIELD,13.69,-9.764,-31.578
GYROSCOPE,-0.38423425,-1.0812315,-1.8912388
ORIENTATION,265,345,359
ACCELEROMETER,0.17118542,2.6497827,9.79827
MAGNETIC_FIELD,10.52,-0.471,-32.82
GYROSCOPE,0.1441642,-0.50488013,-1.9031507
ORIENTATION,300,351,4
ACCELEROMETER,-0.4985925,1.3383588,8.067862
MAGNETIC_FIELD,4.928,-0.471,-32.015
GYROSCOPE,0.75777835,-0.47433686,-1.5683966
ORIENTATION,339,335,0
ACCELEROMETER,-0.009576807,3.7618895,8.112154
MAGNETIC_FIELD,1.524,-2.879,-30.511
GYROSCOPE,-0.56138515,-1.2608259,-0.7846564
ORIENTATION,1,335,3
ACCELEROMETER,-0.4914099,4.119224,8.765172
MAGNETIC_FIELD,-0.682,-3.678,-29.714
GYROSCOPE,-0.6731735,-0.2959642,-0.48533243
ORIENTATION,8,333,1
ACCELEROMETER,-0.2789245,5.4911017,10.973225
MAGNETIC_FIELD,0.326,-3.1,-30.2
GYROSCOPE,0.0106901415,0.13530666,0.47769663
ORIENTATION,36,342,9
ACCELEROMETER,-1.4407109,2.9442697,9.130887
MAGNETIC_FIELD,1.576,-6.953,-29.434
GYROSCOPE,0.32345316,-0.36926803,-0.042455133
ORIENTATION,325,328,350
ACCELEROMETER,1.4101849,5.0996494,8.040926
MAGNETIC_FIELD,5.215,-10.656,-27.084
GYROSCOPE,0.11026118,0.73823065,-0.15118915
ORIENTATION,274,337,356
ACCELEROMETER,0.6811504,4.1659107,9.944916
MAGNETIC_FIELD,5.215,-11.251,-25.198
GYROSCOPE,0.32895094,-0.4016439,-0.9486737
ORIENTATION,273,335,355
ACCELEROMETER,0.7338228,3.7086184,7.7823524
MAGNETIC_FIELD,5.215,-13.096,-22.744
GYROSCOPE,-0.16768251,-0.8732319,-1.0268645
ORIENTATION,327,315,2
ACCELEROMETER,-0.17776948,5.5862713,5.599439
MAGNETIC_FIELD,6.829,-10.65,-22.389
GYROSCOPE,-0.03970624,-0.093767814,-0.9126327
ORIENTATION,290,331,5
ACCELEROMETER,-0.8343793,5.245097,9.441534
MAGNETIC_FIELD,6.829,-10.65,-21.757
GYROSCOPE,-0.020463986,-0.0580322,-1.0311406
ORIENTATION,183,351,16
ACCELEROMETER,-3.0783448,1.7555484,10.469246
MAGNETIC_FIELD,8.207,-4.972,-22.502
GYROSCOPE,-0.51893,0.16920967,-1.1771374
ORIENTATION,307,333,1
ACCELEROMETER,-0.16998832,4.2491093,8.267179
MAGNETIC_FIELD,8.207,-2.723,-20.671
GYROSCOPE,-0.02076942,0.312763,-0.4288274
ORIENTATION,303,334,356
ACCELEROMETER,0.6739678,4.587889,9.519944
MAGNETIC_FIELD,5.101,-1.266,-20.181
GYROSCOPE,0.23884831,-0.48288897,-0.4810564
ORIENTATION,316,343,1
ACCELEROMETER,-0.2100912,3.120842,10.1143055
MAGNETIC_FIELD,1.335,-1.266,-19.491
GYROSCOPE,-0.7165449,-0.81489426,-2.1810944
ORIENTATION,11,342,7
ACCELEROMETER,-1.0546459,2.9149406,9.003994
MAGNETIC_FIELD,-0.543,-1.853,-19.491
GYROSCOPE,-0.089186326,-0.46822822,-1.6319265
ORIENTATION,17,329,6
ACCELEROMETER,-0.9888053,5.5982423,9.213487
MAGNETIC_FIELD,-1.631,-4.362,-20.57
GYROSCOPE,-0.03023783,-0.5742133,-0.66737026
ORIENTATION,37,335,5
ACCELEROMETER,-0.80445176,4.213795,9.033323
MAGNETIC_FIELD,-0.172,-8.378,-21.952
GYROSCOPE,-0.0571159,-0.31978795,-0.6218608
ORIENTATION,51,334,6
ACCELEROMETER,-0.83856916,4.1299977,8.569447
MAGNETIC_FIELD,2.304,-11.703,-23.78
GYROSCOPE,-0.09621128,-0.09590584,0.07788532
ORIENTATION,224,337,2
ACCELEROMETER,-0.26635495,3.6373909,8.717887
MAGNETIC_FIELD,4.203,-11.329,-26.826
GYROSCOPE,-0.021991149,-0.35033122,-0.073303826
ORIENTATION,218,345,2
ACCELEROMETER,-0.3537433,2.5037365,9.412804
MAGNETIC_FIELD,3.7,-12.631,-29.202
GYROSCOPE,0.8222246,-0.47861293,-0.22204952
ORIENTATION,230,344,358
ACCELEROMETER,0.27473465,2.7210102,9.213487
MAGNETIC_FIELD,4.476,-16.372,-29.945
GYROSCOPE,-0.79901177,0.27488935,-0.0720821
ORIENTATION,184,344,8
ACCELEROMETER,-1.0522517,2.236783,7.9289975
MAGNETIC_FIELD,6.109,-15.965,-32.876
GYROSCOPE,0.37415496,-0.13530666,0.28924468
ORIENTATION,292,331,3
ACCELEROMETER,-0.42796355,5.044583,9.257181
MAGNETIC_FIELD,6.109,-13.725,-35.893
GYROSCOPE,1.1178834,0.5235115,1.0338894
ORIENTATION,308,335,4
ACCELEROMETER,-0.49440265,3.8265328,8.077438
MAGNETIC_FIELD,1.484,-22.283,-33.209
GYROSCOPE,-0.19730948,-0.13500121,1.3084733
ORIENTATION,193,332,1
ACCELEROMETER,-0.12808979,3.8600516,7.1263413
MAGNETIC_FIELD,1.484,-22.283,-34.744
GYROSCOPE,0.06963864,1.0943651,0.44135013
ORIENTATION,290,323,351
ACCELEROMETER,1.0749966,5.1158104,6.7869635
MAGNETIC_FIELD,0.456,-22.283,-35.124
GYROSCOPE,1.3811663,0.35918877,0.569021
ORIENTATION,204,342,353
ACCELEROMETER,1.2228385,3.41892,10.31901
MAGNETIC_FIELD,-4.306,-27.613,-30.554
GYROSCOPE,-1.0509937,-0.1731803,-1.3396275
ORIENTATION,149,336,7
ACCELEROMETER,-1.0546459,3.928885,8.76637
MAGNETIC_FIELD,-4.306,-25.679,-33.236
GYROSCOPE,-0.13164146,-0.18967366,-0.38728857
ORIENTATION,103,324,4
ACCELEROMETER,-0.5919664,5.5521536,7.654263
MAGNETIC_FIELD,-3.99,-23.542,-35.324
GYROSCOPE,0.11026118,-0.6469063,0.65393126
ORIENTATION,149,340,4
ACCELEROMETER,-0.6667852,3.645172,10.219051
MAGNETIC_FIELD,-6.184,-25.735,-33.242
GYROSCOPE,0.28496864,0.52106804,0.3744604
ORIENTATION,140,331,358
ACCELEROMETER,0.26515785,4.578911,8.202535
MAGNETIC_FIELD,-5.079,-26.658,-34.15
GYROSCOPE,-0.1853976,0.6649268,0.5867361
ORIENTATION,159,333,357
ACCELEROMETER,0.51235914,4.361038,8.400655
MAGNETIC_FIELD,-3.23,-26.301,-34.15
GYROSCOPE,0.10323623,0.6575964,0.022907447
ORIENTATION,187,336,353
ACCELEROMETER,1.4209588,4.794389,10.848128
MAGNETIC_FIELD,-0.794,-26.301,-34.15
GYROSCOPE,-0.6585127,0.12675454,-0.6401868
ORIENTATION,184,338,357
ACCELEROMETER,0.4381389,3.6248214,8.860342
MAGNETIC_FIELD,2.328,-24.778,-35.4
GYROSCOPE,-0.6377433,-0.31581733,-0.84238315
ORIENTATION,152,330,7
ACCELEROMETER,-0.9391256,4.23235,7.4058642
MAGNETIC_FIELD,5.603,-21.452,-36.544
GYROSCOPE,0.48563787,-0.41691554,-0.39767328
ORIENTATION,315,325,3
ACCELEROMETER,-0.49200845,5.832874,8.364143
MAGNETIC_FIELD,9.458,-21.452,-37.055
GYROSCOPE,0.14019357,0.09407325,0.66156703
ORIENTATION,232,341,359
ACCELEROMETER,0.19153613,3.928885,11.168352
MAGNETIC_FIELD,12.225,-23.591,-34.916
GYROSCOPE,-0.41783184,0.26175576,0.094989546
ORIENTATION,242,336,355
ACCELEROMETER,0.736217,3.4464533,7.8368206
MAGNETIC_FIELD,13.494,-22.087,-34.437
GYROSCOPE,0.50823987,-0.13408493,-0.01863139
ORIENTATION,256,332,354
ACCELEROMETER,0.8936358,4.4981065,8.572439
MAGNETIC_FIELD,16.241,-23.353,-31.874
GYROSCOPE,-0.03940081,-0.18967366,-0.37843102
ORIENTATION,256,329,346
ACCELEROMETER,1.769315,4.4364557,7.111976
MAGNETIC_FIELD,19.752,-22.499,-30.285
GYROSCOPE,0.12980886,0.044593163,-0.6630942
ORIENTATION,262,329,7
ACCELEROMETER,-0.9660604,4.6142254,7.529764
MAGNETIC_FIELD,20.448,-17.289,-31.394
GYROSCOPE,-0.2669481,-0.3924809,-0.63285637
ORIENTATION,258,338,1
ACCELEROMETER,-0.10295067,3.7086184,9.366715
MAGNETIC_FIELD,22.055,-10.868,-31.735
GYROSCOPE,0.1591304,-0.06872234,0.56230146
ORIENTATION,271,343,15
ACCELEROMETER,-2.408567,2.8431146,9.027936
MAGNETIC_FIELD,23.307,-8.421,-30.726
GYROSCOPE,-0.09315695,0.40133846,0.77213365
ORIENTATION,288,328,357
ACCELEROMETER,0.4369418,4.618415,7.469909
MAGNETIC_FIELD,23.307,-8.421,-28.819
GYROSCOPE,-0.23365596,0.36987892,0.5873469
ORIENTATION,268,344,355
ACCELEROMETER,0.7846996,2.3343468,8.331821
MAGNETIC_FIELD,23.307,-4.118,-27.934
GYROSCOPE,0.40469822,0.03176499,-0.15577064
ORIENTATION,272,349,355
ACCELEROMETER,0.8822633,2.0009542,9.993997
MAGNETIC_FIELD,22.483,-0.239,-28.285
GYROSCOPE,0.110872045,-0.118507855,-0.537256
ORIENTATION,298,335,0
ACCELEROMETER,-0.015562311,3.3135753,7.1466923
MAGNETIC_FIELD,19.715,4.525,-28.948
GYROSCOPE,-0.33750305,-0.21899518,-0.4361578
ORIENTATION,310,338,3
ACCELEROMETER,-0.5554548,3.9665937,10.02572
MAGNETIC_FIELD,17.257,9.094,-28.948
GYROSCOPE,0.7086037,0.021380283,0.1731803
ORIENTATION,318,347,6
ACCELEROMETER,-1.364695,2.759916,12.100894
MAGNETIC_FIELD,17.257,14.122,-27.433
GYROSCOPE,0.23365596,0.61636305,-0.24587326
ORIENTATION,326,337,3
ACCELEROMETER,-0.4369418,3.5128925,8.455722
MAGNETIC_FIELD,15.325,14.93,-29.692
GYROSCOPE,-0.12308934,-0.25870144,0.13622294
ORIENTATION,322,341,354
ACCELEROMETER,0.8535329,2.9586349,8.58022
MAGNETIC_FIELD,10.313,14.93,-31.755
GYROSCOPE,-0.21533,-0.269697,-0.32528573
ORIENTATION,329,341,353
ACCELEROMETER,1.2312182,3.465607,10.062231
MAGNETIC_FIELD,4.069,14.399,-33.921
GYROSCOPE,-0.66675943,-0.7281514,-0.61391956
ORIENTATION,342,340,353
ACCELEROMETER,0.9331401,2.8628666,7.8769236
MAGNETIC_FIELD,-1.033,15.979,-34.924
GYROSCOPE,0.033292156,-0.38606682,-0.7461719
ORIENTATION,8,334,5
ACCELEROMETER,-0.7433996,3.8474822,7.9421654
MAGNETIC_FIELD,-6.941,14.851,-34.269
GYROSCOPE,-0.66981375,0.09437868,-0.32284227
ORIENTATION,19,344,2
ACCELEROMETER,-0.35793316,3.3692403,11.678916
MAGNETIC_FIELD,-10.119,12.893,-35.127
GYROSCOPE,0.4633413,-0.33536503,0.7309003
ORIENTATION,23,339,1
ACCELEROMETER,-0.092775315,3.2992098,8.723274
MAGNETIC_FIELD,-7.734,11.376,-36.819
GYROSCOPE,0.3323107,-0.060170226,1.0598512
ORIENTATION,353,335,343
ACCELEROMETER,1.8513165,2.9933507,6.095039
MAGNETIC_FIELD,-6.817,4.617,-38.61
GYROSCOPE,0.9575313,0.5311473,0.9092729
ORIENTATION,16,330,360
ACCELEROMETER,0.02813187,3.6792896,6.275801
MAGNETIC_FIELD,-9.002,-2.102,-38.236
GYROSCOPE,0.023518313,0.012217305,-0.92149025
ORIENTATION,40,339,1
ACCELEROMETER,-0.16160862,4.9135003,13.018472
MAGNETIC_FIELD,-8.377,-8.009,-37.719
GYROSCOPE,-1.4318681,0.42943826,-1.1749994
ORIENTATION,53,345,353
ACCELEROMETER,1.2850877,2.7275944,9.797672
MAGNETIC_FIELD,-5.929,-0.35,-39.677
GYROSCOPE,-0.6921103,0.21563543,-1.6297885
ORIENTATION,41,337,10
ACCELEROMETER,-1.2677298,3.0759506,6.9796963
MAGNETIC_FIELD,-10.13,-1.885,-37.948
GYROSCOPE,2.0928242,-0.73884153,-0.3313944
ORIENTATION,27,328,359
ACCELEROMETER,0.17597382,4.869208,7.9068513
MAGNETIC_FIELD,-7.96,-13.725,-37.26
GYROSCOPE,0.4792238,0.915687,-0.29901853
ORIENTATION,11,326,351
ACCELEROMETER,1.146224,4.9063177,7.1622543
MAGNETIC_FIELD,-6.883,-21.452,-36.131
GYROSCOPE,0.10751228,0.57940567,-0.24495697
ORIENTATION,114,334,0
ACCELEROMETER,-0.049679685,4.4119153,8.895058
MAGNETIC_FIELD,-7.575,-24.407,-34.814
GYROSCOPE,-0.025045475,-0.57543504,-0.8167268
ORIENTATION,101,327,5
ACCELEROMETER,-0.65421563,5.2439003,8.124125
MAGNETIC_FIELD,-9.503,-26.133,-33.792
GYROSCOPE,0.3555236,-0.51068336,-0.5861252
ORIENTATION,110,327,2
ACCELEROMETER,-0.30885202,4.9182887,7.639898
MAGNETIC_FIELD,-8.41,-31.251,-32.678
GYROSCOPE,0.32467487,-0.4352415,-0.47678033
