Type;Accuracy mean;Total Accuracy Error Rate;Total Accuracy Correct Rate;Precision mean;Recall mean;Fmeasure
kNN - All;81.73212;73.07151;26.92849;0.2405675;0.247105;0.2233635
SVM r - All;81.67176;73.31295;26.68705;0.2343821;0.2430945;0.2159404
