type;am;tae;tac;pm;rm;fm
kA;81.73212;73.07151;26.92849;0.2405675;0.247105;0.2233635
kI;78.87324;84.50704;15.49296;0.1911847;0.1789824;0.1374528
kL;82.52184;69.91262;30.08738;0.2623091;0.2757751;0.247585
kS;82.67147;69.31411;30.68589;0.2606076;0.2804083;0.2425181
sA;81.67176;73.31295;26.68705;0.2343821;0.2430945;0.2159404
sI;79.54135;81.8346;18.1654;0.1795359;0.2082333;0.1668411
sL;81.58485;73.66061;26.33939;0.2418678;0.2436662;0.2212676
sS;82.09616;71.61536;28.38464;0.2628265;0.264388;0.2360534
